102	448
102	458
103	364
104	483
104	728
105	426
105	430
105	435
105	442
105	477
105	489
105	504
105	713
105	719
105	739
106	358
106	373
106	525
107	323
107	338
107	346
107	367
107	413
107	467
107	568
107	586
107	592
107	627
107	708
108	353
108	384
108	394
108	401
108	447
108	458
108	515
108	521
108	530
108	563
108	579
108	640
108	693
108	725
109	318
109	329
109	333
109	423
109	452
109	510
109	535
109	540
109	547
109	556
109	574
109	589
109	605
109	634
109	669
109	674
109	686
109	702
109	744
110	362
110	372
110	378
110	407
110	417
110	429
110	437
110	474
110	482
110	492
110	500
110	597
110	609
110	654
110	663
110	680
110	714
110	732
110	753
111	287
111	443
111	486
111	584
111	615
111	649
111	737
112	185
112	250
112	323
112	356
112	391
112	399
112	464
112	505
112	515
112	527
112	644
112	697
112	709
112	720
113	213
113	257
113	343
113	349
113	383
113	450
113	457
113	520
113	544
113	552
113	568
113	627
114	164
114	190
114	222
114	264
114	280
114	300
114	329
114	411
114	469
114	484
114	496
114	532
114	539
114	557
114	562
114	577
114	592
114	600
114	605
114	637
114	673
114	684
114	691
114	742
114	748
115	178
115	194
115	216
115	271
115	477
115	491
115	509
115	547
115	587
115	620
115	632
115	654
115	660
115	667
115	677
115	702
115	762
116	171
116	200
116	290
116	305
116	311
116	318
116	335
116	361
116	376
116	396
116	418
116	426
116	432
116	438
116	444
116	571
116	715
116	721
116	733
116	754
116	770
117	249
117	296
117	503
117	515
117	525
117	582
117	615
117	647
117	798
118	209
118	244
118	323
118	341
118	354
118	368
118	389
118	404
118	414
118	452
118	462
118	487
118	497
118	542
118	554
118	576
118	596
118	609
118	625
118	695
118	726
118	775
119	187
119	193
119	221
119	252
119	259
119	275
119	383
119	409
119	467
119	519
119	535
119	559
119	566
119	640
119	680
119	738
119	743
119	750
119	804
120	166
120	234
120	266
120	283
120	329
120	422
120	428
120	473
120	480
120	492
120	509
120	590
120	602
120	656
120	663
120	669
120	675
120	689
120	702
120	710
120	732
120	785
121	303
121	315
121	337
121	365
121	371
121	434
121	441
121	447
121	458
121	548
121	571
121	619
121	635
121	652
121	716
121	757
121	763
121	810
122	160
122	174
122	229
122	248
122	291
122	309
122	350
122	358
122	399
122	502
122	514
122	525
122	555
122	583
122	646
122	722
122	782
122	792
123	180
123	199
123	263
123	380
123	387
123	462
123	541
123	561
123	577
123	607
123	614
123	629
123	683
123	695
123	727
123	769
123	816
123	828
124	242
124	318
124	324
124	344
124	405
124	412
124	429
124	451
124	469
124	489
124	496
124	529
124	545
124	567
124	624
124	639
124	658
124	671
124	738
124	748
124	797
124	803
125	233
125	277
125	284
125	296
125	418
125	424
125	478
125	483
125	518
125	589
125	595
125	601
125	633
125	665
125	678
125	706
125	711
125	758
125	776
125	821
126	208
126	216
126	269
126	305
126	352
126	374
126	439
126	445
126	508
126	534
126	551
126	571
126	689
126	701
126	718
126	732
126	743
126	754
126	764
126	784
127	170
127	187
127	226
127	257
127	329
127	337
127	362
127	396
127	458
127	524
127	582
127	611
127	619
127	643
127	649
127	809
127	826
128	177
128	294
128	347
128	369
128	385
128	392
128	407
128	435
128	464
128	503
128	514
128	540
128	562
128	576
128	627
128	654
128	683
129	220
129	246
129	250
129	415
129	474
129	480
129	486
129	557
129	605
129	661
129	672
129	694
129	705
129	726
129	737
129	781
129	792
129	798
130	162
130	192
130	239
130	266
130	274
130	308
130	324
130	341
130	428
130	450
130	496
130	519
130	530
130	567
130	587
130	593
130	599
130	633
130	639
130	666
130	713
130	749
130	769
130	815
131	200
131	231
131	300
131	316
131	380
131	402
131	440
131	535
131	546
131	687
131	731
131	755
131	760
131	786
131	821
132	281
132	333
132	359
132	373
132	422
132	433
132	457
132	468
132	508
132	551
132	572
132	614
132	646
132	651
132	677
132	719
132	804
133	184
133	214
133	257
133	289
133	326
133	351
133	388
133	445
133	524
133	541
133	608
133	657
133	699
133	743
133	776
133	792
133	810
133	828
134	164
134	175
134	224
134	245
134	270
134	366
134	382
134	411
134	417
134	428
134	473
134	478
134	483
134	489
134	514
134	556
134	562
134	577
134	584
134	604
134	619
134	624
134	630
134	663
134	669
134	682
134	726
134	819
135	202
135	217
135	322
135	338
135	345
135	395
135	406
135	462
135	501
135	531
135	642
135	693
135	711
135	750
135	758
135	766
135	814
136	195
136	209
136	314
136	452
136	495
136	520
136	569
136	590
136	595
136	612
136	636
136	648
136	675
136	704
136	736
136	782
136	798
137	239
137	253
137	275
137	295
137	308
137	371
137	377
137	419
137	439
137	468
137	536
137	546
137	552
137	653
137	687
137	772
137	805
137	822
138	168
138	178
138	189
138	234
138	265
138	284
138	302
138	332
138	354
138	401
138	425
138	433
138	505
138	510
138	574
138	606
138	721
138	731
138	743
138	787
139	349
139	361
139	384
139	391
139	412
139	446
139	475
139	525
139	542
139	559
139	600
139	616
139	622
139	627
139	633
139	659
139	665
139	681
139	698
139	709
139	828
140	220
140	228
140	290
140	319
140	344
140	458
140	480
140	486
140	493
140	498
140	515
140	565
140	579
140	585
140	638
140	644
140	671
140	794
140	809
141	172
141	184
141	202
141	212
141	259
141	272
141	328
141	365
141	397
141	406
141	442
141	531
141	548
141	592
141	649
141	682
141	691
141	715
141	725
141	738
141	748
141	754
141	762
141	769
141	776
141	800
141	816
142	163
142	247
142	306
142	337
142	372
142	462
142	504
142	521
142	570
142	596
142	611
142	676
142	702
142	782
143	225
143	278
143	314
143	353
143	380
143	423
143	429
143	470
143	510
143	537
143	552
143	561
143	604
143	635
143	686
143	788
143	823
144	193
144	231
144	239
144	256
144	285
144	299
144	333
144	387
144	401
144	416
144	437
144	448
144	495
144	527
144	576
144	581
144	619
144	625
144	655
144	661
144	666
144	697
144	711
144	720
144	742
144	805
145	175
145	188
145	262
145	293
145	393
145	410
145	477
145	482
145	488
145	516
145	542
145	557
145	567
145	587
145	615
145	630
145	644
145	671
145	680
145	705
146	322
146	341
146	348
146	361
146	368
146	459
146	465
146	501
146	548
146	593
146	600
146	691
146	715
146	725
146	736
146	752
146	757
146	763
146	793
146	812
146	829
147	200
147	208
147	219
147	225
147	267
147	329
147	404
147	432
147	453
147	506
147	533
147	638
147	647
147	745
147	771
147	777
147	783
147	799
147	818
148	167
148	185
148	213
148	280
148	303
148	376
148	398
148	420
148	426
148	470
148	522
148	552
148	562
148	572
148	605
148	663
148	675
148	701
149	180
149	250
149	297
149	310
149	316
149	337
149	354
149	372
149	383
149	414
149	448
149	479
149	543
149	578
149	583
149	611
149	617
149	658
149	685
149	694
149	739
149	790
149	806
149	823
150	159
150	237
150	288
150	366
150	390
150	490
150	512
150	589
150	622
150	627
150	632
150	652
150	669
150	710
150	720
150	730
151	191
151	229
151	257
151	408
151	455
151	495
151	502
151	518
151	529
151	557
151	567
151	597
151	638
151	679
151	749
151	754
151	766
151	780
151	795
151	818
151	830
152	173
152	209
152	220
152	271
152	325
152	342
152	350
152	402
152	423
152	429
152	437
152	442
152	465
152	538
152	548
152	575
152	601
152	688
152	705
152	715
152	736
152	760
152	773
152	786
152	801
152	811
153	203
153	253
153	277
153	306
153	332
153	360
153	378
153	460
153	476
153	509
153	523
153	533
153	562
153	607
153	647
153	663
153	683
153	725
154	179
154	196
154	244
154	283
154	300
154	312
154	319
154	398
154	418
154	513
154	570
154	579
154	586
154	593
154	613
154	619
154	629
154	658
154	673
154	699
154	745
155	165
155	215
155	234
155	294
155	338
155	373
155	384
155	469
155	481
155	487
155	493
155	528
155	543
155	552
155	624
155	635
155	653
155	694
155	790
155	805
155	825
156	184
156	257
156	354
156	406
156	447
156	598
156	603
156	667
156	678
156	709
156	720
156	730
156	739
156	816
157	158
157	207
157	266
157	327
157	347
157	366
157	391
157	400
157	415
157	440
157	465
157	498
157	504
157	519
157	537
157	558
157	565
157	574
157	643
157	705
157	749
157	755
157	770
157	775
157	797
157	828
158	173
158	220
158	228
158	308
158	324
158	360
158	421
158	428
158	434
158	454
158	508
158	548
158	588
158	609
158	615
158	650
158	661
158	688
158	743
158	780
158	786
158	811
159	192
159	201
159	214
159	246
159	280
159	290
159	314
159	333
159	376
159	410
159	476
159	484
159	514
159	541
159	569
159	621
159	633
159	638
159	655
159	716
159	724
159	735
159	765
160	185
160	272
160	340
160	384
160	396
160	460
160	490
160	530
160	579
160	592
160	626
160	666
160	671
160	677
160	681
160	822
161	167
161	178
161	232
161	240
161	253
161	371
161	404
161	470
161	480
161	600
161	605
161	698
161	753
161	759
161	791
161	806
162	225
162	297
162	329
162	345
162	351
162	357
162	389
162	438
162	443
162	450
162	494
162	499
162	537
162	545
162	560
162	587
162	617
162	635
162	693
162	703
162	711
162	729
162	770
162	778
162	816
163	198
163	207
163	260
163	288
163	320
163	365
163	400
163	414
163	419
163	425
163	432
163	466
163	505
163	511
163	517
163	523
163	565
163	597
163	611
163	631
163	641
163	646
163	652
163	657
163	686
163	722
163	738
163	747
163	784
163	796
163	827
164	172
164	183
164	219
164	267
164	304
164	310
164	381
164	456
164	475
164	484
164	551
164	569
164	576
164	583
164	622
164	663
164	674
164	810
165	191
165	279
165	335
165	394
165	460
165	490
165	532
165	555
165	591
165	705
165	733
165	764
165	805
165	821
166	240
166	245
166	316
166	354
166	374
166	409
166	435
166	470
166	541
166	561
166	601
166	607
166	616
166	680
166	716
166	750
166	782
167	165
167	214
167	222
167	230
167	255
167	284
167	300
167	323
167	342
167	369
167	387
167	440
167	447
167	481
167	495
167	502
167	507
167	513
167	519
167	526
167	572
167	586
167	627
167	635
167	643
167	649
167	690
167	694
167	701
167	743
167	775
167	788
167	814
168	176
168	271
168	309
168	363
168	405
168	418
168	426
168	454
168	536
168	546
168	654
168	659
168	664
168	737
168	798
169	251
169	296
169	329
169	397
169	465
169	475
169	486
169	552
169	566
169	581
169	596
169	612
169	670
169	711
169	720
169	755
169	760
169	768
170	188
170	196
170	209
170	277
170	379
170	392
170	590
170	603
170	676
170	808
170	826
171	161
171	172
171	218
171	243
171	258
171	290
171	318
171	335
171	352
171	365
171	401
171	437
171	516
171	532
171	541
171	576
171	617
171	623
171	627
171	640
171	646
171	680
171	698
171	704
171	731
171	747
171	792
171	820
172	203
172	228
172	236
172	306
172	346
172	359
172	373
172	415
172	421
172	431
172	444
172	450
172	459
172	470
172	481
172	491
172	499
172	505
172	510
172	522
172	561
172	572
172	585
172	608
172	634
172	655
172	682
172	687
172	692
172	725
172	780
172	785
172	803
172	831
173	166
173	264
173	283
173	300
173	328
173	340
173	385
173	407
173	538
173	547
173	599
173	661
173	714
173	741
173	773
173	797
174	174
174	221
174	269
174	378
174	397
174	475
174	486
174	552
174	566
174	580
174	594
174	613
174	666
174	672
174	708
174	736
174	756
174	813
175	239
175	246
175	295
175	303
175	331
175	412
175	464
175	507
175	529
175	556
175	677
175	703
175	719
175	729
175	750
175	769
175	808
175	824
176	180
176	193
176	200
176	214
176	231
176	254
176	278
176	315
176	403
176	424
176	430
176	435
176	441
176	447
176	501
176	514
176	519
176	542
176	589
176	619
176	625
176	639
176	647
176	683
176	775
177	186
177	210
177	289
177	320
177	343
177	349
177	355
177	361
177	367
177	373
177	392
177	417
177	469
177	480
177	496
177	524
177	534
177	561
177	575
177	598
177	633
177	689
177	694
177	699
177	745
177	782
177	787
177	794
177	818
178	226
178	306
178	336
178	382
178	452
178	458
178	548
178	570
178	652
178	712
178	760
178	764
178	801
179	260
179	300
179	388
179	475
179	485
179	511
179	538
179	553
179	580
179	608
179	628
179	643
179	662
179	667
179	673
179	706
179	719
179	733
179	829
180	253
180	273
180	282
180	330
180	377
180	396
180	408
180	446
180	463
180	490
180	506
180	565
180	603
180	613
180	623
180	679
180	804
180	822
181	163
181	171
181	234
181	295
181	317
181	340
181	346
181	402
181	413
181	421
181	427
181	433
181	499
181	516
181	529
181	543
181	558
181	586
181	592
181	637
181	647
181	656
181	696
181	700
181	725
181	748
181	754
181	772
182	183
182	191
182	207
182	220
182	229
182	242
182	248
182	310
182	323
182	352
182	358
182	364
182	370
182	440
182	480
182	534
182	574
182	597
182	618
182	685
182	692
182	714
182	778
182	786
182	798
183	178
183	199
183	277
183	458
183	469
183	494
183	525
183	548
183	563
183	632
183	663
183	668
183	675
183	738
183	743
183	766
183	791
183	815
184	335
184	392
184	510
184	539
184	552
184	567
184	582
184	627
184	643
184	652
184	682
184	703
184	709
184	719
184	759
184	810
185	258
185	264
185	290
185	300
185	367
185	374
185	381
185	387
185	399
185	450
185	474
185	485
185	505
185	520
185	586
185	593
185	613
185	657
185	731
185	753
185	775
185	827
186	159
186	167
186	214
186	244
186	271
186	306
186	320
186	342
186	348
186	405
186	417
186	428
186	436
186	442
186	464
186	530
186	544
186	559
186	573
186	622
186	636
186	647
186	678
186	687
186	695
186	725
186	747
186	787
186	802
186	821
187	177
187	188
187	206
187	222
187	231
187	239
187	252
187	284
187	325
187	354
187	411
187	453
187	479
187	489
187	500
187	515
187	524
187	597
187	606
187	631
187	665
187	672
187	734
187	771
187	780
188	295
188	330
188	362
188	385
188	390
188	469
188	535
188	549
188	564
188	578
188	584
188	641
188	762
188	797
189	180
189	194
189	261
189	314
189	379
189	445
189	459
189	484
189	495
189	510
189	554
189	568
189	589
189	610
189	626
189	656
189	661
189	679
189	683
189	704
189	719
189	740
189	757
189	814
190	256
190	275
190	289
190	338
190	371
190	400
190	415
190	438
190	451
190	505
190	519
190	540
190	559
190	573
190	602
190	615
190	636
190	651
190	692
190	698
190	709
190	729
190	774
190	807
191	164
191	200
191	268
191	300
191	344
191	421
191	427
191	433
191	465
191	474
191	515
191	530
191	545
191	646
191	676
191	790
191	823
192	216
192	228
192	294
192	320
192	327
192	350
192	357
192	367
192	406
192	455
192	490
192	500
192	564
192	578
192	606
192	621
192	670
192	714
192	724
192	746
192	767
192	783
192	794
192	801
193	171
193	211
193	235
193	241
193	249
193	282
193	309
193	333
193	394
193	469
193	480
193	510
193	523
193	536
193	550
193	585
193	596
193	611
193	631
193	640
193	659
193	665
193	686
193	706
193	818
194	176
194	184
194	191
194	222
194	263
194	362
194	412
194	447
194	519
194	569
194	591
194	625
194	654
194	680
194	701
194	719
194	755
194	762
194	811
195	197
195	276
195	289
195	302
195	370
195	377
195	389
195	403
195	418
195	442
195	485
195	494
195	505
195	542
195	554
195	560
195	581
195	616
195	634
195	650
195	695
195	731
195	736
195	740
195	750
195	778
195	786
196	316
196	341
196	384
196	408
196	424
196	430
196	436
196	460
196	475
196	490
196	500
196	514
196	528
196	533
196	573
196	601
196	644
196	674
196	709
196	773
196	805
196	828
197	163
197	205
197	225
197	231
197	251
197	269
197	322
197	329
197	359
197	465
197	547
197	564
197	606
197	620
197	629
197	669
197	690
197	715
197	725
197	766
197	799
198	238
198	245
198	283
198	346
198	352
198	399
198	481
198	509
198	523
198	538
198	556
198	577
198	597
198	638
198	653
198	664
198	703
198	744
198	815
198	823
199	173
199	210
199	216
199	297
199	381
199	392
199	414
199	455
199	470
199	505
199	518
199	552
199	569
199	585
199	590
199	611
199	625
199	657
199	684
199	697
199	754
199	782
199	792
200	186
200	194
200	260
200	288
200	387
200	420
200	440
200	446
200	492
200	533
200	561
200	580
200	634
200	643
200	648
200	678
200	693
200	719
200	730
200	809
201	180
201	301
201	310
201	337
201	341
201	356
201	374
201	404
201	409
201	427
201	433
201	460
201	476
201	487
201	500
201	514
201	527
201	545
201	602
201	616
201	672
201	709
201	739
201	749
201	771
201	775
201	805
202	158
202	224
202	234
202	241
202	265
202	273
202	317
202	350
202	362
202	378
202	450
202	522
202	565
202	575
202	593
202	607
202	628
202	661
202	689
202	796
202	819
202	827
203	167
203	200
203	246
203	255
203	278
203	295
203	322
203	330
203	369
203	397
203	444
203	466
203	481
203	509
203	537
203	555
203	598
203	620
203	652
203	701
203	715
203	725
203	734
203	760
203	764
203	813
204	210
204	285
204	381
204	391
204	415
204	471
204	489
204	505
204	532
204	550
204	570
204	583
204	588
204	612
204	639
204	647
204	668
204	675
204	695
204	779
205	175
205	189
205	218
205	346
205	422
205	439
205	455
205	499
205	517
205	560
205	603
205	615
205	625
205	633
205	720
205	743
205	790
205	800
206	230
206	267
206	290
206	374
206	386
206	403
206	409
206	428
206	449
206	476
206	485
206	494
206	513
206	526
206	540
206	578
206	592
206	642
206	658
206	685
206	728
206	738
206	808
207	197
207	205
207	273
207	307
207	319
207	341
207	359
207	365
207	433
207	462
207	536
207	546
207	555
207	567
207	607
207	629
207	679
207	710
207	748
207	756
207	768
207	776
207	783
207	825
208	170
208	182
208	223
208	237
208	244
208	279
208	299
208	326
208	351
208	397
208	443
208	471
208	481
208	508
208	521
208	587
208	598
208	619
208	692
208	705
208	724
208	763
209	163
209	251
209	257
209	293
209	368
209	459
209	502
209	516
209	530
209	551
209	563
209	571
209	582
209	594
209	603
209	612
209	646
209	655
209	673
209	696
209	714
209	733
209	794
209	812
209	818
210	263
210	286
210	311
210	332
210	419
210	425
210	437
210	477
210	490
210	496
210	538
210	543
210	624
210	634
210	662
210	668
210	787
210	800
210	805
211	176
211	185
211	198
211	207
211	216
211	346
211	375
211	392
211	407
211	413
211	452
211	464
211	511
211	526
211	558
211	575
211	591
211	607
211	641
211	701
211	710
211	719
211	728
211	738
211	747
211	772
211	828
212	194
212	227
212	338
212	357
212	364
212	385
212	402
212	431
212	447
212	485
212	506
212	546
212	567
212	586
212	598
212	637
212	657
212	678
212	682
212	687
212	759
212	781
213	170
213	222
213	237
213	248
213	275
213	305
213	316
213	469
213	480
213	520
213	533
213	620
213	629
213	651
213	692
213	707
213	732
213	767
213	821
214	161
214	180
214	257
214	293
214	311
214	328
214	351
214	370
214	380
214	442
214	456
214	495
214	500
214	542
214	563
214	572
214	580
214	604
214	612
214	644
214	666
214	673
214	723
214	742
214	796
214	803
214	809
214	815
215	211
215	281
215	300
215	333
215	341
215	395
215	422
215	427
215	450
215	461
215	515
215	524
215	529
215	551
215	590
215	634
215	717
215	753
215	827
216	197
216	203
216	232
216	390
216	400
216	405
216	411
216	417
216	436
216	474
216	484
216	489
216	511
216	537
216	558
216	575
216	625
216	639
216	648
216	662
216	695
216	711
216	787
217	174
217	182
217	188
217	269
217	286
217	325
217	347
217	374
217	505
217	533
217	567
217	585
217	598
217	607
217	676
217	681
217	689
217	702
217	728
217	736
217	747
217	762
217	779
218	166
218	216
218	226
218	262
218	362
218	385
218	414
218	431
218	447
218	479
218	520
218	545
218	579
218	594
218	621
218	629
218	643
218	651
218	657
218	670
218	722
218	794
218	806
218	812
218	822
219	239
219	293
219	306
219	311
219	336
219	368
219	380
219	425
219	455
219	460
219	465
219	470
219	493
219	514
219	563
219	571
219	602
219	611
219	634
219	706
219	716
219	751
219	767
219	774
220	158
220	210
220	250
220	343
220	356
220	397
220	409
220	420
220	440
220	476
220	498
220	523
220	528
220	541
220	550
220	588
220	617
220	666
220	741
221	179
221	233
221	300
221	389
221	404
221	434
221	451
221	481
221	487
221	510
221	536
221	575
221	584
221	597
221	638
221	646
221	685
221	690
221	726
221	777
222	193
222	198
222	257
222	270
222	316
222	322
222	331
222	360
222	370
222	401
222	503
222	545
222	558
222	567
222	613
222	630
222	674
222	680
222	695
222	700
222	735
222	745
222	770
222	789
222	816
222	821
222	827
223	172
223	184
223	206
223	227
223	265
223	278
223	288
223	349
223	429
223	446
223	467
223	493
223	518
223	532
223	553
223	579
223	592
223	607
223	635
223	643
223	655
223	663
223	669
223	721
223	756
223	784
223	796
223	802
224	213
224	221
224	311
224	340
224	356
224	366
224	384
224	395
224	412
224	423
224	455
224	473
224	513
224	528
224	541
224	561
224	570
224	601
224	625
224	683
224	706
224	730
224	740
224	808
225	165
225	239
225	252
225	294
225	305
225	379
225	407
225	417
225	439
225	478
225	484
225	488
225	500
225	522
225	549
225	617
225	652
225	659
225	677
225	688
225	715
225	751
225	765
226	243
226	283
226	299
226	335
226	433
226	451
226	465
226	508
226	537
226	544
226	557
226	565
226	583
226	590
226	596
226	605
226	639
226	647
226	693
226	726
226	759
226	774
226	779
227	179
227	188
227	195
227	202
227	232
227	270
227	391
227	401
227	460
227	470
227	495
227	519
227	531
227	612
227	621
227	630
227	667
227	672
227	698
227	710
227	734
227	744
227	754
227	792
227	824
227	830
228	225
228	255
228	261
228	330
228	360
228	370
228	411
228	427
228	444
228	512
228	553
228	561
228	570
228	579
228	635
228	643
228	679
228	702
228	719
228	786
228	798
228	805
228	811
228	817
229	170
229	209
229	266
229	289
229	315
229	324
229	351
229	381
229	422
229	438
229	481
229	486
229	491
229	525
229	540
229	626
229	662
229	684
229	729
230	163
230	248
230	276
230	296
230	310
230	340
230	376
230	396
230	406
230	431
230	456
230	475
230	500
230	548
230	556
230	565
230	587
230	608
230	617
230	639
230	648
230	656
230	670
230	690
230	714
230	739
230	750
230	760
230	764
230	769
230	802
231	184
231	215
231	222
231	241
231	283
231	347
231	356
231	366
231	416
231	451
231	461
231	466
231	494
231	508
231	522
231	535
231	544
231	574
231	594
231	598
231	604
231	630
231	652
231	665
231	675
231	704
231	709
231	724
231	776
231	781
231	789
231	822
232	191
232	198
232	205
232	272
232	318
232	390
232	426
232	441
232	471
232	503
232	517
232	552
232	581
232	613
232	642
232	662
232	681
232	734
232	744
232	755
232	794
232	807
233	176
233	328
233	335
233	379
233	385
233	401
233	411
233	448
233	479
233	484
233	489
233	512
233	525
233	530
233	561
233	569
233	624
233	635
233	718
233	785
234	233
234	252
234	259
234	293
234	306
234	360
234	372
234	421
234	435
234	454
234	539
234	548
234	586
234	591
234	617
234	647
234	691
234	697
234	713
234	728
234	738
234	761
234	812
234	827
235	169
235	226
235	267
235	279
235	287
235	299
235	323
235	352
235	430
235	459
235	465
235	475
235	499
235	521
235	556
235	572
235	576
235	596
235	601
235	607
235	655
235	659
235	667
235	671
235	703
235	767
235	779
235	797
236	163
236	212
236	218
236	237
236	339
236	346
236	367
236	395
236	405
236	469
236	493
236	516
236	535
236	543
236	564
236	620
236	631
236	639
236	664
236	676
236	706
236	732
236	773
236	789
236	803
237	180
237	187
237	195
237	200
237	245
237	273
237	310
237	316
237	334
237	389
237	415
237	425
237	439
237	445
237	489
237	503
237	530
237	551
237	560
237	569
237	581
237	611
237	616
237	643
237	651
237	681
237	687
237	724
237	736
237	743
237	753
237	810
237	821
238	207
238	251
238	296
238	357
238	376
238	382
238	399
238	450
238	479
238	484
238	508
238	526
238	538
238	556
238	589
238	604
238	626
238	636
238	693
238	716
238	748
238	793
238	816
239	225
239	229
239	263
239	283
239	290
239	327
239	362
239	371
239	410
239	420
239	434
239	462
239	498
239	585
239	593
239	597
239	608
239	655
239	660
239	669
239	699
239	710
239	758
239	770
239	783
240	167
240	174
240	213
240	268
240	279
240	320
240	350
240	404
240	456
240	474
240	506
240	519
240	533
240	541
240	560
240	572
240	622
240	630
240	647
240	673
240	720
240	799
241	239
241	387
241	393
241	424
241	429
241	444
241	467
241	487
241	492
241	501
241	527
241	577
241	613
241	641
241	664
241	678
241	731
241	742
241	764
241	776
241	789
241	829
242	160
242	220
242	246
242	313
242	332
242	338
242	355
242	378
242	415
242	439
242	477
242	482
242	495
242	511
242	523
242	538
242	552
242	567
242	589
242	618
242	634
242	651
242	683
242	717
242	725
242	737
242	754
242	804
242	811
242	823
243	179
243	185
243	192
243	293
243	302
243	307
243	367
243	373
243	399
243	409
243	433
243	453
243	555
243	563
243	600
243	605
243	658
243	671
243	689
243	700
243	706
243	748
243	794
244	216
244	227
244	234
244	251
244	263
244	275
244	288
244	349
244	383
244	419
244	448
244	462
244	472
244	491
244	498
244	506
244	515
244	547
244	571
244	585
244	592
244	647
244	667
244	675
244	696
244	711
244	758
244	768
244	800
245	171
245	200
245	208
245	280
245	319
245	326
245	343
245	360
245	388
245	394
245	429
245	457
245	466
245	519
245	579
245	621
245	626
245	681
245	742
245	781
245	787
245	826
246	243
246	403
246	415
246	438
246	443
246	482
246	486
246	495
246	510
246	525
246	529
246	559
246	588
246	595
246	652
246	656
246	752
246	763
246	773
246	806
246	813
246	819
247	164
247	205
247	259
247	269
247	298
247	305
247	310
247	332
247	377
247	423
247	476
247	535
247	539
247	552
247	563
247	569
247	574
247	600
247	605
247	631
247	644
247	671
247	686
247	690
247	715
247	720
247	728
248	176
248	183
248	189
248	196
248	230
248	246
248	353
248	371
248	409
248	432
248	462
248	503
248	543
248	583
248	610
248	638
248	660
248	666
248	701
248	737
248	747
248	784
248	793
248	830
249	221
249	235
249	265
249	275
249	286
249	316
249	364
249	385
249	391
249	427
249	448
249	452
249	471
249	490
249	498
249	507
249	517
249	522
249	556
249	591
249	615
249	623
249	647
249	677
249	681
249	709
249	758
249	778
249	799
249	825
250	169
250	211
250	322
250	328
250	347
250	359
250	397
250	403
250	457
250	485
250	493
250	527
250	548
250	567
250	579
250	586
250	602
250	634
250	732
250	768
250	789
251	253
251	293
251	335
251	341
251	381
251	419
251	436
251	441
251	466
251	480
251	502
251	512
251	532
251	536
251	559
251	628
251	651
251	668
251	687
251	696
251	718
251	753
251	772
251	813
251	820
252	187
252	217
252	242
252	271
252	281
252	300
252	374
252	413
252	423
252	452
252	475
252	541
252	553
252	563
252	570
252	575
252	582
252	595
252	606
252	612
252	640
252	654
252	664
252	700
252	713
252	727
252	744
252	765
252	793
252	804
252	809
253	162
253	230
253	313
253	356
253	368
253	389
253	407
253	433
253	447
253	461
253	483
253	498
253	508
253	518
253	523
253	528
253	645
253	672
253	678
253	707
253	758
253	783
253	829
254	174
254	192
254	206
254	275
254	318
254	338
254	352
254	362
254	395
254	470
254	488
254	550
254	566
254	578
254	591
254	634
254	659
254	682
254	692
254	721
254	748
254	800
254	823
255	181
255	199
255	236
255	260
255	265
255	287
255	294
255	304
255	346
255	383
255	416
255	428
255	438
255	494
255	533
255	537
255	542
255	560
255	574
255	599
255	608
255	628
255	650
255	668
255	741
255	753
255	777
255	787
255	812
256	212
256	253
256	325
256	331
256	378
256	410
256	422
256	443
256	457
256	465
256	475
256	480
256	502
256	515
256	547
256	614
256	620
256	700
256	715
256	732
256	762
256	833
257	168
257	224
257	248
257	270
257	282
257	309
257	357
257	365
257	371
257	404
257	433
257	447
257	452
257	484
257	497
257	511
257	520
257	525
257	556
257	569
257	642
257	646
257	654
257	664
257	673
257	686
257	711
257	773
257	781
258	187
258	219
258	314
258	321
258	350
258	389
258	399
258	530
258	539
258	578
258	635
258	691
258	695
258	736
258	757
258	766
258	794
258	821
259	194
259	206
259	231
259	242
259	299
259	326
259	344
259	383
259	419
259	438
259	460
259	470
259	489
259	494
259	507
259	544
259	550
259	573
259	582
259	586
259	597
259	651
259	659
259	669
259	682
259	707
259	719
259	730
259	750
259	800
259	806
259	816
260	162
260	277
260	288
260	394
260	414
260	425
260	517
260	522
260	564
260	593
260	606
260	624
260	713
260	743
260	777
261	182
261	214
261	259
261	265
261	305
261	311
261	333
261	338
261	361
261	367
261	408
261	443
261	456
261	464
261	474
261	479
261	511
261	526
261	536
261	555
261	568
261	612
261	630
261	724
261	761
261	771
261	791
261	810
261	831
262	173
262	236
262	269
262	284
262	293
262	316
262	389
262	403
262	434
262	450
262	484
262	498
262	531
262	577
262	602
262	617
262	641
262	656
262	678
262	692
262	703
262	739
263	189
263	246
263	252
263	348
263	355
263	375
263	429
263	461
263	469
263	492
263	502
263	506
263	519
263	541
263	546
263	559
263	585
263	596
263	609
263	634
263	668
263	728
263	749
263	766
263	781
263	803
263	825
264	195
264	222
264	300
264	323
264	383
264	398
264	412
264	421
264	439
264	445
264	489
264	514
264	551
264	581
264	590
264	684
264	688
264	696
264	714
264	755
264	776
264	797
265	162
265	202
265	210
265	230
265	263
265	276
265	288
265	328
265	334
265	343
265	393
265	452
265	466
265	476
265	480
265	510
265	534
265	538
265	542
265	567
265	604
265	613
265	621
265	645
265	663
265	673
265	700
265	710
265	723
265	786
265	807
265	820
266	240
266	294
266	305
266	319
266	364
266	369
266	457
266	485
266	497
266	523
266	528
266	555
266	563
266	572
266	576
266	592
266	596
266	627
266	639
266	659
266	733
266	744
266	760
266	814
266	829
267	185
267	216
267	249
267	257
267	339
267	358
267	387
267	402
267	426
267	436
267	462
267	470
267	492
267	518
267	546
267	599
267	609
267	633
267	692
267	719
267	771
267	791
267	800
268	190
268	271
268	291
268	313
268	324
268	347
268	373
268	417
268	442
268	448
268	559
268	588
268	651
268	667
268	679
268	687
268	706
268	739
268	750
268	765
269	197
269	204
269	301
269	308
269	352
269	383
269	397
269	422
269	453
269	467
269	482
269	488
269	496
269	501
269	508
269	513
269	535
269	539
269	550
269	567
269	581
269	620
269	672
269	683
269	698
269	728
269	757
269	781
270	165
270	177
270	210
270	221
270	228
270	244
270	252
270	259
270	265
270	276
270	287
270	329
270	362
270	368
270	392
270	407
270	412
270	433
270	458
270	477
270	504
270	521
270	526
270	531
270	544
270	563
270	592
270	614
270	630
270	646
270	657
270	664
270	788
270	797
270	805
270	811
270	817
271	158
271	236
271	304
271	319
271	342
271	378
271	427
271	438
271	445
271	473
271	491
271	556
271	571
271	610
271	640
271	717
271	722
271	770
272	297
272	336
272	356
272	386
272	402
272	416
272	463
272	486
272	499
272	559
272	584
272	600
272	605
272	625
272	675
272	711
272	731
272	752
272	760
272	765
272	791
272	801
272	830
273	169
273	187
273	217
273	282
273	314
273	373
273	450
273	468
273	480
273	496
273	512
273	519
273	524
273	529
273	541
273	551
273	567
273	576
273	620
273	633
273	652
273	670
273	689
273	736
273	783
273	822
274	231
274	256
274	271
274	324
274	330
274	346
274	382
274	396
274	411
274	422
274	454
274	476
274	507
274	515
274	534
274	545
274	596
274	612
274	638
274	656
274	680
274	694
274	704
274	741
274	747
274	777
274	807
275	161
275	194
275	199
275	207
275	240
275	293
275	309
275	367
275	391
275	429
275	435
275	441
275	459
275	472
275	483
275	490
275	557
275	563
275	571
275	605
275	608
275	617
275	647
275	660
275	666
275	685
275	716
275	721
275	761
275	796
275	814
276	174
276	182
276	235
276	288
276	340
276	351
276	361
276	377
276	406
276	417
276	446
276	502
276	531
276	548
276	591
276	642
276	651
276	727
276	731
276	756
276	768
276	802
276	829
277	213
277	226
277	249
277	264
277	277
277	302
277	334
277	356
277	386
277	452
277	465
277	470
277	498
277	511
277	518
277	523
277	527
277	553
277	560
277	579
277	600
277	612
277	624
277	629
277	635
277	669
277	689
277	699
277	743
277	751
277	773
277	786
278	188
278	283
278	297
278	329
278	372
278	400
278	426
278	432
278	456
278	475
278	480
278	493
278	506
278	539
278	544
278	567
278	574
278	587
278	596
278	619
278	656
278	676
278	710
278	809
278	825
279	196
279	202
279	244
279	254
279	270
279	324
279	345
279	366
279	381
279	421
279	438
279	448
279	460
279	488
279	514
279	563
279	583
279	604
279	608
279	639
279	648
279	660
279	672
279	681
279	715
279	720
279	748
279	759
279	792
280	217
280	231
280	259
280	292
280	307
280	317
280	360
280	391
280	416
280	443
280	484
280	502
280	509
280	524
280	532
280	550
280	571
280	615
280	625
280	630
280	664
280	730
280	763
280	768
280	783
280	797
280	818
281	163
281	170
281	209
281	239
281	286
281	339
281	354
281	376
281	386
281	405
281	452
281	465
281	520
281	528
281	537
281	554
281	559
281	567
281	575
281	591
281	594
281	599
281	655
281	668
281	691
281	707
281	725
281	739
281	802
281	828
282	178
282	183
282	249
282	265
282	275
282	281
282	301
282	333
282	410
282	429
282	434
282	473
282	479
282	492
282	542
282	547
282	579
282	588
282	613
282	620
282	635
282	643
282	699
282	734
282	752
282	773
282	787
283	327
283	370
283	396
283	420
283	424
283	458
283	462
283	500
283	572
283	604
283	624
283	648
283	671
283	676
283	694
283	719
283	745
283	778
283	794
283	825
284	190
284	212
284	221
284	256
284	262
284	270
284	296
284	344
284	365
284	381
284	391
284	445
284	469
284	483
284	488
284	517
284	525
284	533
284	551
284	556
284	563
284	567
284	584
284	631
284	652
284	661
284	687
284	715
284	731
284	758
284	764
284	814
285	166
285	202
285	315
285	321
285	351
285	386
285	401
285	405
285	415
285	450
285	496
285	509
285	522
285	529
285	544
285	599
285	619
285	627
285	711
285	769
285	783
285	798
286	159
286	179
286	226
286	232
286	244
286	292
286	337
286	358
286	376
286	428
286	436
286	455
286	460
286	465
286	478
286	491
286	505
286	513
286	537
286	576
286	612
286	640
286	667
286	704
286	724
286	735
286	752
286	773
286	805
287	185
287	196
287	207
287	277
287	283
287	308
287	331
287	370
287	395
287	410
287	424
287	442
287	548
287	554
287	560
287	571
287	591
287	595
287	604
287	607
287	616
287	657
287	675
287	683
287	692
287	697
287	720
287	801
287	810
287	823
288	173
288	237
288	251
288	266
288	348
288	419
288	469
288	485
288	500
288	540
288	543
288	565
288	580
288	587
288	624
288	637
288	670
288	688
288	728
288	742
288	763
288	795
289	219
289	296
289	325
289	365
289	380
289	433
289	452
289	475
289	517
289	524
289	528
289	599
289	620
289	628
289	644
289	652
289	703
289	714
289	733
289	738
289	748
289	768
289	789
290	192
290	229
290	256
290	290
290	319
290	340
290	354
290	361
290	390
290	405
290	414
290	457
290	462
290	466
290	491
290	495
290	509
290	533
290	557
290	561
290	569
290	584
290	612
290	641
290	648
290	679
290	755
290	783
291	162
291	169
291	202
291	212
291	245
291	273
291	306
291	311
291	329
291	375
291	399
291	428
291	479
291	537
291	545
291	549
291	552
291	593
291	604
291	632
291	665
291	760
291	804
291	818
292	176
292	183
292	235
292	240
292	279
292	285
292	395
292	409
292	423
292	444
292	471
292	487
292	506
292	512
292	515
292	524
292	541
292	565
292	574
292	578
292	597
292	616
292	660
292	674
292	685
292	694
292	699
292	718
292	724
292	730
292	773
292	794
292	810
293	224
293	266
293	300
293	345
293	350
293	370
293	418
293	438
293	449
293	453
293	499
293	520
293	570
293	585
293	589
293	620
293	629
293	636
293	644
293	651
293	710
293	735
293	745
294	196
294	206
294	219
294	252
294	258
294	294
294	322
294	337
294	359
294	364
294	379
294	384
294	389
294	414
294	433
294	462
294	475
294	481
294	494
294	532
294	554
294	559
294	600
294	608
294	613
294	670
294	682
294	714
294	740
294	750
294	767
294	779
294	798
295	316
295	332
295	404
295	427
295	457
295	485
295	503
295	513
295	517
295	542
295	547
295	562
295	577
295	594
295	625
295	647
295	656
295	690
295	704
295	755
295	762
295	784
295	789
295	815
296	167
296	189
296	230
296	245
296	288
296	353
296	374
296	435
296	468
296	472
296	508
296	567
296	582
296	641
296	664
296	696
296	775
297	213
297	237
297	282
297	304
297	309
297	326
297	342
297	368
297	394
297	409
297	417
297	423
297	441
297	450
297	477
297	490
297	527
297	531
297	551
297	586
297	590
297	603
297	607
297	621
297	632
297	678
297	731
297	736
297	805
297	820
297	826
298	174
298	202
298	224
298	270
298	276
298	299
298	320
298	349
298	362
298	379
298	387
298	455
298	460
298	482
298	495
298	538
298	555
298	559
298	574
298	614
298	636
298	651
298	668
298	683
298	687
298	718
298	811
299	181
299	195
299	216
299	264
299	292
299	313
299	332
299	372
299	432
299	465
299	487
299	500
299	511
299	523
299	546
299	579
299	594
299	599
299	617
299	625
299	656
299	673
299	701
299	713
299	723
299	752
299	757
299	784
300	163
300	249
300	356
300	401
300	406
300	413
300	447
300	469
300	473
300	507
300	514
300	519
300	543
300	563
300	568
300	583
300	587
300	644
300	660
300	707
300	728
300	766
300	800
300	816
301	273
301	338
301	351
301	383
301	397
301	418
301	427
301	437
301	442
301	477
301	527
301	531
301	550
301	577
301	591
301	603
301	606
301	611
301	629
301	649
301	678
301	683
301	692
301	697
301	740
301	748
301	776
301	791
302	187
302	200
302	210
302	230
302	243
302	259
302	304
302	366
302	456
302	461
302	483
302	494
302	555
302	633
302	639
302	653
302	665
302	670
302	719
302	761
302	795
302	805
303	169
303	176
303	237
303	253
303	267
303	286
303	297
303	309
303	316
303	322
303	328
303	361
303	410
303	423
303	432
303	466
303	503
303	512
303	521
303	534
303	559
303	564
303	581
303	595
303	599
303	674
303	687
303	780
304	224
304	280
304	334
304	349
304	374
304	389
304	393
304	404
304	443
304	498
304	517
304	525
304	529
304	538
304	542
304	569
304	573
304	585
304	624
304	657
304	733
304	769
304	784
304	799
305	181
305	195
305	206
305	369
305	379
305	399
305	428
305	449
305	454
305	473
305	479
305	491
305	507
305	549
305	591
305	606
305	617
305	663
305	679
305	706
305	717
305	723
305	741
305	750
305	823
306	163
306	247
306	290
306	338
306	343
306	354
306	365
306	413
306	419
306	436
306	458
306	462
306	495
306	564
306	577
306	601
306	614
306	645
306	653
306	668
306	683
306	697
306	712
306	755
306	775
306	790
306	818
307	169
307	188
307	257
307	264
307	271
307	276
307	385
307	440
307	467
307	487
307	499
307	510
307	514
307	520
307	552
307	559
307	573
307	586
307	621
307	629
307	633
307	638
307	672
307	689
307	702
308	175
308	193
308	200
308	213
308	234
308	241
308	284
308	295
308	302
308	307
308	319
308	325
308	359
308	375
308	389
308	409
308	423
308	446
308	472
308	504
308	527
308	532
308	536
308	541
308	546
308	567
308	594
308	598
308	609
308	657
308	662
308	693
308	746
308	760
308	764
308	780
308	796
308	809
309	219
309	228
309	250
309	312
309	331
309	395
309	404
309	451
309	455
309	478
309	492
309	524
309	590
309	617
309	650
309	678
309	731
309	801
309	813
310	348
310	363
310	380
310	418
310	427
310	436
310	460
310	465
310	483
310	508
310	516
310	563
310	581
310	602
310	635
310	642
310	668
310	684
310	715
310	721
310	737
310	741
310	776
310	787
311	182
311	207
311	260
311	266
311	290
311	338
311	353
311	368
311	400
311	443
311	470
311	496
311	521
311	530
311	534
311	538
311	544
311	551
311	558
311	572
311	577
311	586
311	613
311	624
311	631
311	646
311	689
311	726
311	756
312	163
312	273
312	280
312	343
312	374
312	385
312	413
312	423
312	432
312	474
312	487
312	500
312	511
312	566
312	596
312	599
312	639
312	651
312	660
312	672
312	676
312	702
312	733
312	798
313	171
313	187
313	196
313	216
313	225
313	238
313	246
313	286
313	298
313	302
313	316
313	323
313	328
313	391
313	396
313	408
313	452
313	456
313	479
313	505
313	547
313	583
313	590
313	606
313	610
313	681
313	693
313	707
313	712
313	718
313	747
313	766
313	781
313	822
314	202
314	230
314	254
314	310
314	358
314	379
314	404
314	440
314	461
314	466
314	514
314	527
314	537
314	602
314	621
314	626
314	636
314	656
314	664
314	751
314	771
314	804
315	176
315	212
315	262
315	292
315	334
315	349
315	364
315	417
315	427
315	436
315	470
315	483
315	490
315	496
315	522
315	531
315	551
315	561
315	566
315	575
315	587
315	594
315	598
315	613
315	617
315	644
315	669
315	685
315	731
315	742
315	778
315	786
315	799
315	816
316	184
316	270
316	339
316	370
316	386
316	400
316	412
316	423
316	444
316	448
316	476
316	508
316	543
316	571
316	631
316	640
316	649
316	677
316	689
316	695
316	758
316	792
317	242
317	249
317	276
317	319
317	355
317	376
317	394
317	408
317	512
317	518
317	525
317	534
317	556
317	578
317	607
317	672
317	717
317	724
317	735
317	767
317	813
317	819
318	164
318	190
318	232
318	256
318	282
318	298
318	312
318	325
318	331
318	345
318	360
318	415
318	431
318	439
318	457
318	462
318	468
318	488
318	499
318	504
318	575
318	591
318	594
318	636
318	654
318	664
319	196
319	215
319	222
319	288
319	305
319	336
319	365
319	403
319	427
319	435
319	444
319	472
319	493
319	545
319	550
319	561
319	582
319	587
319	599
319	602
319	611
319	624
319	629
319	642
319	658
319	669
319	710
319	738
319	743
319	753
319	762
319	773
319	788
320	170
320	178
320	203
320	263
320	272
320	350
320	381
320	398
320	421
320	450
320	477
320	483
320	540
320	557
320	564
320	568
320	572
320	606
320	615
320	619
320	647
320	692
320	696
320	701
320	748
321	160
321	210
321	227
321	295
321	321
321	340
321	357
321	371
321	412
321	455
321	460
321	464
321	496
321	511
321	514
321	519
321	523
321	529
321	554
321	592
321	633
321	681
321	715
321	720
321	793
321	814
322	239
322	246
322	252
322	278
322	312
322	327
322	390
322	407
322	417
322	431
322	437
322	446
322	468
322	489
322	501
322	537
322	575
322	597
322	629
322	639
322	653
322	663
322	674
322	687
322	729
322	781
322	798
322	803
323	166
323	185
323	191
323	284
323	333
323	346
323	362
323	376
323	401
323	426
323	442
323	481
323	505
323	543
323	547
323	578
323	584
323	604
323	617
323	743
323	758
323	820
324	198
324	217
324	224
324	260
324	289
324	306
324	382
324	451
324	494
324	551
324	554
324	565
324	569
324	588
324	594
324	601
324	609
324	621
324	625
324	633
324	650
324	657
324	666
324	670
324	679
324	693
324	709
324	718
324	736
324	763
324	777
325	172
325	180
325	233
325	274
325	338
325	352
325	367
325	387
325	457
325	461
325	486
325	499
325	503
325	517
325	525
325	533
325	538
325	559
325	614
325	628
325	646
325	684
325	689
325	697
325	703
325	722
325	753
325	769
325	807
326	204
326	256
326	267
326	278
326	300
326	317
326	324
326	372
326	392
326	405
326	410
326	422
326	429
326	434
326	465
326	474
326	510
326	575
326	580
326	596
326	618
326	639
326	642
326	794
326	812
327	161
327	243
327	311
327	329
327	357
327	363
327	397
327	416
327	439
327	444
327	471
327	482
327	528
327	546
327	562
327	571
327	585
327	591
327	604
327	655
327	662
327	674
327	681
327	731
327	775
327	800
328	186
328	212
328	237
328	250
328	284
328	294
328	342
328	449
328	453
328	458
328	479
328	492
328	515
328	523
328	551
328	556
328	566
328	594
328	636
328	650
328	668
328	763
328	787
329	166
329	175
329	194
329	219
329	261
329	348
329	369
329	378
329	383
329	413
329	462
329	467
329	488
329	497
329	502
329	507
329	534
329	543
329	609
329	616
329	624
329	631
329	678
329	705
329	715
329	724
329	750
329	782
329	818
330	182
330	198
330	227
330	271
330	291
330	304
330	321
330	374
330	388
330	402
330	408
330	432
330	437
330	537
330	559
330	577
330	582
330	588
330	597
330	600
330	620
330	638
330	641
330	645
330	686
330	693
330	698
330	739
330	796
330	810
331	207
331	232
331	241
331	255
331	298
331	327
331	333
331	339
331	353
331	359
331	394
331	420
331	426
331	441
331	445
331	473
331	485
331	519
331	530
331	549
331	554
331	574
331	593
331	613
331	655
331	659
331	664
331	700
331	711
331	754
331	759
331	769
331	805
332	161
332	172
332	188
332	267
332	277
332	315
332	344
332	364
332	450
332	456
332	491
332	511
332	540
332	567
332	604
332	624
332	627
332	634
332	648
332	672
332	726
332	746
332	774
333	215
333	236
333	249
333	309
333	370
333	385
333	410
333	416
333	429
333	460
333	464
333	469
333	478
333	497
333	526
333	610
333	616
333	642
333	677
333	690
333	695
333	722
333	732
333	750
333	764
333	786
333	793
334	178
334	194
334	201
334	226
334	260
334	271
334	283
334	294
334	321
334	349
334	375
334	390
334	397
334	401
334	406
334	433
334	482
334	502
334	516
334	521
334	534
334	545
334	562
334	571
334	579
334	585
334	597
334	637
334	652
334	681
334	703
334	800
334	809
334	818
334	823
335	183
335	287
335	327
335	361
335	425
335	439
335	443
335	487
335	575
335	591
335	620
335	686
335	708
335	718
335	755
335	781
336	167
336	209
336	231
336	339
336	355
336	366
336	381
336	420
336	452
336	479
336	494
336	508
336	513
336	523
336	539
336	557
336	567
336	603
336	608
336	612
336	624
336	629
336	645
336	656
336	674
336	760
337	187
337	219
337	242
337	253
337	265
337	277
337	299
337	305
337	311
337	317
337	333
337	345
337	372
337	386
337	431
337	457
337	474
337	500
337	504
337	519
337	551
337	562
337	573
337	583
337	595
337	636
337	649
337	669
337	689
337	693
337	697
337	737
337	746
338	173
338	197
338	213
338	236
338	292
338	324
338	377
338	393
338	403
338	408
338	414
338	436
338	447
338	484
338	531
338	544
338	579
338	590
338	600
338	616
338	639
338	659
338	663
338	679
338	701
338	752
338	767
338	784
338	790
338	798
339	224
339	247
339	283
339	351
339	361
339	423
339	460
339	488
339	516
339	537
339	566
339	571
339	575
339	586
339	625
339	633
339	707
339	715
339	728
339	780
339	811
339	819
339	826
340	163
340	181
340	260
340	272
340	329
340	336
340	390
340	398
340	440
340	453
340	464
340	468
340	493
340	499
340	508
340	511
340	524
340	549
340	554
340	559
340	604
340	620
340	630
340	646
340	721
340	733
340	742
340	774
340	793
341	168
341	203
341	314
341	320
341	341
341	346
341	356
341	366
341	383
341	427
341	476
341	481
341	503
341	528
341	583
341	592
341	597
341	609
341	641
341	652
341	673
341	692
341	747
341	761
341	788
341	802
342	220
342	230
342	242
342	289
342	297
342	304
342	309
342	372
342	405
342	411
342	418
342	432
342	437
342	449
342	456
342	520
342	541
342	568
342	574
342	587
342	614
342	657
342	682
342	686
342	700
342	756
342	797
343	189
343	210
343	254
343	265
343	277
343	325
343	352
343	362
343	379
343	444
343	486
343	510
343	514
343	531
343	562
343	581
343	603
343	636
343	664
343	707
343	718
343	724
343	730
343	770
343	784
343	822
344	174
344	196
344	215
344	238
344	331
344	337
344	387
344	393
344	423
344	460
344	472
344	546
344	553
344	618
344	625
344	648
344	743
344	792
344	806
345	224
345	257
345	315
345	343
345	368
345	397
345	428
345	439
345	497
345	503
345	518
345	537
345	596
345	606
345	630
345	644
345	670
345	676
345	693
345	738
345	778
345	801
346	164
346	271
346	282
346	293
346	305
346	321
346	348
346	375
346	383
346	403
346	408
346	414
346	434
346	453
346	477
346	481
346	508
346	524
346	557
346	567
346	591
346	600
346	639
346	654
346	699
346	703
346	709
346	728
346	758
346	766
346	773
347	180
347	204
347	249
347	287
347	299
347	311
347	356
347	459
347	465
347	490
347	500
347	513
347	528
347	532
347	543
347	548
347	552
347	563
347	571
347	575
347	586
347	611
347	634
347	681
347	684
347	689
347	716
347	809
348	191
348	210
348	228
348	235
348	242
348	264
348	327
348	390
348	425
348	486
348	516
348	521
348	581
348	604
348	658
348	664
348	723
348	734
348	789
348	796
349	174
349	218
349	253
349	277
349	317
349	332
349	339
349	352
349	360
349	370
349	379
349	395
349	400
349	430
349	435
349	445
349	473
349	494
349	539
349	608
349	673
349	744
349	763
349	806
349	817
350	167
350	185
350	197
350	259
350	270
350	293
350	347
350	385
350	421
350	440
350	481
350	507
350	556
350	561
350	577
350	589
350	594
350	599
350	615
350	620
350	645
350	651
350	692
350	701
350	706
350	711
350	753
350	784
351	246
351	283
351	308
351	322
351	343
351	405
351	455
351	462
351	469
351	499
351	532
351	545
351	568
351	574
351	585
351	631
351	637
351	679
351	684
351	726
351	739
351	770
351	822
352	179
352	205
352	224
352	231
352	287
352	303
352	329
352	356
352	365
352	375
352	390
352	410
352	413
352	427
352	450
352	504
352	516
352	521
352	526
352	579
352	603
352	623
352	670
352	758
352	775
352	794
353	192
353	213
353	239
353	263
353	275
353	298
353	312
353	400
353	417
353	431
353	437
353	465
353	475
353	488
353	492
353	534
353	541
353	551
353	614
353	627
353	642
353	654
353	659
353	663
353	689
353	698
353	719
353	751
353	765
353	811
354	163
354	171
354	199
354	257
354	335
354	351
354	370
354	381
354	396
354	442
354	453
354	481
354	500
354	555
354	559
354	564
354	572
354	577
354	583
354	591
354	610
354	649
354	694
354	713
354	733
354	779
354	804
354	818
355	252
355	280
355	292
355	307
355	317
355	324
355	340
355	358
355	386
355	405
355	422
355	458
355	470
355	495
355	507
355	511
355	531
355	548
355	596
355	618
355	666
355	677
355	682
355	687
355	742
355	755
355	798
356	184
356	217
356	234
356	268
356	346
356	413
356	485
356	520
356	537
356	544
356	561
356	580
356	607
356	707
356	747
356	789
357	177
357	209
357	222
357	228
357	244
357	261
357	284
357	295
357	301
357	312
357	330
357	366
357	375
357	391
357	400
357	433
357	437
357	463
357	491
357	503
357	516
357	527
357	570
357	575
357	586
357	603
357	621
357	626
357	631
357	646
357	651
357	656
357	670
357	736
357	759
357	773
357	809
358	195
358	203
358	273
358	321
358	381
358	396
358	418
358	428
358	448
358	455
358	467
358	474
358	591
358	615
358	640
358	660
358	674
358	680
358	692
358	721
358	726
358	784
358	804
358	826
359	166
359	173
359	190
359	239
359	255
359	291
359	327
359	336
359	342
359	351
359	361
359	371
359	407
359	424
359	442
359	452
359	459
359	481
359	498
359	511
359	541
359	547
359	551
359	555
359	600
359	610
359	636
359	688
359	703
359	743
359	766
360	218
360	279
360	307
360	316
360	346
360	403
360	487
360	492
360	507
360	521
360	526
360	534
360	580
360	668
360	683
360	712
360	748
360	753
360	818
361	161
361	206
361	214
361	226
361	232
361	243
361	364
361	376
361	386
361	413
361	439
361	463
361	517
361	538
361	560
361	565
361	584
361	591
361	596
361	604
361	623
361	627
361	695
361	807
362	180
362	198
362	260
362	285
362	312
362	332
362	354
362	391
362	399
362	446
362	456
362	468
362	483
362	500
362	504
362	531
362	551
362	571
362	619
362	647
362	653
362	672
362	731
362	740
362	756
362	771
362	777
362	786
362	791
363	187
363	193
363	267
363	275
363	301
363	323
363	338
363	360
363	370
363	381
363	409
363	430
363	435
363	476
363	512
363	600
363	608
363	638
363	644
363	662
363	719
363	725
363	735
363	762
363	802
364	167
364	343
364	395
364	422
364	442
364	450
364	472
364	507
364	521
364	525
364	540
364	546
364	555
364	576
364	587
364	614
364	632
364	658
364	678
364	683
364	707
364	809
364	814
365	175
365	217
365	230
365	238
365	246
365	251
365	291
365	307
365	328
365	349
365	376
365	404
365	414
365	446
365	467
365	488
365	492
365	497
365	535
365	550
365	583
365	594
365	690
365	699
365	714
365	753
365	767
365	775
365	782
365	797
366	202
366	209
366	223
366	258
366	265
366	280
366	298
366	317
366	355
366	366
366	391
366	418
366	439
366	462
366	482
366	567
366	623
366	627
366	641
366	653
367	163
367	195
367	313
367	333
367	362
367	371
367	380
367	385
367	400
367	409
367	430
367	435
367	454
367	508
367	517
367	530
367	544
367	559
367	579
367	602
367	649
367	670
367	686
367	694
367	737
367	742
367	747
367	785
367	818
368	182
368	189
368	284
368	323
368	340
368	423
368	442
368	451
368	458
368	470
368	479
368	503
368	525
368	554
368	564
368	572
368	587
368	591
368	607
368	620
368	632
368	636
368	645
368	658
368	666
368	727
368	732
368	770
368	779
369	169
369	241
369	274
369	295
369	301
369	348
369	405
369	414
369	466
369	475
369	486
369	491
369	498
369	513
369	536
369	549
369	577
369	614
369	680
369	683
369	703
369	711
369	752
369	796
369	813
370	176
370	213
370	227
370	234
370	260
370	307
370	319
370	329
370	366
370	376
370	389
370	400
370	427
370	438
370	446
370	598
370	625
370	662
370	673
370	689
370	758
371	193
371	207
371	220
371	249
371	267
371	279
371	289
371	352
371	380
371	409
371	419
371	432
371	453
371	458
371	462
371	483
371	501
371	506
371	518
371	522
371	529
371	545
371	557
371	617
371	648
371	656
371	676
371	723
371	740
371	767
371	773
371	802
372	199
372	335
372	341
372	360
372	371
372	395
372	423
372	441
372	478
372	534
372	538
372	581
372	605
372	610
372	642
372	697
372	718
372	782
372	792
373	186
373	237
373	255
373	314
373	325
373	346
373	386
373	405
373	413
373	468
373	473
373	493
373	510
373	570
373	576
373	586
373	592
373	623
373	633
373	681
373	685
373	735
373	748
373	762
373	807
373	820
374	180
374	243
374	285
374	292
374	298
374	355
374	366
374	375
374	419
374	428
374	436
374	446
374	450
374	455
374	481
374	486
374	497
374	503
374	549
374	562
374	602
374	646
374	666
374	706
374	711
374	727
374	778
374	787
374	797
375	164
375	173
375	210
375	224
375	262
375	273
375	304
375	309
375	320
375	330
375	389
375	400
375	424
375	515
375	527
375	541
375	555
375	619
375	637
375	652
375	690
375	758
375	767
375	815
376	203
376	216
376	232
376	250
376	337
376	381
376	415
376	433
376	441
376	458
376	464
376	489
376	500
376	521
376	531
376	535
376	546
376	567
376	580
376	599
376	610
376	614
376	626
376	643
376	673
377	190
377	197
377	268
377	314
377	325
377	343
377	350
377	361
377	371
377	394
377	409
377	421
377	477
377	510
377	518
377	551
377	585
377	595
377	606
377	632
377	660
377	687
377	692
377	701
377	721
377	739
377	743
377	751
377	782
377	791
377	802
377	812
378	238
378	279
378	289
378	385
378	404
378	428
378	438
378	445
378	453
378	461
378	471
378	485
378	492
378	503
378	514
378	559
378	575
378	590
378	665
378	669
378	680
378	705
378	714
379	167
379	183
379	227
379	257
379	294
379	301
379	305
379	355
379	376
379	390
379	399
379	474
379	497
379	538
379	543
379	565
379	652
379	657
379	676
379	796
380	245
380	285
380	332
380	366
380	381
380	411
380	416
380	424
380	432
380	465
380	481
380	489
380	501
380	528
380	534
380	571
380	615
380	620
380	627
380	638
380	642
380	683
380	729
380	768
380	776
380	787
380	808
381	178
381	201
381	208
381	251
381	263
381	273
381	309
381	320
381	339
381	347
381	407
381	442
381	449
381	458
381	477
381	516
381	547
381	554
381	585
381	593
381	597
381	602
381	631
381	648
381	672
381	688
381	695
381	700
381	709
381	718
381	725
381	735
381	761
382	215
382	220
382	235
382	241
382	315
382	352
382	360
382	372
382	385
382	394
382	420
382	428
382	436
382	454
382	462
382	470
382	484
382	504
382	511
382	520
382	561
382	577
382	606
382	610
382	680
382	744
382	793
382	802
382	819
383	188
383	195
383	259
383	268
383	279
383	290
383	325
383	377
383	403
383	416
383	446
383	489
383	494
383	499
383	524
383	540
383	544
383	550
383	565
383	581
383	590
383	624
383	641
383	656
383	660
383	665
384	182
384	297
384	335
384	366
384	399
384	411
384	424
384	466
384	474
384	514
384	571
384	586
384	704
384	731
384	739
384	756
384	773
384	781
384	798
385	170
385	217
385	230
385	246
385	285
385	308
385	318
385	342
385	348
385	390
385	432
385	440
385	450
385	507
385	530
385	536
385	630
385	637
385	644
385	651
385	690
385	716
385	722
386	205
386	210
386	223
386	274
386	329
386	362
386	372
386	381
386	406
386	420
386	428
386	460
386	470
386	482
386	487
386	519
386	554
386	578
386	593
386	601
386	615
386	626
386	640
386	668
386	673
386	678
386	711
387	164
387	177
387	190
387	199
387	263
387	291
387	302
387	313
387	324
387	353
387	385
387	395
387	401
387	415
387	436
387	444
387	453
387	465
387	497
387	503
387	510
387	525
387	543
387	548
387	558
387	583
387	604
387	620
387	633
387	647
387	662
387	682
387	695
387	752
387	785
387	811
388	241
388	251
388	368
388	377
388	410
388	424
388	457
388	468
388	473
388	477
388	485
388	491
388	590
388	597
388	718
389	226
389	234
389	270
389	280
389	297
389	333
389	338
389	432
389	440
389	448
389	501
389	508
389	515
389	539
389	563
389	570
389	586
389	608
389	658
389	665
389	699
389	705
389	713
389	729
389	734
389	738
389	748
389	757
389	781
389	790
389	807
390	208
390	246
390	285
390	307
390	318
390	345
390	358
390	363
390	382
390	391
390	404
390	419
390	452
390	462
390	488
390	521
390	553
390	575
390	613
390	617
390	627
390	642
390	654
390	725
390	766
390	774
390	815
391	182
391	213
391	221
391	257
391	275
391	291
391	328
391	350
391	373
391	396
391	428
391	436
391	444
391	456
391	482
391	535
391	580
391	604
391	674
391	690
391	708
391	743
391	801
392	170
392	204
392	229
392	302
392	354
392	369
392	388
392	414
392	465
392	469
392	473
392	478
392	485
392	492
392	513
392	526
392	531
392	557
392	566
392	636
392	648
392	660
392	701
392	795
393	189
393	198
393	313
393	322
393	341
393	378
393	409
393	423
393	440
393	459
393	503
393	520
393	544
393	594
393	621
393	631
393	669
393	679
393	684
393	717
393	721
393	751
393	810
394	165
394	177
394	238
394	244
394	250
394	262
394	282
394	346
394	360
394	392
394	432
394	448
394	452
394	488
394	496
394	509
394	537
394	550
394	585
394	589
394	599
394	697
394	728
394	733
395	183
395	224
395	269
395	296
395	307
395	332
395	337
395	383
395	396
395	403
395	419
395	427
395	463
395	474
395	479
395	515
395	534
395	541
395	580
395	607
395	614
395	627
395	651
395	656
395	664
395	693
395	707
395	739
395	758
395	763
395	779
395	788
395	805
396	204
396	211
396	218
396	277
396	286
396	352
396	366
396	371
396	413
396	436
396	442
396	467
396	484
396	501
396	522
396	527
396	557
396	560
396	572
396	596
396	602
396	618
396	623
396	633
396	640
396	645
396	677
396	714
396	800
396	815
397	170
397	255
397	291
397	302
397	325
397	357
397	387
397	422
397	459
397	471
397	492
397	511
397	547
397	564
397	567
397	576
397	684
397	702
397	718
397	725
397	744
397	754
397	769
397	795
398	192
398	234
398	319
398	378
398	409
398	432
398	445
398	449
398	464
398	480
398	489
398	506
398	551
398	583
398	590
398	667
398	672
398	697
398	736
398	810
398	823
399	198
399	228
399	248
399	265
399	283
399	314
399	340
399	347
399	361
399	393
399	399
399	417
399	454
399	476
399	484
399	496
399	554
399	608
399	615
399	634
399	649
399	656
399	680
399	687
399	692
399	722
400	177
400	241
400	271
400	288
400	297
400	335
400	367
400	384
400	404
400	427
400	502
400	527
400	541
400	560
400	586
400	593
400	598
400	630
400	638
400	675
400	705
400	728
400	732
400	757
400	764
400	789
400	804
401	163
401	215
401	259
401	306
401	329
401	352
401	372
401	413
401	435
401	439
401	447
401	457
401	461
401	493
401	506
401	517
401	522
401	534
401	566
401	573
401	578
401	619
401	623
401	660
401	712
401	717
401	740
401	748
401	784
401	797
402	172
402	252
402	275
402	292
402	323
402	358
402	378
402	388
402	408
402	421
402	431
402	443
402	453
402	469
402	480
402	487
402	511
402	537
402	546
402	602
402	611
402	653
402	683
402	695
402	769
402	778
402	814
403	186
403	204
403	210
403	233
403	302
403	311
403	317
403	343
403	397
403	416
403	464
403	475
403	495
403	551
403	557
403	570
403	581
403	589
403	607
403	627
403	646
403	663
403	670
403	710
403	725
403	730
403	736
404	195
404	226
404	246
404	263
404	285
404	333
404	338
404	363
404	383
404	392
404	426
404	456
404	484
404	491
404	515
404	521
404	621
404	632
404	637
404	641
404	687
404	700
404	755
404	801
404	808
404	824
405	220
405	240
405	270
405	347
405	368
405	374
405	435
405	446
405	451
405	460
405	467
405	480
405	499
405	527
405	532
405	542
405	563
405	575
405	585
405	594
405	675
405	679
405	715
405	720
405	745
405	750
405	773
405	789
405	819
406	176
406	182
406	256
406	280
406	307
406	327
406	354
406	400
406	421
406	430
406	439
406	487
406	494
406	506
406	517
406	554
406	568
406	598
406	654
406	694
406	764
407	200
407	214
407	250
407	296
407	320
407	343
407	379
407	405
407	415
407	471
407	502
407	510
407	513
407	590
407	602
407	606
407	610
407	615
407	625
407	640
407	645
407	660
407	665
407	684
407	705
407	739
407	769
407	777
407	812
408	162
408	169
408	189
408	208
408	274
408	289
408	302
408	313
408	336
408	358
408	385
408	394
408	425
408	463
408	476
408	491
408	525
408	537
408	571
408	579
408	630
408	636
408	698
408	729
408	759
408	795
409	194
409	267
409	283
409	330
409	364
409	370
409	389
409	410
409	438
409	449
409	455
409	467
409	496
409	529
409	545
409	549
409	559
409	582
409	593
409	657
409	669
409	673
409	717
409	784
409	800
410	226
410	244
410	324
410	348
410	376
410	419
410	433
410	443
410	482
410	506
410	520
410	565
410	573
410	586
410	612
410	619
410	651
410	679
410	688
410	712
410	736
410	742
410	747
410	752
410	822
411	172
411	179
411	185
411	219
411	236
411	261
411	278
411	295
411	307
411	354
411	398
411	404
411	429
411	471
411	487
411	511
411	531
411	541
411	554
411	578
411	600
411	633
411	639
411	644
411	663
411	693
411	765
411	815
412	204
412	254
412	272
412	318
412	339
412	380
412	394
412	414
412	457
412	462
412	475
412	491
412	501
412	515
412	524
412	570
412	589
412	597
412	610
412	654
412	682
412	725
412	731
412	756
412	770
413	248
413	289
413	302
413	335
413	344
413	358
413	386
413	424
413	433
413	438
413	447
413	452
413	479
413	495
413	520
413	535
413	558
413	563
413	592
413	604
413	615
413	659
413	705
413	721
413	793
413	809
414	166
414	191
414	211
414	223
414	243
414	283
414	313
414	329
414	363
414	368
414	409
414	442
414	465
414	544
414	577
414	585
414	619
414	641
414	667
414	673
414	699
414	711
414	716
414	778
414	800
415	266
415	323
415	349
415	389
415	399
415	418
415	427
415	469
415	475
415	482
415	503
415	528
415	549
415	581
415	601
415	624
415	628
415	636
415	649
415	679
415	688
415	692
415	742
415	751
415	765
415	786
416	184
416	217
416	259
416	276
416	298
416	308
416	340
416	355
416	375
416	405
416	413
416	455
416	461
416	485
416	497
416	511
416	516
416	555
416	560
416	573
416	596
416	610
416	657
416	662
416	726
416	746
416	816
417	172
417	178
417	198
417	235
417	292
417	317
417	334
417	394
417	435
417	440
417	450
417	467
417	491
417	506
417	521
417	532
417	538
417	545
417	565
417	615
417	647
417	670
417	707
417	722
417	737
417	797
417	810
418	161
418	206
418	228
418	252
418	270
418	287
418	345
418	360
418	371
418	379
418	384
418	409
418	423
418	431
418	445
418	455
418	463
418	473
418	478
418	570
418	604
418	632
418	683
418	716
418	732
418	760
418	770
418	790
418	803
419	214
419	302
419	328
419	350
419	366
419	399
419	418
419	458
419	502
419	535
419	551
419	579
419	585
419	589
419	594
419	652
419	665
419	674
419	686
419	693
419	697
419	703
419	742
419	751
419	756
420	168
420	247
420	264
420	280
420	312
420	321
420	389
420	428
420	513
420	524
420	530
420	574
420	600
420	608
420	613
420	623
420	628
420	645
420	712
420	814
420	820
421	182
421	189
421	196
421	220
421	232
421	241
421	257
421	275
421	297
421	340
421	375
421	404
421	413
421	421
421	433
421	437
421	450
421	476
421	480
421	487
421	494
421	498
421	505
421	518
421	538
421	542
421	548
421	556
421	562
421	639
421	649
421	655
421	669
421	707
421	719
421	724
421	738
421	766
421	779
421	798
422	175
422	203
422	291
422	306
422	332
422	345
422	356
422	363
422	395
422	442
422	461
422	471
422	491
422	552
422	566
422	583
422	605
422	660
422	729
422	787
422	808
423	210
423	285
423	316
423	326
423	369
423	380
423	409
423	457
423	466
423	510
423	522
423	587
423	590
423	618
423	633
423	665
423	672
423	677
423	692
423	733
423	743
423	748
423	752
423	757
423	784
424	162
424	214
424	227
424	252
424	267
424	300
424	351
424	385
424	399
424	417
424	425
424	447
424	476
424	482
424	498
424	516
424	527
424	535
424	548
424	572
424	595
424	610
424	623
424	642
424	680
424	703
424	717
424	772
424	804
424	824
425	221
425	246
425	259
425	280
425	310
425	336
425	341
425	375
425	412
425	429
425	453
425	473
425	489
425	505
425	513
425	541
425	544
425	557
425	579
425	628
425	662
425	689
425	711
425	739
425	768
426	177
426	231
426	275
426	320
426	359
426	389
426	405
426	421
426	434
426	439
426	444
426	449
426	460
426	464
426	469
426	479
426	494
426	520
426	532
426	553
426	565
426	602
426	615
426	649
426	658
426	668
426	684
426	697
426	724
426	751
426	761
426	780
426	786
426	791
426	797
426	813
427	167
427	173
427	186
427	193
427	197
427	239
427	289
427	331
427	346
427	364
427	381
427	395
427	416
427	485
427	509
427	537
427	575
427	598
427	622
427	644
427	654
427	679
427	707
427	730
427	746
427	754
428	206
428	296
428	305
428	314
428	356
428	370
428	386
428	497
428	515
428	524
428	561
428	582
428	589
428	607
428	612
428	618
428	634
428	672
428	693
428	702
428	765
428	809
428	823
429	213
429	284
429	324
429	400
429	410
429	425
429	432
429	438
429	447
429	503
429	541
429	549
429	555
429	579
429	638
429	666
429	720
429	735
429	739
429	750
429	770
429	816
430	226
430	243
430	250
430	256
430	262
430	268
430	309
430	319
430	335
430	342
430	351
430	361
430	375
430	390
430	419
430	442
430	462
430	467
430	471
430	475
430	481
430	529
430	533
430	545
430	650
430	661
430	724
430	758
430	774
430	803
430	812
431	160
431	172
431	189
431	220
431	278
431	406
431	452
431	456
431	485
431	490
431	494
431	512
431	521
431	538
431	565
431	570
431	591
431	595
431	600
431	631
431	641
431	676
431	684
431	698
431	712
431	743
431	754
431	782
431	789
431	795
432	183
432	201
432	236
432	290
432	300
432	314
432	330
432	366
432	381
432	396
432	413
432	424
432	429
432	497
432	506
432	525
432	560
432	574
432	580
432	587
432	607
432	622
432	627
432	636
432	654
432	670
432	701
432	707
432	732
432	746
432	761
432	767
432	807
432	820
433	167
433	177
433	195
433	272
433	295
433	306
433	324
433	345
433	354
433	372
433	386
433	438
433	501
433	518
433	550
433	612
433	647
433	679
433	692
433	716
433	722
434	208
434	231
434	265
434	310
434	339
434	401
434	433
434	448
434	454
434	459
434	464
434	469
434	474
434	480
434	510
434	530
434	541
434	545
434	556
434	604
434	644
434	657
434	667
434	726
434	736
434	742
434	758
434	811
435	225
435	246
435	260
435	318
435	360
435	377
435	391
435	406
435	420
435	442
435	484
435	488
435	493
435	506
435	514
435	534
435	565
435	584
435	598
435	609
435	630
435	640
435	688
435	697
435	766
435	771
435	775
435	780
435	785
435	801
436	240
436	253
436	276
436	283
436	328
436	334
436	350
436	461
436	498
436	518
436	523
436	527
436	561
436	569
436	580
436	590
436	619
436	626
436	634
436	653
436	675
436	704
436	710
436	720
436	751
436	792
436	817
436	824
437	161
437	174
437	188
437	220
437	235
437	290
437	300
437	323
437	368
437	382
437	397
437	411
437	426
437	430
437	435
437	453
437	502
437	531
437	551
437	575
437	593
437	614
437	650
437	664
437	670
437	693
437	797
438	180
438	200
438	230
438	344
438	354
438	373
438	387
438	401
438	416
438	440
438	445
438	457
438	467
438	472
438	494
438	509
438	534
438	539
438	547
438	566
438	587
438	645
438	659
438	685
438	700
438	728
438	733
438	746
438	755
438	761
438	807
439	167
439	214
439	256
439	264
439	270
439	307
439	314
439	337
439	364
439	481
439	506
439	514
439	543
439	556
439	596
439	601
439	622
439	629
439	680
439	713
439	766
440	208
440	225
440	243
440	249
440	284
440	295
440	319
440	349
440	393
440	407
440	422
440	464
440	477
440	486
440	491
440	498
440	526
440	531
440	561
440	571
440	583
440	607
440	617
440	625
440	634
440	640
440	697
440	707
440	722
440	742
440	751
440	775
440	787
440	801
440	812
441	193
441	235
441	278
441	324
441	331
441	359
441	377
441	412
441	427
441	443
441	459
441	519
441	548
441	577
441	613
441	649
441	656
441	665
441	671
441	690
441	737
441	758
441	780
441	792
442	301
442	369
442	381
442	397
442	432
442	439
442	455
442	469
442	474
442	502
442	535
442	541
442	552
442	586
442	590
442	676
442	685
442	726
442	746
442	805
442	817
443	163
443	178
443	185
443	200
443	219
443	270
443	290
443	312
443	337
443	342
443	353
443	402
443	417
443	446
443	482
443	496
443	507
443	511
443	524
443	545
443	564
443	568
443	631
443	636
443	644
443	652
443	681
443	702
443	763
443	770
443	797
444	170
444	213
444	229
444	253
444	259
444	274
444	373
444	387
444	408
444	423
444	436
444	452
444	461
444	466
444	486
444	499
444	519
444	527
444	558
444	573
444	598
444	609
444	616
444	623
444	660
444	695
444	709
444	719
444	734
444	756
444	774
444	786
444	823
445	246
445	266
445	283
445	320
445	327
445	348
445	364
445	393
445	427
445	442
445	471
445	478
445	491
445	515
445	532
445	582
445	593
445	691
445	740
445	750
445	767
445	814
446	207
446	223
446	240
446	295
446	305
446	359
446	378
446	398
446	413
446	457
446	504
446	509
446	536
446	542
446	553
446	587
446	605
446	656
446	664
446	715
446	726
446	745
446	778
446	792
447	195
447	277
447	353
447	369
447	383
447	404
447	419
447	432
447	487
447	496
447	530
447	548
447	560
447	564
447	601
447	620
447	628
447	638
447	643
447	648
447	668
447	673
447	686
447	700
447	761
447	783
447	801
447	807
448	188
448	217
448	235
448	289
448	300
448	311
448	338
448	447
448	475
448	482
448	500
448	518
448	521
448	526
448	545
448	556
448	573
448	610
448	616
448	633
448	652
448	660
448	680
448	695
448	704
448	731
448	736
448	772
448	788
449	166
449	174
449	180
449	202
449	228
449	245
449	258
449	271
449	316
449	344
449	364
449	373
449	389
449	409
449	424
449	439
449	452
449	462
449	479
449	492
449	513
449	534
449	551
449	576
449	625
449	645
449	690
449	748
449	754
449	765
449	796
449	811
450	251
450	283
450	323
450	334
450	393
450	429
450	443
450	467
450	485
450	505
450	538
450	542
450	568
450	589
450	606
450	670
450	677
450	708
450	712
450	717
450	723
450	758
450	776
451	209
451	222
451	266
451	294
451	305
451	329
451	349
451	358
451	378
451	384
451	414
451	458
451	471
451	489
451	496
451	509
451	580
451	600
451	618
451	633
451	664
451	701
451	738
451	762
451	819
452	197
452	239
452	276
452	339
452	368
452	400
452	420
452	434
452	500
452	517
452	522
452	530
452	534
452	546
452	561
452	596
452	609
452	623
452	638
452	651
452	674
452	728
452	733
452	792
452	803
453	191
453	215
453	231
453	289
453	300
453	310
453	320
453	353
453	389
453	405
453	425
453	439
453	448
453	462
453	476
453	480
453	492
453	504
453	513
453	526
453	550
453	555
453	573
453	583
453	592
453	604
453	614
453	655
453	666
453	680
453	684
453	696
453	745
453	750
453	766
453	771
453	788
453	808
454	171
454	177
454	186
454	246
454	260
454	326
454	344
454	362
454	372
454	410
454	453
454	467
454	485
454	539
454	566
454	587
454	645
454	660
454	692
454	705
454	714
454	719
454	755
454	780
454	798
455	202
455	253
455	271
455	294
455	330
455	335
455	381
455	396
455	415
455	430
455	444
455	458
455	496
455	511
455	600
455	670
455	677
455	759
455	774
455	813
456	209
456	227
456	265
456	305
456	315
456	349
456	420
456	435
456	472
456	489
456	502
456	518
456	523
456	596
456	630
456	651
456	688
456	710
456	725
456	731
456	737
456	802
456	818
457	221
457	356
457	367
457	376
457	386
457	401
457	425
457	449
457	463
457	480
457	493
457	530
457	545
457	562
457	567
457	576
457	580
457	590
457	606
457	615
457	623
457	636
457	641
457	660
457	667
457	673
457	696
457	747
457	783
458	184
458	197
458	215
458	234
458	282
458	300
458	322
458	340
458	391
458	412
458	485
458	505
458	515
458	533
458	556
458	572
458	585
458	610
458	619
458	701
458	716
458	754
458	769
458	778
458	796
459	190
459	241
459	256
459	276
459	289
459	310
459	345
459	361
459	371
459	407
459	416
459	440
459	445
459	454
459	488
459	497
459	511
459	519
459	527
459	540
459	549
459	602
459	628
459	632
459	647
459	655
459	677
459	705
459	722
459	763
459	815
460	167
460	175
460	250
460	269
460	326
460	333
460	351
460	382
460	397
460	430
460	459
460	472
460	537
460	560
460	663
460	682
460	687
460	730
460	774
460	788
460	805
461	203
461	231
461	262
461	294
461	306
461	316
461	356
461	403
461	421
461	436
461	450
461	481
461	493
461	502
461	523
461	544
461	553
461	578
461	582
461	596
461	608
461	615
461	622
461	640
461	652
461	660
461	672
461	696
461	712
461	744
462	212
462	226
462	279
462	285
462	339
462	367
462	376
462	386
462	411
462	426
462	455
462	463
462	468
462	486
462	507
462	516
462	528
462	548
462	565
462	569
462	574
462	586
462	632
462	668
462	700
462	749
462	760
462	783
463	181
463	195
463	219
463	236
463	254
463	301
463	322
463	345
463	392
463	441
463	446
463	477
463	511
463	520
463	605
463	611
463	645
463	691
463	707
463	717
463	725
463	754
463	770
463	777
463	795
463	800
463	811
463	821
464	243
464	259
464	272
464	289
464	311
464	327
464	362
464	371
464	398
464	407
464	416
464	432
464	499
464	536
464	541
464	559
464	580
464	619
464	664
464	676
464	682
464	730
465	169
465	187
465	265
465	317
465	334
465	351
465	380
465	421
465	451
465	459
465	473
465	490
465	503
465	523
465	532
465	568
465	589
465	600
465	615
465	629
465	634
465	638
465	671
465	687
465	710
465	736
465	741
465	747
465	764
465	805
466	175
466	224
466	230
466	249
466	295
466	427
466	437
466	464
466	485
466	494
466	507
466	515
466	528
466	549
466	555
466	572
466	576
466	584
466	623
466	643
466	652
466	658
466	695
466	701
466	781
466	788
466	815
467	209
467	276
467	306
467	339
467	356
467	366
467	375
467	385
467	389
467	403
467	411
467	442
467	468
467	477
467	519
467	592
467	604
467	609
467	675
467	690
467	705
467	719
467	726
467	793
468	200
468	215
468	237
468	256
468	283
468	300
468	323
468	329
468	395
468	416
468	431
468	448
468	455
468	481
468	511
468	536
468	545
468	553
468	561
468	565
468	579
468	588
468	636
468	663
468	668
468	680
468	684
468	768
468	776
469	193
469	268
469	290
469	361
469	460
469	503
469	523
469	570
469	574
469	583
469	613
469	617
469	623
469	627
469	640
469	656
469	699
469	731
469	801
469	810
470	182
470	313
470	334
470	344
470	351
470	371
470	408
470	422
470	436
470	440
470	474
470	493
470	498
470	532
470	539
470	548
470	557
470	607
470	631
470	645
470	671
470	710
470	739
470	744
470	751
470	756
470	762
471	168
471	173
471	187
471	204
471	227
471	242
471	247
471	273
471	296
471	317
471	381
471	398
471	402
471	427
471	464
471	486
471	507
471	603
471	651
471	677
471	689
471	705
471	715
471	791
471	796
471	805
472	233
472	252
472	263
472	302
472	308
472	325
472	340
472	356
472	366
472	375
472	386
472	392
472	413
472	445
472	456
472	480
472	513
472	519
472	528
472	544
472	585
472	591
472	598
472	620
472	666
472	694
472	721
472	727
472	735
472	812
472	821
473	199
473	212
473	218
473	258
473	279
473	418
473	432
473	470
473	490
473	536
473	560
473	572
473	577
473	612
473	628
473	673
473	681
473	741
473	767
473	772
473	783
474	286
474	330
474	346
474	361
474	423
474	450
474	462
474	475
474	494
474	503
474	524
474	540
474	548
474	556
474	608
474	616
474	624
474	634
474	638
474	697
474	701
474	711
474	749
475	179
475	244
475	268
475	292
475	336
475	352
475	369
475	405
475	410
475	437
475	509
475	515
475	532
475	568
475	580
475	584
475	590
475	595
475	603
475	661
475	686
475	691
475	753
475	760
475	777
475	787
475	802
475	808
476	193
476	207
476	275
476	312
476	319
476	378
476	389
476	400
476	428
476	445
476	453
476	466
476	484
476	499
476	528
476	544
476	551
476	564
476	599
476	651
476	656
476	675
476	724
476	815
477	168
477	228
477	235
477	248
477	255
477	298
477	304
477	325
477	357
477	383
477	395
477	457
477	470
477	479
477	490
477	520
477	536
477	572
477	576
477	587
477	622
477	626
477	631
477	640
477	644
477	665
477	671
477	699
477	705
477	720
477	729
477	793
478	175
478	215
478	222
478	261
478	281
478	341
478	365
478	374
478	414
478	419
478	433
478	440
478	495
478	504
478	561
478	606
478	614
478	715
478	737
478	743
478	799
478	805
479	187
479	200
479	268
479	288
479	332
479	347
479	409
479	424
479	450
479	462
479	473
479	516
479	525
479	533
479	541
479	555
479	595
479	602
479	648
479	682
479	692
479	710
479	750
479	762
479	769
480	294
480	315
480	320
480	380
480	403
480	468
480	481
480	486
480	499
480	511
480	529
480	550
480	567
480	579
480	585
480	591
480	620
480	624
480	655
480	687
480	724
480	755
480	775
480	811
481	206
481	239
481	251
481	276
481	301
481	308
481	337
481	353
481	359
481	369
481	386
481	392
481	397
481	416
481	428
481	445
481	454
481	459
481	491
481	536
481	545
481	562
481	611
481	660
481	672
481	678
481	696
481	780
481	784
481	790
481	804
481	818
482	193
482	225
482	232
482	245
482	257
482	327
482	478
482	504
482	521
482	558
482	574
482	598
482	635
482	645
482	707
482	720
482	729
482	735
482	740
483	171
483	178
483	219
483	264
483	283
483	333
483	343
483	374
483	412
483	422
483	433
483	439
483	450
483	464
483	472
483	496
483	525
483	532
483	540
483	544
483	553
483	570
483	588
483	616
483	651
483	664
483	692
483	715
483	752
483	764
483	771
483	799
484	213
484	290
484	312
484	348
484	365
484	395
484	406
484	485
484	509
484	517
484	565
484	583
484	594
484	610
484	631
484	640
484	669
484	683
484	701
484	724
484	757
484	807
485	185
485	200
485	270
485	317
485	323
485	355
485	379
485	383
485	389
485	400
485	446
485	469
485	500
485	513
485	528
485	537
485	548
485	561
485	578
485	622
485	626
485	636
485	655
485	674
485	696
485	745
485	767
485	775
485	813
486	207
486	245
486	252
486	295
486	302
486	338
486	360
486	369
486	418
486	427
486	442
486	454
486	461
486	476
486	481
486	489
486	504
486	522
486	556
486	605
486	663
486	710
486	780
487	259
487	278
487	308
487	328
487	432
487	496
487	533
487	542
487	552
487	568
487	574
487	599
487	613
487	618
487	644
487	679
487	685
487	720
487	729
487	736
487	741
487	761
487	784
487	791
487	797
488	170
488	178
488	189
488	223
488	231
488	237
488	313
488	334
488	345
488	375
488	392
488	413
488	422
488	437
488	450
488	472
488	484
488	518
488	525
488	546
488	564
488	586
488	592
488	609
488	666
488	701
488	748
488	755
488	766
488	773
488	802
489	196
489	285
489	351
489	386
489	397
489	403
489	409
489	458
489	463
489	479
489	500
489	509
489	529
489	537
489	559
489	576
489	581
489	625
489	629
489	639
489	657
489	671
489	691
489	706
489	714
489	808
490	218
490	242
490	266
490	292
490	319
490	357
490	365
490	380
490	428
490	445
490	454
490	492
490	522
490	571
490	589
490	605
490	650
490	724
490	752
491	184
491	203
491	209
491	248
491	255
491	272
491	297
491	417
491	468
491	476
491	487
491	504
491	513
491	550
491	554
491	562
491	615
491	621
491	681
491	696
491	743
491	793
491	799
492	279
492	309
492	324
492	330
492	336
492	342
492	369
492	433
492	440
492	496
492	526
492	534
492	544
492	566
492	574
492	585
492	594
492	598
492	633
492	643
492	654
492	668
492	674
492	699
492	710
492	719
492	758
492	764
492	788
493	227
493	235
493	261
493	303
493	347
493	395
493	400
493	412
493	422
493	448
493	458
493	472
493	481
493	500
493	508
493	517
493	539
493	579
493	609
493	640
493	692
493	731
493	737
493	747
493	770
494	173
494	193
494	287
494	315
494	354
494	360
494	366
494	375
494	384
494	389
494	406
494	463
494	522
494	530
494	552
494	558
494	588
494	604
494	617
494	650
494	658
494	663
494	686
494	707
494	777
494	783
494	804
495	198
495	221
495	268
495	442
495	513
495	547
495	569
495	613
495	624
495	636
495	716
495	725
495	767
495	810
496	179
496	214
496	243
496	292
496	299
496	310
496	320
496	326
496	332
496	338
496	379
496	417
496	425
496	431
496	437
496	453
496	467
496	478
496	486
496	494
496	505
496	526
496	542
496	565
496	577
496	583
496	595
496	630
496	646
496	672
496	682
496	701
496	742
496	750
496	756
496	789
496	799
497	186
497	206
497	250
497	275
497	343
497	370
497	398
497	421
497	458
497	518
497	534
497	561
497	609
497	654
497	668
497	692
497	711
497	720
497	735
497	762
498	231
498	257
498	281
498	350
498	385
498	392
498	408
498	414
498	448
498	463
498	472
498	481
498	491
498	500
498	509
498	550
498	573
498	590
498	616
498	659
498	663
498	697
498	774
498	780
498	804
499	168
499	225
499	238
499	287
499	305
499	315
499	356
499	362
499	375
499	402
499	433
499	522
499	530
499	539
499	568
499	621
499	626
499	640
499	676
499	716
499	731
499	793
499	809
500	194
500	264
500	328
500	334
500	418
500	428
500	439
500	452
500	485
500	503
500	513
500	526
500	545
500	565
500	577
500	582
500	601
500	634
500	688
500	705
500	724
500	766
501	174
501	218
501	246
501	269
501	310
501	321
501	340
501	379
501	396
501	444
501	467
501	476
501	495
501	534
501	558
501	588
501	609
501	613
501	654
501	742
501	754
501	759
501	787
501	801
502	181
502	201
502	252
502	276
502	346
502	352
502	368
502	411
502	423
502	448
502	457
502	481
502	490
502	517
502	553
502	572
502	594
502	629
502	644
502	667
502	692
502	711
502	729
502	735
502	771
502	776
503	188
503	212
503	228
503	289
503	294
503	300
503	358
503	373
503	384
503	390
503	405
503	462
503	471
503	500
503	509
503	522
503	531
503	540
503	548
503	619
503	623
503	659
503	675
503	684
503	696
503	745
504	235
504	259
504	282
504	316
504	430
504	435
504	452
504	561
504	567
504	580
504	584
504	600
504	606
504	635
504	649
504	670
504	716
504	722
504	764
504	807
505	222
505	241
505	265
505	309
505	325
505	364
505	378
505	400
505	414
505	420
505	441
505	446
505	476
505	485
505	494
505	503
505	513
505	526
505	536
505	557
505	575
505	679
505	688
505	703
505	725
505	739
505	750
505	756
505	774
505	796
506	170
506	196
506	215
506	271
506	330
506	336
506	343
506	394
506	458
506	467
506	519
506	544
506	552
506	571
506	591
506	610
506	616
506	654
506	667
506	708
506	734
507	177
507	204
507	247
507	278
507	320
507	348
507	370
507	388
507	409
507	481
507	489
507	539
507	604
507	626
507	630
507	646
507	712
507	718
507	760
507	781
507	787
508	184
508	192
508	210
508	229
508	255
508	285
508	292
508	297
508	304
508	354
508	360
508	403
508	425
508	431
508	437
508	471
508	499
508	507
508	522
508	532
508	548
508	560
508	565
508	582
508	588
508	599
508	634
508	641
508	651
508	675
508	694
508	700
508	730
509	237
509	261
509	315
509	375
509	382
509	443
509	448
509	453
509	462
509	476
509	485
509	512
509	556
509	578
509	595
509	608
509	621
509	705
509	744
509	753
509	792
509	798
509	805
510	201
510	243
510	326
510	366
510	398
510	418
510	495
510	503
510	517
510	527
510	535
510	613
510	617
510	628
510	656
510	660
510	665
510	672
510	684
510	689
510	724
510	738
510	765
510	770
511	173
511	217
511	250
511	268
511	332
511	339
511	344
511	392
511	413
511	467
511	542
511	552
511	569
511	573
511	585
511	592
511	603
511	679
511	712
511	733
511	776
512	179
512	273
512	279
512	300
512	310
512	321
512	370
512	407
512	423
512	434
512	458
512	471
512	481
512	499
512	531
512	562
512	639
512	644
512	648
512	675
512	696
512	716
513	189
513	195
513	225
513	290
513	349
513	386
513	402
513	427
513	439
513	446
513	490
513	508
513	519
513	523
513	539
513	547
513	555
513	581
513	598
513	633
513	701
513	720
513	749
513	761
513	783
513	790
513	797
513	812
514	232
514	257
514	295
514	355
514	360
514	380
514	452
514	484
514	576
514	594
514	609
514	622
514	653
514	668
514	687
514	706
514	727
514	757
515	207
515	264
515	284
515	305
515	315
515	326
515	374
515	396
515	416
515	462
515	476
515	494
515	503
515	514
515	528
515	535
515	551
515	566
515	589
515	603
515	613
515	618
515	679
515	691
515	736
515	768
515	807
516	238
516	299
516	338
516	366
516	411
516	467
516	542
516	562
516	571
516	584
516	630
516	637
516	642
516	646
516	658
516	664
516	698
516	712
516	732
516	745
516	779
516	802
517	175
517	183
517	198
517	213
517	229
517	245
517	269
517	276
517	320
517	344
517	390
517	405
517	420
517	425
517	431
517	436
517	442
517	458
517	499
517	508
517	517
517	538
517	546
517	579
517	626
517	717
517	723
517	774
517	786
517	792
518	222
518	252
518	289
518	309
518	332
518	351
518	358
518	383
518	447
518	473
518	480
518	521
518	531
518	556
518	575
518	611
518	621
518	672
518	677
518	702
518	750
518	759
519	191
519	371
519	378
519	399
519	452
519	462
519	485
519	491
519	512
519	526
519	566
519	595
519	606
519	616
519	650
519	655
519	661
519	666
519	684
519	726
520	235
520	258
520	296
520	304
520	326
520	393
520	415
520	476
520	496
520	504
520	552
520	560
520	588
520	601
520	628
520	633
520	637
520	642
520	694
520	709
520	738
520	763
520	770
520	797
520	808
521	203
521	226
521	241
521	265
521	283
521	314
521	339
521	388
521	403
521	409
521	421
521	427
521	467
521	537
521	582
521	624
521	680
521	698
521	714
521	720
521	743
521	782
522	196
522	220
522	248
522	272
522	346
522	365
522	433
522	438
522	444
522	458
522	482
522	500
522	507
522	517
522	522
522	528
522	542
522	546
522	555
522	564
522	572
522	578
522	597
522	647
522	674
522	687
522	756
522	776
522	804
523	180
523	186
523	211
523	289
523	320
523	353
523	376
523	382
523	448
523	463
523	472
523	487
523	492
523	592
523	619
523	654
523	658
523	664
523	669
523	703
523	748
523	788
523	814
524	171
524	277
524	308
524	331
524	370
524	477
524	513
524	533
524	551
524	559
524	587
524	600
524	611
524	632
524	639
524	711
524	726
524	732
524	760
524	799
525	261
525	302
525	398
525	405
525	412
525	424
525	453
525	503
525	518
525	568
525	582
525	606
525	627
525	673
525	691
525	697
525	739
525	768
526	224
526	230
526	237
526	294
526	313
526	326
526	349
526	363
526	392
526	419
526	430
526	435
526	441
526	468
526	483
526	523
526	577
526	595
526	622
526	717
526	779
526	786
526	807
527	177
527	206
527	242
527	254
527	267
527	273
527	282
527	336
527	342
527	355
527	385
527	459
527	473
527	508
527	547
527	555
527	564
527	572
527	591
527	613
527	617
527	644
527	650
527	660
527	667
527	681
527	702
527	723
527	732
527	750
527	756
528	199
528	218
528	308
528	379
528	448
528	464
528	487
528	494
528	513
528	528
528	538
528	559
528	599
528	604
528	608
528	631
528	638
528	655
528	686
528	708
528	761
528	774
528	791
528	801
529	193
529	289
529	319
529	331
529	373
529	396
529	401
529	425
529	454
529	478
529	499
529	518
529	567
529	586
529	626
529	695
529	727
529	739
529	813
530	211
530	247
530	296
530	345
530	360
530	367
530	408
530	413
530	430
530	504
530	533
530	543
530	552
530	581
530	620
530	676
530	713
531	171
531	186
531	236
531	241
531	258
531	265
531	271
531	277
531	325
531	339
531	351
531	419
531	438
531	443
531	469
531	474
531	484
531	509
531	537
531	563
531	576
531	616
531	635
531	647
531	661
531	671
531	682
531	745
531	785
532	179
532	204
532	222
532	251
532	302
532	313
532	384
532	390
532	447
532	459
532	489
532	524
532	547
532	555
532	595
532	599
532	610
532	629
532	653
532	699
532	721
532	795
532	808
532	817
533	197
533	228
533	283
533	376
533	480
533	494
533	499
533	512
533	572
533	591
533	605
533	624
533	643
533	709
533	733
533	754
533	768
533	802
534	192
534	216
534	331
534	356
534	363
534	371
534	399
534	404
534	409
534	421
534	427
534	434
534	455
534	465
534	519
534	529
534	534
534	578
534	585
534	667
534	689
534	693
534	704
534	715
534	729
534	759
534	779
535	261
535	288
535	308
535	319
535	347
535	415
535	439
535	471
535	485
535	505
535	542
535	551
535	567
535	616
535	638
535	656
535	661
535	790
535	813
536	246
536	273
536	279
536	297
536	335
536	341
536	394
536	444
536	476
536	491
536	557
536	601
536	628
536	633
536	646
536	652
536	675
536	682
536	722
536	738
536	747
536	783
536	806
537	172
537	210
537	222
537	234
537	267
537	302
537	314
537	325
537	380
537	387
537	450
537	459
537	496
537	511
537	515
537	524
537	536
537	546
537	562
537	570
537	575
537	589
537	594
537	607
537	670
537	678
537	763
537	775
538	184
538	240
538	351
538	357
538	399
538	406
538	463
538	481
538	501
538	531
538	584
538	622
538	643
538	697
538	711
538	728
538	743
539	179
539	203
539	228
539	255
539	284
539	330
539	362
539	367
539	373
539	411
539	417
539	424
539	430
539	434
539	438
539	468
539	486
539	553
539	578
539	612
539	618
539	686
539	717
539	736
539	752
539	757
539	796
539	809
539	817
540	168
540	196
540	247
540	290
540	308
540	320
540	345
540	541
540	566
540	631
540	655
540	661
540	666
540	681
540	692
540	703
540	770
540	802
541	217
541	258
541	337
541	396
541	440
541	456
541	474
541	491
541	560
541	573
541	588
541	592
541	597
541	607
541	650
541	674
541	788
542	191
542	235
542	273
542	297
542	325
542	352
542	377
542	382
542	389
542	403
542	446
542	496
542	508
542	518
542	522
542	536
542	545
542	550
542	621
542	627
542	639
542	644
542	709
542	748
542	766
542	782
543	171
543	209
543	265
543	280
543	285
543	370
543	407
543	413
543	419
543	426
543	431
543	451
543	462
543	503
543	527
543	531
543	569
543	582
543	670
543	689
543	697
543	713
543	731
543	742
543	775
544	184
544	222
544	241
544	252
544	303
544	314
544	331
544	341
544	357
544	364
544	437
544	481
544	563
544	616
544	635
544	662
544	720
544	754
544	761
544	810
544	815
545	203
545	228
545	292
545	320
545	347
545	442
545	457
545	469
545	474
545	513
545	541
545	578
545	594
545	610
545	650
545	679
545	684
545	702
545	736
546	177
546	196
546	246
546	308
546	392
546	447
546	486
546	492
546	496
546	519
546	536
546	549
546	558
546	585
546	598
546	602
546	624
546	656
546	673
546	708
546	771
546	789
547	191
547	216
547	237
547	257
547	297
547	336
547	354
547	361
547	386
547	397
547	403
547	409
547	416
547	428
547	508
547	567
547	571
547	589
547	628
547	642
547	689
547	725
547	748
547	765
547	804
548	169
548	207
548	263
548	286
548	325
548	367
548	379
548	422
548	434
548	465
548	483
548	524
548	530
548	545
548	553
548	574
548	693
548	714
548	753
548	758
548	779
548	797
549	188
549	231
549	269
549	275
549	281
549	314
549	340
549	374
549	439
549	461
549	471
549	478
549	503
549	563
549	581
549	638
549	663
549	669
549	676
549	699
549	719
550	225
550	240
550	251
550	303
550	331
550	445
550	489
550	510
550	548
550	592
550	606
550	618
550	624
550	646
550	652
550	742
550	792
551	182
551	201
551	292
551	320
551	346
551	401
551	406
551	456
551	493
551	515
551	540
551	568
551	587
551	596
551	601
551	706
551	729
551	736
551	770
551	786
551	808
551	816
552	176
552	214
552	258
552	308
552	351
552	356
552	382
552	389
552	394
552	412
552	418
552	424
552	429
552	436
552	499
552	520
552	526
552	535
552	544
552	558
552	573
552	631
552	636
552	641
552	659
553	194
553	297
553	326
553	336
553	363
553	369
553	375
553	450
553	462
553	467
553	479
553	485
553	506
553	554
553	578
553	666
553	681
553	686
553	692
553	697
553	725
553	748
553	795
554	187
554	221
554	227
554	234
554	265
554	286
554	314
554	473
554	511
554	531
554	583
554	609
554	616
554	627
554	655
554	702
554	718
554	764
554	781
554	789
555	204
555	240
555	247
555	271
555	302
555	341
555	397
555	442
555	490
555	539
555	549
555	563
555	598
555	605
555	645
555	675
555	710
555	740
555	774
555	802
555	808
556	253
556	279
556	292
556	320
556	331
556	347
556	385
556	392
556	403
556	415
556	446
556	516
556	558
556	568
556	621
556	670
556	734
556	752
556	759
556	814
557	179
557	259
557	379
557	409
557	421
557	427
557	432
557	437
557	452
557	458
557	495
557	501
557	522
557	544
557	573
557	579
557	589
557	594
557	639
557	649
557	660
557	689
557	729
557	786
558	184
558	198
558	211
558	336
558	352
558	359
558	465
558	482
558	487
558	506
558	527
558	535
558	554
558	585
558	613
558	635
558	678
558	696
558	701
558	717
558	763
559	175
559	191
559	217
559	266
559	297
559	309
559	325
559	365
559	373
559	398
559	470
559	476
559	549
559	624
559	630
559	684
559	748
559	770
559	807
559	819
560	223
560	231
560	245
560	287
560	314
560	492
560	512
560	539
560	563
560	602
560	645
560	707
560	726
560	781
560	790
561	202
561	237
561	272
561	278
561	342
561	382
561	404
561	413
561	441
561	448
561	453
561	497
561	518
561	558
561	570
561	575
561	595
561	618
561	650
561	659
561	664
561	668
561	675
561	742
561	759
561	799
561	814
562	254
562	294
562	302
562	319
562	330
562	348
562	376
562	393
562	418
562	429
562	435
562	460
562	482
562	523
562	544
562	553
562	581
562	611
562	713
562	737
563	177
563	183
563	260
563	354
563	367
563	424
563	466
563	488
563	502
563	508
563	533
563	587
563	607
563	627
563	633
563	640
563	680
563	697
563	768
563	774
563	794
564	196
564	209
564	218
564	229
564	283
564	311
564	337
564	360
564	409
564	471
564	478
564	493
564	528
564	567
564	573
564	601
564	647
564	664
564	690
564	704
564	722
564	727
564	752
564	764
565	189
565	248
565	265
565	272
565	290
565	372
565	399
565	438
565	444
565	512
565	539
565	550
565	592
565	624
565	656
565	674
565	709
565	734
565	788
566	171
566	242
566	300
566	324
566	344
566	390
566	450
566	454
566	483
566	498
566	519
566	558
566	577
566	617
566	650
566	716
566	739
566	758
566	799
566	806
567	234
567	350
567	380
567	385
567	406
567	415
567	420
567	426
567	432
567	505
567	524
567	553
567	563
567	583
567	596
567	611
567	633
567	694
567	746
567	781
567	814
568	202
568	223
568	253
568	277
568	306
568	317
568	357
568	374
568	461
568	467
568	473
568	534
568	544
568	601
568	606
568	627
568	668
568	684
569	181
569	259
569	294
569	332
569	363
569	368
569	395
569	412
569	479
569	495
569	510
569	530
569	571
569	620
569	645
569	702
569	711
569	720
569	775
569	793
569	819
570	173
570	209
570	284
570	312
570	327
570	339
570	429
570	440
570	455
570	539
570	548
570	565
570	590
570	640
570	664
570	672
570	680
570	692
570	729
570	751
570	768
570	811
571	190
571	196
571	230
571	238
571	246
571	266
571	290
571	300
571	322
571	383
571	401
571	417
571	423
571	435
571	446
571	484
571	500
571	516
571	553
571	576
571	615
571	657
571	717
571	738
571	762
571	798
571	804
572	216
572	345
572	389
572	406
572	462
572	490
572	525
572	583
572	610
572	625
572	634
572	649
572	698
573	204
573	272
573	317
573	335
573	352
573	358
573	470
573	531
573	544
573	561
573	567
573	598
573	629
573	677
573	705
573	757
573	816
574	177
574	184
574	223
574	254
574	305
574	328
574	365
574	372
574	378
574	396
574	412
574	476
574	496
574	506
574	511
574	518
574	537
574	556
574	573
574	589
574	604
574	613
574	619
574	644
574	669
574	688
574	710
574	724
574	733
574	747
574	780
575	192
575	235
575	261
575	278
575	286
575	293
575	401
575	426
575	436
575	442
575	480
575	580
575	594
575	772
575	788
576	210
576	242
576	322
576	342
576	348
576	384
576	416
576	421
576	449
576	454
576	486
576	501
576	523
576	608
576	639
576	655
576	694
576	715
576	743
576	796
576	810
577	181
577	267
577	311
577	391
577	460
577	466
577	527
577	551
577	585
577	600
577	622
577	627
577	633
577	665
577	672
577	705
577	737
577	767
578	170
578	198
578	216
578	249
578	300
578	355
578	409
578	471
578	491
578	507
578	513
578	534
578	539
578	570
578	575
578	617
578	649
578	682
578	721
578	728
578	751
578	760
579	205
579	255
579	273
579	318
579	329
579	336
579	367
579	374
579	379
579	396
579	431
579	477
579	497
579	545
579	558
579	565
579	611
579	644
579	660
579	689
580	178
580	235
580	281
580	305
580	345
580	361
580	438
580	445
580	450
580	483
580	605
580	669
580	677
581	223
581	230
581	262
581	287
581	324
581	385
581	402
581	413
581	419
581	424
581	455
581	502
581	581
581	589
581	596
581	631
581	638
581	654
581	700
582	187
582	212
582	294
582	351
582	462
582	467
582	600
582	608
582	620
583	195
583	200
583	244
583	340
583	368
583	375
583	392
583	408
583	489
583	509
584	218
584	250
584	269
584	277
584	311
584	334
584	398
584	428
584	434
584	440
584	473
584	479
584	494
584	678
585	257
585	300
585	355
585	445
586	176
586	283
586	289
586	306
586	329
586	345
586	381
586	387
586	416
586	422
587	231
587	321
587	404
587	451
587	458
587	464
587	469
588	182
588	207
588	224
588	238
588	263
588	295
588	339
588	365
588	372
588	394
589	200
589	216
589	246
589	316
589	333
589	350
589	425
589	431
589	436
590	190
590	274
590	309
590	441
591	253
591	280
591	287
591	302
591	327
