%!PS-Adobe-3.0 EPSF-3.0
%%Creator: (MATLAB, The Mathworks, Inc. Version 9.10.0.1649659 \(R2021a\) Update 1. Operating System: Windows 10)
%%Title: C:/Users/sjenks/Desktop/research/rochester/AO/adaptiveoptics/ConeDesity/Sam_anisotropy/Z055_vertCDHist.eps
%%CreationDate: 2022-10-18T13:58:57
%%Pages: (atend)
%%BoundingBox:     0     0   420   315
%%LanguageLevel: 3
%%EndComments
%%BeginProlog
%%BeginResource: procset (Apache XML Graphics Std ProcSet) 1.2 0
%%Version: 1.2 0
%%Copyright: (Copyright 2001-2003,2010 The Apache Software Foundation. License terms: http://www.apache.org/licenses/LICENSE-2.0)
/bd{bind def}bind def
/ld{load def}bd
/GR/grestore ld
/GS/gsave ld
/RM/rmoveto ld
/C/curveto ld
/t/show ld
/L/lineto ld
/ML/setmiterlimit ld
/CT/concat ld
/f/fill ld
/N/newpath ld
/S/stroke ld
/CC/setcmykcolor ld
/A/ashow ld
/cp/closepath ld
/RC/setrgbcolor ld
/LJ/setlinejoin ld
/GC/setgray ld
/LW/setlinewidth ld
/M/moveto ld
/re {4 2 roll M
1 index 0 rlineto
0 exch rlineto
neg 0 rlineto
cp } bd
/_ctm matrix def
/_tm matrix def
/BT { _ctm currentmatrix pop matrix _tm copy pop 0 0 moveto } bd
/ET { _ctm setmatrix } bd
/iTm { _ctm setmatrix _tm concat } bd
/Tm { _tm astore pop iTm 0 0 moveto } bd
/ux 0.0 def
/uy 0.0 def
/F {
  /Tp exch def
  /Tf exch def
  Tf findfont Tp scalefont setfont
  /cf Tf def  /cs Tp def
} bd
/ULS {currentpoint /uy exch def /ux exch def} bd
/ULE {
  /Tcx currentpoint pop def
  gsave
  newpath
  cf findfont cs scalefont dup
  /FontMatrix get 0 get /Ts exch def /FontInfo get dup
  /UnderlinePosition get Ts mul /To exch def
  /UnderlineThickness get Ts mul /Tt exch def
  ux uy To add moveto  Tcx uy To add lineto
  Tt setlinewidth stroke
  grestore
} bd
/OLE {
  /Tcx currentpoint pop def
  gsave
  newpath
  cf findfont cs scalefont dup
  /FontMatrix get 0 get /Ts exch def /FontInfo get dup
  /UnderlinePosition get Ts mul /To exch def
  /UnderlineThickness get Ts mul /Tt exch def
  ux uy To add cs add moveto Tcx uy To add cs add lineto
  Tt setlinewidth stroke
  grestore
} bd
/SOE {
  /Tcx currentpoint pop def
  gsave
  newpath
  cf findfont cs scalefont dup
  /FontMatrix get 0 get /Ts exch def /FontInfo get dup
  /UnderlinePosition get Ts mul /To exch def
  /UnderlineThickness get Ts mul /Tt exch def
  ux uy To add cs 10 mul 26 idiv add moveto Tcx uy To add cs 10 mul 26 idiv add lineto
  Tt setlinewidth stroke
  grestore
} bd
/QT {
/Y22 exch store
/X22 exch store
/Y21 exch store
/X21 exch store
currentpoint
/Y21 load 2 mul add 3 div exch
/X21 load 2 mul add 3 div exch
/X21 load 2 mul /X22 load add 3 div
/Y21 load 2 mul /Y22 load add 3 div
/X22 load /Y22 load curveto
} bd
/SSPD {
dup length /d exch dict def
{
/v exch def
/k exch def
currentpagedevice k known {
/cpdv currentpagedevice k get def
v cpdv ne {
/upd false def
/nullv v type /nulltype eq def
/nullcpdv cpdv type /nulltype eq def
nullv nullcpdv or
{
/upd true def
} {
/sametype v type cpdv type eq def
sametype {
v type /arraytype eq {
/vlen v length def
/cpdvlen cpdv length def
vlen cpdvlen eq {
0 1 vlen 1 sub {
/i exch def
/obj v i get def
/cpdobj cpdv i get def
obj cpdobj ne {
/upd true def
exit
} if
} for
} {
/upd true def
} ifelse
} {
v type /dicttype eq {
v {
/dv exch def
/dk exch def
/cpddv cpdv dk get def
dv cpddv ne {
/upd true def
exit
} if
} forall
} {
/upd true def
} ifelse
} ifelse
} if
} ifelse
upd true eq {
d k v put
} if
} if
} if
} forall
d length 0 gt {
d setpagedevice
} if
} bd
/RE { % /NewFontName [NewEncodingArray] /FontName RE -
  findfont dup length dict begin
  {
    1 index /FID ne
    {def} {pop pop} ifelse
  } forall
  /Encoding exch def
  /FontName 1 index def
  currentdict definefont pop
  end
} bind def
%%EndResource
%%BeginResource: procset (Apache XML Graphics EPS ProcSet) 1.0 0
%%Version: 1.0 0
%%Copyright: (Copyright 2002-2003 The Apache Software Foundation. License terms: http://www.apache.org/licenses/LICENSE-2.0)
/BeginEPSF { %def
/b4_Inc_state save def         % Save state for cleanup
/dict_count countdictstack def % Count objects on dict stack
/op_count count 1 sub def      % Count objects on operand stack
userdict begin                 % Push userdict on dict stack
/showpage { } def              % Redefine showpage, { } = null proc
0 setgray 0 setlinecap         % Prepare graphics state
1 setlinewidth 0 setlinejoin
10 setmiterlimit [ ] 0 setdash newpath
/languagelevel where           % If level not equal to 1 then
{pop languagelevel             % set strokeadjust and
1 ne                           % overprint to their defaults.
{false setstrokeadjust false setoverprint
} if
} if
} bd
/EndEPSF { %def
count op_count sub {pop} repeat            % Clean up stacks
countdictstack dict_count sub {end} repeat
b4_Inc_state restore
} bd
%%EndResource
%FOPBeginFontDict
%%IncludeResource: font Courier-Oblique
%%IncludeResource: font Courier-BoldOblique
%%IncludeResource: font Courier-Bold
%%IncludeResource: font ZapfDingbats
%%IncludeResource: font Symbol
%%IncludeResource: font Helvetica
%%IncludeResource: font Helvetica-Oblique
%%IncludeResource: font Helvetica-Bold
%%IncludeResource: font Helvetica-BoldOblique
%%IncludeResource: font Times-Roman
%%IncludeResource: font Times-Italic
%%IncludeResource: font Times-Bold
%%IncludeResource: font Times-BoldItalic
%%IncludeResource: font Courier
%FOPEndFontDict
%%BeginResource: encoding WinAnsiEncoding
/WinAnsiEncoding [
/.notdef /.notdef /.notdef /.notdef /.notdef
/.notdef /.notdef /.notdef /.notdef /.notdef
/.notdef /.notdef /.notdef /.notdef /.notdef
/.notdef /.notdef /.notdef /.notdef /.notdef
/.notdef /.notdef /.notdef /.notdef /.notdef
/.notdef /.notdef /.notdef /.notdef /.notdef
/.notdef /.notdef /space /exclam /quotedbl
/numbersign /dollar /percent /ampersand /quotesingle
/parenleft /parenright /asterisk /plus /comma
/hyphen /period /slash /zero /one
/two /three /four /five /six
/seven /eight /nine /colon /semicolon
/less /equal /greater /question /at
/A /B /C /D /E
/F /G /H /I /J
/K /L /M /N /O
/P /Q /R /S /T
/U /V /W /X /Y
/Z /bracketleft /backslash /bracketright /asciicircum
/underscore /quoteleft /a /b /c
/d /e /f /g /h
/i /j /k /l /m
/n /o /p /q /r
/s /t /u /v /w
/x /y /z /braceleft /bar
/braceright /asciitilde /bullet /Euro /bullet
/quotesinglbase /florin /quotedblbase /ellipsis /dagger
/daggerdbl /circumflex /perthousand /Scaron /guilsinglleft
/OE /bullet /Zcaron /bullet /bullet
/quoteleft /quoteright /quotedblleft /quotedblright /bullet
/endash /emdash /asciitilde /trademark /scaron
/guilsinglright /oe /bullet /zcaron /Ydieresis
/space /exclamdown /cent /sterling /currency
/yen /brokenbar /section /dieresis /copyright
/ordfeminine /guillemotleft /logicalnot /sfthyphen /registered
/macron /degree /plusminus /twosuperior /threesuperior
/acute /mu /paragraph /middot /cedilla
/onesuperior /ordmasculine /guillemotright /onequarter /onehalf
/threequarters /questiondown /Agrave /Aacute /Acircumflex
/Atilde /Adieresis /Aring /AE /Ccedilla
/Egrave /Eacute /Ecircumflex /Edieresis /Igrave
/Iacute /Icircumflex /Idieresis /Eth /Ntilde
/Ograve /Oacute /Ocircumflex /Otilde /Odieresis
/multiply /Oslash /Ugrave /Uacute /Ucircumflex
/Udieresis /Yacute /Thorn /germandbls /agrave
/aacute /acircumflex /atilde /adieresis /aring
/ae /ccedilla /egrave /eacute /ecircumflex
/edieresis /igrave /iacute /icircumflex /idieresis
/eth /ntilde /ograve /oacute /ocircumflex
/otilde /odieresis /divide /oslash /ugrave
/uacute /ucircumflex /udieresis /yacute /thorn
/ydieresis
] def
%%EndResource
%FOPBeginFontReencode
/Courier-Oblique findfont
dup length dict begin
  {1 index /FID ne {def} {pop pop} ifelse} forall
  /Encoding WinAnsiEncoding def
  currentdict
end
/Courier-Oblique exch definefont pop
/Courier-BoldOblique findfont
dup length dict begin
  {1 index /FID ne {def} {pop pop} ifelse} forall
  /Encoding WinAnsiEncoding def
  currentdict
end
/Courier-BoldOblique exch definefont pop
/Courier-Bold findfont
dup length dict begin
  {1 index /FID ne {def} {pop pop} ifelse} forall
  /Encoding WinAnsiEncoding def
  currentdict
end
/Courier-Bold exch definefont pop
/Helvetica findfont
dup length dict begin
  {1 index /FID ne {def} {pop pop} ifelse} forall
  /Encoding WinAnsiEncoding def
  currentdict
end
/Helvetica exch definefont pop
/Helvetica-Oblique findfont
dup length dict begin
  {1 index /FID ne {def} {pop pop} ifelse} forall
  /Encoding WinAnsiEncoding def
  currentdict
end
/Helvetica-Oblique exch definefont pop
/Helvetica-Bold findfont
dup length dict begin
  {1 index /FID ne {def} {pop pop} ifelse} forall
  /Encoding WinAnsiEncoding def
  currentdict
end
/Helvetica-Bold exch definefont pop
/Helvetica-BoldOblique findfont
dup length dict begin
  {1 index /FID ne {def} {pop pop} ifelse} forall
  /Encoding WinAnsiEncoding def
  currentdict
end
/Helvetica-BoldOblique exch definefont pop
/Times-Roman findfont
dup length dict begin
  {1 index /FID ne {def} {pop pop} ifelse} forall
  /Encoding WinAnsiEncoding def
  currentdict
end
/Times-Roman exch definefont pop
/Times-Italic findfont
dup length dict begin
  {1 index /FID ne {def} {pop pop} ifelse} forall
  /Encoding WinAnsiEncoding def
  currentdict
end
/Times-Italic exch definefont pop
/Times-Bold findfont
dup length dict begin
  {1 index /FID ne {def} {pop pop} ifelse} forall
  /Encoding WinAnsiEncoding def
  currentdict
end
/Times-Bold exch definefont pop
/Times-BoldItalic findfont
dup length dict begin
  {1 index /FID ne {def} {pop pop} ifelse} forall
  /Encoding WinAnsiEncoding def
  currentdict
end
/Times-BoldItalic exch definefont pop
/Courier findfont
dup length dict begin
  {1 index /FID ne {def} {pop pop} ifelse} forall
  /Encoding WinAnsiEncoding def
  currentdict
end
/Courier exch definefont pop
%FOPEndFontReencode
%%EndProlog
%%Page: 1 1
%%PageBoundingBox: 0 0 420 315
%%BeginPageSetup
[1 0 0 -1 0 315] CT
%%EndPageSetup
GS
[0.75 0 0 0.75 0 0] CT
1 GC
N
0 0 560 420 re
f
GR
GS
[0.75 0 0 0.75 0 0] CT
1 GC
N
0 0 560 420 re
f
GR
GS
[0.75 0 0 0.75 0 0] CT
1 GC
N
73 374 M
507 374 L
507 31 L
73 31 L
cp
f
GR
GS
[0.75 0 0 0.75 0 0] CT
0.149 GC
2 setlinecap
1 LJ
0.667 LW
N
73 374 M
507 374 L
S
GR
GS
[0.75 0 0 0.75 0 0] CT
0.149 GC
2 setlinecap
1 LJ
0.667 LW
N
73 374 M
73 369.66 L
S
GR
GS
[0.75 0 0 0.75 0 0] CT
0.149 GC
2 setlinecap
1 LJ
0.667 LW
N
145.333 374 M
145.333 369.66 L
S
GR
GS
[0.75 0 0 0.75 0 0] CT
0.149 GC
2 setlinecap
1 LJ
0.667 LW
N
217.667 374 M
217.667 369.66 L
S
GR
GS
[0.75 0 0 0.75 0 0] CT
0.149 GC
2 setlinecap
1 LJ
0.667 LW
N
290 374 M
290 369.66 L
S
GR
GS
[0.75 0 0 0.75 0 0] CT
0.149 GC
2 setlinecap
1 LJ
0.667 LW
N
362.333 374 M
362.333 369.66 L
S
GR
GS
[0.75 0 0 0.75 0 0] CT
0.149 GC
2 setlinecap
1 LJ
0.667 LW
N
434.667 374 M
434.667 369.66 L
S
GR
GS
[0.75 0 0 0.75 0 0] CT
0.149 GC
2 setlinecap
1 LJ
0.667 LW
N
507 374 M
507 369.66 L
S
GR
GS
[0.75 0 0 0.75 54.75 284.50001] CT
0.149 GC
/Helvetica 13.333 F
GS
[1 0 0 1 0 0] CT
-10 14 moveto 
1 -1 scale
(-30) t 
GR
GR
GS
[0.75 0 0 0.75 109 284.50001] CT
0.149 GC
/Helvetica 13.333 F
GS
[1 0 0 1 0 0] CT
-10 14 moveto 
1 -1 scale
(-20) t 
GR
GR
GS
[0.75 0 0 0.75 163.25 284.50001] CT
0.149 GC
/Helvetica 13.333 F
GS
[1 0 0 1 0 0] CT
-10 14 moveto 
1 -1 scale
(-10) t 
GR
GR
GS
[0.75 0 0 0.75 217.5 284.50001] CT
0.149 GC
/Helvetica 13.333 F
GS
[1 0 0 1 0 0] CT
-4 14 moveto 
1 -1 scale
(0) t 
GR
GR
GS
[0.75 0 0 0.75 271.75001 284.50001] CT
0.149 GC
/Helvetica 13.333 F
GS
[1 0 0 1 0 0] CT
-7.5 14 moveto 
1 -1 scale
(10) t 
GR
GR
GS
[0.75 0 0 0.75 325.99999 284.50001] CT
0.149 GC
/Helvetica 13.333 F
GS
[1 0 0 1 0 0] CT
-7.5 14 moveto 
1 -1 scale
(20) t 
GR
GR
GS
[0.75 0 0 0.75 380.25 284.50001] CT
0.149 GC
/Helvetica 13.333 F
GS
[1 0 0 1 0 0] CT
-7.5 14 moveto 
1 -1 scale
(30) t 
GR
GR
GS
[0.75 0 0 0.75 217.50016 298.24999] CT
0.149 GC
/Helvetica 14.667 F
GS
[1 0 0 1 0 0] CT
-67.5 15 moveto 
1 -1 scale
(Degrees Eccentricity) t 
GR
GR
GS
[0.75 0 0 0.75 0 0] CT
0.149 GC
2 setlinecap
1 LJ
0.667 LW
N
73 374 M
73 31 L
S
GR
GS
[0.75 0 0 0.75 0 0] CT
0.149 GC
2 setlinecap
1 LJ
0.667 LW
N
73 374 M
77.34 374 L
S
GR
GS
[0.75 0 0 0.75 0 0] CT
0.149 GC
2 setlinecap
1 LJ
0.667 LW
N
73 316.833 M
77.34 316.833 L
S
GR
GS
[0.75 0 0 0.75 0 0] CT
0.149 GC
2 setlinecap
1 LJ
0.667 LW
N
73 259.667 M
77.34 259.667 L
S
GR
GS
[0.75 0 0 0.75 0 0] CT
0.149 GC
2 setlinecap
1 LJ
0.667 LW
N
73 202.5 M
77.34 202.5 L
S
GR
GS
[0.75 0 0 0.75 0 0] CT
0.149 GC
2 setlinecap
1 LJ
0.667 LW
N
73 145.333 M
77.34 145.333 L
S
GR
GS
[0.75 0 0 0.75 0 0] CT
0.149 GC
2 setlinecap
1 LJ
0.667 LW
N
73 88.167 M
77.34 88.167 L
S
GR
GS
[0.75 0 0 0.75 0 0] CT
0.149 GC
2 setlinecap
1 LJ
0.667 LW
N
73 31 M
77.34 31 L
S
GR
GS
[0.75 0 0 0.75 50.75 280.5] CT
0.149 GC
/Helvetica 13.333 F
GS
[1 0 0 1 0 0] CT
-19 5.5 moveto 
1 -1 scale
(0.6) t 
GR
GR
GS
[0.75 0 0 0.75 50.75 237.62501] CT
0.149 GC
/Helvetica 13.333 F
GS
[1 0 0 1 0 0] CT
-19 5.5 moveto 
1 -1 scale
(0.8) t 
GR
GR
GS
[0.75 0 0 0.75 50.75 194.74999] CT
0.149 GC
/Helvetica 13.333 F
GS
[1 0 0 1 0 0] CT
-8 5.5 moveto 
1 -1 scale
(1) t 
GR
GR
GS
[0.75 0 0 0.75 50.75 151.875] CT
0.149 GC
/Helvetica 13.333 F
GS
[1 0 0 1 0 0] CT
-19 5.5 moveto 
1 -1 scale
(1.2) t 
GR
GR
GS
[0.75 0 0 0.75 50.75 109] CT
0.149 GC
/Helvetica 13.333 F
GS
[1 0 0 1 0 0] CT
-19 5.5 moveto 
1 -1 scale
(1.4) t 
GR
GR
GS
[0.75 0 0 0.75 50.75 66.125] CT
0.149 GC
/Helvetica 13.333 F
GS
[1 0 0 1 0 0] CT
-19 5.5 moveto 
1 -1 scale
(1.6) t 
GR
GR
GS
[0.75 0 0 0.75 50.75 23.25] CT
0.149 GC
/Helvetica 13.333 F
GS
[1 0 0 1 0 0] CT
-19 5.5 moveto 
1 -1 scale
(1.8) t 
GR
GR
GS
[0 -0.75 0.75 0 30.75 225.75] CT
0.149 GC
/Helvetica 14.667 F
GS
[1 0 0 1 0 0] CT
0 0 moveto 
1 -1 scale
(Cone Density \(cones/degree) t 
GR
GR
GS
[0 -0.75 0.75 0 25.5 86.25] CT
0.149 GC
/Helvetica 11.733 F
GS
[1 0 0 1 0 0] CT
0 0 moveto 
1 -1 scale
(2) t 
GR
GR
GS
[0 -0.75 0.75 0 30.75 81] CT
0.149 GC
/Helvetica 14.667 F
GS
[1 0 0 1 0 0] CT
0 0 moveto 
1 -1 scale
(\)) t 
GR
GR
GS
[0.75 0 0 0.75 54.75 21] CT
0.149 GC
N
1.906 -0.375 M
1.906 -0.469 1.969 -0.563 QT
4.672 -3.25 L
1.969 -5.953 L
1.906 -6.016 1.906 -6.125 QT
1.906 -6.219 1.984 -6.305 QT
2.063 -6.391 2.172 -6.391 QT
2.266 -6.391 2.375 -6.297 QT
5.063 -3.609 L
7.734 -6.297 L
7.844 -6.391 7.922 -6.391 QT
8.031 -6.391 8.109 -6.313 QT
8.188 -6.234 8.188 -6.125 QT
8.188 -6.016 8.125 -5.953 QT
5.422 -3.25 L
8.125 -0.563 L
8.188 -0.469 8.188 -0.375 QT
8.188 -0.266 8.109 -0.188 QT
8.031 -0.109 7.922 -0.109 QT
7.828 -0.109 7.734 -0.203 QT
5.063 -2.891 L
2.375 -0.203 L
2.266 -0.109 2.172 -0.109 QT
2.063 -0.109 1.984 -0.195 QT
1.906 -0.281 1.906 -0.375 QT
cp
f
GR
GS
[0.75 0 0 0.75 63 21] CT
0.149 GC
/Helvetica 13.333 F
GS
[1 0 0 1 0 0] CT
0 0 moveto 
1 -1 scale
(10) t 
GR
GR
GS
[0.75 0 0 0.75 74.25 16.5] CT
0.149 GC
/Helvetica 10.667 F
GS
[1 0 0 1 0 0] CT
0 0 moveto 
1 -1 scale
(4) t 
GR
GR
GS
[0.75 0 0 0.75 217.50021 21.18752] CT
/Helvetica-Bold 14.667 F
GS
[1 0 0 1 0 0] CT
-124 -4 moveto 
1 -1 scale
(Cone Density centered around PCD) t 
GR
GR
GS
[0.75 0 0 0.75 0 0] CT
0 1 1 RC
1 LJ
0.667 LW
N
77.871 374.041 M
78.086 373.987 L
78.934 373.024 L
79.781 372.867 L
80.629 372.508 L
81.477 372.335 L
82.324 372.037 L
83.172 371.654 L
84.02 371.321 L
84.867 371.073 L
85.715 370.667 L
86.563 370.311 L
87.41 370.01 L
88.258 368.954 L
89.105 366.988 L
89.953 334.537 L
90.801 331.615 L
91.648 330.829 L
92.496 330.453 L
93.344 329.956 L
94.191 329.611 L
95.039 329.007 L
95.887 328.681 L
96.734 328.021 L
97.582 327.696 L
98.43 327.304 L
99.277 326.082 L
100.125 325.269 L
100.973 324.81 L
101.82 323.863 L
102.668 323.102 L
103.516 322.388 L
104.363 321.987 L
105.211 321.464 L
106.059 320.883 L
106.906 320.205 L
107.754 319.746 L
108.602 319.004 L
109.449 317.992 L
110.297 317.163 L
111.145 316.393 L
111.992 315.523 L
112.84 314.849 L
113.688 314.03 L
114.535 312.725 L
115.383 311.771 L
116.23 310.979 L
117.078 310.007 L
117.926 308.391 L
118.773 306.779 L
119.621 305.467 L
120.469 305.055 L
121.316 304.344 L
122.164 303.141 L
123.012 301.639 L
123.859 300.047 L
124.707 298.847 L
125.555 297.934 L
126.402 296.314 L
127.25 294.669 L
128.098 293.171 L
128.945 292.278 L
129.793 290.381 L
130.641 288.715 L
131.488 287.79 L
132.336 286.861 L
133.184 285.483 L
134.031 284.548 L
134.879 283.235 L
135.727 281.961 L
136.574 281.113 L
137.422 280.486 L
138.27 279.752 L
139.117 278.681 L
139.965 277.386 L
140.813 276.509 L
141.66 275.656 L
142.508 275.008 L
143.355 273.936 L
144.203 272.473 L
145.051 270.815 L
145.898 269.536 L
146.746 267.99 L
147.594 267.075 L
148.441 265.722 L
149.289 264.176 L
150.137 263.13 L
150.984 262.026 L
151.832 260.518 L
152.68 259.887 L
153.527 258.616 L
154.375 257.999 L
155.223 257.562 L
156.07 257.08 L
156.918 256.534 L
157.766 256.029 L
158.613 255.4 L
159.461 254.486 L
160.309 253.386 L
161.156 252.849 L
162.004 251.815 L
162.852 250.644 L
163.699 248.877 L
164.547 248.403 L
165.395 247.614 L
166.242 246.381 L
167.09 245.413 L
167.938 244.621 L
168.785 243.969 L
169.633 242.803 L
170.48 242.28 L
171.328 241.331 L
172.176 240.823 L
173.023 240.663 L
173.871 240.549 L
174.719 240.317 L
175.566 239.883 L
176.414 239.905 L
177.262 239.613 L
178.109 239.394 L
178.957 239.146 L
179.805 238.588 L
180.652 237.721 L
181.5 236.685 L
182.348 235.4 L
183.195 234.922 L
184.043 234.804 L
184.891 233.54 L
185.738 232.738 L
186.586 232.312 L
187.434 231.93 L
188.281 231.413 L
189.129 230.818 L
189.977 230.379 L
190.824 230.034 L
191.672 229.041 L
192.52 227.722 L
193.367 227.221 L
194.215 226.568 L
195.063 226.065 L
195.91 225.588 L
196.758 225.464 L
197.605 225.048 L
198.453 224.903 L
199.301 224.923 L
200.148 225.037 L
200.996 224.97 L
201.844 224.286 L
202.691 224.627 L
203.539 224.626 L
204.387 224.229 L
205.234 223.126 L
206.082 222.69 L
206.93 221.892 L
207.777 220.938 L
208.625 220.046 L
209.473 219.623 L
210.32 219.324 L
211.168 218.992 L
212.016 217.902 L
212.863 216.368 L
213.711 215.408 L
214.559 215.306 L
215.406 214.484 L
216.254 214.518 L
217.102 214.141 L
217.949 214.096 L
218.797 214.121 L
219.645 214.135 L
220.492 213.672 L
221.34 213.006 L
222.188 212.921 L
223.035 212.783 L
223.883 212.147 L
224.73 211.634 L
225.578 210.882 L
226.426 210.552 L
227.273 210.315 L
228.121 209.391 L
228.969 208.568 L
229.816 208.852 L
230.664 209.04 L
231.512 208.55 L
232.359 208.045 L
233.207 207.174 L
234.055 206.767 L
234.902 206.968 L
235.75 205.929 L
236.598 205.354 L
237.445 204.438 L
238.293 203.136 L
239.141 202.818 L
239.988 202.388 L
240.836 201.602 L
241.684 200.594 L
242.531 201.001 L
243.379 201.37 L
244.227 201.133 L
245.074 200.979 L
245.922 201.277 L
246.77 201.529 L
247.617 201.599 L
248.465 201.898 L
249.313 202.092 L
250.16 201.823 L
251.008 201.549 L
251.855 201.336 L
252.703 200.885 L
253.551 200.124 L
254.398 199.76 L
255.246 199.797 L
256.094 199.812 L
256.941 199.865 L
257.789 199.46 L
258.637 198.99 L
259.484 198.487 L
260.332 197.989 L
261.18 197.454 L
262.027 196.844 L
262.875 196.544 L
263.723 195.626 L
264.57 194.952 L
265.418 194.229 L
266.266 193.996 L
267.113 193.596 L
267.961 193.454 L
268.809 192.874 L
269.656 192.044 L
270.504 191.503 L
271.352 190.778 L
272.199 190.575 L
273.047 190.302 L
273.895 189.437 L
274.742 188.717 L
275.59 188.085 L
276.438 187.577 L
277.285 186.949 L
278.133 186.628 L
278.98 186.456 L
279.828 186.528 L
280.676 185.649 L
281.523 185.449 L
282.371 185.034 L
283.219 184.409 L
284.066 184.402 L
284.914 183.854 L
285.762 183.171 L
286.609 182.99 L
287.457 182.406 L
288.305 182.641 L
289.152 181.999 L
290 182.084 L
290.848 182.644 L
291.695 182.87 L
292.543 183.44 L
293.391 183.583 L
294.238 184.7 L
295.086 187.353 L
295.934 187.799 L
296.781 188.447 L
297.629 188.619 L
298.477 188.816 L
299.324 189.508 L
300.172 190.251 L
301.02 190.955 L
301.867 191.542 L
302.715 192.82 L
303.563 193.691 L
304.41 194.774 L
305.258 195.765 L
306.105 196.977 L
306.953 197.434 L
307.801 198.263 L
308.648 199.065 L
309.496 199.973 L
310.344 201.965 L
311.191 203.924 L
312.039 206.447 L
312.887 208.151 L
313.734 209.799 L
314.582 211.976 L
315.43 213.53 L
316.277 214.417 L
317.125 215.561 L
317.973 217.622 L
318.82 219.114 L
319.668 219.876 L
320.516 221.246 L
321.363 221.857 L
322.211 222.618 L
323.059 223.952 L
323.906 225.915 L
324.754 227.746 L
325.602 228.932 L
326.449 230.374 L
327.297 231.694 L
328.145 233.167 L
328.992 234.953 L
329.84 236.685 L
330.688 237.569 L
331.535 238.897 L
332.383 240.599 L
333.23 241.85 L
334.078 242.684 L
334.926 244.17 L
335.773 244.833 L
336.621 245.956 L
337.469 247.184 L
338.316 247.985 L
339.164 248.064 L
340.012 248.656 L
340.859 248.998 L
341.707 248.87 L
342.555 249.873 L
343.402 249.644 L
344.25 250.014 L
345.098 250.94 L
345.945 251.707 L
346.793 251.903 L
347.641 252.142 L
348.488 252.445 L
349.336 252.722 L
350.184 252.958 L
351.031 253.691 L
351.879 254.494 L
352.727 254.942 L
353.574 255.744 L
354.422 256.525 L
355.27 256.958 L
356.117 256.926 L
356.965 256.666 L
357.813 256.768 L
358.66 257.027 L
359.508 257.002 L
360.355 256.923 L
361.203 256.907 L
362.051 257.066 L
362.898 257.166 L
363.746 257.528 L
364.594 257.785 L
365.441 258.089 L
366.289 258.926 L
367.137 259.461 L
367.984 259.588 L
368.832 259.764 L
369.68 259.558 L
370.527 260.727 L
371.375 261.103 L
372.223 261.409 L
373.07 261.717 L
373.918 262.148 L
374.766 261.895 L
375.613 261.467 L
376.461 260.707 L
377.309 260.547 L
378.156 260.522 L
379.004 260.045 L
379.852 260.242 L
380.699 259.389 L
381.547 259.161 L
382.395 259.018 L
383.242 259.196 L
384.09 258.806 L
384.938 258.609 L
385.785 258.755 L
386.633 259.305 L
387.48 259.717 L
388.328 260.153 L
389.176 260.21 L
390.023 260.51 L
390.871 259.748 L
391.719 259.552 L
392.566 259.43 L
393.414 259.233 L
394.262 259.069 L
395.109 258.591 L
395.957 257.998 L
396.805 257.552 L
397.652 257.193 L
398.5 256.842 L
399.348 256.721 L
400.195 255.906 L
401.043 254.338 L
401.891 254.09 L
402.738 253.443 L
403.586 252.915 L
404.434 252.409 L
405.281 252.503 L
406.129 252.522 L
406.977 252.986 L
407.824 253.402 L
408.672 253.618 L
409.52 253.844 L
410.367 253.762 L
411.215 253.926 L
412.063 253.564 L
412.91 253.335 L
413.758 253.322 L
414.605 253.565 L
415.453 253.608 L
416.301 252.657 L
417.148 252.015 L
417.996 251.579 L
418.844 251.532 L
419.691 251.511 L
420.539 251.27 L
421.387 251.67 L
422.234 251.582 L
423.082 251.692 L
423.93 251.904 L
424.777 252.056 L
425.625 252.05 L
426.473 252.098 L
427.32 252.07 L
428.168 252.164 L
429.016 251.989 L
429.863 251.84 L
430.711 251.634 L
431.559 252.068 L
432.406 252.46 L
433.254 252.017 L
434.102 252.676 L
434.949 253.061 L
435.797 253.472 L
436.645 253.595 L
437.492 254.057 L
438.34 254.763 L
439.188 255.905 L
440.035 256.565 L
440.883 256.732 L
441.73 257.276 L
442.578 257.879 L
443.426 258.539 L
444.273 259.156 L
445.121 259.514 L
445.969 259.857 L
446.816 259.997 L
447.664 260.724 L
448.512 261.059 L
449.359 261.529 L
450.207 261.523 L
451.055 262.058 L
451.902 262.219 L
452.75 263.076 L
453.598 263.456 L
454.445 264.114 L
455.293 264.418 L
456.141 265.128 L
456.988 265.602 L
457.836 266.204 L
458.684 266.714 L
459.531 267.761 L
460.379 269.168 L
461.227 269.636 L
462.074 269.941 L
462.922 270.346 L
463.77 270.889 L
464.617 271.367 L
465.465 271.761 L
466.313 272.15 L
467.16 272.219 L
468.008 272.432 L
468.855 272.728 L
469.703 273.032 L
470.551 273.461 L
471.398 274.653 L
472.246 275.519 L
473.094 275.615 L
473.941 275.739 L
474.789 276.68 L
475.637 276.927 L
476.484 278.587 L
477.332 279.828 L
478.18 280.509 L
479.027 280.627 L
479.875 280.718 L
480.723 281.609 L
481.57 282.248 L
482.418 283.041 L
483.266 284.117 L
484.113 285.751 L
484.961 286.999 L
485.809 287.83 L
486.656 288.178 L
487.504 295.063 L
488.352 316.591 L
489.199 366.954 L
489.453 374.041 L
S
GR
GS
[0.75 0 0 0.75 0 0] CT
1 LJ
0.667 LW
N
78.015 374.041 M
78.086 374.033 L
78.934 373.9 L
79.781 373.663 L
80.629 373.582 L
81.477 372.253 L
82.324 370.029 L
83.172 367.984 L
84.02 364.158 L
84.867 354.169 L
85.715 346.364 L
86.563 338.236 L
87.41 331.934 L
88.258 331.061 L
89.105 330.287 L
89.953 329.799 L
90.801 329.038 L
91.648 328.166 L
92.496 327.625 L
93.344 327.003 L
94.191 326.188 L
95.039 325.209 L
95.887 324.137 L
96.734 323.366 L
97.582 322.757 L
98.43 322.094 L
99.277 321.473 L
100.125 320.456 L
100.973 319.671 L
101.82 318.849 L
102.668 318.255 L
103.516 317.182 L
104.363 316.762 L
105.211 316.205 L
106.059 315.618 L
106.906 315.008 L
107.754 313.821 L
108.602 313.118 L
109.449 312.402 L
110.297 311.642 L
111.145 310.529 L
111.992 308.594 L
112.84 307.699 L
113.688 306.842 L
114.535 305.494 L
115.383 304.007 L
116.23 302.529 L
117.078 301.172 L
117.926 300.123 L
118.773 299.276 L
119.621 297.729 L
120.469 296.336 L
121.316 294.838 L
122.164 293.07 L
123.012 291.543 L
123.859 289.924 L
124.707 287.995 L
125.555 286.439 L
126.402 284.432 L
127.25 282.88 L
128.098 281.506 L
128.945 280.091 L
129.793 278.11 L
130.641 276.773 L
131.488 275.388 L
132.336 274.362 L
133.184 272.355 L
134.031 270.662 L
134.879 269.755 L
135.727 269.009 L
136.574 268.698 L
137.422 267.341 L
138.27 266.565 L
139.117 266.587 L
139.965 266.18 L
140.813 266.026 L
141.66 264.551 L
142.508 263.4 L
143.355 261.961 L
144.203 261.288 L
145.051 260.479 L
145.898 259.769 L
146.746 258.964 L
147.594 258.086 L
148.441 257.447 L
149.289 256.501 L
150.137 255.582 L
150.984 255.165 L
151.832 254.793 L
152.68 253.833 L
153.527 253.174 L
154.375 252.407 L
155.223 251.641 L
156.07 250.594 L
156.918 249.035 L
157.766 248.447 L
158.613 247.064 L
159.461 246.318 L
160.309 245.962 L
161.156 245.418 L
162.004 244.505 L
162.852 243.9 L
163.699 242.891 L
164.547 242.152 L
165.395 241.518 L
166.242 240.399 L
167.09 239.781 L
167.938 239.514 L
168.785 239.075 L
169.633 238.402 L
170.48 237.914 L
171.328 237.417 L
172.176 237.147 L
173.023 236.882 L
173.871 236.659 L
174.719 235.693 L
175.566 235.394 L
176.414 235.246 L
177.262 235.458 L
178.109 235.235 L
178.957 234.504 L
179.805 234.004 L
180.652 233.904 L
181.5 233.801 L
182.348 234.055 L
183.195 234.091 L
184.043 233.473 L
184.891 234.089 L
185.738 234.013 L
186.586 233.823 L
187.434 232.838 L
188.281 232.341 L
189.129 231.093 L
189.977 229.999 L
190.824 229.154 L
191.672 227.51 L
192.52 226.77 L
193.367 226.349 L
194.215 225.832 L
195.063 225.265 L
195.91 224.59 L
196.758 224.678 L
197.605 224.393 L
198.453 224.178 L
199.301 223.92 L
200.148 223.553 L
200.996 222.667 L
201.844 222.056 L
202.691 221.509 L
203.539 220.91 L
204.387 219.676 L
205.234 219.078 L
206.082 218.493 L
206.93 218.031 L
207.777 217.848 L
208.625 216.292 L
209.473 215.258 L
210.32 214.496 L
211.168 214.122 L
212.016 213.742 L
212.863 213.449 L
213.711 213.703 L
214.559 213.234 L
215.406 212.824 L
216.254 212.398 L
217.102 211.837 L
217.949 211.725 L
218.797 211.387 L
219.645 210.469 L
220.492 210.215 L
221.34 209.732 L
222.188 209.275 L
223.035 208.247 L
223.883 206.81 L
224.73 205.448 L
225.578 204.236 L
226.426 202.735 L
227.273 201.591 L
228.121 200.193 L
228.969 199.196 L
229.816 198.537 L
230.664 197.892 L
231.512 198.184 L
232.359 197.914 L
233.207 197.871 L
234.055 198.191 L
234.902 198.553 L
235.75 198.875 L
236.598 199.098 L
237.445 199.669 L
238.293 199.923 L
239.141 199.965 L
239.988 199.24 L
240.836 198.294 L
241.684 198.405 L
242.531 197.99 L
243.379 198.195 L
244.227 198.443 L
245.074 198.757 L
245.922 198.953 L
246.77 199.307 L
247.617 199.144 L
248.465 198.727 L
249.313 198.427 L
250.16 198.156 L
251.008 197.847 L
251.855 197.728 L
252.703 197.845 L
253.551 198.355 L
254.398 198.28 L
255.246 197.906 L
256.094 198.486 L
256.941 199.637 L
257.789 200.13 L
258.637 200.073 L
259.484 200.084 L
260.332 199.981 L
261.18 199.066 L
262.027 197.937 L
262.875 197.072 L
263.723 196.088 L
264.57 195.005 L
265.418 193.483 L
266.266 192.16 L
267.113 190.955 L
267.961 189.87 L
268.809 189.281 L
269.656 188.664 L
270.504 187.4 L
271.352 186.968 L
272.199 186.749 L
273.047 186.555 L
273.895 186.258 L
274.742 186.248 L
275.59 185.107 L
276.438 184.642 L
277.285 184.568 L
278.133 183.983 L
278.98 183.359 L
279.828 183.521 L
280.676 183.387 L
281.523 183.437 L
282.371 183.737 L
283.219 184.267 L
284.066 184.253 L
284.914 184.26 L
285.762 185.507 L
286.609 187.076 L
287.457 187.014 L
288.305 187.167 L
289.152 187.881 L
290 188.824 L
290.848 189.905 L
291.695 190.54 L
292.543 190.696 L
293.391 190.472 L
294.238 190.35 L
295.086 190.652 L
295.934 191.229 L
296.781 191.948 L
297.629 192.279 L
298.477 192.778 L
299.324 194.244 L
300.172 195.078 L
301.02 195.478 L
301.867 196.387 L
302.715 197.794 L
303.563 198.755 L
304.41 199.444 L
305.258 199.9 L
306.105 200.702 L
306.953 202.418 L
307.801 204.408 L
308.648 206.389 L
309.496 208.132 L
310.344 210.699 L
311.191 211.994 L
312.039 213.594 L
312.887 215.081 L
313.734 216.159 L
314.582 219.486 L
315.43 221.327 L
316.277 222.964 L
317.125 224.404 L
317.973 225.867 L
318.82 227.846 L
319.668 229.477 L
320.516 231.943 L
321.363 233.334 L
322.211 235.462 L
323.059 236.633 L
323.906 237.804 L
324.754 239.37 L
325.602 240.23 L
326.449 241.374 L
327.297 242.642 L
328.145 243.754 L
328.992 245.288 L
329.84 246.569 L
330.688 247.708 L
331.535 250.007 L
332.383 251.653 L
333.23 252.326 L
334.078 253.644 L
334.926 254.361 L
335.773 254.388 L
336.621 255.182 L
337.469 256.031 L
338.316 255.727 L
339.164 255.547 L
340.012 255.948 L
340.859 256.396 L
341.707 256.383 L
342.555 256.352 L
343.402 256.904 L
344.25 257.635 L
345.098 258.246 L
345.945 258.302 L
346.793 258.393 L
347.641 258.467 L
348.488 258.462 L
349.336 258.402 L
350.184 258.653 L
351.031 259.54 L
351.879 259.579 L
352.727 259.7 L
353.574 259.28 L
354.422 259.145 L
355.27 259.584 L
356.117 259.739 L
356.965 259.98 L
357.813 260.085 L
358.66 259.788 L
359.508 259.664 L
360.355 259.437 L
361.203 259.896 L
362.051 260.043 L
362.898 260.02 L
363.746 259.25 L
364.594 258.343 L
365.441 257.375 L
366.289 256.689 L
367.137 256.007 L
367.984 255.503 L
368.832 255.473 L
369.68 256.002 L
370.527 255.828 L
371.375 255.407 L
372.223 255.059 L
373.07 255.358 L
373.918 255.626 L
374.766 255.629 L
375.613 255.403 L
376.461 254.971 L
377.309 254.632 L
378.156 253.594 L
379.004 252.993 L
379.852 252.929 L
380.699 252.466 L
381.547 252.652 L
382.395 251.464 L
383.242 250.889 L
384.09 250.346 L
384.938 249.814 L
385.785 249.178 L
386.633 249.02 L
387.48 248.027 L
388.328 247.303 L
389.176 246.44 L
390.023 246.128 L
390.871 245.225 L
391.719 244.92 L
392.566 244.227 L
393.414 244.41 L
394.262 244.076 L
395.109 243.845 L
395.957 243.666 L
396.805 244.034 L
397.652 244.578 L
398.5 244.969 L
399.348 244.868 L
400.195 244.608 L
401.043 244.717 L
401.891 244.714 L
402.738 244.615 L
403.586 244.249 L
404.434 243.992 L
405.281 243.92 L
406.129 244.134 L
406.977 244.661 L
407.824 245.056 L
408.672 245.325 L
409.52 245.562 L
410.367 245.529 L
411.215 246.725 L
412.063 247.277 L
412.91 247.474 L
413.758 247.36 L
414.605 247.099 L
415.453 247.629 L
416.301 247.993 L
417.148 247.929 L
417.996 248.007 L
418.844 248.226 L
419.691 248.232 L
420.539 247.255 L
421.387 247.201 L
422.234 246.82 L
423.082 246.746 L
423.93 246.045 L
424.777 246.067 L
425.625 246.04 L
426.473 246.126 L
427.32 245.943 L
428.168 245.592 L
429.016 245.819 L
429.863 246.175 L
430.711 246.093 L
431.559 246.608 L
432.406 246.708 L
433.254 246.97 L
434.102 247.539 L
434.949 247.651 L
435.797 247.679 L
436.645 248.028 L
437.492 248.034 L
438.34 247.982 L
439.188 248.385 L
440.035 249.41 L
440.883 250.311 L
441.73 250.829 L
442.578 251.958 L
443.426 253.212 L
444.273 254.347 L
445.121 255.703 L
445.969 257.013 L
446.816 258.25 L
447.664 259.387 L
448.512 260.451 L
449.359 261.103 L
450.207 262.438 L
451.055 263.407 L
451.902 264.485 L
452.75 265.239 L
453.598 265.743 L
454.445 266.175 L
455.293 266.753 L
456.141 267.314 L
456.988 267.355 L
457.836 267.399 L
458.684 267.707 L
459.531 267.706 L
460.379 267.859 L
461.227 268.154 L
462.074 268.637 L
462.922 269.139 L
463.77 269.635 L
464.617 269.916 L
465.465 270.359 L
466.313 270.651 L
467.16 270.862 L
468.008 271.229 L
468.855 271.739 L
469.703 272.756 L
470.551 273.213 L
471.398 272.996 L
472.246 273.005 L
473.094 272.835 L
473.941 273.412 L
474.789 274.266 L
475.637 274.926 L
476.484 275.678 L
477.332 276.724 L
478.18 277.758 L
479.027 278.074 L
479.875 278.216 L
480.723 278.828 L
481.57 280.764 L
482.418 281.355 L
483.266 282.189 L
484.113 282.645 L
484.961 283.554 L
485.809 287.861 L
486.656 307.593 L
487.504 329.958 L
488.352 346.53 L
489.199 347.926 L
490.047 366.052 L
490.457 374.041 L
S
GR
GS
[0.75 0 0 0.75 0 0] CT
1 GC
N
496 78 M
496 42 L
369 42 L
369 78 L
cp
f
GR
GS
[0.75 0 0 0.75 312 38.89726] CT
/Helvetica 12 F
GS
[1 0 0 1 0 0] CT
0 5 moveto 
1 -1 scale
(PCD centered) t 
GR
GR
GS
[0.75 0 0 0.75 0 0] CT
0 1 1 RC
1 LJ
0.667 LW
N
373 51.863 M
413 51.863 L
S
GR
GS
[0.75 0 0 0.75 312 51.10274] CT
/Helvetica 12 F
GS
[1 0 0 1 0 0] CT
0 5 moveto 
1 -1 scale
(PRL centered) t 
GR
GR
GS
[0.75 0 0 0.75 0 0] CT
1 LJ
0.667 LW
N
373 68.137 M
413 68.137 L
S
GR
GS
[0.75 0 0 0.75 0 0] CT
0.149 GC
10.0 ML
0.667 LW
N
369 78 M
369 42 L
496 42 L
496 78 L
cp
S
GR
%%Trailer
%%Pages: 1
%%EOF
