%!PS-Adobe-3.0 EPSF-3.0
%%Creator: (MATLAB, The Mathworks, Inc. Version 9.11.0.1837725 \(R2021b\) Update 2. Operating System: Windows 10)
%%Title: C:/Users/ruccilab/Documents/adaptiveoptics/ConeDesity/APLab_System/data/ConeTaggingTraining/Distribution/tagger3_VertDist.eps
%%CreationDate: 2023-06-23T09:57:36
%%Pages: (atend)
%%BoundingBox:    19     3   385   306
%%LanguageLevel: 3
%%EndComments
%%BeginProlog
%%BeginResource: procset (Apache XML Graphics Std ProcSet) 1.2 0
%%Version: 1.2 0
%%Copyright: (Copyright 2001-2003,2010 The Apache Software Foundation. License terms: http://www.apache.org/licenses/LICENSE-2.0)
/bd{bind def}bind def
/ld{load def}bd
/GR/grestore ld
/GS/gsave ld
/RM/rmoveto ld
/C/curveto ld
/t/show ld
/L/lineto ld
/ML/setmiterlimit ld
/CT/concat ld
/f/fill ld
/N/newpath ld
/S/stroke ld
/CC/setcmykcolor ld
/A/ashow ld
/cp/closepath ld
/RC/setrgbcolor ld
/LJ/setlinejoin ld
/GC/setgray ld
/LW/setlinewidth ld
/M/moveto ld
/re {4 2 roll M
1 index 0 rlineto
0 exch rlineto
neg 0 rlineto
cp } bd
/_ctm matrix def
/_tm matrix def
/BT { _ctm currentmatrix pop matrix _tm copy pop 0 0 moveto } bd
/ET { _ctm setmatrix } bd
/iTm { _ctm setmatrix _tm concat } bd
/Tm { _tm astore pop iTm 0 0 moveto } bd
/ux 0.0 def
/uy 0.0 def
/F {
  /Tp exch def
  /Tf exch def
  Tf findfont Tp scalefont setfont
  /cf Tf def  /cs Tp def
} bd
/ULS {currentpoint /uy exch def /ux exch def} bd
/ULE {
  /Tcx currentpoint pop def
  gsave
  newpath
  cf findfont cs scalefont dup
  /FontMatrix get 0 get /Ts exch def /FontInfo get dup
  /UnderlinePosition get Ts mul /To exch def
  /UnderlineThickness get Ts mul /Tt exch def
  ux uy To add moveto  Tcx uy To add lineto
  Tt setlinewidth stroke
  grestore
} bd
/OLE {
  /Tcx currentpoint pop def
  gsave
  newpath
  cf findfont cs scalefont dup
  /FontMatrix get 0 get /Ts exch def /FontInfo get dup
  /UnderlinePosition get Ts mul /To exch def
  /UnderlineThickness get Ts mul /Tt exch def
  ux uy To add cs add moveto Tcx uy To add cs add lineto
  Tt setlinewidth stroke
  grestore
} bd
/SOE {
  /Tcx currentpoint pop def
  gsave
  newpath
  cf findfont cs scalefont dup
  /FontMatrix get 0 get /Ts exch def /FontInfo get dup
  /UnderlinePosition get Ts mul /To exch def
  /UnderlineThickness get Ts mul /Tt exch def
  ux uy To add cs 10 mul 26 idiv add moveto Tcx uy To add cs 10 mul 26 idiv add lineto
  Tt setlinewidth stroke
  grestore
} bd
/QT {
/Y22 exch store
/X22 exch store
/Y21 exch store
/X21 exch store
currentpoint
/Y21 load 2 mul add 3 div exch
/X21 load 2 mul add 3 div exch
/X21 load 2 mul /X22 load add 3 div
/Y21 load 2 mul /Y22 load add 3 div
/X22 load /Y22 load curveto
} bd
/SSPD {
dup length /d exch dict def
{
/v exch def
/k exch def
currentpagedevice k known {
/cpdv currentpagedevice k get def
v cpdv ne {
/upd false def
/nullv v type /nulltype eq def
/nullcpdv cpdv type /nulltype eq def
nullv nullcpdv or
{
/upd true def
} {
/sametype v type cpdv type eq def
sametype {
v type /arraytype eq {
/vlen v length def
/cpdvlen cpdv length def
vlen cpdvlen eq {
0 1 vlen 1 sub {
/i exch def
/obj v i get def
/cpdobj cpdv i get def
obj cpdobj ne {
/upd true def
exit
} if
} for
} {
/upd true def
} ifelse
} {
v type /dicttype eq {
v {
/dv exch def
/dk exch def
/cpddv cpdv dk get def
dv cpddv ne {
/upd true def
exit
} if
} forall
} {
/upd true def
} ifelse
} ifelse
} if
} ifelse
upd true eq {
d k v put
} if
} if
} if
} forall
d length 0 gt {
d setpagedevice
} if
} bd
/RE { % /NewFontName [NewEncodingArray] /FontName RE -
  findfont dup length dict begin
  {
    1 index /FID ne
    {def} {pop pop} ifelse
  } forall
  /Encoding exch def
  /FontName 1 index def
  currentdict definefont pop
  end
} bind def
%%EndResource
%%BeginResource: procset (Apache XML Graphics EPS ProcSet) 1.0 0
%%Version: 1.0 0
%%Copyright: (Copyright 2002-2003 The Apache Software Foundation. License terms: http://www.apache.org/licenses/LICENSE-2.0)
/BeginEPSF { %def
/b4_Inc_state save def         % Save state for cleanup
/dict_count countdictstack def % Count objects on dict stack
/op_count count 1 sub def      % Count objects on operand stack
userdict begin                 % Push userdict on dict stack
/showpage { } def              % Redefine showpage, { } = null proc
0 setgray 0 setlinecap         % Prepare graphics state
1 setlinewidth 0 setlinejoin
10 setmiterlimit [ ] 0 setdash newpath
/languagelevel where           % If level not equal to 1 then
{pop languagelevel             % set strokeadjust and
1 ne                           % overprint to their defaults.
{false setstrokeadjust false setoverprint
} if
} if
} bd
/EndEPSF { %def
count op_count sub {pop} repeat            % Clean up stacks
countdictstack dict_count sub {end} repeat
b4_Inc_state restore
} bd
%%EndResource
%FOPBeginFontDict
%%IncludeResource: font Courier-Oblique
%%IncludeResource: font Courier-BoldOblique
%%IncludeResource: font Courier-Bold
%%IncludeResource: font ZapfDingbats
%%IncludeResource: font Symbol
%%IncludeResource: font Helvetica
%%IncludeResource: font Helvetica-Oblique
%%IncludeResource: font Helvetica-Bold
%%IncludeResource: font Helvetica-BoldOblique
%%IncludeResource: font Times-Roman
%%IncludeResource: font Times-Italic
%%IncludeResource: font Times-Bold
%%IncludeResource: font Times-BoldItalic
%%IncludeResource: font Courier
%FOPEndFontDict
%%BeginResource: encoding WinAnsiEncoding
/WinAnsiEncoding [
/.notdef /.notdef /.notdef /.notdef /.notdef
/.notdef /.notdef /.notdef /.notdef /.notdef
/.notdef /.notdef /.notdef /.notdef /.notdef
/.notdef /.notdef /.notdef /.notdef /.notdef
/.notdef /.notdef /.notdef /.notdef /.notdef
/.notdef /.notdef /.notdef /.notdef /.notdef
/.notdef /.notdef /space /exclam /quotedbl
/numbersign /dollar /percent /ampersand /quotesingle
/parenleft /parenright /asterisk /plus /comma
/hyphen /period /slash /zero /one
/two /three /four /five /six
/seven /eight /nine /colon /semicolon
/less /equal /greater /question /at
/A /B /C /D /E
/F /G /H /I /J
/K /L /M /N /O
/P /Q /R /S /T
/U /V /W /X /Y
/Z /bracketleft /backslash /bracketright /asciicircum
/underscore /quoteleft /a /b /c
/d /e /f /g /h
/i /j /k /l /m
/n /o /p /q /r
/s /t /u /v /w
/x /y /z /braceleft /bar
/braceright /asciitilde /bullet /Euro /bullet
/quotesinglbase /florin /quotedblbase /ellipsis /dagger
/daggerdbl /circumflex /perthousand /Scaron /guilsinglleft
/OE /bullet /Zcaron /bullet /bullet
/quoteleft /quoteright /quotedblleft /quotedblright /bullet
/endash /emdash /asciitilde /trademark /scaron
/guilsinglright /oe /bullet /zcaron /Ydieresis
/space /exclamdown /cent /sterling /currency
/yen /brokenbar /section /dieresis /copyright
/ordfeminine /guillemotleft /logicalnot /sfthyphen /registered
/macron /degree /plusminus /twosuperior /threesuperior
/acute /mu /paragraph /middot /cedilla
/onesuperior /ordmasculine /guillemotright /onequarter /onehalf
/threequarters /questiondown /Agrave /Aacute /Acircumflex
/Atilde /Adieresis /Aring /AE /Ccedilla
/Egrave /Eacute /Ecircumflex /Edieresis /Igrave
/Iacute /Icircumflex /Idieresis /Eth /Ntilde
/Ograve /Oacute /Ocircumflex /Otilde /Odieresis
/multiply /Oslash /Ugrave /Uacute /Ucircumflex
/Udieresis /Yacute /Thorn /germandbls /agrave
/aacute /acircumflex /atilde /adieresis /aring
/ae /ccedilla /egrave /eacute /ecircumflex
/edieresis /igrave /iacute /icircumflex /idieresis
/eth /ntilde /ograve /oacute /ocircumflex
/otilde /odieresis /divide /oslash /ugrave
/uacute /ucircumflex /udieresis /yacute /thorn
/ydieresis
] def
%%EndResource
%FOPBeginFontReencode
/Courier-Oblique findfont
dup length dict begin
  {1 index /FID ne {def} {pop pop} ifelse} forall
  /Encoding WinAnsiEncoding def
  currentdict
end
/Courier-Oblique exch definefont pop
/Courier-BoldOblique findfont
dup length dict begin
  {1 index /FID ne {def} {pop pop} ifelse} forall
  /Encoding WinAnsiEncoding def
  currentdict
end
/Courier-BoldOblique exch definefont pop
/Courier-Bold findfont
dup length dict begin
  {1 index /FID ne {def} {pop pop} ifelse} forall
  /Encoding WinAnsiEncoding def
  currentdict
end
/Courier-Bold exch definefont pop
/Helvetica findfont
dup length dict begin
  {1 index /FID ne {def} {pop pop} ifelse} forall
  /Encoding WinAnsiEncoding def
  currentdict
end
/Helvetica exch definefont pop
/Helvetica-Oblique findfont
dup length dict begin
  {1 index /FID ne {def} {pop pop} ifelse} forall
  /Encoding WinAnsiEncoding def
  currentdict
end
/Helvetica-Oblique exch definefont pop
/Helvetica-Bold findfont
dup length dict begin
  {1 index /FID ne {def} {pop pop} ifelse} forall
  /Encoding WinAnsiEncoding def
  currentdict
end
/Helvetica-Bold exch definefont pop
/Helvetica-BoldOblique findfont
dup length dict begin
  {1 index /FID ne {def} {pop pop} ifelse} forall
  /Encoding WinAnsiEncoding def
  currentdict
end
/Helvetica-BoldOblique exch definefont pop
/Times-Roman findfont
dup length dict begin
  {1 index /FID ne {def} {pop pop} ifelse} forall
  /Encoding WinAnsiEncoding def
  currentdict
end
/Times-Roman exch definefont pop
/Times-Italic findfont
dup length dict begin
  {1 index /FID ne {def} {pop pop} ifelse} forall
  /Encoding WinAnsiEncoding def
  currentdict
end
/Times-Italic exch definefont pop
/Times-Bold findfont
dup length dict begin
  {1 index /FID ne {def} {pop pop} ifelse} forall
  /Encoding WinAnsiEncoding def
  currentdict
end
/Times-Bold exch definefont pop
/Times-BoldItalic findfont
dup length dict begin
  {1 index /FID ne {def} {pop pop} ifelse} forall
  /Encoding WinAnsiEncoding def
  currentdict
end
/Times-BoldItalic exch definefont pop
/Courier findfont
dup length dict begin
  {1 index /FID ne {def} {pop pop} ifelse} forall
  /Encoding WinAnsiEncoding def
  currentdict
end
/Courier exch definefont pop
%FOPEndFontReencode
%%EndProlog
%%Page: 1 1
%%PageBoundingBox: 0 0 420 315
%%BeginPageSetup
[1 0 0 -1 0 315] CT
%%EndPageSetup
GS
[0.75 0 0 0.75 0 0] CT
1 GC
N
0 0 560 420 re
f
GR
GS
[0.75 0 0 0.75 0 0] CT
1 GC
N
0 0 560 420 re
f
GR
GS
[0.75 0 0 0.75 0 0] CT
1 GC
N
73 374 M
507 374 L
507 31 L
73 31 L
cp
f
GR
GS
[0.75 0 0 0.75 0 0] CT
2 setlinecap
1 LJ
0.667 LW
N
73 374 M
507 374 L
S
GR
GS
[0.75 0 0 0.75 0 0] CT
2 setlinecap
1 LJ
0.667 LW
N
73 374 M
73 369.66 L
S
GR
GS
[0.75 0 0 0.75 0 0] CT
2 setlinecap
1 LJ
0.667 LW
N
135 374 M
135 369.66 L
S
GR
GS
[0.75 0 0 0.75 0 0] CT
2 setlinecap
1 LJ
0.667 LW
N
197 374 M
197 369.66 L
S
GR
GS
[0.75 0 0 0.75 0 0] CT
2 setlinecap
1 LJ
0.667 LW
N
259 374 M
259 369.66 L
S
GR
GS
[0.75 0 0 0.75 0 0] CT
2 setlinecap
1 LJ
0.667 LW
N
321 374 M
321 369.66 L
S
GR
GS
[0.75 0 0 0.75 0 0] CT
2 setlinecap
1 LJ
0.667 LW
N
383 374 M
383 369.66 L
S
GR
GS
[0.75 0 0 0.75 0 0] CT
2 setlinecap
1 LJ
0.667 LW
N
445 374 M
445 369.66 L
S
GR
GS
[0.75 0 0 0.75 0 0] CT
2 setlinecap
1 LJ
0.667 LW
N
507 374 M
507 369.66 L
S
GR
GS
[0.75 0 0 0.75 54.75 284.50001] CT
/Helvetica 13.333 F
GS
[1 0 0 1 0 0] CT
-10 14 moveto 
1 -1 scale
(-30) t 
GR
GR
GS
[0.75 0 0 0.75 101.25 284.50001] CT
/Helvetica 13.333 F
GS
[1 0 0 1 0 0] CT
-10 14 moveto 
1 -1 scale
(-20) t 
GR
GR
GS
[0.75 0 0 0.75 147.75 284.50001] CT
/Helvetica 13.333 F
GS
[1 0 0 1 0 0] CT
-10 14 moveto 
1 -1 scale
(-10) t 
GR
GR
GS
[0.75 0 0 0.75 194.25 284.50001] CT
/Helvetica 13.333 F
GS
[1 0 0 1 0 0] CT
-4 14 moveto 
1 -1 scale
(0) t 
GR
GR
GS
[0.75 0 0 0.75 240.75 284.50001] CT
/Helvetica 13.333 F
GS
[1 0 0 1 0 0] CT
-7.5 14 moveto 
1 -1 scale
(10) t 
GR
GR
GS
[0.75 0 0 0.75 287.25 284.50001] CT
/Helvetica 13.333 F
GS
[1 0 0 1 0 0] CT
-7.5 14 moveto 
1 -1 scale
(20) t 
GR
GR
GS
[0.75 0 0 0.75 333.75 284.50001] CT
/Helvetica 13.333 F
GS
[1 0 0 1 0 0] CT
-7.5 14 moveto 
1 -1 scale
(30) t 
GR
GR
GS
[0.75 0 0 0.75 380.25 284.50001] CT
/Helvetica 13.333 F
GS
[1 0 0 1 0 0] CT
-7.5 14 moveto 
1 -1 scale
(40) t 
GR
GR
GS
[0.75 0 0 0.75 217.50016 298.24999] CT
/Helvetica 14.667 F
GS
[1 0 0 1 0 0] CT
-66.5 15 moveto 
1 -1 scale
(Eccentricity \(arcmin\)) t 
GR
GR
GS
[0.75 0 0 0.75 0 0] CT
2 setlinecap
1 LJ
0.667 LW
N
73 374 M
73 31 L
S
GR
GS
[0.75 0 0 0.75 0 0] CT
2 setlinecap
1 LJ
0.667 LW
N
73 374 M
77.34 374 L
S
GR
GS
[0.75 0 0 0.75 0 0] CT
2 setlinecap
1 LJ
0.667 LW
N
73 316.833 M
77.34 316.833 L
S
GR
GS
[0.75 0 0 0.75 0 0] CT
2 setlinecap
1 LJ
0.667 LW
N
73 259.667 M
77.34 259.667 L
S
GR
GS
[0.75 0 0 0.75 0 0] CT
2 setlinecap
1 LJ
0.667 LW
N
73 202.5 M
77.34 202.5 L
S
GR
GS
[0.75 0 0 0.75 0 0] CT
2 setlinecap
1 LJ
0.667 LW
N
73 145.333 M
77.34 145.333 L
S
GR
GS
[0.75 0 0 0.75 0 0] CT
2 setlinecap
1 LJ
0.667 LW
N
73 88.167 M
77.34 88.167 L
S
GR
GS
[0.75 0 0 0.75 0 0] CT
2 setlinecap
1 LJ
0.667 LW
N
73 31 M
77.34 31 L
S
GR
GS
[0.75 0 0 0.75 50.75 280.5] CT
/Helvetica 13.333 F
GS
[1 0 0 1 0 0] CT
-19 5.5 moveto 
1 -1 scale
(0.6) t 
GR
GR
GS
[0.75 0 0 0.75 50.75 237.62501] CT
/Helvetica 13.333 F
GS
[1 0 0 1 0 0] CT
-19 5.5 moveto 
1 -1 scale
(0.8) t 
GR
GR
GS
[0.75 0 0 0.75 50.75 194.74999] CT
/Helvetica 13.333 F
GS
[1 0 0 1 0 0] CT
-8 5.5 moveto 
1 -1 scale
(1) t 
GR
GR
GS
[0.75 0 0 0.75 50.75 151.875] CT
/Helvetica 13.333 F
GS
[1 0 0 1 0 0] CT
-19 5.5 moveto 
1 -1 scale
(1.2) t 
GR
GR
GS
[0.75 0 0 0.75 50.75 109] CT
/Helvetica 13.333 F
GS
[1 0 0 1 0 0] CT
-19 5.5 moveto 
1 -1 scale
(1.4) t 
GR
GR
GS
[0.75 0 0 0.75 50.75 66.125] CT
/Helvetica 13.333 F
GS
[1 0 0 1 0 0] CT
-19 5.5 moveto 
1 -1 scale
(1.6) t 
GR
GR
GS
[0.75 0 0 0.75 50.75 23.25] CT
/Helvetica 13.333 F
GS
[1 0 0 1 0 0] CT
-19 5.5 moveto 
1 -1 scale
(1.8) t 
GR
GR
GS
[0 -0.75 0.75 0 30.75 225.75] CT
/Helvetica 14.667 F
GS
[1 0 0 1 0 0] CT
0 0 moveto 
1 -1 scale
(Cone Density \(cones/degree) t 
GR
GR
GS
[0 -0.75 0.75 0 25.5 86.25] CT
/Helvetica 11.733 F
GS
[1 0 0 1 0 0] CT
0 0 moveto 
1 -1 scale
(2) t 
GR
GR
GS
[0 -0.75 0.75 0 30.75 81] CT
/Helvetica 14.667 F
GS
[1 0 0 1 0 0] CT
0 0 moveto 
1 -1 scale
(\)) t 
GR
GR
GS
[0.75 0 0 0.75 54.75 21] CT
N
1.906 -0.375 M
1.906 -0.469 1.969 -0.563 QT
4.672 -3.25 L
1.969 -5.953 L
1.906 -6.016 1.906 -6.125 QT
1.906 -6.219 1.984 -6.305 QT
2.063 -6.391 2.172 -6.391 QT
2.266 -6.391 2.375 -6.297 QT
5.063 -3.609 L
7.734 -6.297 L
7.844 -6.391 7.922 -6.391 QT
8.031 -6.391 8.109 -6.313 QT
8.188 -6.234 8.188 -6.125 QT
8.188 -6.016 8.125 -5.953 QT
5.422 -3.25 L
8.125 -0.563 L
8.188 -0.469 8.188 -0.375 QT
8.188 -0.266 8.109 -0.188 QT
8.031 -0.109 7.922 -0.109 QT
7.828 -0.109 7.734 -0.203 QT
5.063 -2.891 L
2.375 -0.203 L
2.266 -0.109 2.172 -0.109 QT
2.063 -0.109 1.984 -0.195 QT
1.906 -0.281 1.906 -0.375 QT
cp
f
GR
GS
[0.75 0 0 0.75 63 21] CT
/Helvetica 13.333 F
GS
[1 0 0 1 0 0] CT
0 0 moveto 
1 -1 scale
(10) t 
GR
GR
GS
[0.75 0 0 0.75 74.25 16.5] CT
/Helvetica 10.667 F
GS
[1 0 0 1 0 0] CT
0 0 moveto 
1 -1 scale
(4) t 
GR
GR
GS
[0.75 0 0 0.75 217.50021 21.18752] CT
/Helvetica-Bold 14.667 F
GS
[1 0 0 1 0 0] CT
-124 -4 moveto 
1 -1 scale
(Cone Density centered around PCD) t 
GR
GR
GS
[0.75 0 0 0.75 0 0] CT
1 LJ
0.667 LW
N
106.477 374.041 M
106.48 373.836 L
107.1 373.605 L
107.72 373.348 L
108.34 373.126 L
108.96 372.528 L
109.58 371.859 L
110.2 365.983 L
110.82 362.286 L
111.44 352.448 L
112.06 340.953 L
112.68 338.953 L
113.3 333.439 L
113.92 330.997 L
114.54 329.836 L
115.16 329.569 L
115.78 329.485 L
116.4 329.643 L
117.02 329.461 L
117.64 329.374 L
118.26 328.912 L
118.88 328.747 L
119.5 328.661 L
120.12 328.219 L
120.74 327.786 L
121.36 327.314 L
121.98 326.827 L
122.6 326.3 L
123.22 326.003 L
123.84 325.714 L
124.46 325.234 L
125.08 324.897 L
125.7 324.128 L
126.32 323.489 L
126.94 322.948 L
127.56 322.653 L
128.18 322.236 L
128.8 321.447 L
129.42 321.014 L
130.04 320.493 L
130.66 320.029 L
131.28 319.875 L
131.9 319.59 L
132.52 318.976 L
133.14 318.356 L
133.76 317.798 L
134.38 317.441 L
135 317.198 L
135.62 316.753 L
136.24 316.1 L
136.86 315.306 L
137.48 314.583 L
138.1 314.271 L
138.72 314.163 L
139.34 314.082 L
139.96 313.863 L
140.58 313.854 L
141.2 313.42 L
141.82 313.11 L
142.44 312.846 L
143.06 312.837 L
143.68 312.852 L
144.3 312.548 L
144.92 312.197 L
145.54 311.864 L
146.16 311.507 L
146.78 311.327 L
147.4 311.099 L
148.02 310.824 L
148.64 310.509 L
149.26 309.865 L
149.88 309.691 L
150.5 309.631 L
151.12 309.541 L
151.74 309.15 L
152.36 308.578 L
152.98 308.562 L
153.6 308.066 L
154.22 307.528 L
154.84 307.145 L
155.46 306.891 L
156.08 306.497 L
156.7 306.001 L
157.32 305.569 L
157.94 304.949 L
158.56 305.009 L
159.18 304.425 L
159.8 304.089 L
160.42 303.821 L
161.04 302.747 L
161.66 302.078 L
162.28 301.711 L
162.9 301.493 L
163.52 301.044 L
164.14 300.753 L
164.76 300.152 L
165.38 299.269 L
166 298.304 L
166.62 297.419 L
167.24 296.746 L
167.86 296.301 L
168.48 295.295 L
169.1 294.172 L
169.72 293.146 L
170.34 292.031 L
170.96 291.189 L
171.58 289.958 L
172.2 288.118 L
172.82 286.109 L
173.44 284.661 L
174.06 283.217 L
174.68 282.418 L
175.3 281.372 L
175.92 280.589 L
176.54 279.437 L
177.16 278.445 L
177.78 277.188 L
178.4 275.748 L
179.02 274.679 L
179.64 273.883 L
180.26 272.065 L
180.88 270.62 L
181.5 269.464 L
182.12 267.833 L
182.74 266.697 L
183.36 265.044 L
183.98 262.716 L
184.6 261.347 L
185.22 259.317 L
185.84 257.642 L
186.46 256.367 L
187.08 253.942 L
187.7 251.76 L
188.32 248.027 L
188.94 246.161 L
189.56 243.089 L
190.18 240.749 L
190.8 237.176 L
191.42 234.183 L
192.04 231.626 L
192.66 228.16 L
193.28 224.875 L
193.9 222.558 L
194.52 220.195 L
195.14 217.721 L
195.76 215.954 L
196.38 213.837 L
197 211.276 L
197.62 208.197 L
198.24 204.514 L
198.86 201.732 L
199.48 199.822 L
200.1 198.542 L
200.72 196.41 L
201.34 193.774 L
201.96 190.23 L
202.58 188.163 L
203.2 184.895 L
203.82 182.118 L
204.44 179.647 L
205.06 177.578 L
205.68 175.738 L
206.3 173.892 L
206.92 171.584 L
207.54 169.173 L
208.16 165.624 L
208.78 163.725 L
209.4 162.775 L
210.02 161.286 L
210.64 159.73 L
211.26 157.301 L
211.88 155.535 L
212.5 154.301 L
213.12 153.087 L
213.74 152.059 L
214.36 150.563 L
214.98 148.523 L
215.6 147.042 L
216.22 145.406 L
216.84 144.717 L
217.46 143.814 L
218.08 142.477 L
218.7 141.788 L
219.32 141.639 L
219.94 140.803 L
220.56 141.396 L
221.18 141.462 L
221.8 141.01 L
222.42 139.786 L
223.04 137.776 L
223.66 136.924 L
224.28 135.979 L
224.9 135.446 L
225.52 135.046 L
226.14 133.379 L
226.76 131.26 L
227.38 130.57 L
228 129.831 L
228.62 128.65 L
229.24 127.697 L
229.86 126.889 L
230.48 126.627 L
231.1 126.232 L
231.72 125.967 L
232.34 125.733 L
232.96 125.829 L
233.58 125.94 L
234.2 125.774 L
234.82 126.011 L
235.44 126.225 L
236.06 125.874 L
236.68 125.619 L
237.3 124.569 L
237.92 123.185 L
238.54 122.207 L
239.16 120.643 L
239.78 118.727 L
240.4 116.817 L
241.02 115.299 L
241.64 114.079 L
242.26 113.092 L
242.88 111.675 L
243.5 110.901 L
244.12 109.895 L
244.74 108.492 L
245.36 107.005 L
245.98 106.055 L
246.6 104.358 L
247.22 102.485 L
247.84 100.963 L
248.46 99.712 L
249.08 97.904 L
249.7 95.957 L
250.32 94.193 L
250.94 92.903 L
251.56 91.688 L
252.18 89.928 L
252.8 88.255 L
253.42 86.87 L
254.04 85.025 L
254.66 83.688 L
255.28 81.603 L
255.9 79.931 L
256.52 79.035 L
257.14 78.301 L
257.76 77.931 L
258.38 77.632 L
259 77.238 L
259.62 76.299 L
260.24 76.413 L
260.86 76.91 L
261.48 77.546 L
262.1 78.299 L
262.72 78.571 L
263.34 79.104 L
263.96 79.747 L
264.58 80.367 L
265.2 80.946 L
265.82 81.94 L
266.44 82.132 L
267.06 82.323 L
267.68 81.937 L
268.3 81.613 L
268.92 81.41 L
269.54 81.729 L
270.16 82.339 L
270.78 82.699 L
271.4 82.536 L
272.02 82.667 L
272.64 83.574 L
273.26 85.02 L
273.88 84.39 L
274.5 84.014 L
275.12 83.986 L
275.74 84.398 L
276.36 85.994 L
276.98 86.876 L
277.6 87.505 L
278.22 89.112 L
278.84 90.625 L
279.46 93.012 L
280.08 95.77 L
280.7 99.395 L
281.32 101.863 L
281.94 104.37 L
282.56 106.846 L
283.18 112.078 L
283.8 114.298 L
284.42 120.009 L
285.04 124.09 L
285.66 126.167 L
286.28 127.84 L
286.9 129.596 L
287.52 132.113 L
288.14 137.471 L
288.76 141.569 L
289.38 144.695 L
290 147.905 L
290.62 152.783 L
291.24 156.561 L
291.86 159.436 L
292.48 162.337 L
293.1 164.287 L
293.72 168.548 L
294.34 172.573 L
294.96 175 L
295.58 178.308 L
296.2 181.373 L
296.82 185.166 L
297.44 188.406 L
298.06 191.307 L
298.68 193.909 L
299.3 197.889 L
299.92 200.921 L
300.54 203.483 L
301.16 206.088 L
301.78 209.562 L
302.4 212.038 L
303.02 215.808 L
303.64 219.293 L
304.26 222.017 L
304.88 225.201 L
305.5 228.632 L
306.12 233.551 L
306.74 236.77 L
307.36 238.854 L
307.98 240.843 L
308.6 242.999 L
309.22 245.732 L
309.84 249.219 L
310.46 251.758 L
311.08 255.283 L
311.7 258.346 L
312.32 260.238 L
312.94 261.736 L
313.56 263.949 L
314.18 266.656 L
314.8 269.478 L
315.42 271.575 L
316.04 273.004 L
316.66 273.908 L
317.28 275.413 L
317.9 277.173 L
318.52 278.607 L
319.14 279.766 L
319.76 281.81 L
320.38 283.845 L
321 284.917 L
321.62 286.014 L
322.24 287.567 L
322.86 288.577 L
323.48 289.557 L
324.1 290.331 L
324.72 291.902 L
325.34 292.621 L
325.96 293.909 L
326.58 294.516 L
327.2 294.869 L
327.82 295.644 L
328.44 296.386 L
329.06 296.681 L
329.68 296.658 L
330.3 296.962 L
330.92 296.814 L
331.54 295.701 L
332.16 295.574 L
332.78 295.649 L
333.4 295.589 L
334.02 295.256 L
334.64 294.625 L
335.26 294.233 L
335.88 293.155 L
336.5 291.775 L
337.12 290.35 L
337.74 289.675 L
338.36 289.212 L
338.98 288.092 L
339.6 287.07 L
340.22 286.309 L
340.84 285.927 L
341.46 285.452 L
342.08 284.862 L
342.7 283.569 L
343.32 282.17 L
343.94 281.654 L
344.56 281.077 L
345.18 280.359 L
345.8 280.279 L
346.42 279.991 L
347.04 280.222 L
347.66 280.032 L
348.28 279.883 L
348.9 279.374 L
349.52 279.336 L
350.14 279.24 L
350.76 278.855 L
351.38 278.678 L
352 279.054 L
352.62 279.581 L
353.24 279.961 L
353.86 280.072 L
354.48 280.612 L
355.1 280.63 L
355.72 280.158 L
356.34 279.942 L
356.96 279.996 L
357.58 280.418 L
358.2 280.867 L
358.82 281.046 L
359.44 281.265 L
360.06 281.323 L
360.68 281.567 L
361.3 282.092 L
361.92 282.129 L
362.54 282.484 L
363.16 282.625 L
363.78 282.933 L
364.4 283.514 L
365.02 283.793 L
365.64 283.93 L
366.26 283.484 L
366.88 283.416 L
367.5 283.474 L
368.12 283.259 L
368.74 283.836 L
369.36 284.489 L
369.98 284.455 L
370.6 284.737 L
371.22 285.13 L
371.84 285.519 L
372.46 285.801 L
373.08 285.629 L
373.7 285.903 L
374.32 286.132 L
374.94 286.245 L
375.56 286.335 L
376.18 286.407 L
376.8 286.687 L
377.42 287.056 L
378.04 287.287 L
378.66 287.256 L
379.28 287.37 L
379.9 286.881 L
380.52 286.967 L
381.14 286.983 L
381.76 286.999 L
382.38 286.585 L
383 286.727 L
383.62 286.873 L
384.24 287.294 L
384.86 287.343 L
385.48 287.702 L
386.1 288.236 L
386.72 288.872 L
387.34 289.193 L
387.96 289.515 L
388.58 290.011 L
389.2 290.384 L
389.82 294.239 L
390.44 306.859 L
391.06 325.129 L
391.68 328.604 L
392.3 329.356 L
392.92 330.14 L
393.54 330.615 L
394.16 331.499 L
394.78 332.479 L
395.4 333.018 L
396.02 333.769 L
396.64 334.927 L
397.26 335.713 L
397.88 336.672 L
398.5 337.691 L
399.12 338.438 L
399.74 339.678 L
400.36 340.812 L
400.98 341.5 L
401.6 341.809 L
402.22 341.958 L
402.84 341.996 L
403.46 342.276 L
404.08 342.435 L
404.7 342.54 L
405.32 342.843 L
405.94 342.982 L
406.56 343.259 L
407.18 343.458 L
407.8 343.547 L
408.42 343.795 L
409.04 343.893 L
409.66 343.948 L
410.28 343.944 L
410.9 343.941 L
411.52 344.063 L
412.14 344.104 L
412.76 344.118 L
413.38 344.207 L
414 344.212 L
414.62 344.255 L
415.24 344.458 L
415.86 344.474 L
416.48 344.691 L
417.1 344.67 L
417.72 344.879 L
418.34 345.294 L
418.96 345.425 L
419.58 345.455 L
420.2 345.683 L
420.82 345.845 L
421.44 346.085 L
422.06 346.383 L
422.68 347.723 L
423.3 348.077 L
423.92 349.101 L
424.54 350.466 L
425.16 350.477 L
425.78 351.83 L
426.4 351.853 L
427.02 353.079 L
427.64 353.941 L
428.26 354.2 L
428.88 354.96 L
429.5 355.129 L
430.12 355.063 L
430.74 354.965 L
431.36 355.839 L
431.98 356.76 L
432.6 356.988 L
433.22 357.925 L
433.84 358.118 L
434.46 359.015 L
435.08 359.064 L
435.7 359.259 L
436.32 359.402 L
436.94 360.18 L
437.56 360.177 L
438.18 360.818 L
438.8 360.807 L
439.42 361.573 L
440.04 361.685 L
440.66 361.817 L
441.28 362.615 L
441.9 362.731 L
442.52 362.834 L
443.14 363.559 L
443.76 363.674 L
444.38 364.485 L
445 364.548 L
445.62 365.299 L
446.24 365.434 L
446.86 365.585 L
447.48 365.661 L
448.1 367.719 L
448.72 368.071 L
449.34 369.805 L
449.96 369.867 L
450.58 370.257 L
451.2 371.766 L
451.82 371.776 L
452.44 372.739 L
453.06 373.678 L
453.68 373.839 L
453.774 374.041 L
S
GR
GS
[0.75 0 0 0.75 0 0] CT
1 LJ
0.667 LW
N
122.567 374.041 M
122.885 364.615 L
123.505 359.354 L
124.125 342.248 L
124.745 330.92 L
125.366 329.935 L
125.985 329.711 L
126.605 329.506 L
127.225 329.514 L
127.845 329.409 L
128.465 329.059 L
129.085 328.809 L
129.705 328.622 L
130.326 328.481 L
130.945 328.168 L
131.566 327.712 L
132.185 327.492 L
132.805 327.133 L
133.425 326.843 L
134.046 326.73 L
134.665 326.168 L
135.285 325.384 L
135.906 324.606 L
136.525 324.075 L
137.145 323.099 L
137.766 322.486 L
138.385 322.031 L
139.005 321.227 L
139.626 320.749 L
140.245 320.125 L
140.866 320.097 L
141.485 319.677 L
142.105 319.083 L
142.725 318.348 L
143.346 317.769 L
143.965 317.293 L
144.585 316.837 L
145.205 316.43 L
145.826 316.146 L
146.445 315.831 L
147.066 315.236 L
147.685 314.951 L
148.305 314.446 L
148.925 313.99 L
149.546 313.664 L
150.165 313.297 L
150.785 312.908 L
151.406 312.334 L
152.025 311.793 L
152.645 311.246 L
153.266 310.795 L
153.885 310.45 L
154.505 309.844 L
155.126 309.486 L
155.745 309.619 L
156.366 309.398 L
156.985 309.036 L
157.605 308.68 L
158.225 308.374 L
158.846 308.133 L
159.465 308.146 L
160.085 308.021 L
160.705 307.873 L
161.326 307.826 L
161.945 307.645 L
162.565 307.497 L
163.186 307.205 L
163.805 307.034 L
164.425 306.743 L
165.046 306.506 L
165.665 306.064 L
166.285 305.698 L
166.906 305.642 L
167.525 305.587 L
168.145 304.956 L
168.766 304.723 L
169.385 304.492 L
170.005 304.154 L
170.626 303.682 L
171.245 302.909 L
171.865 301.956 L
172.486 301.554 L
173.105 301.269 L
173.725 301.035 L
174.346 299.978 L
174.965 298.027 L
175.585 297.656 L
176.205 297.338 L
176.826 297.142 L
177.445 296.746 L
178.065 295.894 L
178.686 294.973 L
179.305 294.249 L
179.925 293.771 L
180.546 293.374 L
181.165 292.63 L
181.785 290.769 L
182.406 290.014 L
183.025 289.106 L
183.645 287.804 L
184.266 286.533 L
184.885 285.614 L
185.505 283.995 L
186.126 282.308 L
186.745 280.979 L
187.365 279.44 L
187.986 277.726 L
188.605 275.885 L
189.225 274.29 L
189.846 273.185 L
190.465 271.971 L
191.085 270.581 L
191.705 268.584 L
192.326 266.772 L
192.945 265.007 L
193.565 263.481 L
194.186 262.563 L
194.805 260.871 L
195.425 259.089 L
196.046 256.852 L
196.665 255.485 L
197.285 253.724 L
197.906 251.484 L
198.525 248.674 L
199.145 246.129 L
199.766 243.896 L
200.385 242.195 L
201.005 239.983 L
201.626 237.57 L
202.245 235.231 L
202.865 232.876 L
203.486 229.732 L
204.105 227.88 L
204.725 225.212 L
205.346 222.707 L
205.965 220.353 L
206.585 217.402 L
207.205 214.427 L
207.826 210.093 L
208.445 207.678 L
209.065 205.485 L
209.686 203.301 L
210.305 200.987 L
210.925 198.555 L
211.546 195.95 L
212.165 192.478 L
212.785 189.835 L
213.406 187.178 L
214.025 185.109 L
214.645 182.272 L
215.266 179.471 L
215.885 176.46 L
216.505 174.406 L
217.126 172.627 L
217.745 170.718 L
218.365 167.314 L
218.986 165.239 L
219.605 163.183 L
220.225 161.029 L
220.845 158.315 L
221.465 155.411 L
222.085 152.622 L
222.706 151.268 L
223.326 149.726 L
223.945 147.848 L
224.566 146.355 L
225.186 145.904 L
225.805 145.444 L
226.425 144.082 L
227.046 143.468 L
227.665 142.407 L
228.285 142.023 L
228.906 142.122 L
229.525 141.911 L
230.145 141.761 L
230.766 141.795 L
231.385 141.411 L
232.005 140.628 L
232.626 140.286 L
233.245 140.031 L
233.865 139.89 L
234.486 139.714 L
235.105 139.07 L
235.725 137.667 L
236.346 136.122 L
236.965 135.532 L
237.585 134.237 L
238.206 133.095 L
238.826 132.108 L
239.445 131.419 L
240.065 131.168 L
240.686 131.217 L
241.305 130.963 L
241.925 130.596 L
242.546 130.31 L
243.165 130.349 L
243.785 130.144 L
244.406 129.944 L
245.025 129.503 L
245.645 129.258 L
246.266 128.73 L
246.885 128.555 L
247.505 128.133 L
248.126 127.951 L
248.745 127.468 L
249.365 127.3 L
249.986 126.896 L
250.605 126.293 L
251.225 125.378 L
251.846 124.81 L
252.465 124.049 L
253.085 122.951 L
253.705 122.432 L
254.326 120.94 L
254.945 120.044 L
255.565 118.733 L
256.185 117.356 L
256.806 117.087 L
257.426 116.382 L
258.046 115.102 L
258.665 113.805 L
259.285 112.871 L
259.905 112.043 L
260.526 111.569 L
261.146 110.53 L
261.766 110.44 L
262.385 109.881 L
263.005 108.227 L
263.625 106.435 L
264.245 104.979 L
264.866 104.315 L
265.486 103.631 L
266.105 102.947 L
266.725 101.745 L
267.345 100.611 L
267.965 99.413 L
268.586 99.447 L
269.206 99.584 L
269.826 99.275 L
270.445 98.084 L
271.065 96.738 L
271.685 95.568 L
272.306 94.068 L
272.926 92.72 L
273.546 91.069 L
274.165 89.622 L
274.785 87.958 L
275.405 87.117 L
276.026 86.278 L
276.646 85.717 L
277.266 84.966 L
277.885 85.955 L
278.505 85.645 L
279.125 86.029 L
279.745 86.328 L
280.366 86.973 L
280.986 87.226 L
281.605 86.891 L
282.225 86.193 L
282.845 85.958 L
283.465 85.596 L
284.086 85.178 L
284.706 85.159 L
285.326 85.697 L
285.945 84.373 L
286.565 84.11 L
287.185 83.867 L
287.806 83.396 L
288.426 84.158 L
289.046 84.797 L
289.665 85.469 L
290.285 86.077 L
290.905 88.424 L
291.526 90.164 L
292.146 91.687 L
292.766 94.998 L
293.385 97.048 L
294.005 99.156 L
294.625 101.647 L
295.245 104.398 L
295.866 107.802 L
296.486 109.823 L
297.105 111.698 L
297.725 115.863 L
298.345 121.534 L
298.965 125.117 L
299.586 128.811 L
300.206 131.481 L
300.826 133.775 L
301.445 135.807 L
302.065 140.101 L
302.685 147.132 L
303.306 150.677 L
303.926 154.571 L
304.546 157.521 L
305.165 160.879 L
305.785 164.843 L
306.405 170.415 L
307.026 173.819 L
307.646 176.606 L
308.266 179.118 L
308.885 184.448 L
309.505 188.076 L
310.125 191.647 L
310.746 194.585 L
311.366 197.732 L
311.986 200.599 L
312.605 203.536 L
313.225 205.905 L
313.845 209.481 L
314.465 212.387 L
315.086 214.347 L
315.706 217.934 L
316.326 221.257 L
316.945 223.578 L
317.565 225.738 L
318.185 227.653 L
318.805 230.945 L
319.426 233.205 L
320.046 235.026 L
320.665 236.919 L
321.285 239.82 L
321.905 241.984 L
322.526 243.787 L
323.146 246.147 L
323.766 248.236 L
324.385 250.216 L
325.005 252.222 L
325.625 254.462 L
326.246 257.507 L
326.866 260.517 L
327.486 262.739 L
328.105 264.442 L
328.725 266.433 L
329.345 269.016 L
329.965 271.227 L
330.586 273.727 L
331.206 275.412 L
331.826 277.251 L
332.445 279.746 L
333.065 282.93 L
333.685 284.603 L
334.305 285.436 L
334.926 286.62 L
335.546 288.484 L
336.165 289.8 L
336.785 290.116 L
337.405 290.284 L
338.026 290.952 L
338.646 291.147 L
339.266 291.039 L
339.885 290.939 L
340.505 291.022 L
341.125 291.392 L
341.746 290.891 L
342.366 290.013 L
342.986 289.452 L
343.605 288.688 L
344.225 287.708 L
344.845 286.154 L
345.465 286.361 L
346.086 285.628 L
346.706 285.484 L
347.326 285.127 L
347.945 284.772 L
348.565 284.167 L
349.185 283.372 L
349.805 282.44 L
350.426 281.567 L
351.046 280.6 L
351.665 280.539 L
352.285 280.47 L
352.905 279.897 L
353.526 279.565 L
354.146 278.762 L
354.766 278.342 L
355.385 278.255 L
356.005 278.126 L
356.625 277.998 L
357.246 277.988 L
357.866 277.743 L
358.486 277.903 L
359.105 277.527 L
359.725 277.644 L
360.345 277.784 L
360.966 278.348 L
361.585 279.103 L
362.206 279.327 L
362.826 279.603 L
363.445 279.86 L
364.065 279.127 L
364.685 279.058 L
365.305 278.796 L
365.926 279.015 L
366.546 278.586 L
367.165 278.769 L
367.785 278.572 L
368.405 278.523 L
369.026 279.078 L
369.646 279.312 L
370.266 279.403 L
370.885 280.054 L
371.505 281.437 L
372.125 281.421 L
372.746 281.556 L
373.366 282.391 L
373.986 282.182 L
374.605 282.646 L
375.225 282.655 L
375.845 282.86 L
376.466 283.007 L
377.085 283.102 L
377.706 283.852 L
378.326 284.618 L
378.945 284.888 L
379.565 285.621 L
380.185 286.332 L
380.805 286.777 L
381.426 287.053 L
382.046 287.618 L
382.665 287.843 L
383.285 288.493 L
383.905 289.47 L
384.526 290.095 L
385.146 290.011 L
385.766 290.115 L
386.385 290.067 L
387.005 290.591 L
387.625 290.854 L
388.246 290.943 L
388.866 290.894 L
389.486 290.777 L
390.105 290.711 L
390.725 290.516 L
391.345 290.504 L
391.966 290.419 L
392.585 291.093 L
393.206 291.886 L
393.826 292.722 L
394.445 293.175 L
395.065 294.005 L
395.685 294.776 L
396.305 295.761 L
396.926 296.231 L
397.546 296.691 L
398.165 297.497 L
398.785 297.788 L
399.405 297.811 L
400.026 297.6 L
400.646 297.892 L
401.266 297.956 L
401.885 298.266 L
402.505 298.292 L
403.125 298.4 L
403.746 301.398 L
404.366 304.421 L
404.986 306.512 L
405.605 309.926 L
406.225 311.896 L
406.845 315.414 L
407.466 317.822 L
408.085 322.301 L
408.706 328.667 L
409.326 330.921 L
409.945 335.234 L
410.565 337.601 L
411.185 337.989 L
411.805 338.416 L
412.426 338.722 L
413.046 338.87 L
413.665 339.014 L
414.285 339.195 L
414.905 339.69 L
415.526 340.584 L
416.146 341.129 L
416.766 341.576 L
417.385 342.209 L
418.005 343.008 L
418.625 343.219 L
419.246 343.878 L
419.866 344.001 L
420.486 344.413 L
421.105 344.881 L
421.725 345.515 L
422.345 345.99 L
422.966 346.729 L
423.585 347.029 L
424.206 347.446 L
424.826 348.058 L
425.445 348.523 L
426.065 350.131 L
426.685 350.593 L
427.305 351.027 L
427.926 351.852 L
428.546 352.569 L
429.165 353.775 L
429.785 354.876 L
430.405 355.194 L
431.026 355.876 L
431.646 355.942 L
432.266 356.065 L
432.885 357.981 L
433.505 358.477 L
434.125 359.221 L
434.746 359.689 L
435.366 360.458 L
435.986 360.575 L
436.605 361.034 L
437.225 361.181 L
437.845 361.636 L
438.466 361.708 L
439.085 362.122 L
439.706 362.12 L
440.326 362.469 L
440.945 362.525 L
441.565 362.951 L
442.185 363.077 L
442.805 363.533 L
443.426 363.547 L
444.046 364.002 L
444.665 363.926 L
445.285 363.972 L
445.905 364.306 L
446.526 364.261 L
447.146 364.039 L
447.766 363.908 L
448.385 363.936 L
449.005 364.031 L
449.625 364.162 L
450.246 363.907 L
450.866 364.07 L
451.486 364.077 L
452.105 364.065 L
452.725 364.567 L
453.345 364.444 L
453.966 364.317 L
454.585 364.402 L
455.206 364.454 L
455.826 364.385 L
456.445 364.626 L
457.065 364.632 L
457.685 364.635 L
458.306 365.037 L
458.926 365.173 L
459.546 365.2 L
460.165 365.317 L
460.785 365.534 L
461.406 365.552 L
462.026 365.746 L
462.645 365.924 L
463.266 366.66 L
463.885 366.847 L
464.505 366.877 L
465.125 367.875 L
465.745 367.875 L
466.366 367.927 L
466.986 368.078 L
467.605 368.757 L
468.225 368.669 L
468.845 368.826 L
469.466 369.594 L
470.085 369.542 L
470.706 369.556 L
471.326 370.395 L
471.945 370.311 L
472.565 370.358 L
473.185 370.339 L
473.806 370.967 L
474.426 370.949 L
475.046 371.669 L
475.665 371.612 L
476.285 371.615 L
476.906 372.306 L
477.526 372.29 L
478.145 372.309 L
S
GR
GS
[0.75 0 0 0.75 78 87.5625] CT
/Helvetica 13.333 F
GS
[1 0 0 1 0 0] CT
0 5.5 moveto 
1 -1 scale
(Superior Retina) t 
GR
GR
GS
[0.75 0 0 0.75 264 87.5625] CT
/Helvetica 13.333 F
GS
[1 0 0 1 0 0] CT
0 5.5 moveto 
1 -1 scale
(Inferior Retina) t 
GR
GR
GS
[0.75 0 0 0.75 0 0] CT
1 GC
N
496 78 M
496 42 L
419 42 L
419 78 L
cp
f
GR
GS
[0.75 0 0 0.75 349.5 38.89726] CT
/Helvetica 12 F
GS
[1 0 0 1 0 0] CT
0 5 moveto 
1 -1 scale
(PCD) t 
GR
GR
GS
[0.75 0 0 0.75 0 0] CT
1 LJ
0.667 LW
N
423 51.863 M
463 51.863 L
S
GR
GS
[0.75 0 0 0.75 349.5 51.10274] CT
/Helvetica 12 F
GS
[1 0 0 1 0 0] CT
0 5 moveto 
1 -1 scale
(CDC) t 
GR
GR
GS
[0.75 0 0 0.75 0 0] CT
1 LJ
0.667 LW
N
423 68.137 M
463 68.137 L
S
GR
GS
[0.75 0 0 0.75 0 0] CT
10.0 ML
0.667 LW
N
419 78 M
419 42 L
496 42 L
496 78 L
cp
S
GR
%%Trailer
%%Pages: 1
%%EOF
