%!PS-Adobe-3.0 EPSF-3.0
%%Creator: (MATLAB, The Mathworks, Inc. Version 9.11.0.1837725 \(R2021b\) Update 2. Operating System: Windows 10)
%%Title: C:/Users/ruccilab/Documents/adaptiveoptics/ConeDesity/APLab_System/data/ConeTaggingTraining/Distribution/tagger1_VertDist.eps
%%CreationDate: 2023-06-23T09:56:31
%%Pages: (atend)
%%BoundingBox:    19     3   385   306
%%LanguageLevel: 3
%%EndComments
%%BeginProlog
%%BeginResource: procset (Apache XML Graphics Std ProcSet) 1.2 0
%%Version: 1.2 0
%%Copyright: (Copyright 2001-2003,2010 The Apache Software Foundation. License terms: http://www.apache.org/licenses/LICENSE-2.0)
/bd{bind def}bind def
/ld{load def}bd
/GR/grestore ld
/GS/gsave ld
/RM/rmoveto ld
/C/curveto ld
/t/show ld
/L/lineto ld
/ML/setmiterlimit ld
/CT/concat ld
/f/fill ld
/N/newpath ld
/S/stroke ld
/CC/setcmykcolor ld
/A/ashow ld
/cp/closepath ld
/RC/setrgbcolor ld
/LJ/setlinejoin ld
/GC/setgray ld
/LW/setlinewidth ld
/M/moveto ld
/re {4 2 roll M
1 index 0 rlineto
0 exch rlineto
neg 0 rlineto
cp } bd
/_ctm matrix def
/_tm matrix def
/BT { _ctm currentmatrix pop matrix _tm copy pop 0 0 moveto } bd
/ET { _ctm setmatrix } bd
/iTm { _ctm setmatrix _tm concat } bd
/Tm { _tm astore pop iTm 0 0 moveto } bd
/ux 0.0 def
/uy 0.0 def
/F {
  /Tp exch def
  /Tf exch def
  Tf findfont Tp scalefont setfont
  /cf Tf def  /cs Tp def
} bd
/ULS {currentpoint /uy exch def /ux exch def} bd
/ULE {
  /Tcx currentpoint pop def
  gsave
  newpath
  cf findfont cs scalefont dup
  /FontMatrix get 0 get /Ts exch def /FontInfo get dup
  /UnderlinePosition get Ts mul /To exch def
  /UnderlineThickness get Ts mul /Tt exch def
  ux uy To add moveto  Tcx uy To add lineto
  Tt setlinewidth stroke
  grestore
} bd
/OLE {
  /Tcx currentpoint pop def
  gsave
  newpath
  cf findfont cs scalefont dup
  /FontMatrix get 0 get /Ts exch def /FontInfo get dup
  /UnderlinePosition get Ts mul /To exch def
  /UnderlineThickness get Ts mul /Tt exch def
  ux uy To add cs add moveto Tcx uy To add cs add lineto
  Tt setlinewidth stroke
  grestore
} bd
/SOE {
  /Tcx currentpoint pop def
  gsave
  newpath
  cf findfont cs scalefont dup
  /FontMatrix get 0 get /Ts exch def /FontInfo get dup
  /UnderlinePosition get Ts mul /To exch def
  /UnderlineThickness get Ts mul /Tt exch def
  ux uy To add cs 10 mul 26 idiv add moveto Tcx uy To add cs 10 mul 26 idiv add lineto
  Tt setlinewidth stroke
  grestore
} bd
/QT {
/Y22 exch store
/X22 exch store
/Y21 exch store
/X21 exch store
currentpoint
/Y21 load 2 mul add 3 div exch
/X21 load 2 mul add 3 div exch
/X21 load 2 mul /X22 load add 3 div
/Y21 load 2 mul /Y22 load add 3 div
/X22 load /Y22 load curveto
} bd
/SSPD {
dup length /d exch dict def
{
/v exch def
/k exch def
currentpagedevice k known {
/cpdv currentpagedevice k get def
v cpdv ne {
/upd false def
/nullv v type /nulltype eq def
/nullcpdv cpdv type /nulltype eq def
nullv nullcpdv or
{
/upd true def
} {
/sametype v type cpdv type eq def
sametype {
v type /arraytype eq {
/vlen v length def
/cpdvlen cpdv length def
vlen cpdvlen eq {
0 1 vlen 1 sub {
/i exch def
/obj v i get def
/cpdobj cpdv i get def
obj cpdobj ne {
/upd true def
exit
} if
} for
} {
/upd true def
} ifelse
} {
v type /dicttype eq {
v {
/dv exch def
/dk exch def
/cpddv cpdv dk get def
dv cpddv ne {
/upd true def
exit
} if
} forall
} {
/upd true def
} ifelse
} ifelse
} if
} ifelse
upd true eq {
d k v put
} if
} if
} if
} forall
d length 0 gt {
d setpagedevice
} if
} bd
/RE { % /NewFontName [NewEncodingArray] /FontName RE -
  findfont dup length dict begin
  {
    1 index /FID ne
    {def} {pop pop} ifelse
  } forall
  /Encoding exch def
  /FontName 1 index def
  currentdict definefont pop
  end
} bind def
%%EndResource
%%BeginResource: procset (Apache XML Graphics EPS ProcSet) 1.0 0
%%Version: 1.0 0
%%Copyright: (Copyright 2002-2003 The Apache Software Foundation. License terms: http://www.apache.org/licenses/LICENSE-2.0)
/BeginEPSF { %def
/b4_Inc_state save def         % Save state for cleanup
/dict_count countdictstack def % Count objects on dict stack
/op_count count 1 sub def      % Count objects on operand stack
userdict begin                 % Push userdict on dict stack
/showpage { } def              % Redefine showpage, { } = null proc
0 setgray 0 setlinecap         % Prepare graphics state
1 setlinewidth 0 setlinejoin
10 setmiterlimit [ ] 0 setdash newpath
/languagelevel where           % If level not equal to 1 then
{pop languagelevel             % set strokeadjust and
1 ne                           % overprint to their defaults.
{false setstrokeadjust false setoverprint
} if
} if
} bd
/EndEPSF { %def
count op_count sub {pop} repeat            % Clean up stacks
countdictstack dict_count sub {end} repeat
b4_Inc_state restore
} bd
%%EndResource
%FOPBeginFontDict
%%IncludeResource: font Courier-Oblique
%%IncludeResource: font Courier-BoldOblique
%%IncludeResource: font Courier-Bold
%%IncludeResource: font ZapfDingbats
%%IncludeResource: font Symbol
%%IncludeResource: font Helvetica
%%IncludeResource: font Helvetica-Oblique
%%IncludeResource: font Helvetica-Bold
%%IncludeResource: font Helvetica-BoldOblique
%%IncludeResource: font Times-Roman
%%IncludeResource: font Times-Italic
%%IncludeResource: font Times-Bold
%%IncludeResource: font Times-BoldItalic
%%IncludeResource: font Courier
%FOPEndFontDict
%%BeginResource: encoding WinAnsiEncoding
/WinAnsiEncoding [
/.notdef /.notdef /.notdef /.notdef /.notdef
/.notdef /.notdef /.notdef /.notdef /.notdef
/.notdef /.notdef /.notdef /.notdef /.notdef
/.notdef /.notdef /.notdef /.notdef /.notdef
/.notdef /.notdef /.notdef /.notdef /.notdef
/.notdef /.notdef /.notdef /.notdef /.notdef
/.notdef /.notdef /space /exclam /quotedbl
/numbersign /dollar /percent /ampersand /quotesingle
/parenleft /parenright /asterisk /plus /comma
/hyphen /period /slash /zero /one
/two /three /four /five /six
/seven /eight /nine /colon /semicolon
/less /equal /greater /question /at
/A /B /C /D /E
/F /G /H /I /J
/K /L /M /N /O
/P /Q /R /S /T
/U /V /W /X /Y
/Z /bracketleft /backslash /bracketright /asciicircum
/underscore /quoteleft /a /b /c
/d /e /f /g /h
/i /j /k /l /m
/n /o /p /q /r
/s /t /u /v /w
/x /y /z /braceleft /bar
/braceright /asciitilde /bullet /Euro /bullet
/quotesinglbase /florin /quotedblbase /ellipsis /dagger
/daggerdbl /circumflex /perthousand /Scaron /guilsinglleft
/OE /bullet /Zcaron /bullet /bullet
/quoteleft /quoteright /quotedblleft /quotedblright /bullet
/endash /emdash /asciitilde /trademark /scaron
/guilsinglright /oe /bullet /zcaron /Ydieresis
/space /exclamdown /cent /sterling /currency
/yen /brokenbar /section /dieresis /copyright
/ordfeminine /guillemotleft /logicalnot /sfthyphen /registered
/macron /degree /plusminus /twosuperior /threesuperior
/acute /mu /paragraph /middot /cedilla
/onesuperior /ordmasculine /guillemotright /onequarter /onehalf
/threequarters /questiondown /Agrave /Aacute /Acircumflex
/Atilde /Adieresis /Aring /AE /Ccedilla
/Egrave /Eacute /Ecircumflex /Edieresis /Igrave
/Iacute /Icircumflex /Idieresis /Eth /Ntilde
/Ograve /Oacute /Ocircumflex /Otilde /Odieresis
/multiply /Oslash /Ugrave /Uacute /Ucircumflex
/Udieresis /Yacute /Thorn /germandbls /agrave
/aacute /acircumflex /atilde /adieresis /aring
/ae /ccedilla /egrave /eacute /ecircumflex
/edieresis /igrave /iacute /icircumflex /idieresis
/eth /ntilde /ograve /oacute /ocircumflex
/otilde /odieresis /divide /oslash /ugrave
/uacute /ucircumflex /udieresis /yacute /thorn
/ydieresis
] def
%%EndResource
%FOPBeginFontReencode
/Courier-Oblique findfont
dup length dict begin
  {1 index /FID ne {def} {pop pop} ifelse} forall
  /Encoding WinAnsiEncoding def
  currentdict
end
/Courier-Oblique exch definefont pop
/Courier-BoldOblique findfont
dup length dict begin
  {1 index /FID ne {def} {pop pop} ifelse} forall
  /Encoding WinAnsiEncoding def
  currentdict
end
/Courier-BoldOblique exch definefont pop
/Courier-Bold findfont
dup length dict begin
  {1 index /FID ne {def} {pop pop} ifelse} forall
  /Encoding WinAnsiEncoding def
  currentdict
end
/Courier-Bold exch definefont pop
/Helvetica findfont
dup length dict begin
  {1 index /FID ne {def} {pop pop} ifelse} forall
  /Encoding WinAnsiEncoding def
  currentdict
end
/Helvetica exch definefont pop
/Helvetica-Oblique findfont
dup length dict begin
  {1 index /FID ne {def} {pop pop} ifelse} forall
  /Encoding WinAnsiEncoding def
  currentdict
end
/Helvetica-Oblique exch definefont pop
/Helvetica-Bold findfont
dup length dict begin
  {1 index /FID ne {def} {pop pop} ifelse} forall
  /Encoding WinAnsiEncoding def
  currentdict
end
/Helvetica-Bold exch definefont pop
/Helvetica-BoldOblique findfont
dup length dict begin
  {1 index /FID ne {def} {pop pop} ifelse} forall
  /Encoding WinAnsiEncoding def
  currentdict
end
/Helvetica-BoldOblique exch definefont pop
/Times-Roman findfont
dup length dict begin
  {1 index /FID ne {def} {pop pop} ifelse} forall
  /Encoding WinAnsiEncoding def
  currentdict
end
/Times-Roman exch definefont pop
/Times-Italic findfont
dup length dict begin
  {1 index /FID ne {def} {pop pop} ifelse} forall
  /Encoding WinAnsiEncoding def
  currentdict
end
/Times-Italic exch definefont pop
/Times-Bold findfont
dup length dict begin
  {1 index /FID ne {def} {pop pop} ifelse} forall
  /Encoding WinAnsiEncoding def
  currentdict
end
/Times-Bold exch definefont pop
/Times-BoldItalic findfont
dup length dict begin
  {1 index /FID ne {def} {pop pop} ifelse} forall
  /Encoding WinAnsiEncoding def
  currentdict
end
/Times-BoldItalic exch definefont pop
/Courier findfont
dup length dict begin
  {1 index /FID ne {def} {pop pop} ifelse} forall
  /Encoding WinAnsiEncoding def
  currentdict
end
/Courier exch definefont pop
%FOPEndFontReencode
%%EndProlog
%%Page: 1 1
%%PageBoundingBox: 0 0 420 315
%%BeginPageSetup
[1 0 0 -1 0 315] CT
%%EndPageSetup
GS
[0.75 0 0 0.75 0 0] CT
1 GC
N
0 0 560 420 re
f
GR
GS
[0.75 0 0 0.75 0 0] CT
1 GC
N
0 0 560 420 re
f
GR
GS
[0.75 0 0 0.75 0 0] CT
1 GC
N
73 374 M
507 374 L
507 31 L
73 31 L
cp
f
GR
GS
[0.75 0 0 0.75 0 0] CT
2 setlinecap
1 LJ
0.667 LW
N
73 374 M
507 374 L
S
GR
GS
[0.75 0 0 0.75 0 0] CT
2 setlinecap
1 LJ
0.667 LW
N
73 374 M
73 369.66 L
S
GR
GS
[0.75 0 0 0.75 0 0] CT
2 setlinecap
1 LJ
0.667 LW
N
135 374 M
135 369.66 L
S
GR
GS
[0.75 0 0 0.75 0 0] CT
2 setlinecap
1 LJ
0.667 LW
N
197 374 M
197 369.66 L
S
GR
GS
[0.75 0 0 0.75 0 0] CT
2 setlinecap
1 LJ
0.667 LW
N
259 374 M
259 369.66 L
S
GR
GS
[0.75 0 0 0.75 0 0] CT
2 setlinecap
1 LJ
0.667 LW
N
321 374 M
321 369.66 L
S
GR
GS
[0.75 0 0 0.75 0 0] CT
2 setlinecap
1 LJ
0.667 LW
N
383 374 M
383 369.66 L
S
GR
GS
[0.75 0 0 0.75 0 0] CT
2 setlinecap
1 LJ
0.667 LW
N
445 374 M
445 369.66 L
S
GR
GS
[0.75 0 0 0.75 0 0] CT
2 setlinecap
1 LJ
0.667 LW
N
507 374 M
507 369.66 L
S
GR
GS
[0.75 0 0 0.75 54.75 284.50001] CT
/Helvetica 13.333 F
GS
[1 0 0 1 0 0] CT
-10 14 moveto 
1 -1 scale
(-40) t 
GR
GR
GS
[0.75 0 0 0.75 101.25 284.50001] CT
/Helvetica 13.333 F
GS
[1 0 0 1 0 0] CT
-10 14 moveto 
1 -1 scale
(-30) t 
GR
GR
GS
[0.75 0 0 0.75 147.75 284.50001] CT
/Helvetica 13.333 F
GS
[1 0 0 1 0 0] CT
-10 14 moveto 
1 -1 scale
(-20) t 
GR
GR
GS
[0.75 0 0 0.75 194.25 284.50001] CT
/Helvetica 13.333 F
GS
[1 0 0 1 0 0] CT
-10 14 moveto 
1 -1 scale
(-10) t 
GR
GR
GS
[0.75 0 0 0.75 240.75 284.50001] CT
/Helvetica 13.333 F
GS
[1 0 0 1 0 0] CT
-4 14 moveto 
1 -1 scale
(0) t 
GR
GR
GS
[0.75 0 0 0.75 287.25 284.50001] CT
/Helvetica 13.333 F
GS
[1 0 0 1 0 0] CT
-7.5 14 moveto 
1 -1 scale
(10) t 
GR
GR
GS
[0.75 0 0 0.75 333.75 284.50001] CT
/Helvetica 13.333 F
GS
[1 0 0 1 0 0] CT
-7.5 14 moveto 
1 -1 scale
(20) t 
GR
GR
GS
[0.75 0 0 0.75 380.25 284.50001] CT
/Helvetica 13.333 F
GS
[1 0 0 1 0 0] CT
-7.5 14 moveto 
1 -1 scale
(30) t 
GR
GR
GS
[0.75 0 0 0.75 217.50016 298.24999] CT
/Helvetica 14.667 F
GS
[1 0 0 1 0 0] CT
-66.5 15 moveto 
1 -1 scale
(Eccentricity \(arcmin\)) t 
GR
GR
GS
[0.75 0 0 0.75 0 0] CT
2 setlinecap
1 LJ
0.667 LW
N
73 374 M
73 31 L
S
GR
GS
[0.75 0 0 0.75 0 0] CT
2 setlinecap
1 LJ
0.667 LW
N
73 374 M
77.34 374 L
S
GR
GS
[0.75 0 0 0.75 0 0] CT
2 setlinecap
1 LJ
0.667 LW
N
73 316.833 M
77.34 316.833 L
S
GR
GS
[0.75 0 0 0.75 0 0] CT
2 setlinecap
1 LJ
0.667 LW
N
73 259.667 M
77.34 259.667 L
S
GR
GS
[0.75 0 0 0.75 0 0] CT
2 setlinecap
1 LJ
0.667 LW
N
73 202.5 M
77.34 202.5 L
S
GR
GS
[0.75 0 0 0.75 0 0] CT
2 setlinecap
1 LJ
0.667 LW
N
73 145.333 M
77.34 145.333 L
S
GR
GS
[0.75 0 0 0.75 0 0] CT
2 setlinecap
1 LJ
0.667 LW
N
73 88.167 M
77.34 88.167 L
S
GR
GS
[0.75 0 0 0.75 0 0] CT
2 setlinecap
1 LJ
0.667 LW
N
73 31 M
77.34 31 L
S
GR
GS
[0.75 0 0 0.75 50.75 280.5] CT
/Helvetica 13.333 F
GS
[1 0 0 1 0 0] CT
-19 5.5 moveto 
1 -1 scale
(0.6) t 
GR
GR
GS
[0.75 0 0 0.75 50.75 237.62501] CT
/Helvetica 13.333 F
GS
[1 0 0 1 0 0] CT
-19 5.5 moveto 
1 -1 scale
(0.8) t 
GR
GR
GS
[0.75 0 0 0.75 50.75 194.74999] CT
/Helvetica 13.333 F
GS
[1 0 0 1 0 0] CT
-8 5.5 moveto 
1 -1 scale
(1) t 
GR
GR
GS
[0.75 0 0 0.75 50.75 151.875] CT
/Helvetica 13.333 F
GS
[1 0 0 1 0 0] CT
-19 5.5 moveto 
1 -1 scale
(1.2) t 
GR
GR
GS
[0.75 0 0 0.75 50.75 109] CT
/Helvetica 13.333 F
GS
[1 0 0 1 0 0] CT
-19 5.5 moveto 
1 -1 scale
(1.4) t 
GR
GR
GS
[0.75 0 0 0.75 50.75 66.125] CT
/Helvetica 13.333 F
GS
[1 0 0 1 0 0] CT
-19 5.5 moveto 
1 -1 scale
(1.6) t 
GR
GR
GS
[0.75 0 0 0.75 50.75 23.25] CT
/Helvetica 13.333 F
GS
[1 0 0 1 0 0] CT
-19 5.5 moveto 
1 -1 scale
(1.8) t 
GR
GR
GS
[0 -0.75 0.75 0 30.75 225.75] CT
/Helvetica 14.667 F
GS
[1 0 0 1 0 0] CT
0 0 moveto 
1 -1 scale
(Cone Density \(cones/degree) t 
GR
GR
GS
[0 -0.75 0.75 0 25.5 86.25] CT
/Helvetica 11.733 F
GS
[1 0 0 1 0 0] CT
0 0 moveto 
1 -1 scale
(2) t 
GR
GR
GS
[0 -0.75 0.75 0 30.75 81] CT
/Helvetica 14.667 F
GS
[1 0 0 1 0 0] CT
0 0 moveto 
1 -1 scale
(\)) t 
GR
GR
GS
[0.75 0 0 0.75 54.75 21] CT
N
1.906 -0.375 M
1.906 -0.469 1.969 -0.563 QT
4.672 -3.25 L
1.969 -5.953 L
1.906 -6.016 1.906 -6.125 QT
1.906 -6.219 1.984 -6.305 QT
2.063 -6.391 2.172 -6.391 QT
2.266 -6.391 2.375 -6.297 QT
5.063 -3.609 L
7.734 -6.297 L
7.844 -6.391 7.922 -6.391 QT
8.031 -6.391 8.109 -6.313 QT
8.188 -6.234 8.188 -6.125 QT
8.188 -6.016 8.125 -5.953 QT
5.422 -3.25 L
8.125 -0.563 L
8.188 -0.469 8.188 -0.375 QT
8.188 -0.266 8.109 -0.188 QT
8.031 -0.109 7.922 -0.109 QT
7.828 -0.109 7.734 -0.203 QT
5.063 -2.891 L
2.375 -0.203 L
2.266 -0.109 2.172 -0.109 QT
2.063 -0.109 1.984 -0.195 QT
1.906 -0.281 1.906 -0.375 QT
cp
f
GR
GS
[0.75 0 0 0.75 63 21] CT
/Helvetica 13.333 F
GS
[1 0 0 1 0 0] CT
0 0 moveto 
1 -1 scale
(10) t 
GR
GR
GS
[0.75 0 0 0.75 74.25 16.5] CT
/Helvetica 10.667 F
GS
[1 0 0 1 0 0] CT
0 0 moveto 
1 -1 scale
(4) t 
GR
GR
GS
[0.75 0 0 0.75 217.50021 21.18752] CT
/Helvetica-Bold 14.667 F
GS
[1 0 0 1 0 0] CT
-124 -4 moveto 
1 -1 scale
(Cone Density centered around PCD) t 
GR
GR
GS
[0.75 0 0 0.75 0 0] CT
1 LJ
0.667 LW
N
82.683 374.041 M
82.92 330.938 L
83.54 330.952 L
84.16 331.199 L
84.78 331.502 L
85.4 331.68 L
86.02 331.689 L
86.64 332.166 L
87.26 332.657 L
87.88 332.845 L
88.5 332.868 L
89.12 332.648 L
89.74 333.315 L
90.36 333.346 L
90.98 332.978 L
91.6 332.574 L
92.22 332.342 L
92.84 332.264 L
93.46 332.136 L
94.08 331.927 L
94.7 331.598 L
95.32 331.338 L
95.94 331.136 L
96.56 330.176 L
97.18 329.749 L
97.8 329.193 L
98.42 329.482 L
99.04 329.413 L
99.66 329.201 L
100.28 328.962 L
100.9 329.055 L
101.52 329.01 L
102.14 328.907 L
102.76 328.924 L
103.38 328.283 L
104 328.165 L
104.62 327.628 L
105.24 327.187 L
105.86 326.838 L
106.48 326.751 L
107.1 326.651 L
107.72 326.502 L
108.34 325.939 L
108.96 325.684 L
109.58 325.241 L
110.2 325.204 L
110.82 325.083 L
111.44 325.128 L
112.06 324.956 L
112.68 324.698 L
113.3 324.355 L
113.92 324.188 L
114.54 323.916 L
115.16 323.402 L
115.78 322.924 L
116.4 322.623 L
117.02 322.321 L
117.64 321.872 L
118.26 321.336 L
118.88 320.94 L
119.5 320.372 L
120.12 319.331 L
120.74 318.645 L
121.36 318.036 L
121.98 317.438 L
122.6 316.832 L
123.22 316.189 L
123.84 315.698 L
124.46 315.18 L
125.08 314.914 L
125.7 314.473 L
126.32 313.902 L
126.94 313.458 L
127.56 312.871 L
128.18 312.338 L
128.8 311.882 L
129.42 311.72 L
130.04 311.381 L
130.66 310.747 L
131.28 310.419 L
131.9 309.701 L
132.52 309.171 L
133.14 308.868 L
133.76 308.525 L
134.38 308.106 L
135 307.288 L
135.62 306.842 L
136.24 306.168 L
136.86 305.848 L
137.48 305.436 L
138.1 304.915 L
138.72 304.466 L
139.34 304.188 L
139.96 304.008 L
140.58 303.776 L
141.2 303.245 L
141.82 302.777 L
142.44 302.523 L
143.06 302.354 L
143.68 302.133 L
144.3 302.041 L
144.92 301.742 L
145.54 301.564 L
146.16 301.113 L
146.78 300.833 L
147.4 300.632 L
148.02 299.978 L
148.64 299.516 L
149.26 298.599 L
149.88 297.924 L
150.5 297.402 L
151.12 297.079 L
151.74 296.917 L
152.36 296.37 L
152.98 295.041 L
153.6 294.528 L
154.22 294.262 L
154.84 294.046 L
155.46 293.585 L
156.08 293.024 L
156.7 292.65 L
157.32 291.598 L
157.94 290.775 L
158.56 289.899 L
159.18 288.981 L
159.8 288.855 L
160.42 288.683 L
161.04 288.696 L
161.66 287.635 L
162.28 286.804 L
162.9 285.961 L
163.52 285.654 L
164.14 285.427 L
164.76 284.782 L
165.38 283.423 L
166 282.553 L
166.62 281.623 L
167.24 281.154 L
167.86 280.824 L
168.48 279.476 L
169.1 279.152 L
169.72 278.835 L
170.34 277.818 L
170.96 277.058 L
171.58 275.667 L
172.2 274.668 L
172.82 273.842 L
173.44 273.147 L
174.06 272.396 L
174.68 271.781 L
175.3 270.396 L
175.92 269.315 L
176.54 268.686 L
177.16 268.288 L
177.78 267.646 L
178.4 267.005 L
179.02 266.635 L
179.64 266.573 L
180.26 266.288 L
180.88 265.515 L
181.5 264.971 L
182.12 264.416 L
182.74 263.433 L
183.36 262.122 L
183.98 261.236 L
184.6 260.33 L
185.22 259.795 L
185.84 259.294 L
186.46 258.585 L
187.08 257.828 L
187.7 256.491 L
188.32 255.638 L
188.94 255.128 L
189.56 254.393 L
190.18 253.567 L
190.8 252.902 L
191.42 251.962 L
192.04 250.968 L
192.66 248.932 L
193.28 248.425 L
193.9 247.478 L
194.52 246.866 L
195.14 246.303 L
195.76 245.486 L
196.38 244.8 L
197 243.62 L
197.62 242.435 L
198.24 241.859 L
198.86 241.561 L
199.48 240.84 L
200.1 240.591 L
200.72 240.004 L
201.34 239.91 L
201.96 239.957 L
202.58 239.882 L
203.2 239.729 L
203.82 239.302 L
204.44 239.037 L
205.06 238.956 L
205.68 238.537 L
206.3 238 L
206.92 237.51 L
207.54 237.817 L
208.16 238.193 L
208.78 238.19 L
209.4 238.307 L
210.02 237.973 L
210.64 237.996 L
211.26 237.056 L
211.88 236.877 L
212.5 236.167 L
213.12 235.788 L
213.74 235.527 L
214.36 235.709 L
214.98 235.524 L
215.6 234.982 L
216.22 234.956 L
216.84 235.51 L
217.46 235.444 L
218.08 235.711 L
218.7 235.7 L
219.32 236.413 L
219.94 237.149 L
220.56 237.804 L
221.18 238.401 L
221.8 238.915 L
222.42 239.441 L
223.04 239.763 L
223.66 239.964 L
224.28 239.724 L
224.9 239.523 L
225.52 239.51 L
226.14 239.918 L
226.76 239.431 L
227.38 239.034 L
228 238.709 L
228.62 238.834 L
229.24 239 L
229.86 239.282 L
230.48 239.883 L
231.1 239.376 L
231.72 239.023 L
232.34 238.579 L
232.96 238.691 L
233.58 238.553 L
234.2 238.426 L
234.82 238.132 L
235.44 238.049 L
236.06 238.025 L
236.68 238.218 L
237.3 238.088 L
237.92 237.705 L
238.54 237.647 L
239.16 237.404 L
239.78 237.662 L
240.4 238.054 L
241.02 238.443 L
241.64 239.07 L
242.26 239.293 L
242.88 239.563 L
243.5 239.864 L
244.12 240.535 L
244.74 240.731 L
245.36 240.946 L
245.98 240.653 L
246.6 240.505 L
247.22 240.079 L
247.84 239.669 L
248.46 238.826 L
249.08 238.384 L
249.7 238.055 L
250.32 237.603 L
250.94 236.792 L
251.56 235.926 L
252.18 235.388 L
252.8 234.921 L
253.42 234.26 L
254.04 233.646 L
254.66 233.214 L
255.28 232.619 L
255.9 231.369 L
256.52 230.268 L
257.14 229.53 L
257.76 228.217 L
258.38 227.221 L
259 226.369 L
259.62 225.541 L
260.24 224.78 L
260.86 224.036 L
261.48 223.501 L
262.1 222.923 L
262.72 222.237 L
263.34 221.372 L
263.96 221.107 L
264.58 220.713 L
265.2 220.548 L
265.82 219.877 L
266.44 219.089 L
267.06 218.552 L
267.68 218.23 L
268.3 217.701 L
268.92 217.237 L
269.54 216.843 L
270.16 216.235 L
270.78 215.793 L
271.4 215.5 L
272.02 215.372 L
272.64 215.038 L
273.26 214.332 L
273.88 213.413 L
274.5 211.764 L
275.12 210.783 L
275.74 209.72 L
276.36 208.539 L
276.98 207.509 L
277.6 206.777 L
278.22 206.724 L
278.84 205.713 L
279.46 205.691 L
280.08 205.355 L
280.7 204.753 L
281.32 204.314 L
281.94 204.296 L
282.56 204.445 L
283.18 204.327 L
283.8 202.826 L
284.42 201.956 L
285.04 201.645 L
285.66 201.291 L
286.28 201.027 L
286.9 200.133 L
287.52 199.877 L
288.14 199.242 L
288.76 198.749 L
289.38 198.703 L
290 198.46 L
290.62 197.553 L
291.24 196.804 L
291.86 195.74 L
292.48 194.406 L
293.1 193.836 L
293.72 192.909 L
294.34 192.459 L
294.96 191.426 L
295.58 191.159 L
296.2 190.121 L
296.82 189.203 L
297.44 188.535 L
298.06 188.396 L
298.68 188.03 L
299.3 188.068 L
299.92 188.097 L
300.54 187.446 L
301.16 186.672 L
301.78 186.608 L
302.4 186.231 L
303.02 186.09 L
303.64 185.434 L
304.26 184.697 L
304.88 184.67 L
305.5 184.977 L
306.12 184.728 L
306.74 184.162 L
307.36 183.555 L
307.98 182.696 L
308.6 181.698 L
309.22 180.761 L
309.84 179.978 L
310.46 178.166 L
311.08 176.896 L
311.7 175.507 L
312.32 173.455 L
312.94 172.776 L
313.56 171.701 L
314.18 170.427 L
314.8 169.585 L
315.42 168.985 L
316.04 167.714 L
316.66 166.739 L
317.28 166.278 L
317.9 165.939 L
318.52 165.664 L
319.14 165.034 L
319.76 164.871 L
320.38 164.66 L
321 163.875 L
321.62 164.014 L
322.24 164.487 L
322.86 165.083 L
323.48 165.251 L
324.1 166.153 L
324.72 166.399 L
325.34 166.267 L
325.96 166.499 L
326.58 166.688 L
327.2 167.189 L
327.82 167.672 L
328.44 168.695 L
329.06 169.408 L
329.68 169.617 L
330.3 170.41 L
330.92 170.88 L
331.54 171.244 L
332.16 171.884 L
332.78 172.706 L
333.4 174.291 L
334.02 175.591 L
334.64 176.935 L
335.26 178.243 L
335.88 179.408 L
336.5 180.336 L
337.12 181.799 L
337.74 182.43 L
338.36 183.421 L
338.98 184.09 L
339.6 184.712 L
340.22 185.58 L
340.84 186.863 L
341.46 187.59 L
342.08 188.389 L
342.7 189.523 L
343.32 190.331 L
343.94 191.573 L
344.56 193.18 L
345.18 194.606 L
345.8 196.477 L
346.42 198.049 L
347.04 199.621 L
347.66 200.48 L
348.28 201.822 L
348.9 203.131 L
349.52 204.405 L
350.14 206.239 L
350.76 207.841 L
351.38 209.227 L
352 211.032 L
352.62 212.621 L
353.24 213.749 L
353.86 215.087 L
354.48 216.025 L
355.1 217.838 L
355.72 219.566 L
356.34 221.072 L
356.96 222.142 L
357.58 223.813 L
358.2 224.879 L
358.82 226.871 L
359.44 228.092 L
360.06 228.484 L
360.68 229.51 L
361.3 230.185 L
361.92 231.242 L
362.54 232.854 L
363.16 234.849 L
363.78 236.299 L
364.4 237.253 L
365.02 238.276 L
365.64 239.23 L
366.26 239.788 L
366.88 240.254 L
367.5 240.794 L
368.12 242.26 L
368.74 243.997 L
369.36 245.138 L
369.98 245.688 L
370.6 246.114 L
371.22 247.009 L
371.84 247.56 L
372.46 248.24 L
373.08 248.948 L
373.7 249.723 L
374.32 250.194 L
374.94 251.588 L
375.56 252.358 L
376.18 253.462 L
376.8 254.385 L
377.42 256.013 L
378.04 257.399 L
378.66 258.122 L
379.28 258.861 L
379.9 259.709 L
380.52 261.169 L
381.14 262.515 L
381.76 263.724 L
382.38 264.572 L
383 265.782 L
383.62 266.991 L
384.24 268.601 L
384.86 269.9 L
385.48 271.309 L
386.1 272.047 L
386.72 272.65 L
387.34 273.348 L
387.96 275.972 L
388.58 278.941 L
389.2 283.55 L
389.82 288.149 L
390.44 289.581 L
391.06 292.935 L
391.68 298.519 L
392.3 303.823 L
392.92 309.251 L
393.54 312.37 L
394.16 315.077 L
394.78 320.067 L
395.4 323 L
396.02 323.477 L
396.64 323.912 L
397.26 324.355 L
397.88 324.73 L
398.5 325.041 L
399.12 325.302 L
399.74 325.58 L
400.36 326.018 L
400.98 326.669 L
401.6 327.437 L
402.22 328.12 L
402.84 328.699 L
403.46 329.498 L
404.08 329.701 L
404.7 330.308 L
405.32 330.8 L
405.94 331.778 L
406.56 332.318 L
407.18 333.171 L
407.8 333.538 L
408.42 334.227 L
409.04 334.791 L
409.66 335.381 L
410.28 336.008 L
410.9 336.234 L
411.52 336.758 L
412.14 338.292 L
412.76 339.211 L
413.38 339.394 L
414 340.42 L
414.62 341.829 L
415.24 342.849 L
415.86 342.886 L
416.48 343.739 L
417.1 344.783 L
417.72 344.845 L
418.34 345.773 L
418.96 345.946 L
419.58 346.907 L
420.2 348.172 L
420.82 349.129 L
421.44 349.69 L
422.06 350.979 L
422.68 351.149 L
423.3 351.618 L
423.92 351.708 L
424.54 351.758 L
425.16 352.247 L
425.78 352.45 L
426.4 352.956 L
427.02 353.494 L
427.64 353.559 L
428.26 354.088 L
428.88 354.079 L
429.5 354.611 L
430.12 354.722 L
430.74 354.716 L
431.36 355.239 L
431.98 355.254 L
432.6 355.304 L
433.22 355.839 L
433.84 355.824 L
434.46 355.868 L
435.08 355.889 L
435.7 355.983 L
436.32 356.095 L
436.94 356.273 L
437.56 356.487 L
438.18 356.745 L
438.8 357.008 L
439.42 357.093 L
440.04 357.232 L
440.66 357.266 L
441.28 357.553 L
441.9 357.6 L
442.52 358.006 L
443.14 358.067 L
443.76 358.284 L
444.38 358.497 L
445 358.472 L
445.62 358.707 L
446.24 358.71 L
446.86 359.052 L
447.48 359.056 L
448.1 359.946 L
448.72 359.92 L
449.34 360.128 L
449.96 361.065 L
450.58 361.1 L
451.2 361.306 L
451.82 361.496 L
452.44 361.527 L
453.06 362.446 L
453.68 362.829 L
454.3 363.605 L
454.92 363.809 L
455.54 363.809 L
456.16 363.864 L
456.78 364.665 L
457.4 364.617 L
458.02 365.339 L
458.64 365.352 L
459.26 365.303 L
459.88 366.051 L
460.5 366.122 L
461.12 366.84 L
461.74 366.818 L
S
GR
GS
[0.75 0 0 0.75 0 0] CT
1 LJ
0.667 LW
N
105.784 374.041 M
106.023 330.886 L
106.643 330.885 L
107.263 331.066 L
107.883 331.369 L
108.503 331.604 L
109.123 331.58 L
109.743 332.101 L
110.363 332.724 L
110.983 332.951 L
111.603 333.005 L
112.223 332.866 L
112.843 333.46 L
113.463 333.459 L
114.083 333.101 L
114.703 332.713 L
115.323 332.365 L
115.943 332.2 L
116.563 332.042 L
117.183 331.797 L
117.803 331.462 L
118.423 331.25 L
119.043 330.96 L
119.663 330.02 L
120.283 329.531 L
120.903 328.95 L
121.523 329.296 L
122.143 329.283 L
122.763 328.96 L
123.383 328.828 L
124.003 328.832 L
124.623 328.751 L
125.243 328.674 L
125.863 328.832 L
126.483 328.299 L
127.103 328.171 L
127.723 327.661 L
128.343 327.246 L
128.963 326.828 L
129.583 326.766 L
130.203 326.64 L
130.823 326.524 L
131.443 325.908 L
132.063 325.666 L
132.683 325.211 L
133.303 325.234 L
133.923 325.05 L
134.543 325.018 L
135.163 324.766 L
135.783 324.534 L
136.403 324.199 L
137.023 324.085 L
137.643 323.777 L
138.263 323.216 L
138.883 322.757 L
139.503 322.447 L
140.123 322.123 L
140.743 321.742 L
141.363 321.288 L
141.983 320.87 L
142.603 320.296 L
143.223 319.372 L
143.843 318.715 L
144.463 318.011 L
145.083 317.416 L
145.703 316.775 L
146.323 316.15 L
146.943 315.664 L
147.563 315.129 L
148.183 314.95 L
148.803 314.496 L
149.423 313.885 L
150.043 313.351 L
150.663 312.758 L
151.283 312.221 L
151.903 311.748 L
152.523 311.542 L
153.143 311.201 L
153.763 310.585 L
154.383 310.347 L
155.003 309.69 L
155.623 309.106 L
156.243 308.758 L
156.863 308.453 L
157.483 308.055 L
158.103 307.207 L
158.723 306.646 L
159.343 306.105 L
159.963 305.727 L
160.583 305.187 L
161.203 304.596 L
161.823 304.115 L
162.443 303.866 L
163.063 303.662 L
163.683 303.438 L
164.303 302.939 L
164.923 302.473 L
165.543 302.245 L
166.163 302.101 L
166.783 301.857 L
167.403 301.777 L
168.023 301.49 L
168.643 301.349 L
169.263 300.888 L
169.883 300.614 L
170.503 300.439 L
171.123 299.671 L
171.743 299.275 L
172.363 298.33 L
172.983 297.698 L
173.603 297.167 L
174.223 296.875 L
174.843 296.671 L
175.463 296.081 L
176.083 294.711 L
176.703 294.257 L
177.323 294.022 L
177.943 293.855 L
178.563 293.395 L
179.183 292.753 L
179.803 292.434 L
180.423 291.315 L
181.043 290.591 L
181.663 289.655 L
182.283 288.745 L
182.903 288.635 L
183.523 288.523 L
184.143 288.591 L
184.763 287.565 L
185.383 286.701 L
186.003 285.889 L
186.623 285.484 L
187.243 285.293 L
187.863 284.66 L
188.483 283.346 L
189.103 282.416 L
189.723 281.404 L
190.343 280.909 L
190.963 280.679 L
191.583 279.228 L
192.203 278.79 L
192.823 278.231 L
193.443 277.187 L
194.063 276.534 L
194.683 275.187 L
195.303 274.251 L
195.923 273.358 L
196.543 272.778 L
197.163 271.87 L
197.783 271.3 L
198.403 270.015 L
199.023 268.823 L
199.643 268.086 L
200.263 267.741 L
200.883 267.233 L
201.503 266.725 L
202.123 266.537 L
202.743 266.356 L
203.363 266.145 L
203.983 265.338 L
204.603 264.629 L
205.223 263.994 L
205.843 263.1 L
206.463 261.81 L
207.083 260.833 L
207.703 260.042 L
208.323 259.523 L
208.943 259.039 L
209.563 258.369 L
210.183 257.577 L
210.803 256.349 L
211.423 255.399 L
212.043 254.965 L
212.663 254.212 L
213.283 253.377 L
213.903 252.817 L
214.523 251.936 L
215.143 250.949 L
215.763 248.995 L
216.383 248.433 L
217.003 247.423 L
217.623 246.795 L
218.243 246.202 L
218.863 245.469 L
219.483 244.777 L
220.103 243.615 L
220.723 242.41 L
221.343 241.923 L
221.963 241.623 L
222.583 240.892 L
223.203 240.744 L
223.823 240.133 L
224.443 240.081 L
225.063 240.131 L
225.683 239.982 L
226.303 239.797 L
226.923 239.354 L
227.543 239.124 L
228.163 239.205 L
228.783 238.701 L
229.403 238.126 L
230.023 237.716 L
230.643 238.008 L
231.263 238.381 L
231.883 238.382 L
232.503 238.48 L
233.123 238.209 L
233.743 238.278 L
234.363 237.301 L
234.983 237.195 L
235.603 236.452 L
236.223 236.362 L
236.843 236.067 L
237.463 236.276 L
238.083 236.182 L
238.703 235.563 L
239.323 235.369 L
239.943 236.044 L
240.563 235.916 L
241.183 236.143 L
241.803 236.202 L
242.423 236.92 L
243.043 237.538 L
243.663 238.168 L
244.283 238.61 L
244.903 239.055 L
245.523 239.71 L
246.143 240.135 L
246.763 240.342 L
247.383 240.098 L
248.003 239.797 L
248.623 239.82 L
249.243 240.252 L
249.863 239.776 L
250.483 239.269 L
251.103 239.013 L
251.723 239.287 L
252.343 239.415 L
252.963 239.833 L
253.583 240.512 L
254.203 239.859 L
254.823 239.488 L
255.443 239.339 L
256.063 239.505 L
256.683 239.26 L
257.303 239.136 L
257.923 238.857 L
258.543 238.794 L
259.163 238.747 L
259.783 238.775 L
260.403 238.652 L
261.023 238.318 L
261.643 238.209 L
262.263 237.841 L
262.883 237.932 L
263.503 238.262 L
264.123 238.618 L
264.743 239.245 L
265.363 239.544 L
265.983 239.747 L
266.603 239.98 L
267.223 240.579 L
267.843 240.793 L
268.463 241.033 L
269.083 240.57 L
269.703 240.517 L
270.323 240.047 L
270.943 239.59 L
271.563 238.665 L
272.183 238.118 L
272.803 237.772 L
273.423 237.293 L
274.043 236.546 L
274.663 235.564 L
275.283 235.023 L
275.903 234.427 L
276.523 233.83 L
277.143 233.318 L
277.763 232.899 L
278.383 232.137 L
279.003 230.843 L
279.623 229.929 L
280.243 229.143 L
280.863 227.804 L
281.483 226.701 L
282.103 226.007 L
282.723 225.027 L
283.343 224.266 L
283.963 223.566 L
284.583 223.102 L
285.203 222.514 L
285.823 221.962 L
286.443 221.043 L
287.063 220.827 L
287.683 220.3 L
288.303 219.985 L
288.923 219.399 L
289.543 218.57 L
290.163 217.843 L
290.783 217.516 L
291.403 216.964 L
292.023 216.492 L
292.643 216.047 L
293.263 215.343 L
293.883 214.964 L
294.503 214.698 L
295.123 214.557 L
295.743 214.304 L
296.363 213.62 L
296.983 212.661 L
297.603 211.141 L
298.223 210.275 L
298.843 209.153 L
299.463 208.281 L
300.083 207.275 L
300.703 206.547 L
301.323 206.463 L
301.943 205.505 L
302.563 205.589 L
303.183 205.265 L
303.803 204.761 L
304.423 204.149 L
305.043 204.047 L
305.663 204.114 L
306.283 203.98 L
306.903 202.589 L
307.523 201.759 L
308.143 201.422 L
308.763 200.961 L
309.383 200.616 L
310.003 199.732 L
310.623 199.499 L
311.243 198.81 L
311.863 198.298 L
312.483 198.165 L
313.103 198.018 L
313.723 197.102 L
314.343 196.497 L
314.963 195.413 L
315.583 193.92 L
316.203 193.296 L
316.823 192.223 L
317.443 191.735 L
318.063 190.73 L
318.683 190.373 L
319.303 189.384 L
319.923 188.437 L
320.543 187.733 L
321.163 187.595 L
321.783 187.29 L
322.403 187.238 L
323.023 187.33 L
323.643 186.818 L
324.263 186.055 L
324.883 186.069 L
325.503 185.764 L
326.123 185.692 L
326.743 185.297 L
327.363 184.693 L
327.983 184.624 L
328.603 184.927 L
329.223 184.591 L
329.843 184.19 L
330.463 183.434 L
331.083 182.495 L
331.703 181.357 L
332.323 180.266 L
332.943 179.577 L
333.563 177.673 L
334.183 176.45 L
334.803 175.209 L
335.423 173.018 L
336.043 172.149 L
336.663 171.093 L
337.283 169.817 L
337.903 169.273 L
338.523 168.398 L
339.143 167.162 L
339.763 166.217 L
340.383 165.631 L
341.003 165.484 L
341.623 165.249 L
342.243 164.529 L
342.863 164.307 L
343.483 164.265 L
344.103 163.627 L
344.723 163.738 L
345.343 164.502 L
345.963 165.039 L
346.583 165.018 L
347.203 165.947 L
347.823 166.269 L
348.443 166.073 L
349.063 166.107 L
349.683 166.296 L
350.303 166.625 L
350.923 167.049 L
351.543 167.999 L
352.163 168.839 L
352.783 169.19 L
353.403 169.905 L
354.023 170.17 L
354.643 170.735 L
355.263 171.182 L
355.883 171.855 L
356.503 173.434 L
357.123 174.792 L
357.743 175.917 L
358.363 177.21 L
358.983 178.727 L
359.603 179.724 L
360.223 181.582 L
360.843 182.289 L
361.463 183.311 L
362.083 183.977 L
362.703 184.749 L
363.323 185.679 L
363.943 186.936 L
364.563 187.679 L
365.183 188.349 L
365.803 189.441 L
366.423 190.182 L
367.043 191.298 L
367.663 192.817 L
368.283 194.146 L
368.903 196.078 L
369.523 197.732 L
370.143 199.401 L
370.763 200.231 L
371.383 201.529 L
372.003 202.627 L
372.623 203.856 L
373.243 205.784 L
373.863 207.306 L
374.483 208.696 L
375.103 210.579 L
375.723 212.012 L
376.343 213.151 L
376.963 214.643 L
377.583 215.516 L
378.203 217.2 L
378.823 218.799 L
379.443 220.421 L
380.063 221.577 L
380.683 223.294 L
381.303 224.295 L
381.923 226.053 L
382.543 227.311 L
383.163 227.868 L
383.783 228.917 L
384.403 229.611 L
385.023 230.624 L
385.643 232.071 L
386.263 234.088 L
386.883 235.549 L
387.503 236.461 L
388.123 237.621 L
388.743 238.509 L
389.363 239.329 L
389.983 239.737 L
390.603 240.381 L
391.223 241.903 L
391.843 243.49 L
392.463 244.489 L
393.083 245.063 L
393.703 245.586 L
394.323 246.483 L
394.943 247.097 L
395.563 247.62 L
396.183 248.329 L
396.803 249.124 L
397.423 249.664 L
398.043 251.182 L
398.663 251.883 L
399.283 252.965 L
399.903 253.862 L
400.523 255.423 L
401.143 256.878 L
401.763 257.714 L
402.383 258.374 L
403.003 259.286 L
403.623 260.666 L
404.243 262.057 L
404.863 263.277 L
405.483 264.161 L
406.103 265.273 L
406.723 266.583 L
407.343 268.203 L
407.963 269.464 L
408.583 270.932 L
409.203 271.576 L
409.823 272.35 L
410.443 273.024 L
411.063 275.235 L
411.683 278.221 L
412.303 281.835 L
412.923 286.842 L
413.543 288.247 L
414.163 291.596 L
414.783 295.828 L
415.403 301.195 L
416.023 306.659 L
416.643 309.757 L
417.263 312.479 L
417.883 317.351 L
418.503 320.298 L
419.123 323.166 L
419.743 323.624 L
420.363 324.058 L
420.983 324.382 L
421.603 324.742 L
422.223 324.968 L
422.843 325.576 L
423.463 326.026 L
424.083 326.464 L
424.703 327.245 L
425.323 327.956 L
425.943 328.551 L
426.563 329.277 L
427.183 329.478 L
427.803 330.167 L
428.423 330.592 L
429.043 331.166 L
429.663 331.706 L
430.283 332.355 L
430.903 332.714 L
431.523 333.444 L
432.143 334.231 L
432.763 334.829 L
433.383 335.457 L
434.003 335.677 L
434.623 337.083 L
435.243 338.513 L
435.863 339.46 L
436.483 339.615 L
437.103 340.641 L
437.723 342.049 L
438.343 343.067 L
438.963 343.527 L
439.583 344.433 L
440.203 345.444 L
440.823 345.505 L
441.443 346.412 L
442.063 347.067 L
442.683 348.012 L
443.303 349.302 L
443.923 350.22 L
444.543 350.767 L
445.163 351.26 L
445.783 351.445 L
446.403 351.905 L
447.023 351.98 L
447.643 352.032 L
448.263 352.493 L
448.883 352.675 L
449.503 353.202 L
450.123 353.758 L
450.743 353.848 L
451.363 354.417 L
451.983 354.408 L
452.603 354.928 L
453.223 355.09 L
453.843 355.062 L
454.463 355.585 L
455.083 355.6 L
455.703 355.65 L
456.323 355.732 L
456.943 355.704 L
457.563 355.748 L
458.183 355.935 L
458.803 356.028 L
459.423 356.154 L
460.043 356.351 L
460.663 356.41 L
461.283 356.668 L
461.903 356.931 L
462.523 357.016 L
463.143 357.189 L
463.763 357.182 L
464.383 357.494 L
465.003 357.541 L
465.623 357.908 L
466.243 357.969 L
466.863 358.169 L
467.483 358.382 L
468.103 358.366 L
468.723 358.624 L
469.343 358.628 L
469.963 358.973 L
470.583 358.976 L
471.203 359.091 L
471.823 359.084 L
472.443 359.292 L
473.063 360.229 L
473.683 360.264 L
474.303 360.47 L
474.923 360.657 L
475.543 360.688 L
476.163 361.609 L
476.783 361.847 L
477.403 362.628 L
478.023 362.831 L
478.643 362.831 L
479.263 362.886 L
479.883 363.653 L
480.503 363.798 L
481.123 364.52 L
481.743 364.532 L
482.363 364.502 L
482.983 365.241 L
483.603 365.31 L
484.223 366.028 L
484.843 366.022 L
S
GR
GS
[0.75 0 0 0.75 124.5 87.5625] CT
/Helvetica 13.333 F
GS
[1 0 0 1 0 0] CT
0 5.5 moveto 
1 -1 scale
(Superior Retina) t 
GR
GR
GS
[0.75 0 0 0.75 310.5 87.5625] CT
/Helvetica 13.333 F
GS
[1 0 0 1 0 0] CT
0 5.5 moveto 
1 -1 scale
(Inferior Retina) t 
GR
GR
GS
[0.75 0 0 0.75 0 0] CT
1 GC
N
496 78 M
496 42 L
419 42 L
419 78 L
cp
f
GR
GS
[0.75 0 0 0.75 349.5 38.89726] CT
/Helvetica 12 F
GS
[1 0 0 1 0 0] CT
0 5 moveto 
1 -1 scale
(PCD) t 
GR
GR
GS
[0.75 0 0 0.75 0 0] CT
1 LJ
0.667 LW
N
423 51.863 M
463 51.863 L
S
GR
GS
[0.75 0 0 0.75 349.5 51.10274] CT
/Helvetica 12 F
GS
[1 0 0 1 0 0] CT
0 5 moveto 
1 -1 scale
(CDC) t 
GR
GR
GS
[0.75 0 0 0.75 0 0] CT
1 LJ
0.667 LW
N
423 68.137 M
463 68.137 L
S
GR
GS
[0.75 0 0 0.75 0 0] CT
10.0 ML
0.667 LW
N
419 78 M
419 42 L
496 42 L
496 78 L
cp
S
GR
%%Trailer
%%Pages: 1
%%EOF
