%!PS-Adobe-3.0 EPSF-3.0
%%Creator: (MATLAB, The Mathworks, Inc. Version 9.11.0.1837725 \(R2021b\) Update 2. Operating System: Windows 10)
%%Title: C:/Users/ruccilab/Documents/adaptiveoptics/ConeDesity/APLab_System/data/ConeTaggingTraining/Distribution/tagger2_VertDist.eps
%%CreationDate: 2023-06-23T09:57:04
%%Pages: (atend)
%%BoundingBox:    19     3   413   306
%%LanguageLevel: 3
%%EndComments
%%BeginProlog
%%BeginResource: procset (Apache XML Graphics Std ProcSet) 1.2 0
%%Version: 1.2 0
%%Copyright: (Copyright 2001-2003,2010 The Apache Software Foundation. License terms: http://www.apache.org/licenses/LICENSE-2.0)
/bd{bind def}bind def
/ld{load def}bd
/GR/grestore ld
/GS/gsave ld
/RM/rmoveto ld
/C/curveto ld
/t/show ld
/L/lineto ld
/ML/setmiterlimit ld
/CT/concat ld
/f/fill ld
/N/newpath ld
/S/stroke ld
/CC/setcmykcolor ld
/A/ashow ld
/cp/closepath ld
/RC/setrgbcolor ld
/LJ/setlinejoin ld
/GC/setgray ld
/LW/setlinewidth ld
/M/moveto ld
/re {4 2 roll M
1 index 0 rlineto
0 exch rlineto
neg 0 rlineto
cp } bd
/_ctm matrix def
/_tm matrix def
/BT { _ctm currentmatrix pop matrix _tm copy pop 0 0 moveto } bd
/ET { _ctm setmatrix } bd
/iTm { _ctm setmatrix _tm concat } bd
/Tm { _tm astore pop iTm 0 0 moveto } bd
/ux 0.0 def
/uy 0.0 def
/F {
  /Tp exch def
  /Tf exch def
  Tf findfont Tp scalefont setfont
  /cf Tf def  /cs Tp def
} bd
/ULS {currentpoint /uy exch def /ux exch def} bd
/ULE {
  /Tcx currentpoint pop def
  gsave
  newpath
  cf findfont cs scalefont dup
  /FontMatrix get 0 get /Ts exch def /FontInfo get dup
  /UnderlinePosition get Ts mul /To exch def
  /UnderlineThickness get Ts mul /Tt exch def
  ux uy To add moveto  Tcx uy To add lineto
  Tt setlinewidth stroke
  grestore
} bd
/OLE {
  /Tcx currentpoint pop def
  gsave
  newpath
  cf findfont cs scalefont dup
  /FontMatrix get 0 get /Ts exch def /FontInfo get dup
  /UnderlinePosition get Ts mul /To exch def
  /UnderlineThickness get Ts mul /Tt exch def
  ux uy To add cs add moveto Tcx uy To add cs add lineto
  Tt setlinewidth stroke
  grestore
} bd
/SOE {
  /Tcx currentpoint pop def
  gsave
  newpath
  cf findfont cs scalefont dup
  /FontMatrix get 0 get /Ts exch def /FontInfo get dup
  /UnderlinePosition get Ts mul /To exch def
  /UnderlineThickness get Ts mul /Tt exch def
  ux uy To add cs 10 mul 26 idiv add moveto Tcx uy To add cs 10 mul 26 idiv add lineto
  Tt setlinewidth stroke
  grestore
} bd
/QT {
/Y22 exch store
/X22 exch store
/Y21 exch store
/X21 exch store
currentpoint
/Y21 load 2 mul add 3 div exch
/X21 load 2 mul add 3 div exch
/X21 load 2 mul /X22 load add 3 div
/Y21 load 2 mul /Y22 load add 3 div
/X22 load /Y22 load curveto
} bd
/SSPD {
dup length /d exch dict def
{
/v exch def
/k exch def
currentpagedevice k known {
/cpdv currentpagedevice k get def
v cpdv ne {
/upd false def
/nullv v type /nulltype eq def
/nullcpdv cpdv type /nulltype eq def
nullv nullcpdv or
{
/upd true def
} {
/sametype v type cpdv type eq def
sametype {
v type /arraytype eq {
/vlen v length def
/cpdvlen cpdv length def
vlen cpdvlen eq {
0 1 vlen 1 sub {
/i exch def
/obj v i get def
/cpdobj cpdv i get def
obj cpdobj ne {
/upd true def
exit
} if
} for
} {
/upd true def
} ifelse
} {
v type /dicttype eq {
v {
/dv exch def
/dk exch def
/cpddv cpdv dk get def
dv cpddv ne {
/upd true def
exit
} if
} forall
} {
/upd true def
} ifelse
} ifelse
} if
} ifelse
upd true eq {
d k v put
} if
} if
} if
} forall
d length 0 gt {
d setpagedevice
} if
} bd
/RE { % /NewFontName [NewEncodingArray] /FontName RE -
  findfont dup length dict begin
  {
    1 index /FID ne
    {def} {pop pop} ifelse
  } forall
  /Encoding exch def
  /FontName 1 index def
  currentdict definefont pop
  end
} bind def
%%EndResource
%%BeginResource: procset (Apache XML Graphics EPS ProcSet) 1.0 0
%%Version: 1.0 0
%%Copyright: (Copyright 2002-2003 The Apache Software Foundation. License terms: http://www.apache.org/licenses/LICENSE-2.0)
/BeginEPSF { %def
/b4_Inc_state save def         % Save state for cleanup
/dict_count countdictstack def % Count objects on dict stack
/op_count count 1 sub def      % Count objects on operand stack
userdict begin                 % Push userdict on dict stack
/showpage { } def              % Redefine showpage, { } = null proc
0 setgray 0 setlinecap         % Prepare graphics state
1 setlinewidth 0 setlinejoin
10 setmiterlimit [ ] 0 setdash newpath
/languagelevel where           % If level not equal to 1 then
{pop languagelevel             % set strokeadjust and
1 ne                           % overprint to their defaults.
{false setstrokeadjust false setoverprint
} if
} if
} bd
/EndEPSF { %def
count op_count sub {pop} repeat            % Clean up stacks
countdictstack dict_count sub {end} repeat
b4_Inc_state restore
} bd
%%EndResource
%FOPBeginFontDict
%%IncludeResource: font Courier-Oblique
%%IncludeResource: font Courier-BoldOblique
%%IncludeResource: font Courier-Bold
%%IncludeResource: font ZapfDingbats
%%IncludeResource: font Symbol
%%IncludeResource: font Helvetica
%%IncludeResource: font Helvetica-Oblique
%%IncludeResource: font Helvetica-Bold
%%IncludeResource: font Helvetica-BoldOblique
%%IncludeResource: font Times-Roman
%%IncludeResource: font Times-Italic
%%IncludeResource: font Times-Bold
%%IncludeResource: font Times-BoldItalic
%%IncludeResource: font Courier
%FOPEndFontDict
%%BeginResource: encoding WinAnsiEncoding
/WinAnsiEncoding [
/.notdef /.notdef /.notdef /.notdef /.notdef
/.notdef /.notdef /.notdef /.notdef /.notdef
/.notdef /.notdef /.notdef /.notdef /.notdef
/.notdef /.notdef /.notdef /.notdef /.notdef
/.notdef /.notdef /.notdef /.notdef /.notdef
/.notdef /.notdef /.notdef /.notdef /.notdef
/.notdef /.notdef /space /exclam /quotedbl
/numbersign /dollar /percent /ampersand /quotesingle
/parenleft /parenright /asterisk /plus /comma
/hyphen /period /slash /zero /one
/two /three /four /five /six
/seven /eight /nine /colon /semicolon
/less /equal /greater /question /at
/A /B /C /D /E
/F /G /H /I /J
/K /L /M /N /O
/P /Q /R /S /T
/U /V /W /X /Y
/Z /bracketleft /backslash /bracketright /asciicircum
/underscore /quoteleft /a /b /c
/d /e /f /g /h
/i /j /k /l /m
/n /o /p /q /r
/s /t /u /v /w
/x /y /z /braceleft /bar
/braceright /asciitilde /bullet /Euro /bullet
/quotesinglbase /florin /quotedblbase /ellipsis /dagger
/daggerdbl /circumflex /perthousand /Scaron /guilsinglleft
/OE /bullet /Zcaron /bullet /bullet
/quoteleft /quoteright /quotedblleft /quotedblright /bullet
/endash /emdash /asciitilde /trademark /scaron
/guilsinglright /oe /bullet /zcaron /Ydieresis
/space /exclamdown /cent /sterling /currency
/yen /brokenbar /section /dieresis /copyright
/ordfeminine /guillemotleft /logicalnot /sfthyphen /registered
/macron /degree /plusminus /twosuperior /threesuperior
/acute /mu /paragraph /middot /cedilla
/onesuperior /ordmasculine /guillemotright /onequarter /onehalf
/threequarters /questiondown /Agrave /Aacute /Acircumflex
/Atilde /Adieresis /Aring /AE /Ccedilla
/Egrave /Eacute /Ecircumflex /Edieresis /Igrave
/Iacute /Icircumflex /Idieresis /Eth /Ntilde
/Ograve /Oacute /Ocircumflex /Otilde /Odieresis
/multiply /Oslash /Ugrave /Uacute /Ucircumflex
/Udieresis /Yacute /Thorn /germandbls /agrave
/aacute /acircumflex /atilde /adieresis /aring
/ae /ccedilla /egrave /eacute /ecircumflex
/edieresis /igrave /iacute /icircumflex /idieresis
/eth /ntilde /ograve /oacute /ocircumflex
/otilde /odieresis /divide /oslash /ugrave
/uacute /ucircumflex /udieresis /yacute /thorn
/ydieresis
] def
%%EndResource
%FOPBeginFontReencode
/Courier-Oblique findfont
dup length dict begin
  {1 index /FID ne {def} {pop pop} ifelse} forall
  /Encoding WinAnsiEncoding def
  currentdict
end
/Courier-Oblique exch definefont pop
/Courier-BoldOblique findfont
dup length dict begin
  {1 index /FID ne {def} {pop pop} ifelse} forall
  /Encoding WinAnsiEncoding def
  currentdict
end
/Courier-BoldOblique exch definefont pop
/Courier-Bold findfont
dup length dict begin
  {1 index /FID ne {def} {pop pop} ifelse} forall
  /Encoding WinAnsiEncoding def
  currentdict
end
/Courier-Bold exch definefont pop
/Helvetica findfont
dup length dict begin
  {1 index /FID ne {def} {pop pop} ifelse} forall
  /Encoding WinAnsiEncoding def
  currentdict
end
/Helvetica exch definefont pop
/Helvetica-Oblique findfont
dup length dict begin
  {1 index /FID ne {def} {pop pop} ifelse} forall
  /Encoding WinAnsiEncoding def
  currentdict
end
/Helvetica-Oblique exch definefont pop
/Helvetica-Bold findfont
dup length dict begin
  {1 index /FID ne {def} {pop pop} ifelse} forall
  /Encoding WinAnsiEncoding def
  currentdict
end
/Helvetica-Bold exch definefont pop
/Helvetica-BoldOblique findfont
dup length dict begin
  {1 index /FID ne {def} {pop pop} ifelse} forall
  /Encoding WinAnsiEncoding def
  currentdict
end
/Helvetica-BoldOblique exch definefont pop
/Times-Roman findfont
dup length dict begin
  {1 index /FID ne {def} {pop pop} ifelse} forall
  /Encoding WinAnsiEncoding def
  currentdict
end
/Times-Roman exch definefont pop
/Times-Italic findfont
dup length dict begin
  {1 index /FID ne {def} {pop pop} ifelse} forall
  /Encoding WinAnsiEncoding def
  currentdict
end
/Times-Italic exch definefont pop
/Times-Bold findfont
dup length dict begin
  {1 index /FID ne {def} {pop pop} ifelse} forall
  /Encoding WinAnsiEncoding def
  currentdict
end
/Times-Bold exch definefont pop
/Times-BoldItalic findfont
dup length dict begin
  {1 index /FID ne {def} {pop pop} ifelse} forall
  /Encoding WinAnsiEncoding def
  currentdict
end
/Times-BoldItalic exch definefont pop
/Courier findfont
dup length dict begin
  {1 index /FID ne {def} {pop pop} ifelse} forall
  /Encoding WinAnsiEncoding def
  currentdict
end
/Courier exch definefont pop
%FOPEndFontReencode
%%EndProlog
%%Page: 1 1
%%PageBoundingBox: 0 0 420 315
%%BeginPageSetup
[1 0 0 -1 0 315] CT
%%EndPageSetup
GS
[0.75 0 0 0.75 0 0] CT
1 GC
N
0 0 560 420 re
f
GR
GS
[0.75 0 0 0.75 0 0] CT
1 GC
N
0 0 560 420 re
f
GR
GS
[0.75 0 0 0.75 0 0] CT
1 GC
N
73 374 M
507 374 L
507 31 L
73 31 L
cp
f
GR
GS
[0.75 0 0 0.75 0 0] CT
2 setlinecap
1 LJ
0.667 LW
N
73 374 M
507 374 L
S
GR
GS
[0.75 0 0 0.75 0 0] CT
2 setlinecap
1 LJ
0.667 LW
N
73 374 M
73 369.66 L
S
GR
GS
[0.75 0 0 0.75 0 0] CT
2 setlinecap
1 LJ
0.667 LW
N
145.333 374 M
145.333 369.66 L
S
GR
GS
[0.75 0 0 0.75 0 0] CT
2 setlinecap
1 LJ
0.667 LW
N
217.667 374 M
217.667 369.66 L
S
GR
GS
[0.75 0 0 0.75 0 0] CT
2 setlinecap
1 LJ
0.667 LW
N
290 374 M
290 369.66 L
S
GR
GS
[0.75 0 0 0.75 0 0] CT
2 setlinecap
1 LJ
0.667 LW
N
362.333 374 M
362.333 369.66 L
S
GR
GS
[0.75 0 0 0.75 0 0] CT
2 setlinecap
1 LJ
0.667 LW
N
434.667 374 M
434.667 369.66 L
S
GR
GS
[0.75 0 0 0.75 0 0] CT
2 setlinecap
1 LJ
0.667 LW
N
507 374 M
507 369.66 L
S
GR
GS
[0.75 0 0 0.75 54.75 284.50001] CT
/Helvetica 13.333 F
GS
[1 0 0 1 0 0] CT
-10 14 moveto 
1 -1 scale
(-40) t 
GR
GR
GS
[0.75 0 0 0.75 109 284.50001] CT
/Helvetica 13.333 F
GS
[1 0 0 1 0 0] CT
-10 14 moveto 
1 -1 scale
(-30) t 
GR
GR
GS
[0.75 0 0 0.75 163.25 284.50001] CT
/Helvetica 13.333 F
GS
[1 0 0 1 0 0] CT
-10 14 moveto 
1 -1 scale
(-20) t 
GR
GR
GS
[0.75 0 0 0.75 217.5 284.50001] CT
/Helvetica 13.333 F
GS
[1 0 0 1 0 0] CT
-10 14 moveto 
1 -1 scale
(-10) t 
GR
GR
GS
[0.75 0 0 0.75 271.75001 284.50001] CT
/Helvetica 13.333 F
GS
[1 0 0 1 0 0] CT
-4 14 moveto 
1 -1 scale
(0) t 
GR
GR
GS
[0.75 0 0 0.75 325.99999 284.50001] CT
/Helvetica 13.333 F
GS
[1 0 0 1 0 0] CT
-7.5 14 moveto 
1 -1 scale
(10) t 
GR
GR
GS
[0.75 0 0 0.75 380.25 284.50001] CT
/Helvetica 13.333 F
GS
[1 0 0 1 0 0] CT
-7.5 14 moveto 
1 -1 scale
(20) t 
GR
GR
GS
[0.75 0 0 0.75 217.50016 298.24999] CT
/Helvetica 14.667 F
GS
[1 0 0 1 0 0] CT
-66.5 15 moveto 
1 -1 scale
(Eccentricity \(arcmin\)) t 
GR
GR
GS
[0.75 0 0 0.75 0 0] CT
2 setlinecap
1 LJ
0.667 LW
N
73 374 M
73 31 L
S
GR
GS
[0.75 0 0 0.75 0 0] CT
2 setlinecap
1 LJ
0.667 LW
N
73 374 M
77.34 374 L
S
GR
GS
[0.75 0 0 0.75 0 0] CT
2 setlinecap
1 LJ
0.667 LW
N
73 316.833 M
77.34 316.833 L
S
GR
GS
[0.75 0 0 0.75 0 0] CT
2 setlinecap
1 LJ
0.667 LW
N
73 259.667 M
77.34 259.667 L
S
GR
GS
[0.75 0 0 0.75 0 0] CT
2 setlinecap
1 LJ
0.667 LW
N
73 202.5 M
77.34 202.5 L
S
GR
GS
[0.75 0 0 0.75 0 0] CT
2 setlinecap
1 LJ
0.667 LW
N
73 145.333 M
77.34 145.333 L
S
GR
GS
[0.75 0 0 0.75 0 0] CT
2 setlinecap
1 LJ
0.667 LW
N
73 88.167 M
77.34 88.167 L
S
GR
GS
[0.75 0 0 0.75 0 0] CT
2 setlinecap
1 LJ
0.667 LW
N
73 31 M
77.34 31 L
S
GR
GS
[0.75 0 0 0.75 50.75 280.5] CT
/Helvetica 13.333 F
GS
[1 0 0 1 0 0] CT
-19 5.5 moveto 
1 -1 scale
(0.6) t 
GR
GR
GS
[0.75 0 0 0.75 50.75 237.62501] CT
/Helvetica 13.333 F
GS
[1 0 0 1 0 0] CT
-19 5.5 moveto 
1 -1 scale
(0.8) t 
GR
GR
GS
[0.75 0 0 0.75 50.75 194.74999] CT
/Helvetica 13.333 F
GS
[1 0 0 1 0 0] CT
-8 5.5 moveto 
1 -1 scale
(1) t 
GR
GR
GS
[0.75 0 0 0.75 50.75 151.875] CT
/Helvetica 13.333 F
GS
[1 0 0 1 0 0] CT
-19 5.5 moveto 
1 -1 scale
(1.2) t 
GR
GR
GS
[0.75 0 0 0.75 50.75 109] CT
/Helvetica 13.333 F
GS
[1 0 0 1 0 0] CT
-19 5.5 moveto 
1 -1 scale
(1.4) t 
GR
GR
GS
[0.75 0 0 0.75 50.75 66.125] CT
/Helvetica 13.333 F
GS
[1 0 0 1 0 0] CT
-19 5.5 moveto 
1 -1 scale
(1.6) t 
GR
GR
GS
[0.75 0 0 0.75 50.75 23.25] CT
/Helvetica 13.333 F
GS
[1 0 0 1 0 0] CT
-19 5.5 moveto 
1 -1 scale
(1.8) t 
GR
GR
GS
[0 -0.75 0.75 0 30.75 225.75] CT
/Helvetica 14.667 F
GS
[1 0 0 1 0 0] CT
0 0 moveto 
1 -1 scale
(Cone Density \(cones/degree) t 
GR
GR
GS
[0 -0.75 0.75 0 25.5 86.25] CT
/Helvetica 11.733 F
GS
[1 0 0 1 0 0] CT
0 0 moveto 
1 -1 scale
(2) t 
GR
GR
GS
[0 -0.75 0.75 0 30.75 81] CT
/Helvetica 14.667 F
GS
[1 0 0 1 0 0] CT
0 0 moveto 
1 -1 scale
(\)) t 
GR
GR
GS
[0.75 0 0 0.75 54.75 21] CT
N
1.906 -0.375 M
1.906 -0.469 1.969 -0.563 QT
4.672 -3.25 L
1.969 -5.953 L
1.906 -6.016 1.906 -6.125 QT
1.906 -6.219 1.984 -6.305 QT
2.063 -6.391 2.172 -6.391 QT
2.266 -6.391 2.375 -6.297 QT
5.063 -3.609 L
7.734 -6.297 L
7.844 -6.391 7.922 -6.391 QT
8.031 -6.391 8.109 -6.313 QT
8.188 -6.234 8.188 -6.125 QT
8.188 -6.016 8.125 -5.953 QT
5.422 -3.25 L
8.125 -0.563 L
8.188 -0.469 8.188 -0.375 QT
8.188 -0.266 8.109 -0.188 QT
8.031 -0.109 7.922 -0.109 QT
7.828 -0.109 7.734 -0.203 QT
5.063 -2.891 L
2.375 -0.203 L
2.266 -0.109 2.172 -0.109 QT
2.063 -0.109 1.984 -0.195 QT
1.906 -0.281 1.906 -0.375 QT
cp
f
GR
GS
[0.75 0 0 0.75 63 21] CT
/Helvetica 13.333 F
GS
[1 0 0 1 0 0] CT
0 0 moveto 
1 -1 scale
(10) t 
GR
GR
GS
[0.75 0 0 0.75 74.25 16.5] CT
/Helvetica 10.667 F
GS
[1 0 0 1 0 0] CT
0 0 moveto 
1 -1 scale
(4) t 
GR
GR
GS
[0.75 0 0 0.75 217.50021 21.18752] CT
/Helvetica-Bold 14.667 F
GS
[1 0 0 1 0 0] CT
-124 -4 moveto 
1 -1 scale
(Cone Density centered around PCD) t 
GR
GR
GS
[0.75 0 0 0.75 0 0] CT
1 LJ
0.667 LW
N
126.972 374.041 M
127.25 337.1 L
127.973 322.181 L
128.697 321.09 L
129.42 319.132 L
130.143 318.133 L
130.867 317.886 L
131.59 317.784 L
132.313 317.653 L
133.037 317.276 L
133.76 316.644 L
134.483 315.823 L
135.207 315.27 L
135.93 314.623 L
136.653 314.333 L
137.377 313.924 L
138.1 313.465 L
138.823 313.003 L
139.547 312.534 L
140.27 312.094 L
140.993 311.545 L
141.717 310.972 L
142.44 310.142 L
143.163 309.457 L
143.887 308.598 L
144.61 307.972 L
145.333 307.609 L
146.057 306.787 L
146.78 306.167 L
147.503 305.714 L
148.227 304.948 L
148.95 304.046 L
149.673 303.336 L
150.397 302.547 L
151.12 301.552 L
151.843 300.831 L
152.567 299.977 L
153.29 299.283 L
154.013 298.658 L
154.737 297.927 L
155.46 296.834 L
156.183 296.384 L
156.907 295.489 L
157.63 295.142 L
158.353 294.763 L
159.077 294.566 L
159.8 293.999 L
160.523 293.937 L
161.247 293.665 L
161.97 293.246 L
162.693 292.888 L
163.417 292.723 L
164.14 292.705 L
164.863 292.411 L
165.587 292.308 L
166.31 292.219 L
167.033 291.788 L
167.757 291.143 L
168.48 289.92 L
169.203 289.478 L
169.927 288.781 L
170.65 288.078 L
171.373 287.474 L
172.097 287.138 L
172.82 286.742 L
173.543 286.263 L
174.267 285.578 L
174.99 284.855 L
175.713 284.08 L
176.437 283.681 L
177.16 283.428 L
177.883 282.066 L
178.607 281.328 L
179.33 280.354 L
180.053 279.794 L
180.777 279.626 L
181.5 278.936 L
182.223 278.658 L
182.947 278.356 L
183.67 277.656 L
184.393 276.978 L
185.117 276.118 L
185.84 274.945 L
186.563 274.34 L
187.287 273.989 L
188.01 273.421 L
188.733 272.677 L
189.457 271.116 L
190.18 270.319 L
190.903 269.706 L
191.627 269.056 L
192.35 268.387 L
193.073 267.341 L
193.797 266.229 L
194.52 265.891 L
195.243 265.211 L
195.967 264.491 L
196.69 263.539 L
197.413 262.775 L
198.137 262.091 L
198.86 260.919 L
199.583 260.134 L
200.307 258.993 L
201.03 257.551 L
201.753 256.53 L
202.477 255.424 L
203.2 254.574 L
203.923 253.974 L
204.647 252.46 L
205.37 251.31 L
206.093 250.369 L
206.817 249.21 L
207.54 247.938 L
208.263 246.885 L
208.987 245.439 L
209.71 244.521 L
210.433 243.497 L
211.157 242.409 L
211.88 241.942 L
212.603 240.857 L
213.327 239.349 L
214.05 237.901 L
214.773 236.843 L
215.497 236.206 L
216.22 234.488 L
216.943 232.792 L
217.667 230.479 L
218.39 228.187 L
219.113 226.751 L
219.837 225.192 L
220.56 223.675 L
221.283 222.184 L
222.007 219.19 L
222.73 217.093 L
223.453 214.091 L
224.177 212.534 L
224.9 210.178 L
225.623 208.82 L
226.347 207.983 L
227.07 206.409 L
227.793 204.949 L
228.517 203.037 L
229.24 201.199 L
229.963 200.494 L
230.687 199.588 L
231.41 198.72 L
232.133 197.407 L
232.857 197.181 L
233.58 195.666 L
234.303 194.279 L
235.027 192.893 L
235.75 190.992 L
236.473 188.702 L
237.197 188.064 L
237.92 186.768 L
238.643 185.905 L
239.367 184.976 L
240.09 184.008 L
240.813 182.965 L
241.537 182.002 L
242.26 181.19 L
242.983 179.872 L
243.707 179.456 L
244.43 178.794 L
245.153 179.008 L
245.877 178.916 L
246.6 178.874 L
247.323 178.975 L
248.047 178.651 L
248.77 179.339 L
249.493 179.461 L
250.217 179.504 L
250.94 180.31 L
251.663 181.032 L
252.387 180.941 L
253.11 180.678 L
253.833 180.256 L
254.557 180.262 L
255.28 181.704 L
256.003 181.457 L
256.727 181.935 L
257.45 182.304 L
258.173 182.534 L
258.897 183.209 L
259.62 184.253 L
260.343 185.246 L
261.067 185.896 L
261.79 186.301 L
262.513 187.476 L
263.237 188.294 L
263.96 189.096 L
264.683 190.036 L
265.407 191.423 L
266.13 192.29 L
266.853 193.015 L
267.577 194.289 L
268.3 194.991 L
269.023 197.366 L
269.747 199.317 L
270.47 200.561 L
271.193 201.41 L
271.917 202.541 L
272.64 204.395 L
273.363 206.576 L
274.087 207.561 L
274.81 209.055 L
275.533 209.486 L
276.257 210.164 L
276.98 213.038 L
277.703 214.922 L
278.427 215.521 L
279.15 216.4 L
279.873 216.896 L
280.597 218.317 L
281.32 219.42 L
282.043 221.234 L
282.767 221.449 L
283.49 221.926 L
284.213 222.093 L
284.937 222.536 L
285.66 223.389 L
286.383 223.297 L
287.107 222.973 L
287.83 222.288 L
288.553 221.644 L
289.277 221.25 L
290 220.907 L
290.723 220.977 L
291.447 219.86 L
292.17 219.252 L
292.893 217.754 L
293.617 217.848 L
294.34 217.744 L
295.063 217.627 L
295.787 216.923 L
296.51 217.208 L
297.233 217.368 L
297.957 216.935 L
298.68 215.903 L
299.403 215.698 L
300.127 215.347 L
300.85 214.384 L
301.573 214.062 L
302.297 213.422 L
303.02 212.372 L
303.743 210.938 L
304.467 209.016 L
305.19 207.701 L
305.913 207.153 L
306.637 206.153 L
307.36 205.529 L
308.083 204.746 L
308.807 203.688 L
309.53 202.793 L
310.253 202.242 L
310.977 201.225 L
311.7 201.071 L
312.423 200.142 L
313.147 198.408 L
313.87 197.437 L
314.593 195.849 L
315.317 195.005 L
316.04 194.283 L
316.763 193.347 L
317.487 191.953 L
318.21 189.751 L
318.933 187.098 L
319.657 186.172 L
320.38 184.935 L
321.103 183.517 L
321.827 182.114 L
322.55 179.628 L
323.273 178.73 L
323.997 176.944 L
324.72 175.183 L
325.443 173.387 L
326.167 171.981 L
326.89 170.845 L
327.613 169.943 L
328.337 168.83 L
329.06 167.988 L
329.783 167.205 L
330.507 164.603 L
331.23 162.915 L
331.953 162.199 L
332.677 161.696 L
333.4 159.639 L
334.123 157.281 L
334.847 155.523 L
335.57 154.448 L
336.293 154.28 L
337.017 153.236 L
337.74 151.598 L
338.463 150.852 L
339.187 150.461 L
339.91 150.05 L
340.633 149.655 L
341.357 149.708 L
342.08 149.331 L
342.803 149.078 L
343.527 148.27 L
344.25 147.339 L
344.973 146.584 L
345.697 147.104 L
346.42 146.191 L
347.143 145.032 L
347.867 144.465 L
348.59 143.991 L
349.313 143.977 L
350.037 143.729 L
350.76 143.66 L
351.483 143.578 L
352.207 142.596 L
352.93 142.569 L
353.653 141.901 L
354.377 141.595 L
355.1 140.187 L
355.823 139.287 L
356.547 138.128 L
357.27 137.423 L
357.993 136.298 L
358.717 135.805 L
359.44 135.157 L
360.163 134.41 L
360.887 133.885 L
361.61 133.916 L
362.333 133.94 L
363.057 133.88 L
363.78 133.397 L
364.503 133.732 L
365.227 133.932 L
365.95 133.968 L
366.673 135.192 L
367.397 135.242 L
368.12 135.485 L
368.843 135.098 L
369.567 135.636 L
370.29 137.538 L
371.013 138.126 L
371.737 139.531 L
372.46 140.353 L
373.183 141.578 L
373.907 142.968 L
374.63 144.596 L
375.353 145.477 L
376.077 146.096 L
376.8 147.068 L
377.523 147.95 L
378.247 149.239 L
378.97 150.591 L
379.693 151.617 L
380.417 152.273 L
381.14 153.405 L
381.863 154.644 L
382.587 155.921 L
383.31 156.564 L
384.033 157.668 L
384.757 159.103 L
385.48 161.223 L
386.203 162.401 L
386.927 164.068 L
387.65 164.879 L
388.373 167.093 L
389.097 168.754 L
389.82 170.224 L
390.543 171.723 L
391.267 173.233 L
391.99 174.403 L
392.713 175.793 L
393.437 177.324 L
394.16 178.608 L
394.883 179.417 L
395.607 180.147 L
396.33 180.17 L
397.053 180.379 L
397.777 181.181 L
398.5 181.299 L
399.223 181.513 L
399.947 181.905 L
400.67 182.647 L
401.393 182.876 L
402.117 183.058 L
402.84 183.261 L
403.563 183.709 L
404.287 184.392 L
405.01 184.961 L
405.733 185.685 L
406.457 186.132 L
407.18 186.102 L
407.903 187.36 L
408.627 188.421 L
409.35 188.938 L
410.073 189.514 L
410.797 190.222 L
411.52 190.85 L
412.243 191.49 L
412.967 191.845 L
413.69 192.564 L
414.413 193.138 L
415.137 194.539 L
415.86 196.248 L
416.583 197.332 L
417.307 197.974 L
418.03 199.673 L
418.753 200.954 L
419.477 202.31 L
420.2 203.488 L
420.923 204.332 L
421.647 205.212 L
422.37 206.434 L
423.093 207.708 L
423.817 208.059 L
424.54 208.464 L
425.263 209.193 L
425.987 210.968 L
426.71 211.683 L
427.433 213.135 L
428.157 214.111 L
428.88 215.323 L
429.603 216.947 L
430.327 218.901 L
431.05 219.997 L
431.773 221.348 L
432.497 223.225 L
433.22 224.721 L
433.943 226.889 L
434.667 228.792 L
435.39 230.026 L
436.113 232.615 L
436.837 235.023 L
437.56 237.427 L
438.283 238.269 L
439.007 239.456 L
439.73 240.679 L
440.453 244.977 L
441.177 270.114 L
441.9 324.535 L
442.623 341.386 L
443.347 357.983 L
444.07 361.583 L
444.745 374.041 L
S
GR
GS
[0.75 0 0 0.75 0 0] CT
1 LJ
0.667 LW
N
164.62 374.041 M
164.627 373.953 L
165.35 335.655 L
166.074 322.91 L
166.797 322.589 L
167.52 322.219 L
168.244 321.713 L
168.967 321.093 L
169.69 320.468 L
170.414 319.597 L
171.137 318.969 L
171.86 318.556 L
172.584 318.238 L
173.307 317.976 L
174.03 317.217 L
174.754 316.251 L
175.477 315.486 L
176.2 315 L
176.924 314.702 L
177.647 314.488 L
178.37 313.99 L
179.094 313.326 L
179.817 313.177 L
180.54 312.86 L
181.264 312.549 L
181.987 312.279 L
182.71 311.771 L
183.434 311.305 L
184.157 310.722 L
184.88 310.389 L
185.604 310.085 L
186.327 309.456 L
187.05 308.853 L
187.774 307.668 L
188.497 307.175 L
189.22 306.73 L
189.944 306.387 L
190.667 306.087 L
191.39 305.826 L
192.114 305.325 L
192.837 305.052 L
193.56 304.867 L
194.284 304.657 L
195.007 304.459 L
195.73 304.458 L
196.454 304.297 L
197.177 303.928 L
197.9 303.729 L
198.624 303.691 L
199.347 303.471 L
200.07 303.148 L
200.794 302.686 L
201.517 302.121 L
202.24 302.018 L
202.964 301.77 L
203.687 301.622 L
204.41 301.255 L
205.134 300.468 L
205.857 300.002 L
206.58 299.977 L
207.304 299.534 L
208.027 299.029 L
208.75 298.5 L
209.474 297.765 L
210.197 296.703 L
210.92 295.824 L
211.644 294.958 L
212.367 294.561 L
213.09 294.018 L
213.814 293.23 L
214.537 292.496 L
215.26 291.841 L
215.984 291.101 L
216.707 290.584 L
217.43 289.709 L
218.154 289.094 L
218.877 288.441 L
219.6 287.953 L
220.324 287.25 L
221.047 286.432 L
221.77 285.275 L
222.494 284.58 L
223.217 283.924 L
223.94 282.605 L
224.664 281.972 L
225.387 281.069 L
226.11 279.715 L
226.834 278.513 L
227.557 277.765 L
228.28 276.634 L
229.004 274.615 L
229.727 273.345 L
230.45 271.569 L
231.174 270.016 L
231.897 268.321 L
232.62 267.038 L
233.344 265.883 L
234.067 265.225 L
234.79 264.117 L
235.514 263 L
236.237 262.144 L
236.96 261.262 L
237.684 259.892 L
238.407 259.095 L
239.13 258.342 L
239.854 257.299 L
240.577 256.783 L
241.3 256.016 L
242.024 254.928 L
242.747 253.79 L
243.47 253.146 L
244.194 252.145 L
244.917 250.322 L
245.64 249.275 L
246.364 247.884 L
247.087 246.082 L
247.81 244.379 L
248.534 242.608 L
249.257 241.025 L
249.98 239.447 L
250.704 237.941 L
251.427 236.192 L
252.15 234.926 L
252.874 233.571 L
253.597 231.921 L
254.32 230.754 L
255.044 229.231 L
255.767 227.956 L
256.49 227.308 L
257.214 226.488 L
257.937 225.757 L
258.66 224.119 L
259.384 222.67 L
260.107 220.759 L
260.83 219.594 L
261.554 217.505 L
262.277 216.108 L
263 214.427 L
263.724 212.408 L
264.447 210.62 L
265.17 209.428 L
265.894 206.63 L
266.617 204.587 L
267.34 202.673 L
268.064 200.531 L
268.787 198.728 L
269.51 196.753 L
270.234 194.209 L
270.957 192.094 L
271.68 189.805 L
272.404 187.667 L
273.127 186.405 L
273.85 185.421 L
274.574 184.694 L
275.297 183.79 L
276.02 181.804 L
276.744 181.26 L
277.467 180.611 L
278.19 179.982 L
278.914 179.56 L
279.637 178.799 L
280.36 177.32 L
281.084 176.915 L
281.807 176.721 L
282.53 176.155 L
283.254 175.369 L
283.977 175.614 L
284.7 175.153 L
285.424 175.185 L
286.147 175.263 L
286.87 175.114 L
287.594 175.458 L
288.317 175.33 L
289.04 175.117 L
289.764 174.592 L
290.487 174.894 L
291.21 175.102 L
291.934 175.005 L
292.657 175.467 L
293.38 175.444 L
294.104 175.038 L
294.827 175.547 L
295.55 176.197 L
296.274 176.726 L
296.997 176.797 L
297.72 176.677 L
298.444 177.275 L
299.167 178.502 L
299.89 179.128 L
300.614 180.052 L
301.337 180.484 L
302.06 180.652 L
302.784 181.637 L
303.507 182.195 L
304.23 183.198 L
304.954 183.567 L
305.677 185.12 L
306.4 186.243 L
307.124 187.542 L
307.847 188.535 L
308.57 188.853 L
309.294 189.552 L
310.017 190.105 L
310.74 191.282 L
311.464 191.869 L
312.187 191.709 L
312.91 192.204 L
313.634 192.92 L
314.357 193.583 L
315.08 193.674 L
315.804 194.556 L
316.527 195.539 L
317.25 196.377 L
317.974 196.655 L
318.697 196.327 L
319.42 196.335 L
320.144 196.556 L
320.867 195.956 L
321.59 196.041 L
322.314 196.232 L
323.037 196.188 L
323.76 197.281 L
324.484 197.308 L
325.207 197.831 L
325.93 198.133 L
326.654 198.581 L
327.377 199.308 L
328.1 199.801 L
328.824 200.758 L
329.547 201.556 L
330.27 202.353 L
330.994 203.693 L
331.717 204.805 L
332.44 206.15 L
333.164 206.96 L
333.887 208.156 L
334.61 209.544 L
335.334 211.293 L
336.057 212.263 L
336.78 213.671 L
337.504 214.384 L
338.227 215.158 L
338.95 215.354 L
339.674 215.364 L
340.397 215.69 L
341.12 215.872 L
341.844 216.01 L
342.567 215.677 L
343.29 215.679 L
344.014 215.406 L
344.737 214.856 L
345.46 214.545 L
346.184 214.164 L
346.907 213.247 L
347.63 213.097 L
348.354 212.463 L
349.077 211.68 L
349.8 211.69 L
350.524 211.047 L
351.247 210.254 L
351.97 209.221 L
352.694 208.334 L
353.417 207.28 L
354.14 206.892 L
354.864 205.537 L
355.587 204.789 L
356.31 203.516 L
357.034 202.432 L
357.757 201.591 L
358.48 199.989 L
359.204 197.981 L
359.927 196.096 L
360.65 195.028 L
361.374 193.377 L
362.097 191.859 L
362.82 190.548 L
363.544 188.788 L
364.267 187.074 L
364.99 187.012 L
365.714 186.908 L
366.437 185.649 L
367.16 185.071 L
367.884 184.486 L
368.607 184.578 L
369.33 183.852 L
370.054 183.349 L
370.777 182.864 L
371.5 182.228 L
372.224 181.517 L
372.947 180.691 L
373.67 179.419 L
374.394 177.236 L
375.117 175.661 L
375.84 174.616 L
376.564 172.617 L
377.287 171.256 L
378.01 169.182 L
378.734 167.755 L
379.457 166.917 L
380.18 165.45 L
380.904 163.517 L
381.627 161.598 L
382.35 160.129 L
383.074 158.532 L
383.797 156.325 L
384.52 153.973 L
385.244 152.826 L
385.967 151.566 L
386.69 150.684 L
387.414 149.231 L
388.137 149.188 L
388.86 149.298 L
389.584 149.654 L
390.307 150.319 L
391.03 150.707 L
391.754 150.668 L
392.477 151.333 L
393.2 152.148 L
393.924 152.861 L
394.647 153.752 L
395.37 154.691 L
396.094 155.552 L
396.817 156.452 L
397.54 156.837 L
398.264 156.679 L
398.987 156.391 L
399.71 156.12 L
400.434 156.747 L
401.157 156.928 L
401.88 157.15 L
402.604 156.914 L
403.327 156.94 L
404.05 156.181 L
404.774 155.938 L
405.497 155.456 L
406.22 155.829 L
406.944 156.038 L
407.667 156.043 L
408.39 156.732 L
409.114 157.278 L
409.837 157.695 L
410.56 158.687 L
411.284 159.925 L
412.007 160.486 L
412.73 161.265 L
413.454 162.534 L
414.177 163.768 L
414.9 164.294 L
415.624 165.412 L
416.347 166.368 L
417.07 167.327 L
417.794 168.336 L
418.517 168.769 L
419.24 169.12 L
419.964 169.75 L
420.687 170.199 L
421.41 170.439 L
422.134 171.254 L
422.857 171.743 L
423.58 172.341 L
424.304 173.111 L
425.027 174.295 L
425.75 175.439 L
426.474 177.055 L
427.197 179.312 L
427.92 180.553 L
428.644 181.646 L
429.367 184.219 L
430.09 185.593 L
430.814 186.825 L
431.537 187.32 L
432.26 188.557 L
432.984 190.633 L
433.707 191.851 L
434.43 192.611 L
435.154 193.124 L
435.877 193.702 L
436.6 194.693 L
437.324 195.606 L
438.047 196.11 L
438.77 196.581 L
439.494 197.768 L
440.217 198.502 L
440.94 199.276 L
441.664 199.801 L
442.387 200.534 L
443.11 201.133 L
443.834 201.906 L
444.557 202.945 L
445.28 203.642 L
446.004 204.061 L
446.727 204.878 L
447.45 205.946 L
448.174 206.576 L
448.897 206.997 L
449.62 208.178 L
450.344 208.709 L
451.067 209.535 L
451.79 210.677 L
452.514 211.439 L
453.237 211.605 L
453.96 211.994 L
454.684 213.353 L
455.407 214.042 L
456.13 215.032 L
456.854 215.858 L
457.577 216.601 L
458.3 217.372 L
459.024 217.842 L
459.747 218.345 L
460.47 219.823 L
461.194 220.514 L
461.917 221.323 L
462.64 222.292 L
463.364 222.892 L
464.087 224.046 L
464.81 225.372 L
465.534 226.342 L
466.257 227.317 L
466.98 228.602 L
467.704 229.442 L
468.427 230.772 L
469.15 231.914 L
469.874 233.38 L
470.597 234.185 L
471.32 235.236 L
472.044 236.282 L
472.767 238.361 L
473.49 241.845 L
474.214 244.996 L
474.937 247.012 L
475.66 248.179 L
476.384 249.072 L
477.107 288.809 L
477.83 293.195 L
478.554 296.467 L
479.277 322.916 L
480 340.691 L
480.724 355.726 L
481.447 369.432 L
482.17 373.477 L
482.254 374.041 L
S
GR
GS
[0.75 0 0 0.75 136.125 87.5625] CT
/Helvetica 13.333 F
GS
[1 0 0 1 0 0] CT
0 5.5 moveto 
1 -1 scale
(Superior Retina) t 
GR
GR
GS
[0.75 0 0 0.75 353.12501 87.5625] CT
/Helvetica 13.333 F
GS
[1 0 0 1 0 0] CT
0 5.5 moveto 
1 -1 scale
(Inferior Retina) t 
GR
GR
GS
[0.75 0 0 0.75 0 0] CT
1 GC
N
496 78 M
496 42 L
419 42 L
419 78 L
cp
f
GR
GS
[0.75 0 0 0.75 349.5 38.89726] CT
/Helvetica 12 F
GS
[1 0 0 1 0 0] CT
0 5 moveto 
1 -1 scale
(PCD) t 
GR
GR
GS
[0.75 0 0 0.75 0 0] CT
1 LJ
0.667 LW
N
423 51.863 M
463 51.863 L
S
GR
GS
[0.75 0 0 0.75 349.5 51.10274] CT
/Helvetica 12 F
GS
[1 0 0 1 0 0] CT
0 5 moveto 
1 -1 scale
(CDC) t 
GR
GR
GS
[0.75 0 0 0.75 0 0] CT
1 LJ
0.667 LW
N
423 68.137 M
463 68.137 L
S
GR
GS
[0.75 0 0 0.75 0 0] CT
10.0 ML
0.667 LW
N
419 78 M
419 42 L
496 42 L
496 78 L
cp
S
GR
%%Trailer
%%Pages: 1
%%EOF
