%!PS-Adobe-3.0 EPSF-3.0
%%Creator: (MATLAB, The Mathworks, Inc. Version 9.11.0.1837725 \(R2021b\) Update 2. Operating System: Windows 10)
%%Title: C:/Users/ruccilab/Documents/adaptiveoptics/ConeDesity/APLab_System/data/ConeTaggingTraining/Distribution/tagger5_VertDist.eps
%%CreationDate: 2023-06-23T09:58:41
%%Pages: (atend)
%%BoundingBox:    19     3   413   306
%%LanguageLevel: 3
%%EndComments
%%BeginProlog
%%BeginResource: procset (Apache XML Graphics Std ProcSet) 1.2 0
%%Version: 1.2 0
%%Copyright: (Copyright 2001-2003,2010 The Apache Software Foundation. License terms: http://www.apache.org/licenses/LICENSE-2.0)
/bd{bind def}bind def
/ld{load def}bd
/GR/grestore ld
/GS/gsave ld
/RM/rmoveto ld
/C/curveto ld
/t/show ld
/L/lineto ld
/ML/setmiterlimit ld
/CT/concat ld
/f/fill ld
/N/newpath ld
/S/stroke ld
/CC/setcmykcolor ld
/A/ashow ld
/cp/closepath ld
/RC/setrgbcolor ld
/LJ/setlinejoin ld
/GC/setgray ld
/LW/setlinewidth ld
/M/moveto ld
/re {4 2 roll M
1 index 0 rlineto
0 exch rlineto
neg 0 rlineto
cp } bd
/_ctm matrix def
/_tm matrix def
/BT { _ctm currentmatrix pop matrix _tm copy pop 0 0 moveto } bd
/ET { _ctm setmatrix } bd
/iTm { _ctm setmatrix _tm concat } bd
/Tm { _tm astore pop iTm 0 0 moveto } bd
/ux 0.0 def
/uy 0.0 def
/F {
  /Tp exch def
  /Tf exch def
  Tf findfont Tp scalefont setfont
  /cf Tf def  /cs Tp def
} bd
/ULS {currentpoint /uy exch def /ux exch def} bd
/ULE {
  /Tcx currentpoint pop def
  gsave
  newpath
  cf findfont cs scalefont dup
  /FontMatrix get 0 get /Ts exch def /FontInfo get dup
  /UnderlinePosition get Ts mul /To exch def
  /UnderlineThickness get Ts mul /Tt exch def
  ux uy To add moveto  Tcx uy To add lineto
  Tt setlinewidth stroke
  grestore
} bd
/OLE {
  /Tcx currentpoint pop def
  gsave
  newpath
  cf findfont cs scalefont dup
  /FontMatrix get 0 get /Ts exch def /FontInfo get dup
  /UnderlinePosition get Ts mul /To exch def
  /UnderlineThickness get Ts mul /Tt exch def
  ux uy To add cs add moveto Tcx uy To add cs add lineto
  Tt setlinewidth stroke
  grestore
} bd
/SOE {
  /Tcx currentpoint pop def
  gsave
  newpath
  cf findfont cs scalefont dup
  /FontMatrix get 0 get /Ts exch def /FontInfo get dup
  /UnderlinePosition get Ts mul /To exch def
  /UnderlineThickness get Ts mul /Tt exch def
  ux uy To add cs 10 mul 26 idiv add moveto Tcx uy To add cs 10 mul 26 idiv add lineto
  Tt setlinewidth stroke
  grestore
} bd
/QT {
/Y22 exch store
/X22 exch store
/Y21 exch store
/X21 exch store
currentpoint
/Y21 load 2 mul add 3 div exch
/X21 load 2 mul add 3 div exch
/X21 load 2 mul /X22 load add 3 div
/Y21 load 2 mul /Y22 load add 3 div
/X22 load /Y22 load curveto
} bd
/SSPD {
dup length /d exch dict def
{
/v exch def
/k exch def
currentpagedevice k known {
/cpdv currentpagedevice k get def
v cpdv ne {
/upd false def
/nullv v type /nulltype eq def
/nullcpdv cpdv type /nulltype eq def
nullv nullcpdv or
{
/upd true def
} {
/sametype v type cpdv type eq def
sametype {
v type /arraytype eq {
/vlen v length def
/cpdvlen cpdv length def
vlen cpdvlen eq {
0 1 vlen 1 sub {
/i exch def
/obj v i get def
/cpdobj cpdv i get def
obj cpdobj ne {
/upd true def
exit
} if
} for
} {
/upd true def
} ifelse
} {
v type /dicttype eq {
v {
/dv exch def
/dk exch def
/cpddv cpdv dk get def
dv cpddv ne {
/upd true def
exit
} if
} forall
} {
/upd true def
} ifelse
} ifelse
} if
} ifelse
upd true eq {
d k v put
} if
} if
} if
} forall
d length 0 gt {
d setpagedevice
} if
} bd
/RE { % /NewFontName [NewEncodingArray] /FontName RE -
  findfont dup length dict begin
  {
    1 index /FID ne
    {def} {pop pop} ifelse
  } forall
  /Encoding exch def
  /FontName 1 index def
  currentdict definefont pop
  end
} bind def
%%EndResource
%%BeginResource: procset (Apache XML Graphics EPS ProcSet) 1.0 0
%%Version: 1.0 0
%%Copyright: (Copyright 2002-2003 The Apache Software Foundation. License terms: http://www.apache.org/licenses/LICENSE-2.0)
/BeginEPSF { %def
/b4_Inc_state save def         % Save state for cleanup
/dict_count countdictstack def % Count objects on dict stack
/op_count count 1 sub def      % Count objects on operand stack
userdict begin                 % Push userdict on dict stack
/showpage { } def              % Redefine showpage, { } = null proc
0 setgray 0 setlinecap         % Prepare graphics state
1 setlinewidth 0 setlinejoin
10 setmiterlimit [ ] 0 setdash newpath
/languagelevel where           % If level not equal to 1 then
{pop languagelevel             % set strokeadjust and
1 ne                           % overprint to their defaults.
{false setstrokeadjust false setoverprint
} if
} if
} bd
/EndEPSF { %def
count op_count sub {pop} repeat            % Clean up stacks
countdictstack dict_count sub {end} repeat
b4_Inc_state restore
} bd
%%EndResource
%FOPBeginFontDict
%%IncludeResource: font Courier-Oblique
%%IncludeResource: font Courier-BoldOblique
%%IncludeResource: font Courier-Bold
%%IncludeResource: font ZapfDingbats
%%IncludeResource: font Symbol
%%IncludeResource: font Helvetica
%%IncludeResource: font Helvetica-Oblique
%%IncludeResource: font Helvetica-Bold
%%IncludeResource: font Helvetica-BoldOblique
%%IncludeResource: font Times-Roman
%%IncludeResource: font Times-Italic
%%IncludeResource: font Times-Bold
%%IncludeResource: font Times-BoldItalic
%%IncludeResource: font Courier
%FOPEndFontDict
%%BeginResource: encoding WinAnsiEncoding
/WinAnsiEncoding [
/.notdef /.notdef /.notdef /.notdef /.notdef
/.notdef /.notdef /.notdef /.notdef /.notdef
/.notdef /.notdef /.notdef /.notdef /.notdef
/.notdef /.notdef /.notdef /.notdef /.notdef
/.notdef /.notdef /.notdef /.notdef /.notdef
/.notdef /.notdef /.notdef /.notdef /.notdef
/.notdef /.notdef /space /exclam /quotedbl
/numbersign /dollar /percent /ampersand /quotesingle
/parenleft /parenright /asterisk /plus /comma
/hyphen /period /slash /zero /one
/two /three /four /five /six
/seven /eight /nine /colon /semicolon
/less /equal /greater /question /at
/A /B /C /D /E
/F /G /H /I /J
/K /L /M /N /O
/P /Q /R /S /T
/U /V /W /X /Y
/Z /bracketleft /backslash /bracketright /asciicircum
/underscore /quoteleft /a /b /c
/d /e /f /g /h
/i /j /k /l /m
/n /o /p /q /r
/s /t /u /v /w
/x /y /z /braceleft /bar
/braceright /asciitilde /bullet /Euro /bullet
/quotesinglbase /florin /quotedblbase /ellipsis /dagger
/daggerdbl /circumflex /perthousand /Scaron /guilsinglleft
/OE /bullet /Zcaron /bullet /bullet
/quoteleft /quoteright /quotedblleft /quotedblright /bullet
/endash /emdash /asciitilde /trademark /scaron
/guilsinglright /oe /bullet /zcaron /Ydieresis
/space /exclamdown /cent /sterling /currency
/yen /brokenbar /section /dieresis /copyright
/ordfeminine /guillemotleft /logicalnot /sfthyphen /registered
/macron /degree /plusminus /twosuperior /threesuperior
/acute /mu /paragraph /middot /cedilla
/onesuperior /ordmasculine /guillemotright /onequarter /onehalf
/threequarters /questiondown /Agrave /Aacute /Acircumflex
/Atilde /Adieresis /Aring /AE /Ccedilla
/Egrave /Eacute /Ecircumflex /Edieresis /Igrave
/Iacute /Icircumflex /Idieresis /Eth /Ntilde
/Ograve /Oacute /Ocircumflex /Otilde /Odieresis
/multiply /Oslash /Ugrave /Uacute /Ucircumflex
/Udieresis /Yacute /Thorn /germandbls /agrave
/aacute /acircumflex /atilde /adieresis /aring
/ae /ccedilla /egrave /eacute /ecircumflex
/edieresis /igrave /iacute /icircumflex /idieresis
/eth /ntilde /ograve /oacute /ocircumflex
/otilde /odieresis /divide /oslash /ugrave
/uacute /ucircumflex /udieresis /yacute /thorn
/ydieresis
] def
%%EndResource
%FOPBeginFontReencode
/Courier-Oblique findfont
dup length dict begin
  {1 index /FID ne {def} {pop pop} ifelse} forall
  /Encoding WinAnsiEncoding def
  currentdict
end
/Courier-Oblique exch definefont pop
/Courier-BoldOblique findfont
dup length dict begin
  {1 index /FID ne {def} {pop pop} ifelse} forall
  /Encoding WinAnsiEncoding def
  currentdict
end
/Courier-BoldOblique exch definefont pop
/Courier-Bold findfont
dup length dict begin
  {1 index /FID ne {def} {pop pop} ifelse} forall
  /Encoding WinAnsiEncoding def
  currentdict
end
/Courier-Bold exch definefont pop
/Helvetica findfont
dup length dict begin
  {1 index /FID ne {def} {pop pop} ifelse} forall
  /Encoding WinAnsiEncoding def
  currentdict
end
/Helvetica exch definefont pop
/Helvetica-Oblique findfont
dup length dict begin
  {1 index /FID ne {def} {pop pop} ifelse} forall
  /Encoding WinAnsiEncoding def
  currentdict
end
/Helvetica-Oblique exch definefont pop
/Helvetica-Bold findfont
dup length dict begin
  {1 index /FID ne {def} {pop pop} ifelse} forall
  /Encoding WinAnsiEncoding def
  currentdict
end
/Helvetica-Bold exch definefont pop
/Helvetica-BoldOblique findfont
dup length dict begin
  {1 index /FID ne {def} {pop pop} ifelse} forall
  /Encoding WinAnsiEncoding def
  currentdict
end
/Helvetica-BoldOblique exch definefont pop
/Times-Roman findfont
dup length dict begin
  {1 index /FID ne {def} {pop pop} ifelse} forall
  /Encoding WinAnsiEncoding def
  currentdict
end
/Times-Roman exch definefont pop
/Times-Italic findfont
dup length dict begin
  {1 index /FID ne {def} {pop pop} ifelse} forall
  /Encoding WinAnsiEncoding def
  currentdict
end
/Times-Italic exch definefont pop
/Times-Bold findfont
dup length dict begin
  {1 index /FID ne {def} {pop pop} ifelse} forall
  /Encoding WinAnsiEncoding def
  currentdict
end
/Times-Bold exch definefont pop
/Times-BoldItalic findfont
dup length dict begin
  {1 index /FID ne {def} {pop pop} ifelse} forall
  /Encoding WinAnsiEncoding def
  currentdict
end
/Times-BoldItalic exch definefont pop
/Courier findfont
dup length dict begin
  {1 index /FID ne {def} {pop pop} ifelse} forall
  /Encoding WinAnsiEncoding def
  currentdict
end
/Courier exch definefont pop
%FOPEndFontReencode
%%EndProlog
%%Page: 1 1
%%PageBoundingBox: 0 0 420 315
%%BeginPageSetup
[1 0 0 -1 0 315] CT
%%EndPageSetup
GS
[0.75 0 0 0.75 0 0] CT
1 GC
N
0 0 560 420 re
f
GR
GS
[0.75 0 0 0.75 0 0] CT
1 GC
N
0 0 560 420 re
f
GR
GS
[0.75 0 0 0.75 0 0] CT
1 GC
N
73 374 M
507 374 L
507 31 L
73 31 L
cp
f
GR
GS
[0.75 0 0 0.75 0 0] CT
2 setlinecap
1 LJ
0.667 LW
N
73 374 M
507 374 L
S
GR
GS
[0.75 0 0 0.75 0 0] CT
2 setlinecap
1 LJ
0.667 LW
N
73 374 M
73 369.66 L
S
GR
GS
[0.75 0 0 0.75 0 0] CT
2 setlinecap
1 LJ
0.667 LW
N
145.333 374 M
145.333 369.66 L
S
GR
GS
[0.75 0 0 0.75 0 0] CT
2 setlinecap
1 LJ
0.667 LW
N
217.667 374 M
217.667 369.66 L
S
GR
GS
[0.75 0 0 0.75 0 0] CT
2 setlinecap
1 LJ
0.667 LW
N
290 374 M
290 369.66 L
S
GR
GS
[0.75 0 0 0.75 0 0] CT
2 setlinecap
1 LJ
0.667 LW
N
362.333 374 M
362.333 369.66 L
S
GR
GS
[0.75 0 0 0.75 0 0] CT
2 setlinecap
1 LJ
0.667 LW
N
434.667 374 M
434.667 369.66 L
S
GR
GS
[0.75 0 0 0.75 0 0] CT
2 setlinecap
1 LJ
0.667 LW
N
507 374 M
507 369.66 L
S
GR
GS
[0.75 0 0 0.75 54.75 284.50001] CT
/Helvetica 13.333 F
GS
[1 0 0 1 0 0] CT
-10 14 moveto 
1 -1 scale
(-40) t 
GR
GR
GS
[0.75 0 0 0.75 109 284.50001] CT
/Helvetica 13.333 F
GS
[1 0 0 1 0 0] CT
-10 14 moveto 
1 -1 scale
(-30) t 
GR
GR
GS
[0.75 0 0 0.75 163.25 284.50001] CT
/Helvetica 13.333 F
GS
[1 0 0 1 0 0] CT
-10 14 moveto 
1 -1 scale
(-20) t 
GR
GR
GS
[0.75 0 0 0.75 217.5 284.50001] CT
/Helvetica 13.333 F
GS
[1 0 0 1 0 0] CT
-10 14 moveto 
1 -1 scale
(-10) t 
GR
GR
GS
[0.75 0 0 0.75 271.75001 284.50001] CT
/Helvetica 13.333 F
GS
[1 0 0 1 0 0] CT
-4 14 moveto 
1 -1 scale
(0) t 
GR
GR
GS
[0.75 0 0 0.75 325.99999 284.50001] CT
/Helvetica 13.333 F
GS
[1 0 0 1 0 0] CT
-7.5 14 moveto 
1 -1 scale
(10) t 
GR
GR
GS
[0.75 0 0 0.75 380.25 284.50001] CT
/Helvetica 13.333 F
GS
[1 0 0 1 0 0] CT
-7.5 14 moveto 
1 -1 scale
(20) t 
GR
GR
GS
[0.75 0 0 0.75 217.50016 298.24999] CT
/Helvetica 14.667 F
GS
[1 0 0 1 0 0] CT
-66.5 15 moveto 
1 -1 scale
(Eccentricity \(arcmin\)) t 
GR
GR
GS
[0.75 0 0 0.75 0 0] CT
2 setlinecap
1 LJ
0.667 LW
N
73 374 M
73 31 L
S
GR
GS
[0.75 0 0 0.75 0 0] CT
2 setlinecap
1 LJ
0.667 LW
N
73 374 M
77.34 374 L
S
GR
GS
[0.75 0 0 0.75 0 0] CT
2 setlinecap
1 LJ
0.667 LW
N
73 316.833 M
77.34 316.833 L
S
GR
GS
[0.75 0 0 0.75 0 0] CT
2 setlinecap
1 LJ
0.667 LW
N
73 259.667 M
77.34 259.667 L
S
GR
GS
[0.75 0 0 0.75 0 0] CT
2 setlinecap
1 LJ
0.667 LW
N
73 202.5 M
77.34 202.5 L
S
GR
GS
[0.75 0 0 0.75 0 0] CT
2 setlinecap
1 LJ
0.667 LW
N
73 145.333 M
77.34 145.333 L
S
GR
GS
[0.75 0 0 0.75 0 0] CT
2 setlinecap
1 LJ
0.667 LW
N
73 88.167 M
77.34 88.167 L
S
GR
GS
[0.75 0 0 0.75 0 0] CT
2 setlinecap
1 LJ
0.667 LW
N
73 31 M
77.34 31 L
S
GR
GS
[0.75 0 0 0.75 50.75 280.5] CT
/Helvetica 13.333 F
GS
[1 0 0 1 0 0] CT
-19 5.5 moveto 
1 -1 scale
(0.6) t 
GR
GR
GS
[0.75 0 0 0.75 50.75 237.62501] CT
/Helvetica 13.333 F
GS
[1 0 0 1 0 0] CT
-19 5.5 moveto 
1 -1 scale
(0.8) t 
GR
GR
GS
[0.75 0 0 0.75 50.75 194.74999] CT
/Helvetica 13.333 F
GS
[1 0 0 1 0 0] CT
-8 5.5 moveto 
1 -1 scale
(1) t 
GR
GR
GS
[0.75 0 0 0.75 50.75 151.875] CT
/Helvetica 13.333 F
GS
[1 0 0 1 0 0] CT
-19 5.5 moveto 
1 -1 scale
(1.2) t 
GR
GR
GS
[0.75 0 0 0.75 50.75 109] CT
/Helvetica 13.333 F
GS
[1 0 0 1 0 0] CT
-19 5.5 moveto 
1 -1 scale
(1.4) t 
GR
GR
GS
[0.75 0 0 0.75 50.75 66.125] CT
/Helvetica 13.333 F
GS
[1 0 0 1 0 0] CT
-19 5.5 moveto 
1 -1 scale
(1.6) t 
GR
GR
GS
[0.75 0 0 0.75 50.75 23.25] CT
/Helvetica 13.333 F
GS
[1 0 0 1 0 0] CT
-19 5.5 moveto 
1 -1 scale
(1.8) t 
GR
GR
GS
[0 -0.75 0.75 0 30.75 225.75] CT
/Helvetica 14.667 F
GS
[1 0 0 1 0 0] CT
0 0 moveto 
1 -1 scale
(Cone Density \(cones/degree) t 
GR
GR
GS
[0 -0.75 0.75 0 25.5 86.25] CT
/Helvetica 11.733 F
GS
[1 0 0 1 0 0] CT
0 0 moveto 
1 -1 scale
(2) t 
GR
GR
GS
[0 -0.75 0.75 0 30.75 81] CT
/Helvetica 14.667 F
GS
[1 0 0 1 0 0] CT
0 0 moveto 
1 -1 scale
(\)) t 
GR
GR
GS
[0.75 0 0 0.75 54.75 21] CT
N
1.906 -0.375 M
1.906 -0.469 1.969 -0.563 QT
4.672 -3.25 L
1.969 -5.953 L
1.906 -6.016 1.906 -6.125 QT
1.906 -6.219 1.984 -6.305 QT
2.063 -6.391 2.172 -6.391 QT
2.266 -6.391 2.375 -6.297 QT
5.063 -3.609 L
7.734 -6.297 L
7.844 -6.391 7.922 -6.391 QT
8.031 -6.391 8.109 -6.313 QT
8.188 -6.234 8.188 -6.125 QT
8.188 -6.016 8.125 -5.953 QT
5.422 -3.25 L
8.125 -0.563 L
8.188 -0.469 8.188 -0.375 QT
8.188 -0.266 8.109 -0.188 QT
8.031 -0.109 7.922 -0.109 QT
7.828 -0.109 7.734 -0.203 QT
5.063 -2.891 L
2.375 -0.203 L
2.266 -0.109 2.172 -0.109 QT
2.063 -0.109 1.984 -0.195 QT
1.906 -0.281 1.906 -0.375 QT
cp
f
GR
GS
[0.75 0 0 0.75 63 21] CT
/Helvetica 13.333 F
GS
[1 0 0 1 0 0] CT
0 0 moveto 
1 -1 scale
(10) t 
GR
GR
GS
[0.75 0 0 0.75 74.25 16.5] CT
/Helvetica 10.667 F
GS
[1 0 0 1 0 0] CT
0 0 moveto 
1 -1 scale
(4) t 
GR
GR
GS
[0.75 0 0 0.75 217.50021 21.18752] CT
/Helvetica-Bold 14.667 F
GS
[1 0 0 1 0 0] CT
-124 -4 moveto 
1 -1 scale
(Cone Density centered around PCD) t 
GR
GR
GS
[0.75 0 0 0.75 0 0] CT
1 LJ
0.667 LW
N
130.655 374.041 M
130.867 335.609 L
131.59 332.387 L
132.313 332.038 L
133.037 330.96 L
133.76 329.593 L
134.483 329.109 L
135.207 328.629 L
135.93 328.205 L
136.653 328.007 L
137.377 327.696 L
138.1 327.217 L
138.823 326.949 L
139.547 326.948 L
140.27 326.673 L
140.993 326.489 L
141.717 326.355 L
142.44 326.183 L
143.163 325.826 L
143.887 325.416 L
144.61 325.026 L
145.333 324.708 L
146.057 324.362 L
146.78 323.321 L
147.503 322.282 L
148.227 321.502 L
148.95 320.702 L
149.673 320.418 L
150.397 320.018 L
151.12 319.669 L
151.843 318.776 L
152.567 317.627 L
153.29 316.877 L
154.013 316.313 L
154.737 316.102 L
155.46 315.676 L
156.183 314.941 L
156.907 314.266 L
157.63 314.111 L
158.353 313.906 L
159.077 313.428 L
159.8 313.041 L
160.523 312.449 L
161.247 311.903 L
161.97 311.299 L
162.693 310.936 L
163.417 310.951 L
164.14 310.388 L
164.863 309.813 L
165.587 308.559 L
166.31 308.093 L
167.033 307.767 L
167.757 307.419 L
168.48 307.178 L
169.203 306.749 L
169.927 306.09 L
170.65 305.753 L
171.373 305.603 L
172.097 305.386 L
172.82 304.886 L
173.543 304.638 L
174.267 304.279 L
174.99 303.983 L
175.713 303.707 L
176.437 303.545 L
177.16 303.142 L
177.883 302.791 L
178.607 302.481 L
179.33 302.295 L
180.053 302.073 L
180.777 302.064 L
181.5 301.942 L
182.223 301.9 L
182.947 301.147 L
183.67 300.976 L
184.393 301.118 L
185.117 300.801 L
185.84 300.505 L
186.563 300.008 L
187.287 299.391 L
188.01 298.452 L
188.733 297.937 L
189.457 297.569 L
190.18 297.026 L
190.903 296.782 L
191.627 295.967 L
192.35 295.111 L
193.073 294.269 L
193.797 293.558 L
194.52 292.842 L
195.243 291.93 L
195.967 291.145 L
196.69 290.901 L
197.413 290.474 L
198.137 289.982 L
198.86 289.252 L
199.583 288.612 L
200.307 288.077 L
201.03 287.837 L
201.753 287.118 L
202.477 287.04 L
203.2 287.007 L
203.923 286.418 L
204.647 285.343 L
205.37 284.749 L
206.093 283.941 L
206.817 282.364 L
207.54 280.977 L
208.263 280.34 L
208.987 279.526 L
209.71 278.671 L
210.433 277.654 L
211.157 277.034 L
211.88 276.241 L
212.603 275.648 L
213.327 274.916 L
214.05 274.423 L
214.773 273.639 L
215.497 272.969 L
216.22 272.063 L
216.943 271.212 L
217.667 270.499 L
218.39 269.648 L
219.113 269.551 L
219.837 268.788 L
220.56 268.002 L
221.283 266.781 L
222.007 266.041 L
222.73 265.337 L
223.453 263.767 L
224.177 262.822 L
224.9 261.433 L
225.623 260.18 L
226.347 257.898 L
227.07 256.006 L
227.793 254.709 L
228.517 253.468 L
229.24 252.246 L
229.963 250.36 L
230.687 248.369 L
231.41 246.496 L
232.133 243.808 L
232.857 242.248 L
233.58 240.102 L
234.303 238.354 L
235.027 236.949 L
235.75 235.781 L
236.473 234.153 L
237.197 232.218 L
237.92 231.082 L
238.643 229.447 L
239.367 227.44 L
240.09 225.281 L
240.813 223.795 L
241.537 221.378 L
242.26 219.964 L
242.983 217.454 L
243.707 215.68 L
244.43 212.567 L
245.153 210.465 L
245.877 208.743 L
246.6 207.166 L
247.323 205.965 L
248.047 204.582 L
248.77 202.606 L
249.493 200.475 L
250.217 197.652 L
250.94 196.221 L
251.663 194.384 L
252.387 193.054 L
253.11 191.103 L
253.833 189.285 L
254.557 188.071 L
255.28 187.374 L
256.003 186.983 L
256.727 186.745 L
257.45 184.12 L
258.173 182.412 L
258.897 181.62 L
259.62 180.214 L
260.343 180.151 L
261.067 180.116 L
261.79 179.883 L
262.513 179.49 L
263.237 179.16 L
263.96 178.993 L
264.683 179.087 L
265.407 179.522 L
266.13 179.635 L
266.853 179.654 L
267.577 179.401 L
268.3 179.574 L
269.023 179.38 L
269.747 178.919 L
270.47 178.927 L
271.193 178.186 L
271.917 177.301 L
272.64 176.826 L
273.363 176.282 L
274.087 175.776 L
274.81 174.756 L
275.533 173.625 L
276.257 174.042 L
276.98 174.093 L
277.703 174.166 L
278.427 173.516 L
279.15 173.663 L
279.873 174.655 L
280.597 175.646 L
281.32 176.593 L
282.043 177.114 L
282.767 178.15 L
283.49 179.233 L
284.213 179.559 L
284.937 180.159 L
285.66 180.258 L
286.383 180.771 L
287.107 180.862 L
287.83 181.628 L
288.553 181.546 L
289.277 181.595 L
290 181.611 L
290.723 182.074 L
291.447 182.339 L
292.17 182.442 L
292.893 183.096 L
293.617 183.446 L
294.34 183.97 L
295.063 184.761 L
295.787 184.782 L
296.51 185.077 L
297.233 185.654 L
297.957 186.283 L
298.68 186.821 L
299.403 187.649 L
300.127 188.399 L
300.85 188.693 L
301.573 188.578 L
302.297 188.726 L
303.02 188.823 L
303.743 188.556 L
304.467 188.416 L
305.19 188.608 L
305.913 188.977 L
306.637 189.342 L
307.36 189.726 L
308.083 189.796 L
308.807 189.311 L
309.53 189.678 L
310.253 189.453 L
310.977 188.858 L
311.7 188.782 L
312.423 188.698 L
313.147 188.487 L
313.87 188.336 L
314.593 188.076 L
315.317 188.451 L
316.04 188.567 L
316.763 188.284 L
317.487 187.435 L
318.21 187.21 L
318.933 187.115 L
319.657 186.768 L
320.38 186.461 L
321.103 185.476 L
321.827 185.446 L
322.55 185.405 L
323.273 185.631 L
323.997 185.575 L
324.72 185.299 L
325.443 185.353 L
326.167 185.095 L
326.89 184.35 L
327.613 184.808 L
328.337 184.719 L
329.06 183.908 L
329.783 182.272 L
330.507 180.708 L
331.23 179.758 L
331.953 179.155 L
332.677 178.586 L
333.4 177.753 L
334.123 175.606 L
334.847 173.707 L
335.57 171.732 L
336.293 170.414 L
337.017 169.797 L
337.74 168.957 L
338.463 168.073 L
339.187 167.699 L
339.91 167.106 L
340.633 167.457 L
341.357 167.717 L
342.08 167.936 L
342.803 168.068 L
343.527 168.215 L
344.25 167.895 L
344.973 167.1 L
345.697 166.365 L
346.42 165.304 L
347.143 164.554 L
347.867 163.69 L
348.59 163.008 L
349.313 162.851 L
350.037 162.08 L
350.76 161.364 L
351.483 160.746 L
352.207 160.657 L
352.93 161.364 L
353.653 161.425 L
354.377 160.825 L
355.1 159.702 L
355.823 159.857 L
356.547 159.687 L
357.27 159.441 L
357.993 158.67 L
358.717 158.912 L
359.44 158.217 L
360.163 158.563 L
360.887 158.345 L
361.61 158.076 L
362.333 157.443 L
363.057 157.266 L
363.78 157.287 L
364.503 157.131 L
365.227 157.592 L
365.95 158.588 L
366.673 159.678 L
367.397 161.568 L
368.12 162.047 L
368.843 163.355 L
369.567 165.232 L
370.29 167.277 L
371.013 169.452 L
371.737 171.158 L
372.46 172.331 L
373.183 174.236 L
373.907 175.333 L
374.63 176.234 L
375.353 176.511 L
376.077 176.802 L
376.8 176.972 L
377.523 177.304 L
378.247 178.175 L
378.97 178.517 L
379.693 179.486 L
380.417 180.064 L
381.14 180.352 L
381.863 180.652 L
382.587 181.589 L
383.31 182.581 L
384.033 183.675 L
384.757 184.185 L
385.48 184.699 L
386.203 185.609 L
386.927 186.652 L
387.65 188.52 L
388.373 188.984 L
389.097 189.08 L
389.82 189.802 L
390.543 191.819 L
391.267 192.813 L
391.99 192.646 L
392.713 192.698 L
393.437 193.338 L
394.16 194.238 L
394.883 195.005 L
395.607 195.392 L
396.33 195.771 L
397.053 196.293 L
397.777 196.421 L
398.5 196.8 L
399.223 196.994 L
399.947 197.089 L
400.67 197.029 L
401.393 197.201 L
402.117 198.014 L
402.84 198.653 L
403.563 198.698 L
404.287 199.339 L
405.01 199.568 L
405.733 200.263 L
406.457 201.449 L
407.18 202.462 L
407.903 203.231 L
408.627 203.82 L
409.35 204.619 L
410.073 205.749 L
410.797 206.724 L
411.52 207.202 L
412.243 207.61 L
412.967 208.111 L
413.69 208.815 L
414.413 209.622 L
415.137 210.631 L
415.86 210.997 L
416.583 211.616 L
417.307 212.383 L
418.03 212.643 L
418.753 213.026 L
419.477 213.055 L
420.2 213.197 L
420.923 213.506 L
421.647 213.664 L
422.37 214.054 L
423.093 214.181 L
423.817 214.377 L
424.54 214.399 L
425.263 214.345 L
425.987 214.506 L
426.71 214.652 L
427.433 215.081 L
428.157 215.797 L
428.88 216.477 L
429.603 217.35 L
430.327 218.033 L
431.05 218.83 L
431.773 220.366 L
432.497 221.527 L
433.22 222.324 L
433.943 223.678 L
434.667 224.662 L
435.39 225.219 L
436.113 226.157 L
436.837 227.124 L
437.56 228.331 L
438.283 229.142 L
439.007 230.056 L
439.73 230.847 L
440.453 231.521 L
441.177 232.565 L
441.9 234.326 L
442.623 235.117 L
443.347 236.157 L
444.07 236.888 L
444.793 237.555 L
445.517 238.488 L
446.24 239.333 L
446.963 240.149 L
447.687 241.091 L
448.41 241.728 L
449.133 242.217 L
449.857 242.555 L
450.58 243.532 L
451.303 244.791 L
452.027 245.836 L
452.75 246.584 L
453.473 247.294 L
454.197 248.022 L
454.92 248.495 L
455.643 249.001 L
456.367 250.711 L
457.09 252.076 L
457.813 257.369 L
458.537 264.313 L
459.26 267.195 L
459.983 290.514 L
460.707 328.204 L
461.43 336.236 L
461.896 374.041 L
S
GR
GS
[0.75 0 0 0.75 0 0] CT
1 LJ
0.667 LW
N
159.151 374.041 M
159.697 329.649 L
160.42 328.736 L
161.143 327.605 L
161.867 327.445 L
162.59 327.257 L
163.313 327.052 L
164.037 326.635 L
164.76 326.228 L
165.483 325.855 L
166.207 325.543 L
166.93 325.436 L
167.653 325.52 L
168.377 325.641 L
169.1 325.421 L
169.823 325.218 L
170.547 324.872 L
171.27 324.488 L
171.993 324.289 L
172.717 323.889 L
173.44 323.554 L
174.163 323.297 L
174.887 322.961 L
175.61 322.253 L
176.333 321.849 L
177.057 321.007 L
177.78 320.027 L
178.503 318.844 L
179.227 318.08 L
179.95 317.461 L
180.673 316.803 L
181.397 316.104 L
182.12 315.503 L
182.843 315.092 L
183.567 314.241 L
184.29 313.765 L
185.013 313.216 L
185.737 312.808 L
186.46 312.398 L
187.183 311.954 L
187.907 311.488 L
188.63 311.077 L
189.353 310.795 L
190.077 310.477 L
190.8 309.894 L
191.523 309.366 L
192.247 308.519 L
192.97 307.964 L
193.693 307.634 L
194.417 307.379 L
195.14 306.77 L
195.863 306.515 L
196.587 306.057 L
197.31 305.522 L
198.033 305.111 L
198.757 304.794 L
199.48 304.589 L
200.203 304.288 L
200.927 303.837 L
201.65 303.462 L
202.373 302.95 L
203.097 302.641 L
203.82 302.138 L
204.543 301.394 L
205.267 301.075 L
205.99 300.588 L
206.713 299.978 L
207.437 299.678 L
208.16 299.119 L
208.883 298.543 L
209.607 297.878 L
210.33 297.131 L
211.053 296.859 L
211.777 296.278 L
212.5 295.856 L
213.223 295.187 L
213.947 295.144 L
214.67 294.948 L
215.393 294.547 L
216.117 294.204 L
216.84 293.714 L
217.563 293.103 L
218.287 292.575 L
219.01 292.169 L
219.733 291.838 L
220.457 290.919 L
221.18 290.592 L
221.903 290.143 L
222.627 289.62 L
223.35 288.549 L
224.073 287.791 L
224.797 287.417 L
225.52 287.001 L
226.243 286.829 L
226.967 286.035 L
227.69 285.242 L
228.413 284.842 L
229.137 284.465 L
229.86 284.025 L
230.583 283.745 L
231.307 282.706 L
232.03 281.66 L
232.753 281.139 L
233.477 280.478 L
234.2 280.265 L
234.923 279.085 L
235.647 278.908 L
236.37 278.354 L
237.093 277.728 L
237.817 277.323 L
238.54 276.638 L
239.263 276.041 L
239.987 275.646 L
240.71 274.953 L
241.433 274.639 L
242.157 274.071 L
242.88 272.889 L
243.603 271.888 L
244.327 271.334 L
245.05 270.866 L
245.773 270.126 L
246.497 269.126 L
247.22 267.892 L
247.943 266.811 L
248.667 265.778 L
249.39 264.579 L
250.113 263.316 L
250.837 262.098 L
251.56 260.318 L
252.283 258.545 L
253.007 256.988 L
253.73 255.68 L
254.453 254.509 L
255.177 252.891 L
255.9 251.578 L
256.623 249.317 L
257.347 247.503 L
258.07 245.622 L
258.793 243.898 L
259.517 242.208 L
260.24 240.342 L
260.963 238.62 L
261.687 236.318 L
262.41 233.47 L
263.133 231.953 L
263.857 230.104 L
264.58 228.563 L
265.303 227.094 L
266.027 225.544 L
266.75 223.563 L
267.473 221.673 L
268.197 220.281 L
268.92 218.189 L
269.643 216.854 L
270.367 214.895 L
271.09 211.819 L
271.813 209.927 L
272.537 207.473 L
273.26 206.156 L
273.983 204.785 L
274.707 203.233 L
275.43 200.901 L
276.153 199.341 L
276.877 197.016 L
277.6 195.442 L
278.323 193.341 L
279.047 192.452 L
279.77 191.455 L
280.493 189.953 L
281.217 188.779 L
281.94 187.551 L
282.663 186.28 L
283.387 185.322 L
284.11 183.735 L
284.833 181.369 L
285.557 179.888 L
286.28 179.032 L
287.003 178.569 L
287.727 177.764 L
288.45 177.35 L
289.173 177.091 L
289.897 177.302 L
290.62 177.281 L
291.343 177.477 L
292.067 177.556 L
292.79 177.734 L
293.513 177.883 L
294.237 177.6 L
294.96 177.406 L
295.683 177.012 L
296.407 176.81 L
297.13 176.447 L
297.853 176.253 L
298.577 175.65 L
299.3 175.704 L
300.023 175.169 L
300.747 175.192 L
301.47 175.669 L
302.193 175.789 L
302.917 175.786 L
303.64 175.203 L
304.363 175.338 L
305.087 174.497 L
305.81 174.258 L
306.533 174.577 L
307.257 174.844 L
307.98 175.525 L
308.703 176.16 L
309.427 177.08 L
310.15 177.737 L
310.873 178.2 L
311.597 178.802 L
312.32 179.649 L
313.043 180.557 L
313.767 180.657 L
314.49 181.232 L
315.213 181.681 L
315.937 182.221 L
316.66 182.795 L
317.383 183.862 L
318.107 183.827 L
318.83 184.212 L
319.553 184.897 L
320.277 185.685 L
321 186.785 L
321.723 187.681 L
322.447 188.159 L
323.17 189.356 L
323.893 190.548 L
324.617 191.689 L
325.34 192.689 L
326.063 193.173 L
326.787 193.609 L
327.51 194.206 L
328.233 194.703 L
328.957 194.866 L
329.68 195.392 L
330.403 196.374 L
331.127 196.167 L
331.85 196.221 L
332.573 195.845 L
333.297 195.341 L
334.02 194.545 L
334.743 193.748 L
335.467 193.206 L
336.19 192.737 L
336.913 192.861 L
337.637 192.02 L
338.36 191.07 L
339.083 190.629 L
339.807 190.539 L
340.53 190.342 L
341.253 190.265 L
341.977 190.097 L
342.7 189.572 L
343.423 189.392 L
344.147 189.181 L
344.87 189.536 L
345.593 188.854 L
346.317 188.434 L
347.04 187.555 L
347.763 187.484 L
348.487 187.152 L
349.21 186.797 L
349.933 186.766 L
350.657 186.118 L
351.38 186.187 L
352.103 186.161 L
352.827 186.714 L
353.55 185.746 L
354.273 184.735 L
354.997 183.834 L
355.72 183.479 L
356.443 182.407 L
357.167 181.328 L
357.89 180.823 L
358.613 180.009 L
359.337 178.503 L
360.06 177.903 L
360.783 176.433 L
361.507 175.346 L
362.23 175.073 L
362.953 174.479 L
363.677 174.218 L
364.4 172.676 L
365.123 171.74 L
365.847 171.43 L
366.57 170.944 L
367.293 169.311 L
368.017 168.309 L
368.74 167.768 L
369.463 167.069 L
370.187 166.72 L
370.91 166.304 L
371.633 165.914 L
372.357 165.063 L
373.08 164.404 L
373.803 164.423 L
374.527 164.744 L
375.25 165.124 L
375.973 165.342 L
376.697 165.65 L
377.42 166.095 L
378.143 166.246 L
378.867 166.16 L
379.59 166.526 L
380.313 166.862 L
381.037 167.278 L
381.76 166.696 L
382.483 166.165 L
383.207 165.829 L
383.93 165.607 L
384.653 166.836 L
385.377 167.34 L
386.1 167.547 L
386.823 167.975 L
387.547 167.963 L
388.27 167.156 L
388.993 167.441 L
389.717 167.734 L
390.44 167.594 L
391.163 167.332 L
391.887 167.186 L
392.61 166.964 L
393.333 166.53 L
394.057 166.903 L
394.78 167.295 L
395.503 167.129 L
396.227 166.895 L
396.95 166.958 L
397.673 167.708 L
398.397 167.839 L
399.12 168.386 L
399.843 168.193 L
400.567 168.158 L
401.29 168.42 L
402.013 168.968 L
402.737 169.951 L
403.46 170.813 L
404.183 172.442 L
404.907 173.515 L
405.63 175.598 L
406.353 176.759 L
407.077 177.088 L
407.8 178.364 L
408.523 178.935 L
409.247 179.611 L
409.97 180.873 L
410.693 181.582 L
411.417 181.805 L
412.14 182.649 L
412.863 183.021 L
413.587 183.503 L
414.31 184.148 L
415.033 184.486 L
415.757 185.099 L
416.48 186.335 L
417.203 187.32 L
417.927 188.163 L
418.65 188.932 L
419.373 189.532 L
420.097 190.786 L
420.82 191.616 L
421.543 192.617 L
422.267 193.3 L
422.99 194.139 L
423.713 194.811 L
424.437 195.455 L
425.16 195.921 L
425.883 196.245 L
426.607 197.571 L
427.33 198.121 L
428.053 198.856 L
428.777 199.311 L
429.5 199.729 L
430.223 199.586 L
430.947 199.385 L
431.67 199.51 L
432.393 199.592 L
433.117 199.265 L
433.84 198.852 L
434.563 198.985 L
435.287 199.322 L
436.01 199.637 L
436.733 200.414 L
437.457 200.732 L
438.18 201.507 L
438.903 201.865 L
439.627 202.251 L
440.35 203.124 L
441.073 203.898 L
441.797 204.94 L
442.52 206.006 L
443.243 206.458 L
443.967 206.804 L
444.69 207.349 L
445.413 207.797 L
446.137 208.441 L
446.86 209.329 L
447.583 210.014 L
448.307 210.526 L
449.03 211.093 L
449.753 211.9 L
450.477 212.604 L
451.2 212.747 L
451.923 212.363 L
452.647 212.28 L
453.37 212.805 L
454.093 213.242 L
454.817 213.537 L
455.54 214.136 L
456.263 215.25 L
456.987 216.117 L
457.71 217.04 L
458.433 217.643 L
459.157 217.842 L
459.88 218.625 L
460.603 219.452 L
461.327 220.086 L
462.05 220.58 L
462.773 221.401 L
463.497 222.984 L
464.22 224.038 L
464.943 224.703 L
465.667 225.108 L
466.39 225.124 L
467.113 225.439 L
467.837 226.255 L
468.56 226.951 L
469.283 227.296 L
470.007 227.809 L
470.73 228.172 L
471.453 229.094 L
472.177 230.259 L
472.9 230.667 L
473.623 231.158 L
474.347 231.348 L
475.07 232.347 L
475.793 232.883 L
476.517 233.72 L
477.24 234.692 L
477.963 235.899 L
478.687 236.511 L
479.41 237.343 L
480.133 238.033 L
480.857 238.787 L
481.58 239.507 L
482.303 240.482 L
483.027 241.51 L
483.75 242.894 L
484.473 243.921 L
485.197 244.883 L
485.92 245.657 L
486.643 258.909 L
487.367 273.484 L
488.09 287.735 L
488.813 294.601 L
489.537 296.281 L
490.26 306.292 L
490.983 320.387 L
491.707 341.709 L
492.43 350.65 L
493.153 357.916 L
493.877 363.546 L
493.945 374.041 L
S
GR
GS
[0.75 0 0 0.75 136.125 87.5625] CT
/Helvetica 13.333 F
GS
[1 0 0 1 0 0] CT
0 5.5 moveto 
1 -1 scale
(Superior Retina) t 
GR
GR
GS
[0.75 0 0 0.75 353.12501 87.5625] CT
/Helvetica 13.333 F
GS
[1 0 0 1 0 0] CT
0 5.5 moveto 
1 -1 scale
(Inferior Retina) t 
GR
GR
GS
[0.75 0 0 0.75 0 0] CT
1 GC
N
496 78 M
496 42 L
419 42 L
419 78 L
cp
f
GR
GS
[0.75 0 0 0.75 349.5 38.89726] CT
/Helvetica 12 F
GS
[1 0 0 1 0 0] CT
0 5 moveto 
1 -1 scale
(PCD) t 
GR
GR
GS
[0.75 0 0 0.75 0 0] CT
1 LJ
0.667 LW
N
423 51.863 M
463 51.863 L
S
GR
GS
[0.75 0 0 0.75 349.5 51.10274] CT
/Helvetica 12 F
GS
[1 0 0 1 0 0] CT
0 5 moveto 
1 -1 scale
(CDC) t 
GR
GR
GS
[0.75 0 0 0.75 0 0] CT
1 LJ
0.667 LW
N
423 68.137 M
463 68.137 L
S
GR
GS
[0.75 0 0 0.75 0 0] CT
10.0 ML
0.667 LW
N
419 78 M
419 42 L
496 42 L
496 78 L
cp
S
GR
%%Trailer
%%Pages: 1
%%EOF
