%!PS-Adobe-3.0 EPSF-3.0
%%Creator: (MATLAB, The Mathworks, Inc. Version 9.11.0.1837725 \(R2021b\) Update 2. Operating System: Windows 10)
%%Title: C:/Users/ruccilab/Documents/adaptiveoptics/ConeDesity/APLab_System/data/ConeTaggingTraining/Distribution/tagger4_VertDist.eps
%%CreationDate: 2023-06-23T09:58:08
%%Pages: (atend)
%%BoundingBox:    19     3   385   306
%%LanguageLevel: 3
%%EndComments
%%BeginProlog
%%BeginResource: procset (Apache XML Graphics Std ProcSet) 1.2 0
%%Version: 1.2 0
%%Copyright: (Copyright 2001-2003,2010 The Apache Software Foundation. License terms: http://www.apache.org/licenses/LICENSE-2.0)
/bd{bind def}bind def
/ld{load def}bd
/GR/grestore ld
/GS/gsave ld
/RM/rmoveto ld
/C/curveto ld
/t/show ld
/L/lineto ld
/ML/setmiterlimit ld
/CT/concat ld
/f/fill ld
/N/newpath ld
/S/stroke ld
/CC/setcmykcolor ld
/A/ashow ld
/cp/closepath ld
/RC/setrgbcolor ld
/LJ/setlinejoin ld
/GC/setgray ld
/LW/setlinewidth ld
/M/moveto ld
/re {4 2 roll M
1 index 0 rlineto
0 exch rlineto
neg 0 rlineto
cp } bd
/_ctm matrix def
/_tm matrix def
/BT { _ctm currentmatrix pop matrix _tm copy pop 0 0 moveto } bd
/ET { _ctm setmatrix } bd
/iTm { _ctm setmatrix _tm concat } bd
/Tm { _tm astore pop iTm 0 0 moveto } bd
/ux 0.0 def
/uy 0.0 def
/F {
  /Tp exch def
  /Tf exch def
  Tf findfont Tp scalefont setfont
  /cf Tf def  /cs Tp def
} bd
/ULS {currentpoint /uy exch def /ux exch def} bd
/ULE {
  /Tcx currentpoint pop def
  gsave
  newpath
  cf findfont cs scalefont dup
  /FontMatrix get 0 get /Ts exch def /FontInfo get dup
  /UnderlinePosition get Ts mul /To exch def
  /UnderlineThickness get Ts mul /Tt exch def
  ux uy To add moveto  Tcx uy To add lineto
  Tt setlinewidth stroke
  grestore
} bd
/OLE {
  /Tcx currentpoint pop def
  gsave
  newpath
  cf findfont cs scalefont dup
  /FontMatrix get 0 get /Ts exch def /FontInfo get dup
  /UnderlinePosition get Ts mul /To exch def
  /UnderlineThickness get Ts mul /Tt exch def
  ux uy To add cs add moveto Tcx uy To add cs add lineto
  Tt setlinewidth stroke
  grestore
} bd
/SOE {
  /Tcx currentpoint pop def
  gsave
  newpath
  cf findfont cs scalefont dup
  /FontMatrix get 0 get /Ts exch def /FontInfo get dup
  /UnderlinePosition get Ts mul /To exch def
  /UnderlineThickness get Ts mul /Tt exch def
  ux uy To add cs 10 mul 26 idiv add moveto Tcx uy To add cs 10 mul 26 idiv add lineto
  Tt setlinewidth stroke
  grestore
} bd
/QT {
/Y22 exch store
/X22 exch store
/Y21 exch store
/X21 exch store
currentpoint
/Y21 load 2 mul add 3 div exch
/X21 load 2 mul add 3 div exch
/X21 load 2 mul /X22 load add 3 div
/Y21 load 2 mul /Y22 load add 3 div
/X22 load /Y22 load curveto
} bd
/SSPD {
dup length /d exch dict def
{
/v exch def
/k exch def
currentpagedevice k known {
/cpdv currentpagedevice k get def
v cpdv ne {
/upd false def
/nullv v type /nulltype eq def
/nullcpdv cpdv type /nulltype eq def
nullv nullcpdv or
{
/upd true def
} {
/sametype v type cpdv type eq def
sametype {
v type /arraytype eq {
/vlen v length def
/cpdvlen cpdv length def
vlen cpdvlen eq {
0 1 vlen 1 sub {
/i exch def
/obj v i get def
/cpdobj cpdv i get def
obj cpdobj ne {
/upd true def
exit
} if
} for
} {
/upd true def
} ifelse
} {
v type /dicttype eq {
v {
/dv exch def
/dk exch def
/cpddv cpdv dk get def
dv cpddv ne {
/upd true def
exit
} if
} forall
} {
/upd true def
} ifelse
} ifelse
} if
} ifelse
upd true eq {
d k v put
} if
} if
} if
} forall
d length 0 gt {
d setpagedevice
} if
} bd
/RE { % /NewFontName [NewEncodingArray] /FontName RE -
  findfont dup length dict begin
  {
    1 index /FID ne
    {def} {pop pop} ifelse
  } forall
  /Encoding exch def
  /FontName 1 index def
  currentdict definefont pop
  end
} bind def
%%EndResource
%%BeginResource: procset (Apache XML Graphics EPS ProcSet) 1.0 0
%%Version: 1.0 0
%%Copyright: (Copyright 2002-2003 The Apache Software Foundation. License terms: http://www.apache.org/licenses/LICENSE-2.0)
/BeginEPSF { %def
/b4_Inc_state save def         % Save state for cleanup
/dict_count countdictstack def % Count objects on dict stack
/op_count count 1 sub def      % Count objects on operand stack
userdict begin                 % Push userdict on dict stack
/showpage { } def              % Redefine showpage, { } = null proc
0 setgray 0 setlinecap         % Prepare graphics state
1 setlinewidth 0 setlinejoin
10 setmiterlimit [ ] 0 setdash newpath
/languagelevel where           % If level not equal to 1 then
{pop languagelevel             % set strokeadjust and
1 ne                           % overprint to their defaults.
{false setstrokeadjust false setoverprint
} if
} if
} bd
/EndEPSF { %def
count op_count sub {pop} repeat            % Clean up stacks
countdictstack dict_count sub {end} repeat
b4_Inc_state restore
} bd
%%EndResource
%FOPBeginFontDict
%%IncludeResource: font Courier-Oblique
%%IncludeResource: font Courier-BoldOblique
%%IncludeResource: font Courier-Bold
%%IncludeResource: font ZapfDingbats
%%IncludeResource: font Symbol
%%IncludeResource: font Helvetica
%%IncludeResource: font Helvetica-Oblique
%%IncludeResource: font Helvetica-Bold
%%IncludeResource: font Helvetica-BoldOblique
%%IncludeResource: font Times-Roman
%%IncludeResource: font Times-Italic
%%IncludeResource: font Times-Bold
%%IncludeResource: font Times-BoldItalic
%%IncludeResource: font Courier
%FOPEndFontDict
%%BeginResource: encoding WinAnsiEncoding
/WinAnsiEncoding [
/.notdef /.notdef /.notdef /.notdef /.notdef
/.notdef /.notdef /.notdef /.notdef /.notdef
/.notdef /.notdef /.notdef /.notdef /.notdef
/.notdef /.notdef /.notdef /.notdef /.notdef
/.notdef /.notdef /.notdef /.notdef /.notdef
/.notdef /.notdef /.notdef /.notdef /.notdef
/.notdef /.notdef /space /exclam /quotedbl
/numbersign /dollar /percent /ampersand /quotesingle
/parenleft /parenright /asterisk /plus /comma
/hyphen /period /slash /zero /one
/two /three /four /five /six
/seven /eight /nine /colon /semicolon
/less /equal /greater /question /at
/A /B /C /D /E
/F /G /H /I /J
/K /L /M /N /O
/P /Q /R /S /T
/U /V /W /X /Y
/Z /bracketleft /backslash /bracketright /asciicircum
/underscore /quoteleft /a /b /c
/d /e /f /g /h
/i /j /k /l /m
/n /o /p /q /r
/s /t /u /v /w
/x /y /z /braceleft /bar
/braceright /asciitilde /bullet /Euro /bullet
/quotesinglbase /florin /quotedblbase /ellipsis /dagger
/daggerdbl /circumflex /perthousand /Scaron /guilsinglleft
/OE /bullet /Zcaron /bullet /bullet
/quoteleft /quoteright /quotedblleft /quotedblright /bullet
/endash /emdash /asciitilde /trademark /scaron
/guilsinglright /oe /bullet /zcaron /Ydieresis
/space /exclamdown /cent /sterling /currency
/yen /brokenbar /section /dieresis /copyright
/ordfeminine /guillemotleft /logicalnot /sfthyphen /registered
/macron /degree /plusminus /twosuperior /threesuperior
/acute /mu /paragraph /middot /cedilla
/onesuperior /ordmasculine /guillemotright /onequarter /onehalf
/threequarters /questiondown /Agrave /Aacute /Acircumflex
/Atilde /Adieresis /Aring /AE /Ccedilla
/Egrave /Eacute /Ecircumflex /Edieresis /Igrave
/Iacute /Icircumflex /Idieresis /Eth /Ntilde
/Ograve /Oacute /Ocircumflex /Otilde /Odieresis
/multiply /Oslash /Ugrave /Uacute /Ucircumflex
/Udieresis /Yacute /Thorn /germandbls /agrave
/aacute /acircumflex /atilde /adieresis /aring
/ae /ccedilla /egrave /eacute /ecircumflex
/edieresis /igrave /iacute /icircumflex /idieresis
/eth /ntilde /ograve /oacute /ocircumflex
/otilde /odieresis /divide /oslash /ugrave
/uacute /ucircumflex /udieresis /yacute /thorn
/ydieresis
] def
%%EndResource
%FOPBeginFontReencode
/Courier-Oblique findfont
dup length dict begin
  {1 index /FID ne {def} {pop pop} ifelse} forall
  /Encoding WinAnsiEncoding def
  currentdict
end
/Courier-Oblique exch definefont pop
/Courier-BoldOblique findfont
dup length dict begin
  {1 index /FID ne {def} {pop pop} ifelse} forall
  /Encoding WinAnsiEncoding def
  currentdict
end
/Courier-BoldOblique exch definefont pop
/Courier-Bold findfont
dup length dict begin
  {1 index /FID ne {def} {pop pop} ifelse} forall
  /Encoding WinAnsiEncoding def
  currentdict
end
/Courier-Bold exch definefont pop
/Helvetica findfont
dup length dict begin
  {1 index /FID ne {def} {pop pop} ifelse} forall
  /Encoding WinAnsiEncoding def
  currentdict
end
/Helvetica exch definefont pop
/Helvetica-Oblique findfont
dup length dict begin
  {1 index /FID ne {def} {pop pop} ifelse} forall
  /Encoding WinAnsiEncoding def
  currentdict
end
/Helvetica-Oblique exch definefont pop
/Helvetica-Bold findfont
dup length dict begin
  {1 index /FID ne {def} {pop pop} ifelse} forall
  /Encoding WinAnsiEncoding def
  currentdict
end
/Helvetica-Bold exch definefont pop
/Helvetica-BoldOblique findfont
dup length dict begin
  {1 index /FID ne {def} {pop pop} ifelse} forall
  /Encoding WinAnsiEncoding def
  currentdict
end
/Helvetica-BoldOblique exch definefont pop
/Times-Roman findfont
dup length dict begin
  {1 index /FID ne {def} {pop pop} ifelse} forall
  /Encoding WinAnsiEncoding def
  currentdict
end
/Times-Roman exch definefont pop
/Times-Italic findfont
dup length dict begin
  {1 index /FID ne {def} {pop pop} ifelse} forall
  /Encoding WinAnsiEncoding def
  currentdict
end
/Times-Italic exch definefont pop
/Times-Bold findfont
dup length dict begin
  {1 index /FID ne {def} {pop pop} ifelse} forall
  /Encoding WinAnsiEncoding def
  currentdict
end
/Times-Bold exch definefont pop
/Times-BoldItalic findfont
dup length dict begin
  {1 index /FID ne {def} {pop pop} ifelse} forall
  /Encoding WinAnsiEncoding def
  currentdict
end
/Times-BoldItalic exch definefont pop
/Courier findfont
dup length dict begin
  {1 index /FID ne {def} {pop pop} ifelse} forall
  /Encoding WinAnsiEncoding def
  currentdict
end
/Courier exch definefont pop
%FOPEndFontReencode
%%EndProlog
%%Page: 1 1
%%PageBoundingBox: 0 0 420 315
%%BeginPageSetup
[1 0 0 -1 0 315] CT
%%EndPageSetup
GS
[0.75 0 0 0.75 0 0] CT
1 GC
N
0 0 560 420 re
f
GR
GS
[0.75 0 0 0.75 0 0] CT
1 GC
N
0 0 560 420 re
f
GR
GS
[0.75 0 0 0.75 0 0] CT
1 GC
N
73 374 M
507 374 L
507 31 L
73 31 L
cp
f
GR
GS
[0.75 0 0 0.75 0 0] CT
2 setlinecap
1 LJ
0.667 LW
N
73 374 M
507 374 L
S
GR
GS
[0.75 0 0 0.75 0 0] CT
2 setlinecap
1 LJ
0.667 LW
N
73 374 M
73 369.66 L
S
GR
GS
[0.75 0 0 0.75 0 0] CT
2 setlinecap
1 LJ
0.667 LW
N
127.25 374 M
127.25 369.66 L
S
GR
GS
[0.75 0 0 0.75 0 0] CT
2 setlinecap
1 LJ
0.667 LW
N
181.5 374 M
181.5 369.66 L
S
GR
GS
[0.75 0 0 0.75 0 0] CT
2 setlinecap
1 LJ
0.667 LW
N
235.75 374 M
235.75 369.66 L
S
GR
GS
[0.75 0 0 0.75 0 0] CT
2 setlinecap
1 LJ
0.667 LW
N
290 374 M
290 369.66 L
S
GR
GS
[0.75 0 0 0.75 0 0] CT
2 setlinecap
1 LJ
0.667 LW
N
344.25 374 M
344.25 369.66 L
S
GR
GS
[0.75 0 0 0.75 0 0] CT
2 setlinecap
1 LJ
0.667 LW
N
398.5 374 M
398.5 369.66 L
S
GR
GS
[0.75 0 0 0.75 0 0] CT
2 setlinecap
1 LJ
0.667 LW
N
452.75 374 M
452.75 369.66 L
S
GR
GS
[0.75 0 0 0.75 0 0] CT
2 setlinecap
1 LJ
0.667 LW
N
507 374 M
507 369.66 L
S
GR
GS
[0.75 0 0 0.75 54.75 284.50001] CT
/Helvetica 13.333 F
GS
[1 0 0 1 0 0] CT
-10 14 moveto 
1 -1 scale
(-50) t 
GR
GR
GS
[0.75 0 0 0.75 95.4375 284.50001] CT
/Helvetica 13.333 F
GS
[1 0 0 1 0 0] CT
-10 14 moveto 
1 -1 scale
(-40) t 
GR
GR
GS
[0.75 0 0 0.75 136.125 284.50001] CT
/Helvetica 13.333 F
GS
[1 0 0 1 0 0] CT
-10 14 moveto 
1 -1 scale
(-30) t 
GR
GR
GS
[0.75 0 0 0.75 176.8125 284.50001] CT
/Helvetica 13.333 F
GS
[1 0 0 1 0 0] CT
-10 14 moveto 
1 -1 scale
(-20) t 
GR
GR
GS
[0.75 0 0 0.75 217.5 284.50001] CT
/Helvetica 13.333 F
GS
[1 0 0 1 0 0] CT
-10 14 moveto 
1 -1 scale
(-10) t 
GR
GR
GS
[0.75 0 0 0.75 258.1875 284.50001] CT
/Helvetica 13.333 F
GS
[1 0 0 1 0 0] CT
-4 14 moveto 
1 -1 scale
(0) t 
GR
GR
GS
[0.75 0 0 0.75 298.875 284.50001] CT
/Helvetica 13.333 F
GS
[1 0 0 1 0 0] CT
-7.5 14 moveto 
1 -1 scale
(10) t 
GR
GR
GS
[0.75 0 0 0.75 339.5625 284.50001] CT
/Helvetica 13.333 F
GS
[1 0 0 1 0 0] CT
-7.5 14 moveto 
1 -1 scale
(20) t 
GR
GR
GS
[0.75 0 0 0.75 380.25 284.50001] CT
/Helvetica 13.333 F
GS
[1 0 0 1 0 0] CT
-7.5 14 moveto 
1 -1 scale
(30) t 
GR
GR
GS
[0.75 0 0 0.75 217.50016 298.24999] CT
/Helvetica 14.667 F
GS
[1 0 0 1 0 0] CT
-66.5 15 moveto 
1 -1 scale
(Eccentricity \(arcmin\)) t 
GR
GR
GS
[0.75 0 0 0.75 0 0] CT
2 setlinecap
1 LJ
0.667 LW
N
73 374 M
73 31 L
S
GR
GS
[0.75 0 0 0.75 0 0] CT
2 setlinecap
1 LJ
0.667 LW
N
73 374 M
77.34 374 L
S
GR
GS
[0.75 0 0 0.75 0 0] CT
2 setlinecap
1 LJ
0.667 LW
N
73 316.833 M
77.34 316.833 L
S
GR
GS
[0.75 0 0 0.75 0 0] CT
2 setlinecap
1 LJ
0.667 LW
N
73 259.667 M
77.34 259.667 L
S
GR
GS
[0.75 0 0 0.75 0 0] CT
2 setlinecap
1 LJ
0.667 LW
N
73 202.5 M
77.34 202.5 L
S
GR
GS
[0.75 0 0 0.75 0 0] CT
2 setlinecap
1 LJ
0.667 LW
N
73 145.333 M
77.34 145.333 L
S
GR
GS
[0.75 0 0 0.75 0 0] CT
2 setlinecap
1 LJ
0.667 LW
N
73 88.167 M
77.34 88.167 L
S
GR
GS
[0.75 0 0 0.75 0 0] CT
2 setlinecap
1 LJ
0.667 LW
N
73 31 M
77.34 31 L
S
GR
GS
[0.75 0 0 0.75 50.74999 280.5] CT
/Helvetica 13.333 F
GS
[1 0 0 1 0 0] CT
-19 5.5 moveto 
1 -1 scale
(0.6) t 
GR
GR
GS
[0.75 0 0 0.75 50.74999 237.62501] CT
/Helvetica 13.333 F
GS
[1 0 0 1 0 0] CT
-19 5.5 moveto 
1 -1 scale
(0.8) t 
GR
GR
GS
[0.75 0 0 0.75 50.74999 194.74999] CT
/Helvetica 13.333 F
GS
[1 0 0 1 0 0] CT
-8 5.5 moveto 
1 -1 scale
(1) t 
GR
GR
GS
[0.75 0 0 0.75 50.74999 151.875] CT
/Helvetica 13.333 F
GS
[1 0 0 1 0 0] CT
-19 5.5 moveto 
1 -1 scale
(1.2) t 
GR
GR
GS
[0.75 0 0 0.75 50.74999 109] CT
/Helvetica 13.333 F
GS
[1 0 0 1 0 0] CT
-19 5.5 moveto 
1 -1 scale
(1.4) t 
GR
GR
GS
[0.75 0 0 0.75 50.74999 66.125] CT
/Helvetica 13.333 F
GS
[1 0 0 1 0 0] CT
-19 5.5 moveto 
1 -1 scale
(1.6) t 
GR
GR
GS
[0.75 0 0 0.75 50.74999 23.25] CT
/Helvetica 13.333 F
GS
[1 0 0 1 0 0] CT
-19 5.5 moveto 
1 -1 scale
(1.8) t 
GR
GR
GS
[0 -0.75 0.75 0 30.75 225.75] CT
/Helvetica 14.667 F
GS
[1 0 0 1 0 0] CT
0 0 moveto 
1 -1 scale
(Cone Density \(cones/degree) t 
GR
GR
GS
[0 -0.75 0.75 0 25.5 86.25] CT
/Helvetica 11.733 F
GS
[1 0 0 1 0 0] CT
0 0 moveto 
1 -1 scale
(2) t 
GR
GR
GS
[0 -0.75 0.75 0 30.75 81] CT
/Helvetica 14.667 F
GS
[1 0 0 1 0 0] CT
0 0 moveto 
1 -1 scale
(\)) t 
GR
GR
GS
[0.75 0 0 0.75 54.75 21] CT
N
1.906 -0.375 M
1.906 -0.469 1.969 -0.563 QT
4.672 -3.25 L
1.969 -5.953 L
1.906 -6.016 1.906 -6.125 QT
1.906 -6.219 1.984 -6.305 QT
2.063 -6.391 2.172 -6.391 QT
2.266 -6.391 2.375 -6.297 QT
5.063 -3.609 L
7.734 -6.297 L
7.844 -6.391 7.922 -6.391 QT
8.031 -6.391 8.109 -6.313 QT
8.188 -6.234 8.188 -6.125 QT
8.188 -6.016 8.125 -5.953 QT
5.422 -3.25 L
8.125 -0.563 L
8.188 -0.469 8.188 -0.375 QT
8.188 -0.266 8.109 -0.188 QT
8.031 -0.109 7.922 -0.109 QT
7.828 -0.109 7.734 -0.203 QT
5.063 -2.891 L
2.375 -0.203 L
2.266 -0.109 2.172 -0.109 QT
2.063 -0.109 1.984 -0.195 QT
1.906 -0.281 1.906 -0.375 QT
cp
f
GR
GS
[0.75 0 0 0.75 63 21] CT
/Helvetica 13.333 F
GS
[1 0 0 1 0 0] CT
0 0 moveto 
1 -1 scale
(10) t 
GR
GR
GS
[0.75 0 0 0.75 74.25 16.5] CT
/Helvetica 10.667 F
GS
[1 0 0 1 0 0] CT
0 0 moveto 
1 -1 scale
(4) t 
GR
GR
GS
[0.75 0 0 0.75 217.50021 21.18752] CT
/Helvetica-Bold 14.667 F
GS
[1 0 0 1 0 0] CT
-124 -4 moveto 
1 -1 scale
(Cone Density centered around PCD) t 
GR
GR
GS
[0.75 0 0 0.75 0 0] CT
1 LJ
0.667 LW
N
121.825 328.732 M
122.367 328.756 L
122.91 328.761 L
123.452 328.807 L
123.995 328.83 L
124.537 328.888 L
125.08 328.861 L
125.623 328.871 L
126.165 328.702 L
126.708 328.722 L
127.25 328.798 L
127.792 328.862 L
128.335 328.911 L
128.878 328.876 L
129.42 328.954 L
129.962 328.83 L
130.505 328.839 L
131.048 328.7 L
131.59 328.805 L
132.133 328.678 L
132.675 328.777 L
133.217 328.849 L
133.76 328.608 L
134.302 328.545 L
134.845 328.58 L
135.387 328.656 L
135.93 328.477 L
136.473 328.411 L
137.015 328.522 L
137.558 328.298 L
138.1 328.225 L
138.642 328.161 L
139.185 327.957 L
139.727 327.881 L
140.27 327.911 L
140.813 327.929 L
141.355 327.98 L
141.898 327.988 L
142.44 327.929 L
142.983 327.793 L
143.525 327.917 L
144.067 327.89 L
144.61 327.902 L
145.152 327.874 L
145.695 327.94 L
146.238 327.912 L
146.78 327.983 L
147.323 328.137 L
147.865 328.107 L
148.408 328.114 L
148.95 328.3 L
149.492 328.248 L
150.035 328.292 L
150.577 328.305 L
151.12 328.382 L
151.663 328.46 L
152.205 328.543 L
152.747 328.546 L
153.29 328.399 L
153.833 328.383 L
154.375 328.413 L
154.917 328.255 L
155.46 328.113 L
156.003 328.086 L
156.545 328.024 L
157.087 328.056 L
157.63 327.933 L
158.173 327.866 L
158.715 327.918 L
159.258 327.992 L
159.8 328.024 L
160.342 327.955 L
160.885 328.105 L
161.427 328.194 L
161.97 328.082 L
162.512 328.023 L
163.055 327.916 L
163.598 327.928 L
164.14 327.865 L
164.683 328.085 L
165.225 327.911 L
165.767 327.801 L
166.31 327.682 L
166.852 327.683 L
167.395 327.889 L
167.938 328.151 L
168.48 328.633 L
169.023 328.975 L
169.565 329.054 L
170.108 329.508 L
170.65 329.259 L
171.193 329.548 L
171.735 329.714 L
172.277 330.275 L
172.82 330.402 L
173.363 330.571 L
173.905 330.682 L
174.448 331.098 L
174.99 331.391 L
175.533 331.433 L
176.075 331.655 L
176.618 331.262 L
177.16 331.062 L
177.702 329.415 L
178.245 323.154 L
178.788 322.591 L
179.33 322.332 L
179.872 322.541 L
180.415 322.849 L
180.958 323.046 L
181.5 323.286 L
182.042 323.593 L
182.585 323.539 L
183.128 323.82 L
183.67 323.974 L
184.212 324.295 L
184.755 324.48 L
185.298 324.253 L
185.84 324.123 L
186.382 323.928 L
186.925 323.92 L
187.467 323.91 L
188.01 323.605 L
188.552 323.475 L
189.095 323.388 L
189.637 322.969 L
190.18 322.383 L
190.723 322.385 L
191.265 322.14 L
191.807 321.654 L
192.35 321.187 L
192.893 321.072 L
193.435 320.972 L
193.977 320.867 L
194.52 320.806 L
195.063 320.725 L
195.605 320.398 L
196.148 319.387 L
196.69 319.209 L
197.232 318.566 L
197.775 318.378 L
198.318 317.821 L
198.86 317.358 L
199.402 316.991 L
199.945 316.588 L
200.488 316.371 L
201.03 315.598 L
201.573 314.558 L
202.115 313.785 L
202.658 313.194 L
203.2 312.622 L
203.743 311.923 L
204.285 311.009 L
204.827 310.394 L
205.37 309.852 L
205.913 309.388 L
206.455 309.166 L
206.997 308.831 L
207.54 308.546 L
208.083 307.515 L
208.625 306.924 L
209.167 306.683 L
209.71 306.392 L
210.253 305.963 L
210.795 305.447 L
211.337 304.623 L
211.88 304.037 L
212.423 303.658 L
212.965 303.325 L
213.507 302.653 L
214.05 302.304 L
214.592 301.742 L
215.135 300.938 L
215.677 300.134 L
216.22 299.873 L
216.762 299.315 L
217.305 298.369 L
217.848 297.129 L
218.39 295.743 L
218.932 294.648 L
219.475 293.852 L
220.018 292.951 L
220.56 291.371 L
221.102 290.219 L
221.645 289.322 L
222.188 287.995 L
222.73 287.312 L
223.273 286.806 L
223.815 285.332 L
224.357 284.198 L
224.9 282.979 L
225.443 281.974 L
225.985 281.356 L
226.527 280.493 L
227.07 279.785 L
227.613 278.522 L
228.155 277.356 L
228.698 276.831 L
229.24 275.618 L
229.783 275.143 L
230.325 274.674 L
230.868 273.842 L
231.41 273.249 L
231.952 272.907 L
232.495 272.32 L
233.038 272.022 L
233.58 271.693 L
234.122 271.094 L
234.665 270.353 L
235.208 269.643 L
235.75 268.838 L
236.292 268.108 L
236.835 267.352 L
237.378 266.873 L
237.92 265.847 L
238.462 264.6 L
239.005 263.63 L
239.548 262.985 L
240.09 262.162 L
240.632 260.932 L
241.175 259.96 L
241.717 258.625 L
242.26 257.08 L
242.802 255.283 L
243.345 254.301 L
243.887 253.281 L
244.43 251.495 L
244.973 250.297 L
245.515 249.091 L
246.057 247.842 L
246.6 246.763 L
247.143 245.916 L
247.685 245.277 L
248.227 244.094 L
248.77 243.329 L
249.313 242.296 L
249.855 241.099 L
250.398 239.774 L
250.94 239.016 L
251.482 238.126 L
252.025 237.136 L
252.568 236.365 L
253.11 234.919 L
253.652 233.876 L
254.195 232.077 L
254.738 231.026 L
255.28 230.147 L
255.823 229.247 L
256.365 227.415 L
256.908 225.722 L
257.45 224.276 L
257.992 223.72 L
258.535 222.699 L
259.078 221.686 L
259.62 219.622 L
260.163 218.484 L
260.705 217.285 L
261.247 216.894 L
261.79 215.723 L
262.332 213.878 L
262.875 212.52 L
263.418 211.498 L
263.96 210.664 L
264.503 209.313 L
265.045 208.421 L
265.587 206.845 L
266.13 205.868 L
266.672 204.874 L
267.215 204.373 L
267.758 203.746 L
268.3 202.966 L
268.842 201.85 L
269.385 200.795 L
269.927 199.527 L
270.47 198.28 L
271.013 197.343 L
271.555 196.206 L
272.098 195.35 L
272.64 194.085 L
273.182 192.931 L
273.725 191.954 L
274.268 190.883 L
274.81 189.235 L
275.353 188.266 L
275.895 185.767 L
276.438 184.424 L
276.98 183.265 L
277.522 181.499 L
278.065 180.434 L
278.607 179.275 L
279.15 177.321 L
279.693 175.628 L
280.235 174.587 L
280.777 173.521 L
281.32 172.62 L
281.862 172.023 L
282.405 170.855 L
282.948 169.316 L
283.49 168.458 L
284.033 168.096 L
284.575 166.952 L
285.117 165.645 L
285.66 164.095 L
286.203 162.901 L
286.745 162.24 L
287.288 161.527 L
287.83 160.108 L
288.372 157.901 L
288.915 156.437 L
289.457 154.904 L
290 154.051 L
290.543 153.044 L
291.085 151.584 L
291.628 149.522 L
292.17 148.69 L
292.712 147.833 L
293.255 145.496 L
293.797 144.166 L
294.34 143.258 L
294.883 141.6 L
295.425 140.01 L
295.967 138.235 L
296.51 136.614 L
297.052 135.08 L
297.595 133.589 L
298.138 131.422 L
298.68 130.422 L
299.223 129.666 L
299.765 129.375 L
300.307 129.011 L
300.85 128.66 L
301.392 128.001 L
301.935 127.377 L
302.478 126.702 L
303.02 126.824 L
303.563 126.723 L
304.105 125.943 L
304.647 125.444 L
305.19 124.903 L
305.733 123.931 L
306.275 123.029 L
306.818 122.325 L
307.36 121.395 L
307.902 120.289 L
308.445 119.215 L
308.987 118.11 L
309.53 116.548 L
310.073 115.686 L
310.615 113.837 L
311.158 113.205 L
311.7 112.627 L
312.242 112.377 L
312.785 111.949 L
313.328 111.819 L
313.87 110.891 L
314.413 110.763 L
314.955 109.668 L
315.497 109.555 L
316.04 109.019 L
316.582 108.637 L
317.125 108.285 L
317.668 106.576 L
318.21 104.61 L
318.753 103.759 L
319.295 102.908 L
319.837 102.067 L
320.38 101.9 L
320.922 101.497 L
321.465 100.736 L
322.008 100.265 L
322.55 99.721 L
323.092 99.213 L
323.635 98.988 L
324.177 98.046 L
324.72 97.122 L
325.263 96.268 L
325.805 96.333 L
326.348 95.401 L
326.89 94.774 L
327.432 94.398 L
327.975 93.921 L
328.517 93.651 L
329.06 93.532 L
329.603 94.076 L
330.145 94.355 L
330.688 94.1 L
331.23 94.573 L
331.772 94.452 L
332.315 94.821 L
332.858 94.192 L
333.4 93.631 L
333.943 92.883 L
334.485 92.716 L
335.027 92.047 L
335.57 91.357 L
336.112 90.383 L
336.655 89.904 L
337.198 89.251 L
337.74 88.355 L
338.283 87.371 L
338.825 86.081 L
339.367 85.296 L
339.91 84.493 L
340.453 83.771 L
340.995 83.921 L
341.538 83.898 L
342.08 83.01 L
342.622 82.736 L
343.165 82.738 L
343.707 82.349 L
344.25 81.686 L
344.793 81.322 L
345.335 81.523 L
345.878 82.129 L
346.42 82.712 L
346.962 83.061 L
347.505 83.536 L
348.047 83.335 L
348.59 83.867 L
349.133 84.288 L
349.675 85.012 L
350.217 85.839 L
350.76 86.422 L
351.302 86.787 L
351.845 87.17 L
352.388 87.63 L
352.93 88.346 L
353.473 90.2 L
354.015 90.921 L
354.557 91.312 L
355.1 91.827 L
355.642 92.507 L
356.185 93.655 L
356.728 94.276 L
357.27 95.483 L
357.813 95.891 L
358.355 96.407 L
358.897 97.378 L
359.44 97.838 L
359.983 98.508 L
360.525 99.111 L
361.068 99.259 L
361.61 99.484 L
362.152 100.154 L
362.695 101.052 L
363.237 101.389 L
363.78 101.985 L
364.323 101.798 L
364.865 101.537 L
365.408 101.886 L
365.95 102.361 L
366.492 103.409 L
367.035 104.073 L
367.578 105.222 L
368.12 105.696 L
368.663 105.944 L
369.205 106.413 L
369.747 107.264 L
370.29 108.356 L
370.832 110.27 L
371.375 110.831 L
371.918 111.7 L
372.46 111.912 L
373.003 112.336 L
373.545 113.048 L
374.087 113.092 L
374.63 113.451 L
375.172 113.272 L
375.715 113.969 L
376.258 114.666 L
376.8 115.912 L
377.342 117.147 L
377.885 117.919 L
378.427 118.917 L
378.97 120.103 L
379.513 121.827 L
380.055 123.346 L
380.598 125.204 L
381.14 126.102 L
381.682 126.905 L
382.225 128.557 L
382.767 129.962 L
383.31 131.301 L
383.853 132.624 L
384.395 133.837 L
384.938 134.767 L
385.48 136.125 L
386.022 137.134 L
386.565 138.885 L
387.108 139.487 L
387.65 140.133 L
388.193 141.031 L
388.735 142.393 L
389.277 143.075 L
389.82 144.077 L
390.362 145.222 L
390.905 146.956 L
391.448 147.952 L
391.99 148.53 L
392.533 149.288 L
393.075 149.768 L
393.617 150.738 L
394.16 151.286 L
394.703 152.284 L
395.245 153.59 L
395.788 154.676 L
396.33 155.439 L
396.872 156.58 L
397.415 157.035 L
397.957 157.358 L
398.5 157.937 L
399.043 159.136 L
399.585 160.263 L
400.128 161.692 L
400.67 162.879 L
401.212 163.608 L
401.755 165.796 L
402.297 167.271 L
402.84 168.18 L
403.383 169.026 L
403.925 169.82 L
404.467 170.812 L
405.01 172.278 L
405.552 172.965 L
406.095 173.713 L
406.638 174.337 L
407.18 174.584 L
407.723 175.13 L
408.265 175.8 L
408.807 176.315 L
409.35 177.074 L
409.893 177.739 L
410.435 178.466 L
410.978 179.508 L
411.52 180.356 L
412.063 181.228 L
412.605 181.796 L
413.147 183.137 L
413.69 183.881 L
414.232 184.789 L
414.775 185.034 L
415.318 186.064 L
415.86 186.966 L
416.402 187.692 L
416.945 189.251 L
417.487 190.387 L
418.03 191.201 L
418.573 192.183 L
419.115 193.176 L
419.658 193.876 L
420.2 195.548 L
420.742 196.628 L
421.285 197.644 L
421.828 198.521 L
422.37 199.737 L
422.913 200.82 L
423.455 201.804 L
423.997 202.956 L
424.54 204.423 L
425.082 206.492 L
425.625 207.873 L
426.168 208.815 L
426.71 209.657 L
427.253 210.925 L
427.795 212.244 L
428.337 213.768 L
428.88 215.175 L
429.422 215.863 L
429.965 216.681 L
430.508 217.101 L
431.05 218.155 L
431.592 219.473 L
432.135 220.592 L
432.677 221.594 L
433.22 222.196 L
433.763 223.035 L
434.305 224.562 L
434.848 226.081 L
435.39 228.09 L
435.932 229.707 L
436.475 231.844 L
437.018 233.54 L
437.56 235.275 L
438.103 237.26 L
438.645 238.689 L
439.188 239.879 L
439.73 241.235 L
440.272 243.763 L
440.815 246.345 L
441.357 248.412 L
441.9 250.233 L
442.443 251.213 L
442.985 252.878 L
443.527 256.047 L
444.07 257.203 L
444.612 258.257 L
445.155 265.401 L
445.698 272.258 L
446.24 286.557 L
446.783 298.313 L
447.325 313.249 L
447.867 318.581 L
448.41 323.996 L
448.952 333.93 L
449.495 334.424 L
450.038 335.623 L
450.58 337.173 L
451.122 338.595 L
451.665 340.072 L
452.207 342.372 L
452.75 343.637 L
453.293 344.907 L
453.835 346.301 L
454.378 347.654 L
454.92 348.81 L
455.462 349.278 L
456.005 349.685 L
456.548 350.176 L
457.09 350.738 L
457.633 350.974 L
458.175 351.367 L
458.717 351.844 L
459.26 352.272 L
459.802 352.69 L
460.345 353.491 L
460.888 354.092 L
461.43 354.697 L
461.973 355.031 L
462.515 355.645 L
463.057 356.299 L
463.6 356.982 L
464.143 357.477 L
464.685 357.838 L
465.228 358.372 L
465.77 359.724 L
466.313 359.939 L
466.855 360.438 L
467.397 361.703 L
467.94 363.624 L
468.482 364.057 L
469.025 365.833 L
469.568 367.694 L
470.11 368.481 L
470.652 369.548 L
471.195 371.178 L
471.737 371.449 L
472.28 372.085 L
472.823 373.166 L
473.365 373.867 L
473.457 374.041 L
S
GR
GS
[0.75 0 0 0.75 0 0] CT
1 LJ
0.667 LW
N
125.137 328.621 M
125.68 328.794 L
126.222 328.794 L
126.765 328.763 L
127.307 328.963 L
127.85 329.009 L
128.392 329.069 L
128.935 328.973 L
129.477 329.024 L
130.02 329.004 L
130.562 329.159 L
131.105 329.221 L
131.647 329.152 L
132.19 329.161 L
132.732 329.225 L
133.275 329.331 L
133.817 329.399 L
134.36 329.493 L
134.902 329.621 L
135.445 329.749 L
135.987 330.084 L
136.53 330.113 L
137.072 330.299 L
137.615 330.276 L
138.157 330.38 L
138.7 330.433 L
139.242 330.553 L
139.785 330.663 L
140.327 330.677 L
140.87 330.647 L
141.412 330.818 L
141.955 330.774 L
142.497 330.792 L
143.04 330.792 L
143.582 330.886 L
144.125 330.849 L
144.667 330.851 L
145.21 330.858 L
145.752 330.912 L
146.295 330.758 L
146.837 330.612 L
147.38 330.517 L
147.922 330.425 L
148.465 330.262 L
149.007 330.086 L
149.55 330.135 L
150.092 330.013 L
150.635 329.91 L
151.177 329.893 L
151.72 329.66 L
152.262 329.445 L
152.805 329.481 L
153.347 329.121 L
153.89 329.092 L
154.432 329 L
154.975 328.891 L
155.517 328.83 L
156.06 328.68 L
156.602 328.594 L
157.145 328.598 L
157.687 328.588 L
158.23 328.672 L
158.772 328.743 L
159.315 328.793 L
159.857 328.744 L
160.4 328.76 L
160.942 328.667 L
161.485 328.844 L
162.027 328.74 L
162.57 328.889 L
163.112 328.923 L
163.655 328.866 L
164.197 329.027 L
164.74 329.178 L
165.282 329.172 L
165.825 329.346 L
166.367 329.357 L
166.91 329.45 L
167.452 329.519 L
167.995 329.733 L
168.537 329.822 L
169.08 329.868 L
169.622 329.983 L
170.165 330.057 L
170.707 329.864 L
171.25 329.75 L
171.792 329.924 L
172.335 330.021 L
172.877 329.815 L
173.42 329.98 L
173.962 329.709 L
174.505 329.532 L
175.047 329.148 L
175.59 329.199 L
176.132 329.352 L
176.675 329.119 L
177.217 328.594 L
177.76 327.737 L
178.302 327.225 L
178.845 325.689 L
179.387 324.926 L
179.93 322.993 L
180.472 321.931 L
181.015 322.317 L
181.557 322.548 L
182.1 322.758 L
182.642 322.787 L
183.185 322.691 L
183.727 322.916 L
184.27 323.35 L
184.812 323.931 L
185.355 324.21 L
185.897 324.375 L
186.44 324.579 L
186.982 324.288 L
187.525 323.877 L
188.067 323.736 L
188.61 323.78 L
189.152 323.251 L
189.695 323.273 L
190.237 323.542 L
190.78 323.327 L
191.322 323.005 L
191.865 322.778 L
192.407 322.646 L
192.95 322.731 L
193.492 322.163 L
194.035 321.879 L
194.577 321.696 L
195.12 321.666 L
195.662 321.361 L
196.205 320.798 L
196.747 320.319 L
197.29 319.829 L
197.832 319.01 L
198.375 318.393 L
198.917 317.361 L
199.46 316.965 L
200.002 316.611 L
200.545 315.803 L
201.087 314.999 L
201.63 314.409 L
202.172 313.995 L
202.715 313.598 L
203.257 312.848 L
203.8 312.132 L
204.342 311.621 L
204.885 311.342 L
205.427 311.04 L
205.97 310.743 L
206.512 310.476 L
207.055 309.928 L
207.597 308.911 L
208.14 308.675 L
208.682 308.387 L
209.225 308.282 L
209.767 307.961 L
210.31 307.42 L
210.852 306.756 L
211.395 306.398 L
211.937 306.06 L
212.48 305.551 L
213.022 304.999 L
213.565 304.495 L
214.107 303.767 L
214.65 303.289 L
215.192 302.868 L
215.735 302.237 L
216.277 301.616 L
216.82 301.346 L
217.362 300.539 L
217.905 299.934 L
218.447 299.348 L
218.99 298.682 L
219.532 296.864 L
220.075 295.756 L
220.617 294.732 L
221.16 293.8 L
221.702 293.025 L
222.245 292.482 L
222.787 291.788 L
223.33 290.636 L
223.872 289.685 L
224.415 288.645 L
224.957 287.97 L
225.5 287.399 L
226.042 286.135 L
226.585 285.316 L
227.127 284.895 L
227.67 284.359 L
228.212 283.557 L
228.755 282.083 L
229.297 280.811 L
229.84 279.775 L
230.382 278.979 L
230.925 278.281 L
231.467 277.402 L
232.01 276.108 L
232.552 275.643 L
233.095 275.005 L
233.637 274.6 L
234.18 274.082 L
234.722 273.67 L
235.265 273.275 L
235.807 272.921 L
236.35 272.332 L
236.892 271.984 L
237.435 271.276 L
237.977 270.605 L
238.52 270.146 L
239.062 269.827 L
239.605 269.66 L
240.147 268.78 L
240.69 268.248 L
241.232 267.115 L
241.775 265.669 L
242.317 264.78 L
242.86 263.003 L
243.402 261.171 L
243.945 259.957 L
244.487 257.493 L
245.03 255.544 L
245.572 254.146 L
246.115 252.62 L
246.657 250.528 L
247.2 248.73 L
247.742 247.519 L
248.285 245.985 L
248.827 244.784 L
249.37 243.623 L
249.912 242.371 L
250.455 240.518 L
250.997 239.104 L
251.54 238.25 L
252.082 237.377 L
252.625 235.868 L
253.167 234.354 L
253.71 232.586 L
254.252 231.595 L
254.795 230.689 L
255.337 229.377 L
255.88 228.574 L
256.422 227.284 L
256.965 225.541 L
257.507 224.705 L
258.05 223.198 L
258.592 222.188 L
259.135 220.625 L
259.677 219.334 L
260.22 218.266 L
260.762 217.021 L
261.305 216.003 L
261.847 214.827 L
262.39 213.411 L
262.932 212.035 L
263.475 210.967 L
264.017 210.366 L
264.56 210.225 L
265.102 209.288 L
265.645 208.599 L
266.187 207.621 L
266.73 206.754 L
267.272 206.292 L
267.815 205.733 L
268.357 205.509 L
268.9 204.964 L
269.442 203.598 L
269.985 202.957 L
270.527 201.757 L
271.07 200.449 L
271.612 199.721 L
272.155 198.388 L
272.697 196.915 L
273.24 196.049 L
273.782 194.551 L
274.325 193.337 L
274.867 192.487 L
275.41 191.207 L
275.952 190.102 L
276.495 189.171 L
277.037 187.64 L
277.58 186.453 L
278.122 185.779 L
278.665 185.277 L
279.207 184.018 L
279.75 182.852 L
280.292 181.979 L
280.835 181.316 L
281.377 179.952 L
281.92 177.869 L
282.462 177.548 L
283.005 176.145 L
283.547 174.949 L
284.09 174.634 L
284.632 173.795 L
285.175 173.236 L
285.717 172.276 L
286.26 171.834 L
286.802 171.52 L
287.345 170.973 L
287.887 170.361 L
288.43 170.066 L
288.972 168.92 L
289.515 167.667 L
290.057 166.229 L
290.6 164.944 L
291.142 164.166 L
291.685 162.142 L
292.227 159.978 L
292.77 157.991 L
293.312 155.795 L
293.855 153.692 L
294.397 152.146 L
294.94 150.837 L
295.482 149.117 L
296.025 147.361 L
296.567 145.168 L
297.11 142.674 L
297.652 140.924 L
298.195 139.988 L
298.737 138.354 L
299.28 137.242 L
299.822 136.034 L
300.365 134.316 L
300.907 133.01 L
301.45 131.61 L
301.992 130.774 L
302.535 129.728 L
303.077 128.522 L
303.62 127.393 L
304.162 126.54 L
304.705 125.789 L
305.247 124.459 L
305.79 123.004 L
306.332 122.185 L
306.875 121.629 L
307.417 120.843 L
307.96 119.559 L
308.502 119.127 L
309.045 118.347 L
309.587 117.996 L
310.13 118.253 L
310.672 118.406 L
311.215 118.024 L
311.757 116.598 L
312.3 116.191 L
312.842 115.834 L
313.385 115.44 L
313.927 115.548 L
314.47 115.468 L
315.012 114.161 L
315.555 113.953 L
316.097 113.78 L
316.64 113.494 L
317.182 113.478 L
317.725 112.405 L
318.267 112.279 L
318.81 112.305 L
319.352 112.189 L
319.895 110.863 L
320.437 109.593 L
320.98 108.605 L
321.522 107.555 L
322.065 104.978 L
322.607 103.629 L
323.15 102.113 L
323.692 100.445 L
324.235 99.303 L
324.777 98.751 L
325.32 97.956 L
325.862 97.915 L
326.405 97.34 L
326.947 96.618 L
327.49 96.125 L
328.032 96.648 L
328.575 97.111 L
329.117 97.254 L
329.66 96.752 L
330.202 96.734 L
330.745 96.883 L
331.287 97.136 L
331.83 97.075 L
332.372 97.234 L
332.915 98.204 L
333.457 99.116 L
334 99.475 L
334.542 99.926 L
335.085 99.97 L
335.627 99.274 L
336.17 98.987 L
336.712 98.419 L
337.255 97.526 L
337.797 95.998 L
338.34 93.612 L
338.882 91.667 L
339.425 90.403 L
339.967 88.271 L
340.51 87.361 L
341.052 86.075 L
341.595 86.139 L
342.137 85.684 L
342.68 85.807 L
343.222 86.086 L
343.765 86.229 L
344.307 86.576 L
344.85 86.422 L
345.392 86.51 L
345.935 86.643 L
346.477 86.776 L
347.02 87.29 L
347.562 87.568 L
348.105 86.458 L
348.647 87.031 L
349.19 86.408 L
349.732 85.877 L
350.275 85.58 L
350.817 85.329 L
351.36 84.208 L
351.902 83.517 L
352.445 83.291 L
352.987 82.89 L
353.53 83.104 L
354.072 82.767 L
354.615 82.405 L
355.157 83.226 L
355.7 84.034 L
356.242 84.273 L
356.785 84.849 L
357.327 85.766 L
357.87 86.478 L
358.412 87.587 L
358.955 88.434 L
359.497 88.856 L
360.04 89.368 L
360.582 89.782 L
361.125 90.465 L
361.667 91.771 L
362.21 92.452 L
362.752 93.364 L
363.295 94.193 L
363.837 95.386 L
364.38 96.706 L
364.922 98.291 L
365.465 99.5 L
366.007 100.397 L
366.55 100.406 L
367.092 100.528 L
367.635 101.134 L
368.177 101.625 L
368.72 100.549 L
369.262 99.672 L
369.805 99.677 L
370.347 99.496 L
370.89 99.305 L
371.432 99.694 L
371.975 100.663 L
372.517 101.543 L
373.06 102.239 L
373.602 102.717 L
374.145 104.238 L
374.687 106.924 L
375.23 108.155 L
375.772 110.345 L
376.315 111.141 L
376.857 112.295 L
377.4 112.856 L
377.942 113.778 L
378.485 114.554 L
379.027 115.091 L
379.57 115.802 L
380.112 116.219 L
380.655 117.089 L
381.197 117.634 L
381.74 118.55 L
382.282 119.807 L
382.825 120.759 L
383.367 121.745 L
383.91 123.081 L
384.452 124.129 L
384.995 124.938 L
385.537 126.131 L
386.08 127.712 L
386.622 129.566 L
387.165 131.105 L
387.707 132.271 L
388.25 133.92 L
388.792 136.036 L
389.335 137.317 L
389.877 137.638 L
390.42 138.318 L
390.962 139.752 L
391.505 140.835 L
392.047 141.618 L
392.59 142.544 L
393.132 143.566 L
393.675 145.511 L
394.217 146.787 L
394.76 147.783 L
395.302 148.488 L
395.845 149.613 L
396.387 150.607 L
396.93 152.042 L
397.472 153.934 L
398.015 155.084 L
398.557 155.662 L
399.1 156.469 L
399.642 157.186 L
400.185 158.452 L
400.727 159.579 L
401.27 160.475 L
401.812 161.328 L
402.355 162.604 L
402.897 163.822 L
403.44 164.854 L
403.982 166.125 L
404.525 167.46 L
405.067 168.544 L
405.61 169.471 L
406.152 170.959 L
406.695 172.141 L
407.237 172.827 L
407.78 174.092 L
408.322 175.054 L
408.865 175.664 L
409.407 176.357 L
409.95 177.597 L
410.492 178.453 L
411.035 179.78 L
411.577 180.292 L
412.12 181.084 L
412.662 181.169 L
413.205 182.251 L
413.747 182.827 L
414.29 183.209 L
414.832 184.176 L
415.375 184.857 L
415.917 185.585 L
416.46 186.318 L
417.002 186.761 L
417.545 187.632 L
418.087 188.98 L
418.63 190.245 L
419.172 191.287 L
419.715 192.402 L
420.257 193.952 L
420.8 195.155 L
421.342 196.567 L
421.885 197.543 L
422.427 197.93 L
422.97 198.824 L
423.512 199.287 L
424.055 200.797 L
424.597 201.425 L
425.14 202.015 L
425.682 202.317 L
426.225 203.023 L
426.767 204.287 L
427.31 205.016 L
427.852 205.969 L
428.395 206.433 L
428.937 207.797 L
429.48 209.418 L
430.022 210.77 L
430.565 212.435 L
431.107 213.327 L
431.65 214.025 L
432.192 214.626 L
432.735 216.355 L
433.277 217.37 L
433.82 218.202 L
434.362 219.243 L
434.905 219.93 L
435.447 221.35 L
435.99 222.875 L
436.532 224.234 L
437.075 225.403 L
437.617 226.137 L
438.16 226.805 L
438.702 228.052 L
439.245 229.285 L
439.787 230.624 L
440.33 232.993 L
440.872 234.301 L
441.415 235.434 L
441.957 236.785 L
442.5 238.19 L
443.042 240.622 L
443.585 243.426 L
444.127 244.42 L
444.67 245.796 L
445.212 246.782 L
445.755 248.535 L
446.297 249.876 L
446.84 251.728 L
447.382 253.686 L
447.925 255.682 L
448.467 257.262 L
449.01 258.201 L
449.552 259.765 L
450.095 260.617 L
450.637 261.394 L
451.18 265.357 L
451.722 269.092 L
452.265 271.001 L
452.807 274.602 L
453.35 281.403 L
453.892 289.883 L
454.435 296.638 L
454.977 306.899 L
455.52 312.239 L
456.062 317.711 L
456.605 328.16 L
457.147 333.301 L
457.69 338.584 L
458.232 339.544 L
458.775 340.252 L
459.317 340.941 L
459.86 342.539 L
460.402 345.405 L
460.945 348.054 L
461.487 350.577 L
462.03 351.879 L
462.572 353.129 L
463.115 355.513 L
463.657 357.727 L
464.2 360.034 L
464.742 362.284 L
465.285 362.652 L
465.827 364.491 L
466.37 366.645 L
466.912 366.92 L
467.455 368.291 L
467.997 368.608 L
468.54 368.844 L
469.082 369.264 L
469.625 369.423 L
470.167 369.744 L
470.71 370.03 L
471.252 370.471 L
471.795 370.693 L
472.337 370.956 L
472.88 371.318 L
473.422 371.568 L
473.965 371.767 L
474.507 371.94 L
475.05 372.146 L
475.592 372.553 L
476.135 372.765 L
476.677 372.928 L
477.22 373.241 L
477.762 373.393 L
478.305 373.833 L
478.847 373.925 L
479.076 374.041 L
S
GR
GS
[0.75 0 0 0.75 156.46875 87.5625] CT
/Helvetica 13.333 F
GS
[1 0 0 1 0 0] CT
0 5.5 moveto 
1 -1 scale
(Superior Retina) t 
GR
GR
GS
[0.75 0 0 0.75 319.21875 87.5625] CT
/Helvetica 13.333 F
GS
[1 0 0 1 0 0] CT
0 5.5 moveto 
1 -1 scale
(Inferior Retina) t 
GR
GR
GS
[0.75 0 0 0.75 0 0] CT
1 GC
N
496 78 M
496 42 L
419 42 L
419 78 L
cp
f
GR
GS
[0.75 0 0 0.75 349.5 38.89726] CT
/Helvetica 12 F
GS
[1 0 0 1 0 0] CT
0 5 moveto 
1 -1 scale
(PCD) t 
GR
GR
GS
[0.75 0 0 0.75 0 0] CT
1 LJ
0.667 LW
N
423 51.863 M
463 51.863 L
S
GR
GS
[0.75 0 0 0.75 349.5 51.10274] CT
/Helvetica 12 F
GS
[1 0 0 1 0 0] CT
0 5 moveto 
1 -1 scale
(CDC) t 
GR
GR
GS
[0.75 0 0 0.75 0 0] CT
1 LJ
0.667 LW
N
423 68.137 M
463 68.137 L
S
GR
GS
[0.75 0 0 0.75 0 0] CT
10.0 ML
0.667 LW
N
419 78 M
419 42 L
496 42 L
496 78 L
cp
S
GR
%%Trailer
%%Pages: 1
%%EOF
