%!PS-Adobe-3.0 EPSF-3.0
%%Creator: (MATLAB, The Mathworks, Inc. Version 9.11.0.1837725 \(R2021b\) Update 2. Operating System: Windows 10)
%%Title: C:/Users/ruccilab/Documents/adaptiveoptics/ConeDesity/APLab_System/data/ConeTaggingTraining/Distribution/tagger6_VertDist.eps
%%CreationDate: 2023-06-23T09:59:13
%%Pages: (atend)
%%BoundingBox:    19     3   413   306
%%LanguageLevel: 3
%%EndComments
%%BeginProlog
%%BeginResource: procset (Apache XML Graphics Std ProcSet) 1.2 0
%%Version: 1.2 0
%%Copyright: (Copyright 2001-2003,2010 The Apache Software Foundation. License terms: http://www.apache.org/licenses/LICENSE-2.0)
/bd{bind def}bind def
/ld{load def}bd
/GR/grestore ld
/GS/gsave ld
/RM/rmoveto ld
/C/curveto ld
/t/show ld
/L/lineto ld
/ML/setmiterlimit ld
/CT/concat ld
/f/fill ld
/N/newpath ld
/S/stroke ld
/CC/setcmykcolor ld
/A/ashow ld
/cp/closepath ld
/RC/setrgbcolor ld
/LJ/setlinejoin ld
/GC/setgray ld
/LW/setlinewidth ld
/M/moveto ld
/re {4 2 roll M
1 index 0 rlineto
0 exch rlineto
neg 0 rlineto
cp } bd
/_ctm matrix def
/_tm matrix def
/BT { _ctm currentmatrix pop matrix _tm copy pop 0 0 moveto } bd
/ET { _ctm setmatrix } bd
/iTm { _ctm setmatrix _tm concat } bd
/Tm { _tm astore pop iTm 0 0 moveto } bd
/ux 0.0 def
/uy 0.0 def
/F {
  /Tp exch def
  /Tf exch def
  Tf findfont Tp scalefont setfont
  /cf Tf def  /cs Tp def
} bd
/ULS {currentpoint /uy exch def /ux exch def} bd
/ULE {
  /Tcx currentpoint pop def
  gsave
  newpath
  cf findfont cs scalefont dup
  /FontMatrix get 0 get /Ts exch def /FontInfo get dup
  /UnderlinePosition get Ts mul /To exch def
  /UnderlineThickness get Ts mul /Tt exch def
  ux uy To add moveto  Tcx uy To add lineto
  Tt setlinewidth stroke
  grestore
} bd
/OLE {
  /Tcx currentpoint pop def
  gsave
  newpath
  cf findfont cs scalefont dup
  /FontMatrix get 0 get /Ts exch def /FontInfo get dup
  /UnderlinePosition get Ts mul /To exch def
  /UnderlineThickness get Ts mul /Tt exch def
  ux uy To add cs add moveto Tcx uy To add cs add lineto
  Tt setlinewidth stroke
  grestore
} bd
/SOE {
  /Tcx currentpoint pop def
  gsave
  newpath
  cf findfont cs scalefont dup
  /FontMatrix get 0 get /Ts exch def /FontInfo get dup
  /UnderlinePosition get Ts mul /To exch def
  /UnderlineThickness get Ts mul /Tt exch def
  ux uy To add cs 10 mul 26 idiv add moveto Tcx uy To add cs 10 mul 26 idiv add lineto
  Tt setlinewidth stroke
  grestore
} bd
/QT {
/Y22 exch store
/X22 exch store
/Y21 exch store
/X21 exch store
currentpoint
/Y21 load 2 mul add 3 div exch
/X21 load 2 mul add 3 div exch
/X21 load 2 mul /X22 load add 3 div
/Y21 load 2 mul /Y22 load add 3 div
/X22 load /Y22 load curveto
} bd
/SSPD {
dup length /d exch dict def
{
/v exch def
/k exch def
currentpagedevice k known {
/cpdv currentpagedevice k get def
v cpdv ne {
/upd false def
/nullv v type /nulltype eq def
/nullcpdv cpdv type /nulltype eq def
nullv nullcpdv or
{
/upd true def
} {
/sametype v type cpdv type eq def
sametype {
v type /arraytype eq {
/vlen v length def
/cpdvlen cpdv length def
vlen cpdvlen eq {
0 1 vlen 1 sub {
/i exch def
/obj v i get def
/cpdobj cpdv i get def
obj cpdobj ne {
/upd true def
exit
} if
} for
} {
/upd true def
} ifelse
} {
v type /dicttype eq {
v {
/dv exch def
/dk exch def
/cpddv cpdv dk get def
dv cpddv ne {
/upd true def
exit
} if
} forall
} {
/upd true def
} ifelse
} ifelse
} if
} ifelse
upd true eq {
d k v put
} if
} if
} if
} forall
d length 0 gt {
d setpagedevice
} if
} bd
/RE { % /NewFontName [NewEncodingArray] /FontName RE -
  findfont dup length dict begin
  {
    1 index /FID ne
    {def} {pop pop} ifelse
  } forall
  /Encoding exch def
  /FontName 1 index def
  currentdict definefont pop
  end
} bind def
%%EndResource
%%BeginResource: procset (Apache XML Graphics EPS ProcSet) 1.0 0
%%Version: 1.0 0
%%Copyright: (Copyright 2002-2003 The Apache Software Foundation. License terms: http://www.apache.org/licenses/LICENSE-2.0)
/BeginEPSF { %def
/b4_Inc_state save def         % Save state for cleanup
/dict_count countdictstack def % Count objects on dict stack
/op_count count 1 sub def      % Count objects on operand stack
userdict begin                 % Push userdict on dict stack
/showpage { } def              % Redefine showpage, { } = null proc
0 setgray 0 setlinecap         % Prepare graphics state
1 setlinewidth 0 setlinejoin
10 setmiterlimit [ ] 0 setdash newpath
/languagelevel where           % If level not equal to 1 then
{pop languagelevel             % set strokeadjust and
1 ne                           % overprint to their defaults.
{false setstrokeadjust false setoverprint
} if
} if
} bd
/EndEPSF { %def
count op_count sub {pop} repeat            % Clean up stacks
countdictstack dict_count sub {end} repeat
b4_Inc_state restore
} bd
%%EndResource
%FOPBeginFontDict
%%IncludeResource: font Courier-Oblique
%%IncludeResource: font Courier-BoldOblique
%%IncludeResource: font Courier-Bold
%%IncludeResource: font ZapfDingbats
%%IncludeResource: font Symbol
%%IncludeResource: font Helvetica
%%IncludeResource: font Helvetica-Oblique
%%IncludeResource: font Helvetica-Bold
%%IncludeResource: font Helvetica-BoldOblique
%%IncludeResource: font Times-Roman
%%IncludeResource: font Times-Italic
%%IncludeResource: font Times-Bold
%%IncludeResource: font Times-BoldItalic
%%IncludeResource: font Courier
%FOPEndFontDict
%%BeginResource: encoding WinAnsiEncoding
/WinAnsiEncoding [
/.notdef /.notdef /.notdef /.notdef /.notdef
/.notdef /.notdef /.notdef /.notdef /.notdef
/.notdef /.notdef /.notdef /.notdef /.notdef
/.notdef /.notdef /.notdef /.notdef /.notdef
/.notdef /.notdef /.notdef /.notdef /.notdef
/.notdef /.notdef /.notdef /.notdef /.notdef
/.notdef /.notdef /space /exclam /quotedbl
/numbersign /dollar /percent /ampersand /quotesingle
/parenleft /parenright /asterisk /plus /comma
/hyphen /period /slash /zero /one
/two /three /four /five /six
/seven /eight /nine /colon /semicolon
/less /equal /greater /question /at
/A /B /C /D /E
/F /G /H /I /J
/K /L /M /N /O
/P /Q /R /S /T
/U /V /W /X /Y
/Z /bracketleft /backslash /bracketright /asciicircum
/underscore /quoteleft /a /b /c
/d /e /f /g /h
/i /j /k /l /m
/n /o /p /q /r
/s /t /u /v /w
/x /y /z /braceleft /bar
/braceright /asciitilde /bullet /Euro /bullet
/quotesinglbase /florin /quotedblbase /ellipsis /dagger
/daggerdbl /circumflex /perthousand /Scaron /guilsinglleft
/OE /bullet /Zcaron /bullet /bullet
/quoteleft /quoteright /quotedblleft /quotedblright /bullet
/endash /emdash /asciitilde /trademark /scaron
/guilsinglright /oe /bullet /zcaron /Ydieresis
/space /exclamdown /cent /sterling /currency
/yen /brokenbar /section /dieresis /copyright
/ordfeminine /guillemotleft /logicalnot /sfthyphen /registered
/macron /degree /plusminus /twosuperior /threesuperior
/acute /mu /paragraph /middot /cedilla
/onesuperior /ordmasculine /guillemotright /onequarter /onehalf
/threequarters /questiondown /Agrave /Aacute /Acircumflex
/Atilde /Adieresis /Aring /AE /Ccedilla
/Egrave /Eacute /Ecircumflex /Edieresis /Igrave
/Iacute /Icircumflex /Idieresis /Eth /Ntilde
/Ograve /Oacute /Ocircumflex /Otilde /Odieresis
/multiply /Oslash /Ugrave /Uacute /Ucircumflex
/Udieresis /Yacute /Thorn /germandbls /agrave
/aacute /acircumflex /atilde /adieresis /aring
/ae /ccedilla /egrave /eacute /ecircumflex
/edieresis /igrave /iacute /icircumflex /idieresis
/eth /ntilde /ograve /oacute /ocircumflex
/otilde /odieresis /divide /oslash /ugrave
/uacute /ucircumflex /udieresis /yacute /thorn
/ydieresis
] def
%%EndResource
%FOPBeginFontReencode
/Courier-Oblique findfont
dup length dict begin
  {1 index /FID ne {def} {pop pop} ifelse} forall
  /Encoding WinAnsiEncoding def
  currentdict
end
/Courier-Oblique exch definefont pop
/Courier-BoldOblique findfont
dup length dict begin
  {1 index /FID ne {def} {pop pop} ifelse} forall
  /Encoding WinAnsiEncoding def
  currentdict
end
/Courier-BoldOblique exch definefont pop
/Courier-Bold findfont
dup length dict begin
  {1 index /FID ne {def} {pop pop} ifelse} forall
  /Encoding WinAnsiEncoding def
  currentdict
end
/Courier-Bold exch definefont pop
/Helvetica findfont
dup length dict begin
  {1 index /FID ne {def} {pop pop} ifelse} forall
  /Encoding WinAnsiEncoding def
  currentdict
end
/Helvetica exch definefont pop
/Helvetica-Oblique findfont
dup length dict begin
  {1 index /FID ne {def} {pop pop} ifelse} forall
  /Encoding WinAnsiEncoding def
  currentdict
end
/Helvetica-Oblique exch definefont pop
/Helvetica-Bold findfont
dup length dict begin
  {1 index /FID ne {def} {pop pop} ifelse} forall
  /Encoding WinAnsiEncoding def
  currentdict
end
/Helvetica-Bold exch definefont pop
/Helvetica-BoldOblique findfont
dup length dict begin
  {1 index /FID ne {def} {pop pop} ifelse} forall
  /Encoding WinAnsiEncoding def
  currentdict
end
/Helvetica-BoldOblique exch definefont pop
/Times-Roman findfont
dup length dict begin
  {1 index /FID ne {def} {pop pop} ifelse} forall
  /Encoding WinAnsiEncoding def
  currentdict
end
/Times-Roman exch definefont pop
/Times-Italic findfont
dup length dict begin
  {1 index /FID ne {def} {pop pop} ifelse} forall
  /Encoding WinAnsiEncoding def
  currentdict
end
/Times-Italic exch definefont pop
/Times-Bold findfont
dup length dict begin
  {1 index /FID ne {def} {pop pop} ifelse} forall
  /Encoding WinAnsiEncoding def
  currentdict
end
/Times-Bold exch definefont pop
/Times-BoldItalic findfont
dup length dict begin
  {1 index /FID ne {def} {pop pop} ifelse} forall
  /Encoding WinAnsiEncoding def
  currentdict
end
/Times-BoldItalic exch definefont pop
/Courier findfont
dup length dict begin
  {1 index /FID ne {def} {pop pop} ifelse} forall
  /Encoding WinAnsiEncoding def
  currentdict
end
/Courier exch definefont pop
%FOPEndFontReencode
%%EndProlog
%%Page: 1 1
%%PageBoundingBox: 0 0 420 315
%%BeginPageSetup
[1 0 0 -1 0 315] CT
%%EndPageSetup
GS
[0.75 0 0 0.75 0 0] CT
1 GC
N
0 0 560 420 re
f
GR
GS
[0.75 0 0 0.75 0 0] CT
1 GC
N
0 0 560 420 re
f
GR
GS
[0.75 0 0 0.75 0 0] CT
1 GC
N
73 374 M
507 374 L
507 31 L
73 31 L
cp
f
GR
GS
[0.75 0 0 0.75 0 0] CT
2 setlinecap
1 LJ
0.667 LW
N
73 374 M
507 374 L
S
GR
GS
[0.75 0 0 0.75 0 0] CT
2 setlinecap
1 LJ
0.667 LW
N
73 374 M
73 369.66 L
S
GR
GS
[0.75 0 0 0.75 0 0] CT
2 setlinecap
1 LJ
0.667 LW
N
145.333 374 M
145.333 369.66 L
S
GR
GS
[0.75 0 0 0.75 0 0] CT
2 setlinecap
1 LJ
0.667 LW
N
217.667 374 M
217.667 369.66 L
S
GR
GS
[0.75 0 0 0.75 0 0] CT
2 setlinecap
1 LJ
0.667 LW
N
290 374 M
290 369.66 L
S
GR
GS
[0.75 0 0 0.75 0 0] CT
2 setlinecap
1 LJ
0.667 LW
N
362.333 374 M
362.333 369.66 L
S
GR
GS
[0.75 0 0 0.75 0 0] CT
2 setlinecap
1 LJ
0.667 LW
N
434.667 374 M
434.667 369.66 L
S
GR
GS
[0.75 0 0 0.75 0 0] CT
2 setlinecap
1 LJ
0.667 LW
N
507 374 M
507 369.66 L
S
GR
GS
[0.75 0 0 0.75 54.75 284.50001] CT
/Helvetica 13.333 F
GS
[1 0 0 1 0 0] CT
-10 14 moveto 
1 -1 scale
(-40) t 
GR
GR
GS
[0.75 0 0 0.75 109 284.50001] CT
/Helvetica 13.333 F
GS
[1 0 0 1 0 0] CT
-10 14 moveto 
1 -1 scale
(-30) t 
GR
GR
GS
[0.75 0 0 0.75 163.25 284.50001] CT
/Helvetica 13.333 F
GS
[1 0 0 1 0 0] CT
-10 14 moveto 
1 -1 scale
(-20) t 
GR
GR
GS
[0.75 0 0 0.75 217.5 284.50001] CT
/Helvetica 13.333 F
GS
[1 0 0 1 0 0] CT
-10 14 moveto 
1 -1 scale
(-10) t 
GR
GR
GS
[0.75 0 0 0.75 271.75001 284.50001] CT
/Helvetica 13.333 F
GS
[1 0 0 1 0 0] CT
-4 14 moveto 
1 -1 scale
(0) t 
GR
GR
GS
[0.75 0 0 0.75 325.99999 284.50001] CT
/Helvetica 13.333 F
GS
[1 0 0 1 0 0] CT
-7.5 14 moveto 
1 -1 scale
(10) t 
GR
GR
GS
[0.75 0 0 0.75 380.25 284.50001] CT
/Helvetica 13.333 F
GS
[1 0 0 1 0 0] CT
-7.5 14 moveto 
1 -1 scale
(20) t 
GR
GR
GS
[0.75 0 0 0.75 217.50016 298.24999] CT
/Helvetica 14.667 F
GS
[1 0 0 1 0 0] CT
-66.5 15 moveto 
1 -1 scale
(Eccentricity \(arcmin\)) t 
GR
GR
GS
[0.75 0 0 0.75 0 0] CT
2 setlinecap
1 LJ
0.667 LW
N
73 374 M
73 31 L
S
GR
GS
[0.75 0 0 0.75 0 0] CT
2 setlinecap
1 LJ
0.667 LW
N
73 374 M
77.34 374 L
S
GR
GS
[0.75 0 0 0.75 0 0] CT
2 setlinecap
1 LJ
0.667 LW
N
73 316.833 M
77.34 316.833 L
S
GR
GS
[0.75 0 0 0.75 0 0] CT
2 setlinecap
1 LJ
0.667 LW
N
73 259.667 M
77.34 259.667 L
S
GR
GS
[0.75 0 0 0.75 0 0] CT
2 setlinecap
1 LJ
0.667 LW
N
73 202.5 M
77.34 202.5 L
S
GR
GS
[0.75 0 0 0.75 0 0] CT
2 setlinecap
1 LJ
0.667 LW
N
73 145.333 M
77.34 145.333 L
S
GR
GS
[0.75 0 0 0.75 0 0] CT
2 setlinecap
1 LJ
0.667 LW
N
73 88.167 M
77.34 88.167 L
S
GR
GS
[0.75 0 0 0.75 0 0] CT
2 setlinecap
1 LJ
0.667 LW
N
73 31 M
77.34 31 L
S
GR
GS
[0.75 0 0 0.75 50.75 280.5] CT
/Helvetica 13.333 F
GS
[1 0 0 1 0 0] CT
-19 5.5 moveto 
1 -1 scale
(0.6) t 
GR
GR
GS
[0.75 0 0 0.75 50.75 237.62501] CT
/Helvetica 13.333 F
GS
[1 0 0 1 0 0] CT
-19 5.5 moveto 
1 -1 scale
(0.8) t 
GR
GR
GS
[0.75 0 0 0.75 50.75 194.74999] CT
/Helvetica 13.333 F
GS
[1 0 0 1 0 0] CT
-8 5.5 moveto 
1 -1 scale
(1) t 
GR
GR
GS
[0.75 0 0 0.75 50.75 151.875] CT
/Helvetica 13.333 F
GS
[1 0 0 1 0 0] CT
-19 5.5 moveto 
1 -1 scale
(1.2) t 
GR
GR
GS
[0.75 0 0 0.75 50.75 109] CT
/Helvetica 13.333 F
GS
[1 0 0 1 0 0] CT
-19 5.5 moveto 
1 -1 scale
(1.4) t 
GR
GR
GS
[0.75 0 0 0.75 50.75 66.125] CT
/Helvetica 13.333 F
GS
[1 0 0 1 0 0] CT
-19 5.5 moveto 
1 -1 scale
(1.6) t 
GR
GR
GS
[0.75 0 0 0.75 50.75 23.25] CT
/Helvetica 13.333 F
GS
[1 0 0 1 0 0] CT
-19 5.5 moveto 
1 -1 scale
(1.8) t 
GR
GR
GS
[0 -0.75 0.75 0 30.75 225.75] CT
/Helvetica 14.667 F
GS
[1 0 0 1 0 0] CT
0 0 moveto 
1 -1 scale
(Cone Density \(cones/degree) t 
GR
GR
GS
[0 -0.75 0.75 0 25.5 86.25] CT
/Helvetica 11.733 F
GS
[1 0 0 1 0 0] CT
0 0 moveto 
1 -1 scale
(2) t 
GR
GR
GS
[0 -0.75 0.75 0 30.75 81] CT
/Helvetica 14.667 F
GS
[1 0 0 1 0 0] CT
0 0 moveto 
1 -1 scale
(\)) t 
GR
GR
GS
[0.75 0 0 0.75 54.75 21] CT
N
1.906 -0.375 M
1.906 -0.469 1.969 -0.563 QT
4.672 -3.25 L
1.969 -5.953 L
1.906 -6.016 1.906 -6.125 QT
1.906 -6.219 1.984 -6.305 QT
2.063 -6.391 2.172 -6.391 QT
2.266 -6.391 2.375 -6.297 QT
5.063 -3.609 L
7.734 -6.297 L
7.844 -6.391 7.922 -6.391 QT
8.031 -6.391 8.109 -6.313 QT
8.188 -6.234 8.188 -6.125 QT
8.188 -6.016 8.125 -5.953 QT
5.422 -3.25 L
8.125 -0.563 L
8.188 -0.469 8.188 -0.375 QT
8.188 -0.266 8.109 -0.188 QT
8.031 -0.109 7.922 -0.109 QT
7.828 -0.109 7.734 -0.203 QT
5.063 -2.891 L
2.375 -0.203 L
2.266 -0.109 2.172 -0.109 QT
2.063 -0.109 1.984 -0.195 QT
1.906 -0.281 1.906 -0.375 QT
cp
f
GR
GS
[0.75 0 0 0.75 63 21] CT
/Helvetica 13.333 F
GS
[1 0 0 1 0 0] CT
0 0 moveto 
1 -1 scale
(10) t 
GR
GR
GS
[0.75 0 0 0.75 74.25 16.5] CT
/Helvetica 10.667 F
GS
[1 0 0 1 0 0] CT
0 0 moveto 
1 -1 scale
(4) t 
GR
GR
GS
[0.75 0 0 0.75 217.50021 21.18752] CT
/Helvetica-Bold 14.667 F
GS
[1 0 0 1 0 0] CT
-124 -4 moveto 
1 -1 scale
(Cone Density centered around PCD) t 
GR
GR
GS
[0.75 0 0 0.75 0 0] CT
1 LJ
0.667 LW
N
116.384 374.041 M
116.4 371.149 L
117.123 332.561 L
117.847 332.225 L
118.57 326.469 L
119.293 324.004 L
120.017 323.923 L
120.74 323.413 L
121.463 322.832 L
122.187 322.465 L
122.91 322.501 L
123.633 322.26 L
124.357 321.804 L
125.08 321.441 L
125.803 321.095 L
126.527 320.538 L
127.25 319.977 L
127.973 319.525 L
128.697 318.803 L
129.42 317.891 L
130.143 317.015 L
130.867 316.355 L
131.59 315.726 L
132.313 315.181 L
133.037 314.796 L
133.76 314.413 L
134.483 313.727 L
135.207 313.225 L
135.93 312.706 L
136.653 312.308 L
137.377 311.947 L
138.1 311.491 L
138.823 310.982 L
139.547 310.679 L
140.27 310.342 L
140.993 309.977 L
141.717 309.304 L
142.44 308.828 L
143.163 307.943 L
143.887 307.425 L
144.61 307.082 L
145.333 306.741 L
146.057 305.84 L
146.78 305.22 L
147.503 304.587 L
148.227 303.877 L
148.95 303.441 L
149.673 302.977 L
150.397 302.756 L
151.12 302.088 L
151.843 301.424 L
152.567 300.903 L
153.29 300.576 L
154.013 300.068 L
154.737 299.08 L
155.46 298.569 L
156.183 297.973 L
156.907 297.524 L
157.63 297.151 L
158.353 296.538 L
159.077 295.46 L
159.8 294.862 L
160.523 294.192 L
161.247 293.573 L
161.97 293.044 L
162.693 292.077 L
163.417 291.507 L
164.14 290.676 L
164.863 290.316 L
165.587 289.825 L
166.31 289.233 L
167.033 288.832 L
167.757 287.617 L
168.48 287.007 L
169.203 286.231 L
169.927 285.611 L
170.65 285.249 L
171.373 284.393 L
172.097 283.357 L
172.82 282.498 L
173.543 281.529 L
174.267 280.216 L
174.99 279.477 L
175.713 278.541 L
176.437 277.648 L
177.16 277.064 L
177.883 276.246 L
178.607 274.605 L
179.33 273.849 L
180.053 273.201 L
180.777 272.745 L
181.5 271.632 L
182.223 270.672 L
182.947 269.427 L
183.67 268.883 L
184.393 268.262 L
185.117 267.306 L
185.84 266.486 L
186.563 265.264 L
187.287 264.486 L
188.01 263.779 L
188.733 263.063 L
189.457 262.32 L
190.18 260.998 L
190.903 260.305 L
191.627 259.959 L
192.35 259.326 L
193.073 258.685 L
193.797 257.994 L
194.52 257.456 L
195.243 256.758 L
195.967 256.04 L
196.69 255.555 L
197.413 254.662 L
198.137 253.432 L
198.86 252.463 L
199.583 251.813 L
200.307 251.071 L
201.03 250.145 L
201.753 249.098 L
202.477 247.832 L
203.2 245.93 L
203.923 244.924 L
204.647 244.253 L
205.37 243.346 L
206.093 242.308 L
206.817 241.11 L
207.54 240.288 L
208.263 239.182 L
208.987 237.938 L
209.71 236.355 L
210.433 235.17 L
211.157 234.209 L
211.88 233.421 L
212.603 232.195 L
213.327 230.122 L
214.05 229.198 L
214.773 228.142 L
215.497 227.486 L
216.22 227.078 L
216.943 226.718 L
217.667 226.091 L
218.39 225.168 L
219.113 224.495 L
219.837 223.077 L
220.56 222.682 L
221.283 222.033 L
222.007 221.797 L
222.73 220.89 L
223.453 219.849 L
224.177 219.476 L
224.9 218.671 L
225.623 217.435 L
226.347 216.622 L
227.07 215.57 L
227.793 214.858 L
228.517 213.926 L
229.24 212.627 L
229.963 212.694 L
230.687 212.035 L
231.41 211.641 L
232.133 211.705 L
232.857 211.98 L
233.58 211.945 L
234.303 211.839 L
235.027 211.681 L
235.75 211.57 L
236.473 211.606 L
237.197 210.895 L
237.92 210.399 L
238.643 210.187 L
239.367 210.044 L
240.09 209.542 L
240.813 209.195 L
241.537 208.79 L
242.26 208.274 L
242.983 207.294 L
243.707 206.714 L
244.43 206.049 L
245.153 204.904 L
245.877 204.209 L
246.6 203.354 L
247.323 202.352 L
248.047 201.753 L
248.77 200.43 L
249.493 199.41 L
250.217 199.049 L
250.94 198.497 L
251.663 198.261 L
252.387 197.754 L
253.11 197.224 L
253.833 197.146 L
254.557 196.485 L
255.28 195.612 L
256.003 195.471 L
256.727 195.995 L
257.45 196.261 L
258.173 196.761 L
258.897 197.496 L
259.62 198.131 L
260.343 198.535 L
261.067 198.348 L
261.79 198.883 L
262.513 200.159 L
263.237 200.693 L
263.96 201.659 L
264.683 202.59 L
265.407 202.932 L
266.13 203.321 L
266.853 203.7 L
267.577 203.842 L
268.3 203.86 L
269.023 203.984 L
269.747 204.084 L
270.47 203.737 L
271.193 203.228 L
271.917 203.307 L
272.64 203.2 L
273.363 203.086 L
274.087 203.108 L
274.81 203.186 L
275.533 203.212 L
276.257 203.769 L
276.98 204.108 L
277.703 204.817 L
278.427 204.92 L
279.15 205.116 L
279.873 206.189 L
280.597 206.332 L
281.32 206.278 L
282.043 206.507 L
282.767 206.343 L
283.49 206.374 L
284.213 206.155 L
284.937 205.492 L
285.66 205.198 L
286.383 205.541 L
287.107 204.546 L
287.83 203.457 L
288.553 202.856 L
289.277 201.175 L
290 200.983 L
290.723 201.024 L
291.447 200.165 L
292.17 199.821 L
292.893 199.28 L
293.617 198.781 L
294.34 197.945 L
295.063 196.906 L
295.787 196.682 L
296.51 196.687 L
297.233 195.683 L
297.957 195.127 L
298.68 194.803 L
299.403 194.962 L
300.127 194.461 L
300.85 193.596 L
301.573 192.339 L
302.297 191.911 L
303.02 191.392 L
303.743 191.337 L
304.467 191.179 L
305.19 190.971 L
305.913 190.976 L
306.637 190.857 L
307.36 190.882 L
308.083 190.704 L
308.807 190.808 L
309.53 191.276 L
310.253 191.018 L
310.977 190.348 L
311.7 189.113 L
312.423 188.082 L
313.147 187.495 L
313.87 186.805 L
314.593 186.638 L
315.317 185.363 L
316.04 183.493 L
316.763 182.501 L
317.487 182.027 L
318.21 181.593 L
318.933 180.678 L
319.657 179.455 L
320.38 178.48 L
321.103 177.662 L
321.827 177.113 L
322.55 176.473 L
323.273 175.241 L
323.997 174.84 L
324.72 174.482 L
325.443 173.612 L
326.167 172.978 L
326.89 172.607 L
327.613 172.093 L
328.337 171.652 L
329.06 170.74 L
329.783 169.872 L
330.507 168.964 L
331.23 168.59 L
331.953 167.309 L
332.677 166.757 L
333.4 165.774 L
334.123 165.015 L
334.847 164.091 L
335.57 162.81 L
336.293 161.644 L
337.017 161.198 L
337.74 160.521 L
338.463 159.275 L
339.187 157.379 L
339.91 156.298 L
340.633 155.715 L
341.357 154.274 L
342.08 153.956 L
342.803 153.2 L
343.527 152.669 L
344.25 152.079 L
344.973 151.686 L
345.697 151.372 L
346.42 150.938 L
347.143 150.415 L
347.867 150.089 L
348.59 150.387 L
349.313 150.091 L
350.037 150.108 L
350.76 150.111 L
351.483 149.957 L
352.207 150.035 L
352.93 148.926 L
353.653 148.288 L
354.377 147.772 L
355.1 146.941 L
355.823 145.814 L
356.547 145.056 L
357.27 144.174 L
357.993 143.329 L
358.717 141.743 L
359.44 141.05 L
360.163 140.494 L
360.887 139.937 L
361.61 139.358 L
362.333 139.67 L
363.057 139.881 L
363.78 140.364 L
364.503 140.634 L
365.227 141.625 L
365.95 142.257 L
366.673 142.944 L
367.397 143.977 L
368.12 145.38 L
368.843 146.533 L
369.567 147.503 L
370.29 148.345 L
371.013 149.451 L
371.737 150.063 L
372.46 151.063 L
373.183 151.553 L
373.907 152.017 L
374.63 153.149 L
375.353 154.18 L
376.077 155.528 L
376.8 156.572 L
377.523 157.467 L
378.247 158.662 L
378.97 160.807 L
379.693 161.601 L
380.417 163.161 L
381.14 164.292 L
381.863 165.528 L
382.587 166.423 L
383.31 168.474 L
384.033 169.998 L
384.757 170.842 L
385.48 171.583 L
386.203 173.345 L
386.927 175.051 L
387.65 176.325 L
388.373 177.331 L
389.097 178.799 L
389.82 180.288 L
390.543 182.261 L
391.267 183.652 L
391.99 184.421 L
392.713 185.52 L
393.437 187.433 L
394.16 189.194 L
394.883 190.298 L
395.607 191.454 L
396.33 193.268 L
397.053 194.748 L
397.777 195.554 L
398.5 196.115 L
399.223 196.864 L
399.947 197.97 L
400.67 199.282 L
401.393 200.189 L
402.117 201.046 L
402.84 201.402 L
403.563 201.914 L
404.287 203.374 L
405.01 203.928 L
405.733 204.559 L
406.457 205.074 L
407.18 206.329 L
407.903 207.631 L
408.627 208.679 L
409.35 209.124 L
410.073 210.34 L
410.797 211.598 L
411.52 212.533 L
412.243 212.32 L
412.967 212.594 L
413.69 213.346 L
414.413 214.92 L
415.137 215.631 L
415.86 216.238 L
416.583 216.73 L
417.307 217.156 L
418.03 218.057 L
418.753 218.569 L
419.477 219.385 L
420.2 219.563 L
420.923 219.842 L
421.647 220.667 L
422.37 220.931 L
423.093 221.425 L
423.817 221.825 L
424.54 222.437 L
425.263 223.244 L
425.987 223.996 L
426.71 224.818 L
427.433 225.493 L
428.157 226.543 L
428.88 227.683 L
429.603 228.627 L
430.327 229.556 L
431.05 230.199 L
431.773 231.171 L
432.497 232.304 L
433.22 233.22 L
433.943 236.004 L
434.667 251.373 L
435.39 258.108 L
436.113 276.842 L
436.837 302.945 L
437.56 319.125 L
438.283 352.585 L
438.757 374.041 L
S
GR
GS
[0.75 0 0 0.75 0 0] CT
1 LJ
0.667 LW
N
150.878 374.041 M
150.887 372.939 L
151.61 355.606 L
152.334 324.487 L
153.057 323.746 L
153.78 320.642 L
154.504 319.933 L
155.227 319.88 L
155.95 319.646 L
156.674 319.695 L
157.397 319.441 L
158.12 319.099 L
158.844 318.646 L
159.567 318.551 L
160.29 318.433 L
161.014 318.315 L
161.737 318.277 L
162.46 317.607 L
163.184 316.974 L
163.907 316.305 L
164.63 315.944 L
165.354 315.621 L
166.077 315.261 L
166.8 314.855 L
167.524 314.403 L
168.247 313.69 L
168.97 312.996 L
169.694 312.386 L
170.417 311.729 L
171.14 311 L
171.864 310.446 L
172.587 309.691 L
173.31 309.056 L
174.034 308.244 L
174.757 307.614 L
175.48 306.813 L
176.204 306.361 L
176.927 305.859 L
177.65 305.2 L
178.374 304.495 L
179.097 304.074 L
179.82 303.065 L
180.544 302.247 L
181.267 301.611 L
181.99 300.662 L
182.714 300.21 L
183.437 299.265 L
184.16 298.534 L
184.884 298.157 L
185.607 297.169 L
186.33 296.563 L
187.054 296.048 L
187.777 295.849 L
188.5 295.32 L
189.224 294.722 L
189.947 294.329 L
190.67 293.539 L
191.394 293.043 L
192.117 292.755 L
192.84 292.339 L
193.564 291.961 L
194.287 291.606 L
195.01 291.1 L
195.734 290.533 L
196.457 289.743 L
197.18 289.007 L
197.904 288.18 L
198.627 287.107 L
199.35 286.319 L
200.074 285.03 L
200.797 284.173 L
201.52 283.818 L
202.244 283.037 L
202.967 282.322 L
203.69 281.796 L
204.414 280.484 L
205.137 279.744 L
205.86 279.01 L
206.584 278.657 L
207.307 277.841 L
208.03 276.793 L
208.754 276.267 L
209.477 276.139 L
210.2 275.693 L
210.924 275.07 L
211.647 274.616 L
212.37 274.234 L
213.094 273.904 L
213.817 273.566 L
214.54 272.816 L
215.264 272.209 L
215.987 271.619 L
216.71 270.899 L
217.434 270.13 L
218.157 269.351 L
218.88 268.377 L
219.604 267.755 L
220.327 267.257 L
221.05 266.801 L
221.774 266.526 L
222.497 265.388 L
223.22 264.506 L
223.944 264.205 L
224.667 263.837 L
225.39 263.402 L
226.114 262.912 L
226.837 262.278 L
227.56 261.477 L
228.284 261.214 L
229.007 260.82 L
229.73 260.199 L
230.454 259.77 L
231.177 259.298 L
231.9 258.765 L
232.624 258.242 L
233.347 258.014 L
234.07 257.417 L
234.794 256.48 L
235.517 255.943 L
236.24 255.233 L
236.964 254.421 L
237.687 253.308 L
238.41 252.734 L
239.134 252.236 L
239.857 251.634 L
240.58 250.896 L
241.304 249.984 L
242.027 248.836 L
242.75 248.123 L
243.474 247.043 L
244.197 245.419 L
244.92 244.389 L
245.644 242.995 L
246.367 241.97 L
247.09 241.01 L
247.814 240.021 L
248.537 239.092 L
249.26 238.723 L
249.984 238.038 L
250.707 237.225 L
251.43 236.03 L
252.154 235.191 L
252.877 234.423 L
253.6 233.605 L
254.324 232.893 L
255.047 232.475 L
255.77 232.053 L
256.494 231.318 L
257.217 230.096 L
257.94 229.409 L
258.664 229.264 L
259.387 228.413 L
260.11 227.485 L
260.834 226.479 L
261.557 225.807 L
262.28 224.729 L
263.004 224.009 L
263.727 223.113 L
264.45 222.259 L
265.174 221.977 L
265.897 220.974 L
266.62 220.505 L
267.344 220.376 L
268.067 220.004 L
268.79 219.311 L
269.514 219.12 L
270.237 218.187 L
270.96 217.264 L
271.684 216.818 L
272.407 216.925 L
273.13 216.567 L
273.854 216.124 L
274.577 215.821 L
275.3 215.539 L
276.024 215.18 L
276.747 215.003 L
277.47 215.189 L
278.194 215.959 L
278.917 215.97 L
279.64 215.588 L
280.364 214.468 L
281.087 214.27 L
281.81 214.141 L
282.534 213.802 L
283.257 213.897 L
283.98 213.921 L
284.704 213.97 L
285.427 213.745 L
286.15 213.178 L
286.874 212.809 L
287.597 212.102 L
288.32 211.67 L
289.044 210.811 L
289.767 210.091 L
290.49 209.436 L
291.214 208.972 L
291.937 209.066 L
292.66 208.728 L
293.384 208.139 L
294.107 207.014 L
294.83 206.88 L
295.554 205.705 L
296.277 204.998 L
297 205.119 L
297.724 206.001 L
298.447 206.241 L
299.17 205.936 L
299.894 206.201 L
300.617 207.308 L
301.34 208.234 L
302.064 208.767 L
302.787 209.414 L
303.51 210.084 L
304.234 209.707 L
304.957 209.635 L
305.68 209.34 L
306.404 209.793 L
307.127 210.13 L
307.85 210.095 L
308.574 210.568 L
309.297 211.053 L
310.02 211.507 L
310.744 211.9 L
311.467 212.134 L
312.19 212.454 L
312.914 212.957 L
313.637 213.238 L
314.36 213.015 L
315.084 213.204 L
315.807 214.04 L
316.53 213.879 L
317.254 214.356 L
317.977 214.565 L
318.7 214.476 L
319.424 214.488 L
320.147 214.577 L
320.87 213.597 L
321.594 213.432 L
322.317 212.708 L
323.04 213.022 L
323.764 213.196 L
324.487 212.771 L
325.21 212.004 L
325.934 212.316 L
326.657 211.921 L
327.38 211.001 L
328.104 209.858 L
328.827 209.618 L
329.55 209.596 L
330.274 208.984 L
330.997 208.752 L
331.72 207.944 L
332.444 207.823 L
333.167 206.872 L
333.89 206.186 L
334.614 206.094 L
335.337 205.936 L
336.06 205.893 L
336.784 206.03 L
337.507 205.831 L
338.23 204.79 L
338.954 203.213 L
339.677 202.266 L
340.4 201.755 L
341.124 201.449 L
341.847 201.103 L
342.57 200.711 L
343.294 198.887 L
344.017 198.212 L
344.74 196.827 L
345.464 195.443 L
346.187 194.462 L
346.91 192.663 L
347.634 191.282 L
348.357 189.952 L
349.08 188.715 L
349.804 187.596 L
350.527 186.749 L
351.25 184.752 L
351.974 183.241 L
352.697 182.088 L
353.42 181.445 L
354.144 180.844 L
354.867 179.482 L
355.59 177.314 L
356.314 176.955 L
357.037 176.375 L
357.76 175.838 L
358.484 174.435 L
359.207 173.616 L
359.93 172.518 L
360.654 171.376 L
361.377 170.97 L
362.1 170.683 L
362.824 169.63 L
363.547 169.356 L
364.27 168.833 L
364.994 168.682 L
365.717 168.475 L
366.44 168.099 L
367.164 167.575 L
367.887 167.206 L
368.61 166.188 L
369.334 164.973 L
370.057 164.091 L
370.78 163.71 L
371.504 163.241 L
372.227 162.3 L
372.95 161.876 L
373.674 161.495 L
374.397 161.342 L
375.12 161.378 L
375.844 160.361 L
376.567 160.048 L
377.29 160.385 L
378.014 160.472 L
378.737 159.96 L
379.46 159.658 L
380.184 160.011 L
380.907 159.845 L
381.63 159.05 L
382.354 158.228 L
383.077 157.446 L
383.8 157.108 L
384.524 156.881 L
385.247 155.997 L
385.97 154.518 L
386.694 153.856 L
387.417 153.324 L
388.14 152.288 L
388.864 151.869 L
389.587 150.722 L
390.31 149.927 L
391.034 149.492 L
391.757 149.168 L
392.48 148.49 L
393.204 147.524 L
393.927 147.497 L
394.65 147.703 L
395.374 147.964 L
396.097 148.115 L
396.82 147.956 L
397.544 147.706 L
398.267 148.075 L
398.99 148.407 L
399.714 148.746 L
400.437 148.828 L
401.16 149.17 L
401.884 149.838 L
402.607 150.25 L
403.33 150.657 L
404.054 151.826 L
404.777 153.219 L
405.5 153.978 L
406.224 154.429 L
406.947 155.016 L
407.67 156.228 L
408.394 157.048 L
409.117 157.563 L
409.84 158.089 L
410.564 159.404 L
411.287 160.825 L
412.01 161.677 L
412.734 162.367 L
413.457 163.407 L
414.18 164.728 L
414.904 165.686 L
415.627 166.905 L
416.35 167.239 L
417.074 168.171 L
417.797 169.023 L
418.52 170.059 L
419.244 171.101 L
419.967 172.569 L
420.69 173.801 L
421.414 175.427 L
422.137 175.888 L
422.86 176.884 L
423.584 178.203 L
424.307 180.105 L
425.03 181.006 L
425.754 181.711 L
426.477 182.278 L
427.2 182.723 L
427.924 183.967 L
428.647 184.761 L
429.37 185.972 L
430.094 186.535 L
430.817 187.811 L
431.54 189.316 L
432.264 189.952 L
432.987 191.161 L
433.71 192.177 L
434.434 192.546 L
435.157 192.863 L
435.88 193.417 L
436.604 194.261 L
437.327 194.822 L
438.05 196.097 L
438.774 196.878 L
439.497 197.443 L
440.22 197.963 L
440.944 199.719 L
441.667 200.089 L
442.39 200.637 L
443.114 201.539 L
443.837 203.47 L
444.56 203.997 L
445.284 204.398 L
446.007 204.719 L
446.73 205.11 L
447.454 206.501 L
448.177 207.191 L
448.9 207.8 L
449.624 208.483 L
450.347 208.769 L
451.07 210.059 L
451.794 210.908 L
452.517 211.133 L
453.24 211.419 L
453.964 212.207 L
454.687 213.177 L
455.41 214.176 L
456.134 214.828 L
456.857 215.088 L
457.58 215.527 L
458.304 216.637 L
459.027 218.104 L
459.75 218.89 L
460.474 219.656 L
461.197 220.238 L
461.92 221.523 L
462.644 222.801 L
463.367 223.673 L
464.09 224.976 L
464.814 225.531 L
465.537 226.37 L
466.26 227.481 L
466.984 228.577 L
467.707 229.23 L
468.43 230.372 L
469.154 231.502 L
469.877 233.771 L
470.6 270.333 L
471.324 328.983 L
471.63 374.041 L
S
GR
GS
[0.75 0 0 0.75 136.125 87.5625] CT
/Helvetica 13.333 F
GS
[1 0 0 1 0 0] CT
0 5.5 moveto 
1 -1 scale
(Superior Retina) t 
GR
GR
GS
[0.75 0 0 0.75 353.12501 87.5625] CT
/Helvetica 13.333 F
GS
[1 0 0 1 0 0] CT
0 5.5 moveto 
1 -1 scale
(Inferior Retina) t 
GR
GR
GS
[0.75 0 0 0.75 0 0] CT
1 GC
N
496 78 M
496 42 L
419 42 L
419 78 L
cp
f
GR
GS
[0.75 0 0 0.75 349.5 38.89726] CT
/Helvetica 12 F
GS
[1 0 0 1 0 0] CT
0 5 moveto 
1 -1 scale
(PCD) t 
GR
GR
GS
[0.75 0 0 0.75 0 0] CT
1 LJ
0.667 LW
N
423 51.863 M
463 51.863 L
S
GR
GS
[0.75 0 0 0.75 349.5 51.10274] CT
/Helvetica 12 F
GS
[1 0 0 1 0 0] CT
0 5 moveto 
1 -1 scale
(CDC) t 
GR
GR
GS
[0.75 0 0 0.75 0 0] CT
1 LJ
0.667 LW
N
423 68.137 M
463 68.137 L
S
GR
GS
[0.75 0 0 0.75 0 0] CT
10.0 ML
0.667 LW
N
419 78 M
419 42 L
496 42 L
496 78 L
cp
S
GR
%%Trailer
%%Pages: 1
%%EOF
