7	49
7	71
7	101
7	177
7	184
7	200
7	206
7	219
7	249
7	284
7	343
7	367
7	372
7	388
7	394
7	414
7	430
7	461
7	479
7	489
7	496
7	502
7	517
7	541
7	549
7	561
8	26
8	61
8	77
8	93
8	109
8	124
8	136
8	143
8	152
8	160
8	168
8	191
8	213
8	237
8	258
8	269
8	277
8	303
8	324
8	379
8	452
8	511
9	21
9	30
9	54
9	118
9	131
9	148
9	164
9	224
9	230
9	242
9	264
9	293
9	311
9	332
9	445
9	469
9	472
9	534
9	554
10	47
10	73
10	82
10	98
10	105
10	155
10	187
10	203
10	272
10	316
10	355
10	361
10	384
10	396
10	404
10	418
10	437
10	459
10	476
10	522
10	527
10	544
11	40
11	89
11	140
11	245
11	249
11	285
11	337
11	429
11	483
11	515
11	566
12	20
12	65
12	76
12	184
12	320
12	324
12	345
12	376
12	407
12	558
13	30
13	59
13	96
13	101
13	136
13	157
13	169
13	175
13	208
13	229
13	370
13	424
13	489
13	504
14	24
14	34
14	52
14	72
14	110
14	118
14	143
14	191
14	201
14	253
14	261
14	265
14	281
14	288
14	334
14	392
14	399
14	403
14	445
14	451
14	464
14	495
14	549
14	555
14	568
15	93
15	125
15	150
15	163
15	215
15	222
15	234
15	294
15	306
15	318
15	330
15	340
15	348
15	382
15	410
15	415
15	435
15	457
15	469
15	510
15	537
16	48
16	64
16	87
16	134
16	240
16	325
16	419
16	429
16	474
16	482
16	519
17	14
17	28
17	56
17	80
17	116
17	139
17	170
17	175
17	196
17	258
17	355
17	407
17	551
18	7
18	122
18	158
18	181
18	190
18	203
18	209
18	231
18	248
18	299
18	335
18	369
18	377
18	396
18	516
18	532
18	561
19	38
19	52
19	70
19	103
19	109
19	127
19	154
19	274
19	294
19	389
19	400
19	452
19	460
19	495
19	539
20	43
20	96
20	186
20	215
20	220
20	311
20	439
20	487
20	528
21	80
21	147
21	163
21	227
21	239
21	262
21	268
21	279
21	306
21	319
21	342
21	384
21	463
21	501
21	545
22	20
22	25
22	33
22	61
22	76
22	86
22	101
22	119
22	135
22	159
22	169
22	178
22	290
22	324
22	332
22	351
22	363
22	390
22	418
22	446
22	473
22	479
22	493
22	518
22	533
22	568
22	594
23	8
23	109
23	128
23	194
23	202
23	206
23	211
23	217
23	235
23	253
23	284
23	297
23	367
23	372
23	379
23	397
23	412
23	523
23	539
23	555
23	561
23	577
23	589
24	15
24	38
24	55
24	68
24	104
24	122
24	189
24	275
24	345
24	435
24	551
25	43
25	91
25	97
25	136
25	141
25	153
25	241
25	248
25	259
25	305
25	311
25	315
25	329
25	358
25	402
25	423
25	430
25	476
25	487
26	6
26	21
26	29
26	35
26	65
26	78
26	112
26	170
26	181
26	218
26	225
26	300
26	338
26	385
26	393
26	406
26	439
26	500
26	510
26	533
26	541
27	50
27	74
27	85
27	117
27	125
27	131
27	147
27	158
27	202
27	230
27	265
27	351
27	361
27	370
27	378
27	413
27	418
27	461
27	477
27	481
27	495
27	549
27	582
27	587
28	59
28	101
28	164
28	176
28	185
28	209
28	215
28	234
28	245
28	250
28	334
28	466
28	504
28	519
28	556
28	565
28	593
29	12
29	45
29	108
29	141
29	197
29	221
29	257
29	272
29	277
29	289
29	316
29	323
29	345
29	403
29	426
29	441
29	448
29	456
29	490
29	524
29	539
30	19
30	30
30	39
30	81
30	89
30	189
30	239
30	283
30	296
30	307
30	328
30	367
30	374
30	435
30	514
30	546
31	71
31	93
31	104
31	112
31	118
31	124
31	135
31	146
31	152
31	156
31	229
31	267
31	350
31	357
31	363
31	380
31	387
31	407
31	411
31	420
31	452
31	460
31	471
31	533
31	552
31	573
32	24
32	48
32	67
32	97
32	129
32	163
32	170
32	181
32	194
32	207
32	244
32	251
32	310
32	340
32	396
32	415
32	443
32	466
32	477
32	484
33	7
33	12
33	84
33	176
33	185
33	212
33	217
33	224
33	262
33	301
33	333
33	383
33	392
33	401
33	494
33	500
33	507
33	569
33	591
34	33
34	53
34	75
34	200
34	255
34	279
34	344
34	431
34	447
34	480
34	526
34	539
35	39
35	58
35	118
35	124
35	155
35	190
35	236
35	247
35	271
35	283
35	295
35	317
35	322
35	339
35	424
35	440
35	456
35	462
35	512
35	518
35	532
35	551
35	558
36	16
36	46
36	65
36	70
36	132
36	136
36	141
36	146
36	159
36	181
36	195
36	206
36	267
36	306
36	350
36	367
36	373
36	378
36	388
36	407
36	411
36	418
36	467
36	490
36	546
36	574
37	79
37	85
37	91
37	97
37	104
37	110
37	151
37	166
37	172
37	186
37	211
37	221
37	229
37	242
37	251
37	256
37	262
37	290
37	384
37	396
37	522
37	569
38	28
38	114
38	129
38	216
38	301
38	327
38	357
38	362
38	433
38	450
38	460
38	474
38	484
38	542
38	563
38	580
38	584
38	593
39	51
39	75
39	124
39	276
39	312
39	318
39	331
39	402
39	422
39	479
39	514
39	533
40	38
40	45
40	70
40	101
40	107
40	144
40	159
40	176
40	183
40	190
40	196
40	202
40	226
40	232
40	236
40	258
40	281
40	296
40	323
40	338
40	344
40	371
40	387
40	392
40	408
40	427
40	439
40	456
40	495
40	502
40	551
41	32
41	59
41	82
41	117
41	137
41	154
41	169
41	210
41	271
41	286
41	306
41	349
41	353
41	366
41	376
41	445
41	467
41	472
41	508
41	521
42	13
42	23
42	66
42	96
42	150
42	221
42	246
42	252
42	264
42	360
42	417
42	528
42	540
42	548
42	556
42	586
43	8
43	40
43	48
43	86
43	90
43	129
43	141
43	164
43	174
43	180
43	215
43	268
43	292
43	300
43	313
43	380
43	462
43	480
43	537
43	563
43	594
44	73
44	100
44	111
44	122
44	187
44	192
44	206
44	234
44	240
44	274
44	318
44	329
44	355
44	386
44	397
44	431
44	436
44	490
44	502
45	18
45	53
45	77
45	107
45	144
45	158
45	197
45	225
45	230
45	244
45	254
45	261
45	282
45	287
45	308
45	323
45	338
45	341
45	349
45	369
45	392
45	405
45	411
45	420
45	424
45	447
45	454
45	483
45	514
45	544
46	26
46	59
46	82
46	115
46	136
46	218
46	277
46	334
46	361
46	374
46	469
46	507
46	520
46	569
46	573
47	67
47	89
47	151
47	165
47	170
47	203
47	248
47	253
47	294
47	346
47	353
47	401
47	441
47	459
47	476
47	524
47	551
48	31
48	42
48	72
48	95
48	102
48	130
48	177
48	183
48	208
48	236
48	264
48	269
48	301
48	314
48	320
48	378
48	383
48	415
48	452
48	464
48	486
48	530
48	534
48	540
48	561
48	581
49	38
49	48
49	56
49	108
49	125
49	140
49	148
49	157
49	189
49	211
49	229
49	240
49	308
49	326
49	330
49	358
49	365
49	389
49	395
49	423
49	431
49	437
49	496
49	556
50	21
50	121
50	136
50	197
50	223
50	243
50	254
50	258
50	275
50	297
50	336
50	371
50	406
50	420
50	508
50	565
50	576
51	7
51	15
51	68
51	77
51	85
51	90
51	97
51	144
51	152
51	162
51	166
51	206
51	216
51	249
51	280
51	291
51	311
51	340
51	411
51	426
51	514
52	26
52	45
52	115
52	175
52	192
52	286
52	301
52	318
52	352
52	356
52	362
52	369
52	376
52	445
52	456
52	461
52	477
52	482
52	488
52	502
52	520
52	545
52	592
53	41
53	61
53	108
53	124
53	130
53	148
53	180
53	201
53	232
53	237
53	268
53	322
53	333
53	346
53	399
53	416
53	451
53	494
53	526
53	534
53	540
53	567
53	572
53	586
54	50
54	57
54	102
54	158
54	186
54	209
54	263
54	274
54	380
54	384
54	390
54	394
54	440
54	511
54	531
54	550
54	554
55	10
55	17
55	65
55	137
55	165
55	197
55	217
55	226
55	244
55	281
55	290
55	296
55	316
55	327
55	340
55	373
55	403
55	423
55	466
55	471
55	505
55	559
55	577
56	24
56	29
56	73
56	80
56	92
56	97
56	119
56	126
56	142
56	170
56	192
56	221
56	253
56	258
56	305
56	310
56	337
56	343
56	349
56	354
56	361
56	366
56	410
56	430
56	436
56	456
56	488
56	565
57	100
57	113
57	154
57	203
57	235
57	321
57	377
57	382
57	398
57	462
58	43
58	47
58	53
58	61
58	107
58	176
58	181
58	187
58	208
58	248
58	269
58	276
58	300
58	331
58	387
58	407
58	416
58	444
58	477
58	483
58	512
58	516
58	522
58	545
58	561
59	35
59	68
59	82
59	88
59	213
59	228
59	284
59	294
59	352
59	371
59	402
59	451
59	471
59	494
59	528
59	539
59	553
59	571
59	576
60	8
60	76
60	94
60	122
60	137
60	148
60	167
60	172
60	194
60	199
60	239
60	244
60	252
60	259
60	289
60	316
60	344
60	393
60	422
60	501
60	567
61	32
61	104
61	118
61	158
61	223
61	309
61	320
61	325
61	357
61	427
61	434
61	440
61	458
61	464
61	532
62	26
62	39
62	65
62	73
62	99
62	111
62	130
62	143
62	164
62	178
62	184
62	189
62	205
62	231
62	267
62	279
62	305
62	334
62	364
62	382
62	409
62	447
62	454
62	508
62	578
63	11
63	53
63	80
63	89
63	134
63	209
63	218
63	249
63	284
63	299
63	340
63	350
63	376
63	397
63	476
63	557
63	564
63	593
64	19
64	46
64	58
64	68
64	149
64	236
64	257
64	294
64	329
64	371
64	404
64	444
64	462
64	469
64	488
64	502
64	516
64	535
64	541
64	546
64	588
65	95
65	113
65	118
65	124
65	169
65	176
65	195
65	215
65	228
65	246
65	262
65	274
65	314
65	322
65	379
65	386
65	391
65	481
65	493
65	528
65	553
65	575
65	583
66	29
66	39
66	77
66	108
66	154
66	172
66	206
66	240
66	308
66	346
66	360
66	421
66	426
66	437
66	441
66	458
66	522
66	570
67	84
67	100
67	160
67	181
67	223
67	251
67	268
67	290
67	352
67	401
67	415
67	431
67	447
67	451
67	534
67	561
68	7
68	11
68	24
68	49
68	54
68	64
68	73
68	145
68	165
68	199
68	210
68	231
68	281
68	286
68	365
68	370
68	408
68	466
68	552
69	18
69	81
69	90
69	97
69	127
69	132
69	138
69	188
69	219
69	236
69	257
69	299
69	313
69	318
69	342
69	394
69	473
69	480
69	512
69	581
69	593
70	112
70	116
70	121
70	151
70	156
70	177
70	194
70	204
70	225
70	294
70	325
70	338
70	358
70	377
70	383
70	389
70	421
70	443
70	456
70	484
70	492
70	499
70	518
70	585
71	34
71	39
71	59
71	70
71	103
71	142
71	170
71	181
71	230
71	247
71	272
71	278
71	332
71	348
71	363
71	401
71	426
71	437
71	461
71	479
71	505
71	524
71	531
71	557
71	567
71	575
72	27
72	44
72	87
72	107
72	147
72	162
72	166
72	216
72	253
72	267
72	285
72	290
72	304
72	386
72	396
72	537
72	543
72	550
73	8
73	15
73	76
73	82
73	94
73	100
73	129
73	175
73	209
73	241
73	261
73	310
73	368
73	379
73	404
73	449
73	467
74	22
74	53
74	133
74	138
74	191
74	198
74	221
74	257
74	326
74	342
74	352
74	374
74	400
74	411
74	415
74	432
74	475
74	512
74	562
74	581
74	590
75	118
75	123
75	152
75	159
75	185
75	236
75	250
75	297
75	313
75	319
75	336
75	361
75	420
75	453
75	479
75	495
75	501
75	506
75	557
76	64
76	73
76	114
76	145
76	180
76	231
76	276
76	282
76	287
76	292
76	330
76	349
76	371
76	382
76	391
76	404
76	424
76	443
76	484
76	490
76	515
76	528
77	43
77	59
77	90
77	97
77	103
77	108
77	129
77	165
77	215
77	225
77	270
77	307
77	325
77	357
77	366
77	429
77	437
77	457
77	463
77	521
77	544
77	552
77	594
78	18
78	28
78	67
78	78
78	85
78	134
78	148
78	172
78	195
78	203
78	265
78	302
78	448
78	534
78	539
78	559
78	572
78	579
78	583
79	8
79	12
79	36
79	47
79	157
79	185
79	190
79	210
79	220
79	254
79	260
79	346
79	386
79	412
79	468
79	474
79	565
80	40
80	80
80	124
80	141
80	153
80	161
80	199
80	235
80	241
80	276
80	288
80	312
80	319
80	352
80	366
80	377
80	397
80	405
80	418
80	482
80	493
80	512
80	590
81	53
81	59
81	63
81	94
81	112
81	118
81	129
81	180
81	225
81	230
81	247
81	281
81	295
81	335
81	372
81	382
81	425
81	441
81	453
81	489
81	499
81	525
81	548
81	555
82	73
82	82
82	89
82	105
82	166
82	176
82	193
82	270
82	328
82	390
82	435
82	458
82	537
83	24
83	49
83	100
83	145
83	159
83	170
83	216
83	257
83	263
83	307
83	333
83	360
83	377
83	408
83	505
83	518
83	530
83	559
83	573
83	579
83	593
84	17
84	67
84	132
84	138
84	187
84	205
84	251
84	274
84	299
84	317
84	341
84	349
84	353
84	370
84	402
84	415
84	446
84	471
84	487
84	492
84	583
85	30
85	36
85	44
85	55
85	85
85	119
85	126
85	150
85	183
85	199
85	235
85	240
85	245
85	279
85	284
85	323
85	337
85	345
85	393
85	419
85	428
85	440
85	454
85	464
85	478
85	502
85	565
86	8
86	79
86	92
86	98
86	105
86	155
86	219
86	229
86	267
86	310
86	331
86	434
86	514
86	553
86	573
87	59
87	65
87	74
87	146
87	163
87	178
87	189
87	193
87	211
87	224
87	261
87	289
87	293
87	303
87	314
87	328
87	364
87	387
87	407
87	520
87	541
87	547
87	579
88	50
88	69
88	113
88	167
88	172
88	197
88	249
88	255
88	274
88	349
88	413
88	460
88	534
89	21
89	88
89	95
89	117
89	123
89	129
89	215
89	244
89	335
89	339
89	358
89	382
89	399
89	450
89	468
89	489
89	507
89	560
89	566
90	12
90	29
90	39
90	55
90	107
90	153
90	181
90	186
90	203
90	233
90	239
90	265
90	271
90	278
90	285
90	316
90	321
90	344
90	371
90	376
90	442
90	455
90	474
90	481
90	494
90	526
90	572
91	7
91	44
91	77
91	84
91	101
91	135
91	141
91	209
91	259
91	306
91	326
91	354
91	364
91	418
91	431
91	437
91	536
91	592
92	60
92	70
92	149
92	157
92	175
92	191
92	219
92	291
92	300
92	393
92	409
92	424
92	447
92	472
92	518
92	530
92	582
93	23
93	50
93	65
93	90
93	113
93	170
93	196
93	224
93	270
93	332
93	338
93	347
93	358
93	386
93	403
93	464
93	499
93	544
93	551
93	557
94	29
94	40
94	95
94	127
94	163
94	184
94	214
94	230
94	235
94	244
94	248
94	254
94	275
94	311
94	369
94	379
94	459
94	512
94	565
95	10
95	16
95	35
95	72
95	102
95	107
95	120
95	132
95	138
95	144
95	180
95	204
95	240
95	264
95	280
95	295
95	374
95	427
95	434
95	479
95	488
95	505
95	539
95	571
96	61
96	84
96	154
96	159
96	189
96	225
96	286
96	300
96	301
96	306
96	319
96	326
96	331
96	341
96	351
96	362
96	415
96	421
96	442
96	453
96	493
96	533
96	562
96	594
97	45
97	56
97	77
97	174
97	198
97	201
97	210
97	220
97	259
97	315
97	372
97	396
97	409
97	476
97	517
97	525
97	545
97	551
97	578
98	26
98	90
98	96
98	163
98	168
98	184
98	193
98	244
98	253
98	270
98	345
98	358
98	385
98	391
98	401
98	447
98	470
98	499
98	556
98	573
99	7
99	15
99	20
99	34
99	39
99	49
99	65
99	104
99	111
99	122
99	128
99	206
99	216
99	237
99	249
99	282
99	290
99	378
99	425
99	457
99	538
99	567
99	584
100	44
100	83
100	99
100	117
100	136
100	143
100	179
100	264
100	275
100	295
100	305
100	311
100	315
100	322
100	335
100	352
100	366
100	412
100	431
100	440
100	461
100	474
100	479
100	504
100	512
100	589
101	72
101	77
101	151
101	157
101	163
101	213
101	228
101	259
101	299
101	329
101	373
101	394
101	417
101	485
101	562
102	29
102	36
102	57
102	62
102	130
102	172
102	189
102	199
102	203
102	241
102	269
102	340
102	360
102	406
102	446
102	495
102	517
102	532
102	550
102	571
103	95
103	109
103	124
103	138
103	146
103	176
103	183
103	208
103	219
103	246
103	253
103	273
103	318
103	344
103	382
103	452
103	467
103	471
103	489
103	521
103	526
103	556
103	565
104	10
104	18
104	23
104	88
104	101
104	114
104	224
104	238
104	278
104	325
104	355
104	376
104	389
104	413
104	430
104	434
104	457
104	475
104	480
104	500
105	40
105	45
105	51
105	83
105	119
105	150
105	155
105	162
105	169
105	196
105	228
105	234
105	263
105	284
105	288
105	306
105	332
105	348
105	370
105	399
105	421
105	440
105	463
105	506
105	513
105	583
105	588
105	595
106	67
106	71
106	77
106	143
106	181
106	204
106	215
106	249
106	259
106	293
106	298
106	313
106	338
106	343
106	360
106	365
106	383
106	394
106	416
106	545
107	28
107	106
107	111
107	127
107	133
107	185
107	191
107	243
107	254
107	268
107	274
107	317
107	351
107	403
107	426
107	521
107	526
107	532
107	537
107	550
107	562
107	568
107	578
108	14
108	23
108	58
108	93
108	99
108	121
108	138
108	175
108	201
108	211
108	356
108	368
108	378
108	408
108	412
108	447
108	458
108	469
108	474
108	492
109	7
109	37
109	62
109	80
109	86
109	103
109	116
109	148
109	162
109	169
109	207
109	219
109	226
109	238
109	271
109	277
109	282
109	303
109	322
109	373
109	437
109	442
109	453
109	486
109	503
109	557
110	47
110	54
110	74
110	152
110	157
110	196
110	230
110	308
110	315
110	336
110	341
110	388
110	430
110	463
110	478
110	497
110	510
111	42
111	69
111	90
111	119
111	124
111	130
111	141
111	144
111	183
111	190
111	234
111	258
111	267
111	287
111	291
111	297
111	329
111	348
111	364
111	384
111	392
111	404
111	415
111	518
111	571
112	33
112	135
112	173
112	178
112	241
112	353
112	359
112	420
112	483
112	548
112	553
112	576
112	592
113	11
113	17
113	28
113	58
113	95
113	100
113	106
113	110
113	150
113	166
113	199
113	204
113	209
113	214
113	223
113	246
113	252
113	272
113	278
113	318
113	375
113	380
113	468
113	487
113	531
113	536
114	22
114	50
114	79
114	84
114	114
114	160
114	187
114	227
114	238
114	262
114	298
114	306
114	334
114	339
114	344
114	370
114	398
114	409
114	426
114	443
114	478
114	544
114	566
114	587
114	595
115	63
115	74
115	143
115	156
115	193
115	219
115	232
115	257
115	282
115	289
115	294
115	311
115	357
115	390
115	416
115	435
115	460
115	473
115	493
115	506
115	525
115	552
115	561
116	37
116	120
116	136
116	176
116	182
116	249
116	302
116	322
116	330
116	378
116	385
116	394
116	430
116	447
116	452
116	465
116	498
116	514
116	534
116	539
116	579
117	12
117	31
117	43
117	54
117	69
117	90
117	109
117	125
117	131
117	171
117	198
117	215
117	253
117	270
117	276
117	306
117	349
117	368
117	421
117	482
118	19
118	60
118	82
118	102
118	165
118	187
118	205
118	212
118	222
118	241
118	245
118	316
118	326
118	339
118	374
118	402
118	412
118	440
118	456
118	528
118	574
119	8
119	25
119	47
119	75
119	117
119	147
119	228
119	234
119	258
119	264
119	280
119	297
119	360
119	389
119	434
119	489
119	504
119	519
119	545
119	562
119	595
120	35
120	97
120	122
120	135
120	139
120	153
120	159
120	168
120	180
120	192
120	249
120	268
120	274
120	287
120	292
120	300
120	376
120	383
120	393
120	426
120	477
120	581
120	586
121	52
121	70
121	86
121	128
121	144
121	174
121	196
121	200
121	207
121	218
121	238
121	332
121	336
121	355
121	366
121	397
121	405
121	418
121	442
121	471
121	553
121	568
122	15
122	23
122	30
122	57
122	79
122	93
122	106
122	113
122	225
122	254
122	277
122	312
122	345
122	351
122	371
122	430
122	437
122	447
122	451
122	462
122	484
122	495
122	510
122	524
123	45
123	63
123	101
123	117
123	203
123	214
123	231
123	271
123	303
123	308
123	317
123	326
123	411
123	467
123	500
123	531
123	537
123	541
123	591
124	75
124	122
124	164
124	184
124	189
124	246
124	261
124	265
124	283
124	297
124	380
124	390
124	421
124	434
124	456
124	473
124	489
124	505
124	515
124	521
124	557
124	562
124	577
125	52
125	68
125	84
125	89
125	138
125	143
125	153
125	158
125	179
125	208
125	236
125	241
125	288
125	356
125	400
125	406
125	416
125	547
125	571
126	33
126	40
126	97
126	108
126	115
126	132
126	171
126	220
126	251
126	273
126	293
126	321
126	332
126	362
126	368
126	394
126	425
126	430
126	441
126	479
126	495
126	583
127	7
127	13
127	19
127	25
127	79
127	92
127	126
127	149
127	230
127	258
127	263
127	267
127	278
127	316
127	340
127	411
127	447
127	451
127	527
127	537
127	552
128	45
128	63
128	71
128	103
128	120
128	186
128	190
128	197
128	202
128	283
128	325
128	350
128	375
128	382
128	388
128	435
128	461
128	486
128	508
128	543
129	87
129	156
129	163
129	168
129	175
129	207
129	238
129	246
129	289
129	307
129	335
129	419
129	468
129	476
129	492
129	516
129	558
129	572
130	29
130	40
130	100
130	135
130	142
130	214
130	233
130	270
130	299
130	311
130	345
130	356
130	399
130	404
130	445
130	498
130	578
130	589
130	594
131	57
131	75
131	95
131	109
131	114
131	129
131	150
131	227
131	274
131	279
131	322
131	330
131	364
131	370
131	414
131	437
131	457
131	483
131	522
131	532
131	540
131	566
132	10
132	18
132	24
132	68
132	82
132	90
132	103
132	181
132	187
132	222
132	264
132	384
132	393
132	409
132	423
132	429
132	451
132	463
132	501
132	506
132	526
132	554
132	582
133	42
133	49
133	124
133	146
133	160
133	172
133	192
133	201
133	255
133	285
133	305
133	316
133	327
133	360
133	377
133	434
133	470
133	490
133	512
133	549
134	6
134	26
134	30
134	35
134	72
134	119
134	133
134	137
134	155
134	166
134	207
134	236
134	267
134	290
134	295
134	335
134	344
134	349
134	390
134	440
134	519
134	557
134	569
134	575
135	46
135	53
135	60
135	65
135	86
135	98
135	110
135	114
135	184
135	198
135	213
135	218
135	232
135	242
135	248
135	259
135	272
135	300
135	312
135	353
135	366
135	381
135	400
135	406
135	461
135	476
135	494
135	532
135	544
136	16
136	21
136	80
136	107
136	179
136	204
136	226
136	323
136	339
136	372
136	419
136	445
136	482
136	508
137	41
137	93
137	130
137	140
137	158
137	277
137	281
137	287
137	309
137	317
137	328
137	548
137	562
137	591
138	48
138	74
138	103
138	117
138	122
138	174
138	188
138	192
138	255
138	297
138	376
138	392
138	410
138	424
138	429
138	432
138	437
138	457
138	497
138	513
138	521
138	529
138	540
138	580
139	5
139	26
139	34
139	63
139	70
139	97
139	146
139	196
139	201
139	231
139	235
139	250
139	264
139	292
139	304
139	385
139	450
139	465
139	473
139	487
139	491
139	536
139	552
139	573
140	17
140	21
140	57
140	87
140	112
140	153
140	167
140	208
140	214
140	219
140	241
140	259
140	268
140	334
140	344
140	349
140	361
140	443
140	504
140	594
141	30
141	82
141	131
141	162
141	179
141	274
141	278
141	313
141	323
141	368
141	374
141	396
141	418
141	460
141	525
141	545
141	559
141	566
142	24
142	46
142	52
142	65
142	92
142	106
142	121
142	126
142	142
142	148
142	183
142	245
142	255
142	285
142	294
142	307
142	359
142	400
142	412
142	428
142	447
142	469
142	479
142	583
143	12
143	18
143	39
143	72
143	97
143	115
143	137
143	157
143	175
143	194
143	198
143	204
143	227
143	233
143	263
143	330
143	339
143	364
143	406
143	439
143	452
143	475
143	484
143	494
143	508
143	587
144	76
144	102
144	110
144	188
144	217
144	222
144	237
144	249
144	281
144	298
144	384
144	390
144	434
144	456
144	500
144	515
144	531
144	541
144	570
145	27
145	34
145	58
145	67
145	82
145	212
145	243
145	249
145	259
145	268
145	273
145	289
145	302
145	310
145	349
145	354
145	397
145	414
145	425
145	441
145	488
145	550
145	556
146	5
146	22
146	41
146	49
146	88
146	146
146	169
146	202
146	206
146	316
146	344
146	360
146	369
146	411
146	445
146	461
146	522
146	536
146	573
147	18
147	63
147	94
147	105
147	113
147	120
147	130
147	136
147	175
147	180
147	185
147	197
147	253
147	325
147	375
147	404
147	420
147	470
147	483
147	505
147	563
147	585
147	593
148	11
148	55
148	99
148	141
148	149
148	155
148	163
148	190
148	214
148	229
148	235
148	277
148	283
148	332
148	335
148	366
148	381
148	430
148	436
148	449
148	465
148	493
148	511
148	516
148	527
148	545
149	45
149	70
149	220
149	240
149	244
149	270
149	293
149	300
149	309
149	351
149	392
149	474
149	488
149	498
149	539
150	7
150	36
150	57
150	73
150	209
150	250
150	256
150	266
150	306
150	322
150	327
150	346
150	356
150	361
150	386
150	408
150	414
150	441
150	553
150	568
150	579
151	61
151	79
151	84
151	103
151	110
151	116
151	122
151	126
151	137
151	172
151	178
151	186
151	199
151	204
151	233
151	261
151	340
151	424
151	457
151	477
151	541
151	574
152	24
152	31
152	41
152	52
152	67
152	90
152	96
152	132
152	147
152	159
152	193
152	217
152	223
152	228
152	279
152	295
152	316
152	376
152	403
152	445
152	470
152	508
152	518
152	532
152	537
152	564
153	10
153	47
153	106
153	165
153	180
153	273
153	311
153	333
153	348
153	353
153	356
153	430
153	464
153	512
153	558
153	586
153	593
154	17
154	155
154	212
154	239
154	247
154	253
154	263
154	370
154	383
154	387
154	399
154	412
154	452
154	480
154	525
154	548
155	35
155	42
155	58
155	71
155	102
155	111
155	116
155	143
155	149
155	176
155	186
155	203
155	231
155	235
155	282
155	287
155	291
155	300
155	322
155	328
155	392
155	405
155	485
155	493
156	64
156	76
156	86
156	127
156	161
156	172
156	191
156	197
156	207
156	226
156	258
156	296
156	337
156	367
156	376
156	423
156	437
156	474
156	501
156	506
156	537
156	542
156	552
156	565
156	571
156	590
157	4
157	25
157	31
157	121
157	133
157	137
157	181
157	216
157	220
157	250
157	277
157	308
157	314
157	346
157	356
157	432
157	445
157	462
157	489
157	496
157	530
157	561
158	40
158	46
158	53
158	96
158	107
158	157
158	167
158	241
158	266
158	271
158	318
158	325
158	331
158	341
158	353
158	361
158	372
158	381
158	396
158	416
158	428
158	455
158	467
158	482
158	510
158	516
158	576
159	12
159	81
159	100
159	113
159	130
159	153
159	176
159	185
159	212
159	235
159	255
159	261
159	286
159	291
159	525
160	19
160	35
160	62
160	68
160	92
160	139
160	149
160	200
160	223
160	246
160	337
160	408
160	425
160	504
160	533
160	552
160	584
161	45
161	87
161	161
161	172
161	190
161	204
161	232
161	299
161	304
161	311
161	343
161	348
161	388
161	404
161	413
161	420
161	440
161	473
161	522
161	539
161	557
161	592
162	6
162	31
162	39
162	50
162	76
162	105
162	115
162	123
162	133
162	143
162	157
162	167
162	181
162	195
162	219
162	250
162	257
162	288
162	321
162	327
162	332
162	354
162	364
162	376
162	399
162	445
162	468
162	480
162	486
162	492
162	547
162	566
162	572
163	70
163	82
163	100
163	209
163	227
163	237
163	266
163	284
163	384
163	433
163	457
163	515
163	560
164	3
164	13
164	25
164	58
164	65
164	93
164	109
164	128
164	186
164	260
164	273
164	279
164	294
164	307
164	369
164	427
164	451
164	474
164	501
164	508
164	535
164	554
164	576
164	585
165	20
165	35
165	61
165	103
165	119
165	149
165	163
165	193
165	200
165	215
165	223
165	233
165	245
165	254
165	302
165	324
165	336
165	341
165	394
165	462
166	46
166	54
166	87
166	97
166	138
166	170
166	179
166	249
166	297
166	312
166	320
166	330
166	379
166	388
166	401
166	408
166	415
166	438
166	446
166	496
166	545
166	550
166	564
166	570
166	592
167	29
167	40
167	83
167	114
167	133
167	174
167	205
167	211
167	219
167	228
167	263
167	269
167	286
167	345
167	353
167	358
167	466
167	479
167	484
167	489
167	525
167	531
168	57
168	72
168	79
168	128
168	146
168	184
168	189
168	196
168	238
168	256
168	282
168	306
168	317
168	364
168	383
168	454
168	457
168	513
168	519
168	539
168	557
169	6
169	67
169	90
169	95
169	141
169	164
169	225
169	242
169	246
169	276
169	350
169	370
169	406
169	412
169	421
170	16
170	33
170	62
170	101
170	106
170	122
170	136
170	159
170	170
170	174
170	200
170	215
170	267
170	291
170	301
170	334
170	355
170	374
170	427
170	443
170	462
170	474
170	574
170	581
170	593
171	27
171	46
171	151
171	181
171	230
171	272
171	280
171	297
171	324
171	360
171	390
171	494
171	522
171	533
171	545
171	551
171	568
172	41
172	73
172	186
172	191
172	205
172	220
172	261
172	286
172	346
172	381
172	385
172	397
172	403
172	408
172	433
172	439
172	487
172	498
172	517
173	52
173	65
173	85
173	128
173	138
173	155
173	162
173	211
173	234
173	243
173	249
173	254
173	306
173	338
173	366
173	424
173	453
173	470
173	480
173	504
173	510
173	539
173	557
173	587
174	6
174	59
174	80
174	94
174	119
174	145
174	167
174	179
174	197
174	202
174	293
174	302
174	329
174	413
174	445
174	528
174	578
175	27
175	35
175	45
175	89
175	105
175	133
175	174
175	216
175	265
175	272
175	282
175	297
175	311
175	317
175	372
175	390
175	400
175	419
175	464
175	491
175	547
175	560
175	571
176	15
176	20
176	69
176	75
176	100
176	110
176	114
176	150
176	191
176	207
176	260
176	342
176	352
176	357
176	361
176	377
176	385
176	475
176	521
176	589
177	40
177	63
177	84
177	123
177	138
177	159
177	211
177	226
177	238
177	243
177	252
177	276
177	323
177	333
177	396
177	409
177	429
177	449
177	481
177	497
177	532
177	565
178	58
178	130
178	145
178	165
178	175
178	182
178	218
178	234
178	268
178	288
178	308
178	415
178	423
178	435
178	440
178	445
178	455
178	460
178	469
178	504
178	509
178	515
178	552
178	577
179	51
179	89
179	95
179	103
179	108
179	155
179	170
179	188
179	198
179	223
179	283
179	293
179	299
179	314
179	340
179	365
179	374
179	382
179	392
179	485
179	583
180	7
180	17
180	45
180	119
180	194
180	203
180	256
180	273
180	326
180	348
180	402
180	491
180	540
180	571
180	592
181	24
181	34
181	76
181	84
181	98
181	114
181	209
181	215
181	247
181	336
181	355
181	370
181	387
181	407
181	413
181	427
181	473
181	546
181	563
181	580
182	40
182	54
182	60
182	123
182	173
182	179
182	184
182	242
182	259
182	262
182	267
182	278
182	288
182	310
182	332
182	344
182	378
182	422
182	438
182	500
182	520
182	556
183	65
183	108
183	135
183	145
183	150
183	162
183	237
183	296
183	303
183	319
183	358
183	363
183	399
183	417
183	457
183	506
183	513
183	529
183	551
184	48
184	72
184	89
184	129
184	140
184	157
184	190
184	195
184	221
184	230
184	250
184	282
184	374
184	383
184	393
184	432
184	448
184	462
184	483
184	495
184	535
184	540
184	569
184	588
185	28
185	79
185	100
185	104
185	213
185	217
185	225
185	285
185	290
185	313
185	338
185	468
185	477
185	524
186	12
186	21
186	32
186	40
186	55
186	61
186	68
186	160
186	182
186	208
186	235
186	240
186	246
186	264
186	268
186	273
186	326
186	354
186	411
186	427
186	453
186	490
186	555
186	560
186	575
187	113
187	121
187	153
187	165
187	171
187	197
187	259
187	305
187	322
187	331
187	345
187	360
187	363
187	368
187	388
187	422
187	436
187	443
187	484
187	497
187	504
187	510
188	6
188	74
188	84
188	108
188	117
188	132
188	187
188	192
188	202
188	230
188	254
188	282
188	286
188	317
188	341
188	350
188	382
188	404
188	515
188	521
188	529
188	539
188	549
189	18
189	90
189	96
189	101
189	127
189	148
189	179
189	238
189	277
189	294
189	372
189	398
189	418
189	458
189	479
189	585
190	27
190	33
190	69
190	80
190	138
190	157
190	212
190	218
190	224
190	246
190	300
190	311
190	319
190	325
190	336
190	377
190	392
190	433
190	471
190	564
190	572
190	592
191	13
191	51
191	59
191	175
191	184
191	232
191	257
191	268
191	305
191	331
191	344
191	386
191	408
191	448
191	452
191	524
191	555
192	22
192	45
192	112
192	123
192	153
192	169
192	200
192	250
192	262
192	282
192	290
192	355
192	360
192	364
192	413
192	442
192	484
192	493
192	500
192	512
192	517
192	539
192	576
193	4
193	39
193	65
193	75
193	88
193	107
193	132
193	148
193	163
193	196
193	208
193	271
193	309
193	339
193	351
193	381
193	423
193	429
193	437
193	474
193	507
193	532
193	545
193	561
193	567
194	9
194	16
194	55
194	70
194	92
194	101
194	119
194	128
194	141
194	157
194	220
194	227
194	234
194	243
194	317
194	322
194	334
194	372
194	396
194	403
194	463
195	83
195	97
195	182
195	190
195	259
195	265
195	277
195	295
195	302
195	342
195	378
195	408
195	452
195	478
195	495
195	583
196	59
196	78
196	105
196	123
196	136
196	144
196	166
196	173
196	177
196	204
196	211
196	288
196	306
196	312
196	383
196	392
196	419
196	445
196	469
196	484
196	489
196	524
196	565
196	570
196	588
197	3
197	29
197	42
197	48
197	110
197	116
197	151
197	216
197	224
197	251
197	281
197	329
197	338
197	352
197	359
197	365
197	369
197	387
197	427
197	434
197	440
197	449
197	474
197	502
197	518
197	529
197	538
197	547
197	559
198	21
198	72
198	89
198	95
198	132
198	192
198	229
198	233
198	257
198	269
198	321
198	334
198	347
198	399
198	459
198	592
199	14
199	52
199	82
199	163
199	169
199	183
199	188
199	197
199	204
199	220
199	240
199	294
199	314
199	325
199	376
199	379
199	405
199	414
199	455
199	480
199	511
199	534
199	552
199	578
200	34
200	43
200	62
200	68
200	103
200	120
200	138
200	158
200	174
200	245
200	273
200	279
200	290
200	310
200	384
200	487
200	494
200	563
201	3
201	76
201	111
201	145
201	154
201	189
201	213
201	237
201	254
201	260
201	265
201	302
201	343
201	350
201	354
201	370
201	390
201	394
201	430
201	443
201	465
201	470
201	498
201	503
201	526
201	544
201	559
201	585
202	18
202	39
202	56
202	87
202	99
202	125
202	133
202	149
202	184
202	205
202	217
202	284
202	306
202	329
202	337
202	420
202	425
202	449
202	506
202	522
202	571
203	27
203	82
203	91
203	95
203	177
203	195
203	200
203	278
203	319
203	359
203	375
203	381
203	387
203	399
203	435
203	452
203	511
203	531
203	539
204	7
204	43
204	50
204	66
204	122
204	138
204	168
204	173
204	181
204	224
204	229
204	241
204	298
204	326
204	333
204	346
204	364
204	405
204	440
204	459
204	549
204	554
205	12
205	33
205	62
205	102
205	107
205	113
205	160
205	209
205	235
205	247
205	257
205	272
205	294
205	341
205	369
205	393
205	410
205	484
205	493
205	517
205	535
205	557
205	577
205	591
206	29
206	126
206	133
206	206
206	261
206	267
206	312
206	351
206	444
206	468
206	479
206	500
206	523
206	563
207	5
207	72
207	86
207	96
207	118
207	142
207	153
207	196
207	203
207	280
207	288
207	305
207	336
207	362
207	378
207	383
207	416
207	431
207	437
207	464
207	510
207	539
207	546
207	550
208	18
208	37
208	42
208	58
208	66
208	77
208	81
208	149
208	189
208	217
208	253
208	318
208	323
208	349
208	355
208	375
208	388
208	398
208	402
208	423
208	450
208	473
208	529
208	572
209	52
209	90
209	109
209	131
209	157
209	162
209	166
209	179
209	184
209	222
209	235
209	259
209	274
209	283
209	294
209	329
209	340
209	407
209	413
209	455
209	487
209	504
209	581
209	589
210	25
210	31
210	73
210	100
210	127
210	134
210	138
210	172
210	199
210	205
210	209
210	228
210	240
210	270
210	371
210	381
210	533
210	553
211	14
211	62
211	86
211	105
211	115
211	122
211	151
211	192
211	214
211	296
211	302
211	314
211	333
211	366
211	441
211	467
211	478
211	519
211	543
211	576
212	45
212	56
212	81
212	95
212	146
212	154
212	233
212	244
212	250
212	256
212	262
212	308
212	321
212	346
212	352
212	361
212	386
212	393
212	404
212	426
212	431
212	445
212	449
212	460
212	492
212	525
212	560
212	569
213	6
213	34
213	38
213	50
213	67
213	77
213	169
213	174
213	178
213	203
213	220
213	276
213	292
213	328
213	370
213	415
213	500
213	506
213	511
213	515
213	537
213	549
214	17
214	90
214	110
214	135
214	162
214	183
214	187
214	207
214	227
214	338
214	342
214	380
214	396
214	410
214	484
214	530
214	584
215	25
215	30
215	65
215	100
215	106
215	118
215	131
215	198
215	212
215	271
215	280
215	285
215	298
215	303
215	313
215	356
215	363
215	421
215	443
215	496
215	564
216	11
216	41
216	59
216	71
216	86
216	145
216	150
216	234
216	240
216	266
216	318
216	336
216	348
216	367
216	373
216	430
216	439
216	456
216	471
216	491
216	522
216	556
217	35
217	47
217	53
217	81
217	95
217	127
217	158
217	164
217	174
217	180
217	203
217	216
217	244
217	258
217	275
217	308
217	324
217	332
217	382
217	399
217	417
217	466
217	538
217	544
217	552
217	590
218	75
218	115
218	121
218	140
218	168
218	247
218	251
218	294
218	405
218	426
218	435
218	451
218	475
218	481
218	486
218	502
218	512
218	529
218	571
218	580
218	586
219	18
219	44
219	102
219	106
219	135
219	185
219	190
219	194
219	199
219	219
219	224
219	229
219	236
219	263
219	304
219	315
219	340
219	353
219	359
219	364
219	377
219	387
219	393
219	413
219	557
219	575
220	13
220	25
220	30
220	58
220	130
220	153
220	162
220	173
220	208
220	272
220	282
220	300
220	346
220	439
220	463
220	563
221	37
221	65
221	86
221	91
221	96
221	112
221	123
221	178
221	240
221	289
221	321
221	330
221	336
221	370
221	398
221	421
221	430
221	443
221	468
221	516
221	534
221	540
221	544
222	8
222	45
222	52
222	78
222	104
222	148
222	206
222	230
222	253
222	267
222	307
222	374
222	498
222	508
222	525
222	550
223	70
223	127
223	135
223	157
223	218
223	248
223	260
223	277
223	296
223	313
223	326
223	407
223	434
223	447
223	453
223	478
223	488
223	554
223	567
223	574
223	589
224	15
224	21
224	26
224	61
224	107
224	115
224	165
224	169
224	186
224	191
224	198
224	202
224	212
224	242
224	285
224	318
224	347
224	362
224	377
224	382
224	387
224	427
224	458
224	520
225	33
225	37
225	42
225	46
225	57
225	82
225	130
225	143
225	153
225	173
225	181
225	237
225	305
225	353
225	358
225	368
225	399
225	412
225	417
225	505
225	530
225	537
225	581
225	594
226	9
226	66
226	75
226	87
226	96
226	103
226	120
226	222
226	227
226	233
226	270
226	290
226	300
226	322
226	325
226	335
226	390
226	404
226	464
226	482
226	544
227	5
227	52
227	91
227	148
227	158
227	177
227	205
227	261
227	277
227	312
227	341
227	346
227	395
227	432
227	442
227	492
227	510
227	516
227	555
228	24
228	71
228	110
228	116
228	134
228	167
228	182
228	188
228	196
228	217
228	245
228	250
228	256
228	292
228	330
228	350
228	373
228	384
228	426
228	449
228	470
228	475
228	526
228	533
229	60
229	241
229	274
229	297
229	336
229	355
229	363
229	379
229	486
229	498
229	504
229	539
229	547
229	563
230	13
230	20
230	40
230	46
230	101
230	106
230	124
230	130
230	141
230	170
230	229
230	281
230	287
230	320
230	414
230	420
230	439
230	458
230	519
230	571
230	580
230	586
231	6
231	55
231	66
231	80
231	86
231	120
231	137
231	145
231	150
231	162
231	174
231	199
231	211
231	221
231	234
231	252
231	269
231	305
231	327
231	342
231	359
231	370
231	403
231	409
231	454
232	28
232	34
232	75
232	92
232	156
232	185
232	190
232	207
232	259
232	263
232	277
232	315
232	333
232	351
232	388
232	397
232	444
232	465
232	479
232	491
232	551
233	22
233	50
233	59
233	97
233	116
233	178
233	226
233	241
233	273
233	291
233	296
233	309
233	337
233	375
233	431
233	501
233	513
233	530
234	13
234	103
234	160
234	167
234	176
234	217
234	283
234	301
234	363
234	437
234	483
234	507
234	524
234	536
234	585
235	39
235	45
235	66
235	70
235	108
235	133
235	164
235	197
235	203
235	222
235	235
235	245
235	256
235	312
235	317
235	322
235	332
235	342
235	354
235	371
235	400
235	413
235	461
235	470
235	488
235	517
235	542
235	548
235	554
235	577
236	10
236	54
236	79
236	84
236	113
236	142
236	150
236	155
236	182
236	188
236	211
236	249
236	263
236	328
236	347
236	383
236	406
236	452
236	458
236	475
236	561
237	50
237	74
237	100
237	120
237	128
237	170
237	231
237	269
237	277
237	303
237	307
237	324
237	388
237	392
237	419
237	424
237	442
237	466
237	493
237	500
237	590
238	19
238	25
238	57
238	95
238	146
238	158
238	177
238	240
238	273
238	287
238	291
238	295
238	314
238	319
238	358
238	366
238	377
238	399
238	509
238	570
239	13
239	33
239	43
239	90
239	106
239	184
239	194
239	201
239	206
239	217
239	223
239	281
239	299
239	336
239	340
239	373
239	414
239	431
239	514
239	534
239	543
239	565
239	576
240	30
240	63
240	67
240	77
240	86
240	111
240	133
240	163
240	227
240	236
240	251
240	257
240	284
240	354
240	409
240	456
240	521
240	527
240	558
241	40
241	47
241	52
241	117
241	140
241	244
241	302
241	314
241	328
241	383
241	395
241	435
241	440
241	450
241	462
241	593
242	6
242	23
242	150
242	156
242	171
242	178
242	186
242	197
242	208
242	261
242	268
242	293
242	307
242	347
242	369
242	379
242	387
242	419
242	446
242	467
242	486
242	491
242	550
242	584
242	588
243	19
243	72
243	97
243	129
243	144
243	183
243	224
243	239
243	255
243	323
243	333
243	342
243	360
243	375
243	405
243	414
243	498
243	505
243	533
243	544
243	561
243	579
244	12
244	29
244	57
244	91
244	112
244	123
244	140
244	203
244	216
244	229
244	248
244	273
244	279
244	285
244	300
244	320
244	351
244	365
244	431
244	453
244	472
244	479
244	517
244	557
244	568
245	36
245	40
245	45
245	50
245	65
245	78
245	82
245	134
245	288
245	312
245	327
245	337
245	384
245	391
245	400
245	409
245	425
245	439
245	510
245	523
245	527
245	574
246	100
246	105
246	128
246	145
246	149
246	158
246	163
246	188
246	234
246	332
246	356
246	369
246	458
246	463
246	495
246	538
246	548
247	20
247	25
247	54
247	88
247	95
247	108
247	117
247	194
247	199
247	224
247	239
247	266
247	282
247	294
247	303
247	316
247	324
247	361
247	380
247	476
247	484
247	554
247	560
247	588
247	593
248	6
248	40
248	61
248	69
248	123
248	142
248	153
248	175
248	212
248	244
248	250
248	258
248	270
248	286
248	307
248	312
248	336
248	341
248	345
248	389
248	396
248	403
248	434
248	503
248	532
248	564
249	31
249	49
249	79
249	114
249	137
249	171
249	182
249	204
249	291
249	300
249	353
249	366
249	373
249	416
249	467
249	498
249	543
250	10
250	73
250	158
250	165
250	187
250	198
250	208
250	218
250	232
250	266
250	278
250	329
250	357
250	383
250	407
250	428
250	445
250	450
250	459
250	481
250	514
250	523
250	538
250	552
250	567
251	25
251	36
251	65
251	87
251	92
251	99
251	104
251	128
251	133
251	151
251	179
251	190
251	225
251	237
251	254
251	323
251	340
251	349
251	377
251	421
251	470
251	487
251	547
251	584
252	20
252	45
252	55
252	83
252	110
252	117
252	168
252	247
252	283
252	293
252	312
252	362
252	390
252	464
252	476
252	491
252	509
252	556
252	574
253	15
253	30
253	39
253	77
253	147
253	213
253	222
253	243
253	259
253	269
253	288
253	298
253	318
253	338
253	345
253	355
253	371
253	395
253	402
253	417
253	442
253	456
253	503
253	530
253	570
253	594
254	50
254	60
254	70
254	143
254	161
254	182
254	194
254	202
254	208
254	227
254	251
254	264
254	276
254	302
254	305
254	328
254	334
254	427
254	436
254	445
254	519
254	535
254	564
255	121
255	126
255	130
255	135
255	139
255	156
255	168
255	173
255	248
255	285
255	376
255	411
255	432
255	481
255	526
255	539
255	577
256	20
256	35
256	81
256	86
256	90
256	97
256	151
256	205
256	233
256	238
256	310
256	313
256	318
256	351
256	358
256	369
256	383
256	394
256	406
256	423
256	462
256	467
256	486
256	495
256	547
256	554
257	26
257	46
257	55
257	65
257	75
257	103
257	146
257	185
257	190
257	216
257	254
257	260
257	270
257	280
257	293
257	297
257	323
257	452
257	475
257	499
257	582
257	588
258	40
258	70
258	109
258	132
258	177
258	209
258	228
258	246
258	275
258	302
258	339
258	399
258	426
258	490
258	513
258	517
258	522
258	530
258	561
259	7
259	16
259	31
259	114
259	129
259	135
259	142
259	157
259	162
259	171
259	200
259	222
259	236
259	250
259	264
259	285
259	298
259	328
259	344
259	361
259	373
259	390
259	419
259	431
259	436
259	441
259	457
259	536
260	51
260	91
260	123
260	151
260	193
260	225
260	308
260	314
260	334
260	354
260	366
260	380
260	410
260	504
260	558
260	570
261	65
261	85
261	147
261	184
261	197
261	206
261	213
261	217
261	244
261	255
261	273
261	288
261	292
261	319
261	349
261	357
261	405
261	446
261	462
261	470
261	478
261	486
261	492
261	543
261	565
261	579
262	27
262	36
262	46
262	56
262	75
262	104
262	112
262	116
262	126
262	132
262	190
262	232
262	240
262	259
262	269
262	277
262	281
262	330
262	339
262	453
262	498
262	510
262	531
262	593
263	99
263	121
263	137
263	142
263	156
263	162
263	167
263	180
263	229
263	250
263	299
263	310
263	324
263	345
263	372
263	387
263	395
263	420
263	426
263	432
263	441
263	520
263	525
263	548
263	554
263	575
264	6
264	22
264	41
264	51
264	61
264	70
264	87
264	94
264	171
264	177
264	217
264	235
264	245
264	266
264	295
264	305
264	360
264	414
264	437
264	466
264	482
264	538
264	586
265	18
265	79
265	146
265	151
265	204
265	210
265	242
265	257
265	281
265	288
265	314
265	353
265	380
265	404
265	456
265	472
265	568
266	28
266	65
266	84
266	91
266	108
266	130
266	160
266	179
266	193
266	201
266	207
266	220
266	225
266	259
266	275
266	299
266	319
266	327
266	331
266	335
266	342
266	348
266	357
266	365
266	385
266	399
266	424
266	476
266	530
266	559
266	565
267	10
267	46
267	136
267	142
267	156
267	168
267	185
267	215
267	233
267	270
267	285
267	376
267	389
267	393
267	409
267	446
267	461
267	500
267	522
267	553
268	96
268	102
268	112
268	117
268	181
268	237
268	255
268	263
268	281
268	305
268	309
268	351
268	368
268	427
268	432
268	440
268	494
268	509
268	516
268	537
268	547
268	569
268	576
268	581
268	593
269	14
269	18
269	41
269	61
269	77
269	89
269	145
269	150
269	174
269	197
269	230
269	243
269	249
269	292
269	300
269	318
269	337
269	372
269	397
269	415
269	457
269	467
269	482
269	489
269	528
269	543
270	23
270	51
270	67
270	72
270	126
270	177
270	206
270	212
270	225
270	259
270	274
270	324
270	342
270	360
270	383
270	401
270	407
270	422
270	558
271	29
271	36
271	54
271	84
271	108
271	122
271	136
271	162
271	168
271	191
271	201
271	218
271	239
271	267
271	284
271	312
271	331
271	347
271	364
271	393
271	462
271	532
272	45
272	58
272	81
272	93
272	117
272	131
272	142
272	157
272	196
272	234
272	253
272	277
272	292
272	295
272	301
272	327
272	353
272	358
272	376
272	387
272	396
272	412
272	417
272	444
272	505
272	546
272	555
272	564
272	584
273	14
273	64
273	148
273	152
273	181
273	185
273	242
273	263
273	272
273	306
273	317
273	428
273	435
273	453
273	480
273	485
273	497
273	513
273	525
273	540
273	575
273	592
274	8
274	33
274	42
274	50
274	71
274	77
274	88
274	101
274	112
274	128
274	164
274	171
274	175
274	204
274	210
274	215
274	224
274	281
274	288
274	322
274	338
274	344
274	380
274	420
274	472
275	134
275	139
275	219
275	240
275	245
275	257
275	284
275	393
275	399
275	407
275	447
275	534
275	550
275	571
276	56
276	84
276	107
276	122
276	150
276	160
276	179
276	230
276	268
276	277
276	298
276	333
276	355
276	366
276	371
276	386
276	414
276	442
276	456
276	465
276	476
276	560
276	566
277	29
277	37
277	74
277	93
277	145
277	190
277	197
277	201
277	236
277	249
277	293
277	303
277	307
277	312
277	343
277	351
277	363
277	397
277	403
277	427
277	437
277	461
277	489
277	500
277	508
277	528
277	593
278	62
278	100
278	116
278	169
278	215
278	223
278	255
278	259
278	263
278	281
278	289
278	316
278	320
278	323
278	327
278	359
278	389
278	451
278	471
278	482
278	514
278	518
278	555
278	579
279	23
279	34
279	44
279	105
279	108
279	138
279	165
279	184
279	206
279	227
279	242
279	270
279	273
279	296
279	348
279	393
279	407
279	423
279	430
279	494
279	540
280	49
280	66
280	87
280	112
280	130
280	154
280	161
280	174
280	194
280	199
280	220
280	232
280	265
280	277
280	338
280	342
280	380
280	419
280	433
280	444
280	463
280	467
280	533
280	545
280	587
281	10
281	19
281	53
281	73
281	77
281	82
281	97
281	124
281	148
281	213
281	251
281	261
281	304
281	312
281	320
281	353
281	372
281	415
281	456
281	476
281	523
281	551
281	565
281	575
282	39
282	57
282	63
282	93
282	118
282	217
282	245
282	255
282	283
282	293
282	300
282	308
282	345
282	361
282	377
282	386
282	396
282	402
282	471
282	500
282	505
282	510
282	530
282	558
282	571
282	579
283	45
283	68
283	100
283	109
283	164
283	169
283	182
283	227
283	236
283	240
283	271
283	287
283	297
283	315
283	324
283	327
283	367
283	409
283	425
283	439
283	481
283	492
283	537
284	25
284	87
284	104
284	129
284	144
284	157
284	206
284	231
284	267
284	278
284	333
284	350
284	380
284	446
284	461
284	553
285	15
285	52
285	78
285	114
285	134
285	139
285	186
285	190
285	200
285	248
285	301
285	318
285	337
285	341
285	355
285	372
285	391
285	434
285	451
285	476
285	496
285	514
285	519
285	533
285	576
286	21
286	31
286	37
286	43
286	48
286	66
286	73
286	153
286	161
286	196
286	215
286	224
286	255
286	262
286	283
286	291
286	310
286	345
286	359
286	364
286	414
286	429
286	466
286	486
286	507
286	540
286	593
287	11
287	83
287	99
287	118
287	124
287	149
287	166
287	175
287	183
287	210
287	219
287	228
287	233
287	242
287	245
287	251
287	294
287	305
287	321
287	348
287	376
287	385
287	399
287	403
287	408
287	472
287	501
287	526
287	546
287	569
287	584
288	94
288	104
288	112
288	144
288	156
288	203
288	238
288	268
288	273
288	287
288	313
288	330
288	419
288	443
288	462
288	492
288	560
289	7
289	16
289	58
289	75
289	88
289	131
289	170
289	264
289	281
289	325
289	356
289	381
289	423
289	542
289	551
289	565
289	575
289	595
290	38
290	52
290	67
290	79
290	120
290	160
290	190
290	213
290	217
290	259
290	291
290	300
290	317
290	335
290	340
290	365
290	388
290	395
290	436
290	455
290	470
290	480
290	497
290	505
290	514
290	520
290	533
291	30
291	62
291	116
291	135
291	139
291	151
291	175
291	195
291	201
291	207
291	221
291	277
291	306
291	311
291	347
291	372
291	377
291	400
291	405
291	414
291	430
291	445
291	509
291	555
291	581
292	22
292	45
292	81
292	101
292	107
292	157
292	165
292	181
292	225
292	229
292	239
292	247
292	252
292	256
292	272
292	294
292	327
292	352
292	361
292	410
292	440
292	486
292	491
292	500
292	527
292	545
292	561
292	572
292	591
293	15
293	36
293	96
293	110
293	131
293	143
293	233
293	262
293	284
293	302
293	383
293	424
293	449
293	540
294	52
294	57
294	87
294	161
294	168
294	200
294	205
294	211
294	217
294	266
294	270
294	279
294	312
294	321
294	332
294	346
294	392
294	420
294	455
294	461
294	466
294	473
294	478
294	516
294	521
294	551
294	566
294	595
295	26
295	39
295	67
295	73
295	77
295	126
295	138
295	148
295	173
295	181
295	185
295	288
295	307
295	336
295	354
295	378
295	432
295	438
295	445
295	488
295	512
296	47
296	106
296	114
296	122
296	192
296	226
296	243
296	262
296	291
296	297
296	358
296	363
296	369
296	386
296	402
296	409
296	493
296	498
296	531
296	536
296	573
296	586
296	592
297	9
297	62
297	92
297	100
297	118
297	129
297	143
297	197
297	230
297	239
297	255
297	272
297	277
297	327
297	343
297	382
297	414
297	422
297	481
297	505
298	30
298	133
298	156
298	164
298	169
298	187
298	210
298	218
298	234
298	249
298	284
298	304
298	350
298	375
298	391
298	397
298	450
298	459
298	526
298	541
298	546
298	557
298	579
299	16
299	36
299	45
299	71
299	76
299	81
299	177
299	204
299	267
299	310
299	314
299	321
299	367
299	400
299	429
299	444
299	454
299	466
299	476
299	517
299	521
299	551
300	24
300	40
300	57
300	66
300	95
300	104
300	138
300	147
300	159
300	222
300	275
300	287
300	298
300	318
300	332
300	355
300	360
300	406
300	410
300	417
300	485
300	491
300	496
300	512
300	562
300	567
300	595
301	52
301	110
301	123
301	128
301	173
301	180
301	214
301	231
301	241
301	255
301	259
301	280
301	338
301	402
301	439
301	583
301	590
302	8
302	19
302	28
302	85
302	90
302	100
302	116
302	193
302	198
302	219
302	245
302	292
302	305
302	342
302	347
302	371
302	377
302	383
302	413
302	432
302	471
302	537
302	574
303	62
303	73
303	79
303	143
303	155
303	186
303	207
303	251
303	265
303	285
303	301
303	314
303	321
303	334
303	357
303	365
303	391
303	425
303	449
303	462
303	480
303	504
303	527
303	541
303	548
303	557
303	570
303	587
304	46
304	50
304	68
304	94
304	106
304	121
304	140
304	149
304	162
304	170
304	176
304	216
304	226
304	272
304	308
304	325
304	387
304	397
304	403
304	421
304	444
304	466
304	488
304	498
304	533
304	578
305	13
305	24
305	34
305	40
305	57
305	112
305	133
305	165
305	183
305	190
305	203
305	222
305	235
305	243
305	258
305	288
305	292
305	296
305	351
305	408
305	435
305	454
305	484
305	493
305	508
305	513
305	518
305	522
305	562
306	8
306	82
306	129
306	180
306	197
306	263
306	279
306	302
306	330
306	340
306	374
306	389
306	416
306	553
307	19
307	54
307	63
307	71
307	88
307	99
307	116
307	124
307	144
307	174
307	207
307	248
307	253
307	268
307	326
307	360
307	404
307	430
307	439
307	459
307	546
307	558
307	572
307	593
308	28
308	48
308	78
308	136
308	169
308	211
308	217
308	226
308	231
308	238
308	284
308	293
308	298
308	306
308	312
308	320
308	343
308	347
308	366
308	378
308	383
308	394
308	400
308	409
308	426
308	446
308	451
308	465
308	474
308	478
308	529
308	538
308	566
309	23
309	43
309	60
309	148
309	153
309	161
309	178
309	183
309	193
309	272
309	287
309	337
309	351
309	421
309	486
309	495
309	500
309	577
310	17
310	32
310	37
310	107
310	122
310	127
310	139
310	202
310	213
310	221
310	248
310	260
310	278
310	316
310	324
310	329
310	434
310	522
310	535
310	553
311	54
311	67
311	73
311	84
311	89
311	101
311	166
311	187
311	208
311	231
311	254
311	264
311	303
311	310
311	353
311	360
311	372
311	392
311	415
311	444
311	461
311	468
311	482
311	514
312	26
312	62
312	94
312	112
312	118
312	135
312	141
312	149
312	156
312	172
312	195
312	235
312	243
312	269
312	274
312	282
312	285
312	293
312	343
312	347
312	377
312	381
312	407
312	412
312	439
312	453
312	478
312	488
312	508
312	563
312	573
312	583
313	78
313	177
313	216
313	225
313	300
313	338
313	350
313	386
313	422
313	526
313	531
313	548
313	555
313	594
314	8
314	22
314	43
314	105
314	182
314	190
314	200
314	220
314	239
314	252
314	255
314	289
314	306
314	321
314	326
314	332
314	363
314	369
314	399
314	429
314	447
314	457
314	520
314	541
315	37
315	50
315	65
315	98
315	109
315	120
315	127
315	140
315	145
315	165
315	248
315	266
315	278
315	313
315	352
315	358
315	381
315	391
315	435
315	442
315	492
315	499
315	570
316	26
316	31
316	54
316	59
316	73
316	81
316	91
316	115
316	149
316	154
316	159
316	170
316	186
316	230
316	236
316	260
316	273
316	395
316	402
316	415
316	473
316	485
316	505
316	545
317	15
317	87
317	102
317	134
317	197
317	204
317	212
317	216
317	222
317	243
317	280
317	285
317	307
317	318
317	335
317	340
317	347
317	407
317	452
317	463
317	513
317	564
318	40
318	45
318	77
318	182
318	270
318	295
318	324
318	328
318	367
318	377
318	418
318	423
318	438
318	468
318	489
318	518
318	530
318	582
319	28
319	36
319	70
319	106
319	111
319	121
319	164
319	173
319	177
319	191
319	252
319	264
319	291
319	301
319	363
319	385
319	432
319	458
319	524
319	535
319	540
319	551
319	558
320	6
320	51
320	64
320	94
320	117
320	137
320	143
320	153
320	209
320	225
320	231
320	240
320	247
320	259
320	276
320	287
320	315
320	321
320	351
320	358
320	371
320	381
320	396
320	428
320	482
320	495
320	567
321	18
321	58
321	100
321	160
321	188
321	217
321	221
321	237
321	269
321	282
321	297
321	310
321	333
321	339
321	344
321	390
321	402
321	406
321	414
321	444
321	452
321	476
321	505
321	545
321	593
322	44
322	74
322	132
322	147
322	204
322	213
322	256
322	273
322	304
322	367
322	498
322	516
322	572
323	10
323	38
323	54
323	86
323	91
323	127
323	142
323	157
323	168
323	181
323	184
323	193
323	197
323	289
323	328
323	362
323	377
323	384
323	393
323	418
323	438
323	448
323	473
323	485
323	493
323	501
323	510
323	520
323	528
323	539
323	555
323	560
324	14
324	48
324	80
324	97
324	105
324	110
324	162
324	209
324	244
324	293
324	316
324	338
324	348
324	356
324	434
324	460
324	533
325	22
325	32
325	61
325	116
325	137
325	176
325	199
325	218
325	228
325	237
325	260
325	265
325	271
325	277
325	285
325	296
325	301
325	309
325	321
325	380
325	399
325	404
325	412
325	423
325	465
325	549
325	566
326	6
326	122
326	148
326	153
326	172
326	188
326	194
326	212
326	223
326	234
326	254
326	324
326	332
326	351
326	366
326	372
326	390
326	429
326	455
326	480
326	506
326	573
326	578
326	591
327	10
327	17
327	27
327	43
327	55
327	66
327	70
327	77
327	93
327	100
327	158
327	182
327	249
327	279
327	329
327	346
327	360
327	419
327	513
327	520
327	525
327	544
328	38
328	87
328	110
328	140
328	209
328	240
328	291
328	304
328	313
328	336
328	355
328	396
328	425
328	434
328	440
328	446
328	492
328	499
328	533
328	554
329	48
329	83
329	105
329	129
329	134
329	155
329	170
329	176
329	197
329	203
329	216
329	220
329	226
329	245
329	257
329	265
329	295
329	317
329	321
329	341
329	385
329	401
329	451
329	471
329	487
329	540
329	548
329	562
330	32
330	61
330	75
330	116
330	165
330	192
330	230
330	236
330	253
330	270
330	283
330	299
330	365
330	376
330	406
330	412
330	455
330	475
330	504
330	573
331	7
331	37
331	95
331	122
331	146
331	151
331	183
331	199
331	248
331	276
331	288
331	309
331	313
331	326
331	329
331	333
331	351
331	369
331	437
331	465
331	482
331	510
331	566
332	65
332	70
332	79
332	86
332	91
332	113
332	142
332	160
332	175
332	208
332	214
332	222
332	241
332	319
332	337
332	346
332	381
332	390
332	398
332	417
332	423
332	428
332	444
332	493
332	516
332	536
332	585
333	11
333	16
333	43
333	57
333	108
333	133
333	138
333	170
333	256
333	261
333	265
333	280
333	289
333	356
333	403
333	469
333	485
333	527
333	543
333	554
333	593
334	28
334	47
334	53
334	100
334	127
334	155
334	179
334	196
334	232
334	236
334	246
334	273
334	296
334	329
334	341
334	365
334	372
334	377
334	386
334	395
334	413
334	440
334	450
334	501
334	564
335	21
335	116
335	149
335	164
335	188
335	206
335	210
335	218
335	284
335	300
335	307
335	312
335	324
335	350
335	420
335	435
335	457
335	463
335	479
335	489
335	507
335	558
335	580
336	34
336	40
336	63
336	70
336	77
336	112
336	158
336	224
336	241
336	252
336	337
336	368
336	380
336	390
336	409
336	427
336	474
336	512
336	520
336	548
336	573
337	57
337	89
337	98
337	122
337	136
337	143
337	152
337	168
337	174
337	230
337	255
337	262
337	279
337	288
337	293
337	303
337	319
337	334
337	356
337	375
337	402
337	424
337	484
337	493
337	526
337	541
337	568
337	590
338	8
338	26
338	94
338	129
338	179
338	195
338	201
338	233
338	268
338	298
338	361
338	370
338	384
338	415
338	430
338	443
338	447
338	496
338	531
338	562
339	36
339	46
339	50
339	83
339	116
339	190
339	215
339	221
339	237
339	248
339	257
339	275
339	290
339	314
339	342
339	396
339	465
339	470
339	503
339	555
340	67
340	78
340	104
340	110
340	124
340	134
340	140
340	150
340	157
340	161
340	171
340	184
340	209
340	224
340	242
340	323
340	327
340	337
340	346
340	351
340	365
340	455
340	460
340	479
340	509
340	536
340	581
340	593
341	20
341	31
341	61
341	92
341	263
341	284
341	295
341	307
341	318
341	356
341	379
341	406
341	421
341	427
341	439
341	490
341	515
341	565
341	586
342	42
342	56
342	72
342	98
342	144
342	166
342	175
342	193
342	198
342	204
342	228
342	252
342	271
342	302
342	362
342	392
342	412
342	433
342	447
342	485
342	495
342	501
342	520
342	528
342	544
342	575
343	6
343	14
343	82
343	86
343	105
343	116
343	120
343	130
343	179
343	213
343	234
343	238
343	247
343	267
343	292
343	311
343	373
343	384
343	400
343	474
343	524
343	552
343	558
344	37
344	76
344	154
344	160
344	171
344	188
344	221
344	231
344	243
344	255
344	276
344	282
344	289
344	326
344	341
344	347
344	355
344	369
344	408
344	416
344	424
344	466
344	511
344	535
344	540
345	45
345	64
345	96
345	110
345	137
345	142
345	149
345	207
345	263
345	321
345	332
345	337
345	361
345	365
345	388
345	397
345	437
345	443
345	448
345	452
345	462
345	480
345	498
345	506
345	570
346	27
346	30
346	52
346	71
346	84
346	100
346	176
346	183
346	194
346	201
346	225
346	271
346	302
346	308
346	377
346	412
346	519
346	549
346	555
347	8
347	20
347	40
347	92
347	124
347	165
347	215
347	228
347	234
347	238
347	259
347	279
347	286
347	293
347	313
347	317
347	339
347	343
347	372
347	383
347	420
347	429
347	434
347	486
347	493
347	523
347	579
347	592
348	107
348	133
348	138
348	159
348	186
348	191
348	220
348	244
348	249
348	282
348	298
348	329
348	350
348	367
348	392
348	402
348	439
348	445
348	456
348	465
348	470
348	476
348	501
348	533
348	567
349	13
349	46
349	49
349	55
349	59
349	67
349	88
349	113
349	119
349	144
349	151
349	171
349	254
349	263
349	325
349	356
349	405
349	415
349	425
349	528
349	544
349	560
350	29
350	34
350	78
350	96
350	147
350	180
350	199
350	207
350	268
350	272
350	290
350	295
350	305
350	346
350	409
350	460
350	483
350	489
350	504
350	513
350	539
350	572
351	73
351	82
351	102
351	154
351	161
351	175
351	193
351	203
351	212
351	224
351	231
351	242
351	246
351	286
351	332
351	353
351	363
351	376
351	380
351	383
351	430
351	436
351	453
351	586
352	6
352	39
352	110
352	124
352	130
352	142
352	166
352	187
352	217
352	259
352	277
352	282
352	309
352	319
352	337
352	341
352	390
352	396
352	400
352	418
352	471
352	495
353	93
353	117
353	137
353	183
353	221
353	227
353	236
353	251
353	255
353	300
353	369
353	423
353	442
353	447
353	521
353	568
353	579
354	27
354	33
354	46
354	57
354	64
354	71
354	86
354	157
354	172
354	196
354	201
354	232
354	262
354	266
354	291
354	315
354	356
354	403
354	412
354	478
354	501
354	532
354	552
354	558
355	8
355	19
355	51
355	77
355	97
355	104
355	127
355	148
355	177
355	206
355	210
355	224
355	239
355	245
355	271
355	279
355	285
355	306
355	321
355	342
355	346
355	350
355	366
355	386
355	406
355	425
355	434
355	451
355	456
355	465
355	517
355	527
355	547
355	593
356	43
356	133
356	142
356	145
356	152
356	162
356	191
356	296
356	329
356	333
356	372
356	379
356	398
356	416
356	439
356	507
356	541
356	564
356	576
357	92
357	108
357	113
357	138
357	167
357	186
357	215
357	219
357	250
357	313
357	360
357	391
357	471
357	483
357	491
357	512
357	585
358	15
358	37
358	53
358	60
358	84
358	181
358	229
358	254
358	262
358	267
358	287
358	301
358	325
358	383
358	401
358	411
358	430
358	462
358	497
358	528
358	533
359	31
359	66
359	80
359	95
359	119
359	131
359	149
359	157
359	175
359	196
359	200
359	212
359	225
359	236
359	242
359	272
359	282
359	306
359	338
359	354
359	370
359	423
359	446
359	477
359	487
359	522
359	537
359	549
360	6
360	11
360	25
360	46
360	72
360	125
360	206
360	257
360	276
360	291
360	320
360	329
360	344
360	365
360	377
360	388
360	394
360	416
360	452
360	456
360	502
360	517
360	567
361	88
361	114
361	140
361	154
361	191
361	218
361	246
361	265
361	316
361	334
361	359
361	440
361	465
361	473
361	555
362	40
362	82
362	105
362	110
362	134
362	144
362	170
362	184
362	223
362	230
362	270
362	283
362	293
362	299
362	347
362	399
362	405
362	421
362	433
362	492
362	531
362	542
362	561
362	575
363	20
363	27
363	34
363	50
363	57
363	63
363	92
363	98
363	116
363	162
363	176
363	195
363	204
363	209
363	214
363	235
363	240
363	251
363	255
363	260
363	275
363	279
363	307
363	354
363	362
363	373
363	383
363	479
363	497
363	510
363	526
363	537
363	581
364	6
364	15
364	45
364	76
364	122
364	128
364	137
364	148
364	244
364	286
364	310
364	326
364	351
364	393
364	413
364	430
364	444
364	449
364	458
364	484
364	546
364	594
365	72
365	86
365	102
365	157
365	167
365	172
365	190
365	200
365	290
365	301
365	320
365	334
365	339
365	367
365	387
365	425
365	436
365	463
366	38
366	118
366	132
366	220
366	226
366	238
366	266
366	271
366	295
366	304
366	378
366	409
366	439
366	469
366	490
366	502
366	519
366	553
366	570
367	23
367	54
367	68
367	82
367	90
367	95
367	108
367	113
367	125
367	144
367	153
367	180
367	185
367	195
367	214
367	230
367	259
367	280
367	298
367	315
367	328
367	346
367	370
367	419
367	495
367	506
367	523
367	558
367	588
368	14
368	49
368	58
368	64
368	174
368	203
368	208
368	249
368	254
368	310
368	356
368	384
368	398
368	403
368	413
368	514
368	527
368	534
368	542
369	19
369	31
369	42
369	77
369	99
369	130
369	140
369	147
369	162
369	169
369	190
369	243
369	264
369	319
369	331
369	336
369	341
369	362
369	374
369	393
369	432
369	450
369	457
369	475
369	480
369	486
370	85
370	104
370	120
370	229
370	234
370	272
370	296
370	302
370	351
370	417
370	422
370	427
370	438
370	444
370	465
370	496
370	551
370	563
370	576
371	72
371	93
371	116
371	134
371	158
371	200
371	212
371	217
371	223
371	285
371	293
371	325
371	345
371	366
371	380
371	408
371	491
371	502
371	518
371	530
371	559
371	569
372	7
372	25
372	67
372	88
372	110
372	125
372	143
372	152
372	167
372	173
372	178
372	184
372	194
372	207
372	240
372	245
372	251
372	259
372	268
372	276
372	280
372	288
372	307
372	313
372	358
372	383
372	388
372	510
372	539
372	580
372	594
373	55
373	62
373	81
373	226
373	301
373	319
373	331
373	370
373	392
373	401
373	482
373	543
374	13
374	31
374	46
374	75
374	97
374	138
374	162
374	189
374	220
374	236
374	297
374	341
374	347
374	351
374	363
374	375
374	414
374	429
374	436
374	442
374	453
374	458
374	556
375	18
375	36
375	41
375	52
375	83
375	103
375	129
375	148
375	198
375	203
375	210
375	231
375	242
375	248
375	255
375	265
375	271
375	284
375	317
375	420
375	448
375	464
375	469
375	475
375	487
375	518
375	523
375	549
375	570
376	90
376	156
376	179
376	192
376	214
376	218
376	259
376	276
376	290
376	308
376	356
376	394
376	407
376	514
376	533
376	540
376	564
376	577
377	7
377	66
377	72
377	78
377	93
377	116
377	168
377	183
377	223
377	245
377	280
377	312
377	322
377	327
377	336
377	367
377	381
377	387
377	399
377	494
377	501
377	506
377	528
377	585
378	11
378	27
378	39
378	56
378	87
378	99
378	109
378	125
378	132
378	137
378	143
378	207
378	227
378	237
378	267
378	331
378	344
378	349
378	425
378	431
378	454
378	479
378	545
378	553
378	593
379	33
379	45
379	120
379	147
379	152
379	162
379	171
379	188
379	197
379	201
379	252
379	285
379	294
379	300
379	317
379	340
379	362
379	412
379	418
379	458
379	510
380	17
380	23
380	50
380	83
380	175
380	220
380	263
380	273
380	308
380	372
380	383
380	394
380	438
380	443
380	449
380	521
380	559
380	567
380	572
381	6
381	63
381	93
381	105
381	128
381	193
381	203
381	214
381	217
381	242
381	257
381	290
381	312
381	320
381	326
381	336
381	357
381	389
381	404
381	430
381	469
381	490
381	538
381	582
381	588
382	13
382	41
382	59
382	67
382	78
382	99
382	111
382	134
382	140
382	156
382	180
382	232
382	279
382	303
382	367
382	378
382	399
382	410
382	483
382	499
382	506
382	516
382	527
382	551
383	35
383	54
383	72
383	88
383	118
383	122
383	145
383	222
383	227
383	239
383	248
383	270
383	322
383	343
383	350
383	371
383	423
383	457
383	476
383	533
383	543
383	564
384	81
384	151
384	161
384	177
384	183
384	188
384	198
384	209
384	219
384	236
384	285
384	297
384	317
384	331
384	339
384	362
384	383
384	393
384	428
384	445
384	593
385	31
385	47
385	94
385	171
385	205
385	213
385	259
385	292
385	307
385	347
385	356
385	416
385	435
385	452
385	462
385	468
385	480
385	558
385	570
386	24
386	64
386	76
386	101
386	107
386	131
386	136
386	180
386	195
386	202
386	244
386	251
386	255
386	264
386	275
386	302
386	334
386	375
386	390
386	407
386	440
386	494
386	503
386	511
386	523
386	538
386	584
387	16
387	41
387	57
387	71
387	127
387	156
387	166
387	216
387	222
387	231
387	280
387	397
387	412
387	425
387	474
387	489
387	528
387	543
387	551
388	10
388	52
388	112
388	122
388	174
388	187
388	211
388	227
388	240
388	269
388	286
388	314
388	323
388	344
388	352
388	365
388	369
388	386
388	420
388	484
388	588
389	78
389	85
389	91
389	97
389	146
389	161
389	206
389	237
389	293
389	299
389	309
389	339
389	379
389	392
389	403
389	437
389	463
389	518
389	533
389	565
389	574
390	47
390	60
390	67
390	140
390	152
390	170
390	192
390	199
390	219
390	248
390	260
390	319
390	333
390	362
390	430
390	448
390	456
390	467
390	471
390	556
391	19
391	26
391	31
391	105
391	128
391	134
391	166
391	177
391	232
391	242
391	254
391	265
391	277
391	289
391	303
391	328
391	349
391	354
391	374
391	411
391	479
391	492
391	502
391	508
391	524
391	570
391	584
392	42
392	56
392	83
392	100
392	109
392	119
392	156
392	182
392	195
392	214
392	224
392	272
392	283
392	313
392	335
392	343
392	425
392	497
392	530
392	579
392	593
393	11
393	38
393	51
393	73
393	88
393	114
393	124
393	163
393	170
393	188
393	200
393	204
393	209
393	294
393	308
393	323
393	358
393	383
393	390
393	394
393	434
393	451
393	460
393	514
393	535
393	550
394	95
394	148
394	219
394	229
394	237
394	250
394	261
394	298
394	318
394	338
394	363
394	368
394	378
394	400
394	406
394	420
394	429
394	440
394	476
394	482
394	488
394	540
394	582
395	63
395	77
395	131
395	138
395	143
395	174
395	246
395	257
395	267
395	276
395	287
395	305
395	312
395	332
395	348
395	372
395	414
395	446
395	469
395	520
395	554
395	561
395	590
396	21
396	32
396	47
396	67
396	84
396	151
396	176
396	225
396	233
396	241
396	327
396	342
396	352
396	455
396	527
396	571
397	8
397	27
397	53
397	100
397	106
397	116
397	121
397	166
397	180
397	185
397	191
397	196
397	212
397	263
397	271
397	283
397	355
397	360
397	365
397	387
397	403
397	435
397	493
397	505
397	510
397	516
397	544
397	567
397	576
398	37
398	72
398	93
398	157
398	202
398	216
398	302
398	307
398	380
398	393
398	409
398	425
398	439
398	465
398	479
398	487
398	498
398	532
399	43
399	60
399	89
399	112
399	126
399	145
399	171
399	206
399	220
399	229
399	238
399	252
399	286
399	290
399	317
399	330
399	347
399	374
399	398
399	414
399	419
399	443
399	448
399	457
399	473
399	588
400	33
400	79
400	130
400	134
400	245
400	256
400	278
400	296
400	311
400	322
400	351
400	369
400	432
400	540
400	561
401	10
401	16
401	56
401	64
401	68
401	84
401	104
401	139
401	163
401	187
401	198
401	212
401	224
401	232
401	274
401	385
401	453
401	468
401	484
401	522
401	543
401	550
401	578
401	595
402	6
402	23
402	39
402	49
402	109
402	117
402	122
402	151
402	168
402	176
402	192
402	260
402	265
402	270
402	301
402	326
402	336
402	341
402	359
402	364
402	378
402	391
402	406
402	437
402	481
402	509
402	556
402	567
402	573
403	59
403	74
403	98
403	157
403	182
403	218
403	240
403	286
403	291
403	305
403	318
403	395
403	402
403	418
403	465
403	477
403	499
403	505
403	519
403	530
403	537
404	28
404	44
404	80
404	91
404	128
404	143
404	204
404	213
404	227
404	245
404	251
404	312
404	346
404	368
404	373
404	409
404	423
404	428
404	444
404	457
404	489
404	495
404	514
404	588
405	19
405	64
405	113
405	133
405	148
405	164
405	185
405	197
405	235
405	256
405	279
405	321
405	352
405	382
405	433
405	561
406	53
406	84
406	102
406	174
406	191
406	224
406	262
406	333
406	338
406	361
406	389
406	414
406	450
406	461
406	541
406	552
406	570
406	582
406	594
407	39
407	70
407	107
407	122
407	139
407	153
407	160
407	179
407	188
407	201
407	217
407	231
407	240
407	247
407	267
407	295
407	303
407	310
407	324
407	357
407	377
407	393
407	405
407	476
407	482
407	503
407	516
407	524
408	14
408	24
408	49
408	59
408	88
408	94
408	168
408	195
408	210
408	252
408	271
408	291
408	316
408	329
408	343
408	380
408	401
408	420
408	440
408	447
408	456
408	468
408	510
408	547
408	555
408	573
409	7
409	32
409	75
409	80
409	99
409	116
409	144
409	184
409	236
409	258
409	298
409	367
409	410
409	432
409	487
409	493
409	565
409	588
410	44
410	127
410	133
410	156
410	206
410	220
410	244
410	264
410	276
410	282
410	321
410	335
410	354
410	373
410	396
410	414
410	425
410	463
410	529
411	65
411	119
411	139
411	160
411	173
411	189
411	214
411	249
411	269
411	286
411	303
411	307
411	311
411	362
411	450
411	468
411	499
411	521
411	541
411	582
411	595
412	53
412	90
412	105
412	111
412	149
412	166
412	179
412	230
412	252
412	317
412	340
412	344
412	366
412	378
412	390
412	405
412	473
412	479
412	559
413	27
413	35
413	40
413	71
413	83
413	96
413	201
413	225
413	236
413	239
413	256
413	261
413	274
413	290
413	295
413	349
413	358
413	384
413	400
413	420
413	444
413	456
413	506
413	513
413	525
413	535
413	552
413	571
414	12
414	19
414	47
414	59
414	154
414	185
414	195
414	210
414	247
414	326
414	335
414	373
414	415
414	431
414	460
414	484
414	493
414	562
414	578
415	7
415	76
415	102
415	125
415	130
415	143
415	169
415	218
415	243
415	265
415	300
415	304
415	310
415	321
415	331
415	370
415	395
415	436
415	440
415	464
415	468
415	530
415	594
416	23
416	65
416	86
416	107
416	113
416	119
416	174
416	191
416	206
416	251
416	269
416	278
416	283
416	287
416	316
416	341
416	346
416	355
416	361
416	381
416	451
416	566
417	36
417	43
417	80
417	138
417	148
417	161
417	228
417	257
417	366
417	391
417	500
417	511
417	540
417	545
417	587
418	10
418	49
418	54
418	71
418	134
418	179
418	184
418	202
418	210
418	222
418	237
418	243
418	262
418	274
418	297
418	335
418	350
418	377
418	405
418	411
418	420
418	448
418	459
418	474
418	481
418	524
418	552
418	571
419	15
419	21
419	98
419	128
419	143
419	154
419	164
419	196
419	247
419	302
419	308
419	324
419	329
419	356
419	372
419	386
419	398
419	429
419	437
419	466
419	486
419	490
419	505
419	535
419	557
420	31
420	61
420	104
420	110
420	122
420	170
420	187
420	206
420	232
420	253
420	284
420	289
420	313
420	319
420	425
420	564
420	578
421	8
421	56
421	66
421	76
421	84
421	92
421	115
421	148
421	158
421	216
421	271
421	279
421	344
421	363
421	381
421	455
421	517
421	541
421	568
421	592
422	26
422	44
422	138
422	174
422	192
422	226
422	240
422	244
422	293
422	403
422	408
422	442
422	477
422	493
422	513
422	530
422	560
423	37
423	132
423	154
423	179
423	202
423	210
423	221
423	236
423	249
423	258
423	299
423	349
423	376
423	388
423	463
423	470
423	485
423	498
423	548
424	21
424	100
424	118
424	167
424	197
424	265
424	304
424	310
424	315
424	322
424	327
424	353
424	368
424	396
424	419
424	432
424	449
424	524
424	568
424	585
424	589
425	49
425	61
425	73
425	81
425	106
425	112
425	125
425	151
425	161
425	187
425	254
425	276
425	288
425	334
425	359
425	413
425	507
425	518
425	536
425	574
426	9
426	88
426	95
426	145
426	183
426	205
426	216
426	226
426	231
426	245
426	269
426	280
426	343
426	392
426	407
426	425
426	437
426	457
426	495
426	553
426	559
426	580
427	16
427	56
427	67
427	76
427	136
427	177
427	193
427	239
427	274
427	302
427	321
427	374
427	379
427	400
427	442
427	474
427	480
427	490
427	502
427	595
428	30
428	44
428	102
428	120
428	131
428	141
428	156
428	171
428	187
428	235
428	251
428	260
428	285
428	293
428	350
428	364
428	369
428	385
428	445
428	512
428	541
428	567
429	26
429	72
429	83
429	150
429	166
429	199
429	221
429	256
429	308
429	396
429	413
429	419
429	431
429	452
429	485
429	524
429	530
429	546
429	584
429	590
430	37
430	50
430	63
430	90
430	108
430	161
430	211
430	242
430	297
430	315
430	335
430	340
430	361
430	424
430	468
430	507
430	536
430	578
431	114
431	125
431	177
431	183
431	205
431	216
431	225
431	230
431	269
431	280
431	289
431	305
431	321
431	326
431	331
431	346
431	441
431	459
431	517
431	549
431	557
431	562
431	571
432	10
432	78
432	97
432	136
432	146
432	173
432	189
432	239
432	248
432	301
432	352
432	365
432	384
432	390
432	401
432	407
432	436
432	464
432	479
432	494
432	501
432	586
433	44
433	57
433	84
433	104
433	140
433	222
433	234
433	253
433	258
433	264
433	272
433	276
433	311
433	357
433	370
433	396
433	416
433	454
433	567
433	596
434	20
434	34
434	110
434	120
434	130
434	153
434	158
434	180
434	195
434	201
434	207
434	296
434	330
434	334
434	339
434	378
434	421
434	444
434	449
434	474
434	514
434	539
434	544
434	582
435	50
435	67
435	125
435	164
435	212
435	244
435	281
435	285
435	292
435	307
435	411
435	469
435	489
435	520
435	527
435	589
436	26
436	40
436	61
436	72
436	80
436	93
436	116
436	174
436	218
436	228
436	268
436	300
436	317
436	324
436	349
436	374
436	389
436	428
436	432
436	438
436	459
436	485
436	509
436	560
436	570
436	577
437	14
437	87
437	98
437	137
437	149
437	170
437	185
437	191
437	198
437	234
437	239
437	249
437	255
437	261
437	343
437	353
437	364
437	393
437	403
437	495
437	498
437	534
437	551
437	595
438	31
438	105
438	121
438	143
438	155
438	223
438	274
438	290
438	336
438	368
438	383
438	399
438	408
438	420
438	443
438	463
438	478
438	503
439	20
439	47
439	55
439	161
439	179
439	204
439	209
439	265
439	297
439	309
439	326
439	414
439	448
439	453
439	473
439	574
440	8
440	76
440	94
440	112
440	130
440	244
440	286
440	302
440	315
440	321
440	349
440	359
440	379
440	388
440	438
440	519
440	525
440	529
440	565
441	15
441	37
441	42
441	61
441	66
441	88
441	100
441	167
441	214
441	232
441	238
441	251
441	271
441	279
441	332
441	340
441	373
441	467
441	490
441	541
441	556
441	583
442	26
442	72
442	82
442	118
442	125
442	136
442	140
442	152
442	173
442	187
442	194
442	198
442	219
442	258
442	292
442	356
442	368
442	394
442	400
442	424
442	432
442	461
442	483
442	495
442	512
442	548
442	572
442	590
443	106
443	146
443	159
443	179
443	183
443	206
443	227
443	312
443	362
443	383
443	404
443	410
443	508
443	577
444	50
444	96
444	113
444	210
444	262
444	267
444	295
444	301
444	307
444	318
444	324
444	378
444	417
444	444
444	451
444	472
444	477
444	516
444	536
445	12
445	55
445	77
445	91
445	164
445	201
445	215
445	231
445	242
445	248
445	282
445	335
445	351
445	372
445	422
445	456
445	465
445	524
445	545
445	567
445	596
446	19
446	30
446	44
446	83
446	109
446	116
446	132
446	156
446	170
446	218
446	253
446	258
446	275
446	357
446	385
446	391
446	397
446	412
446	437
446	551
447	62
447	101
447	121
447	139
447	149
447	175
447	188
447	196
447	206
447	222
447	237
447	290
447	309
447	321
447	327
447	341
447	346
447	365
447	426
447	431
447	493
447	499
447	510
447	562
448	39
448	67
448	72
448	182
448	280
448	285
448	299
448	314
448	333
448	378
448	400
448	406
448	421
448	460
448	471
448	483
448	504
448	520
448	531
448	554
448	575
449	50
449	95
449	126
449	160
449	212
449	227
449	266
449	303
449	361
449	443
449	454
449	477
449	544
449	594
450	35
450	56
450	89
450	113
450	146
450	202
450	232
450	241
450	249
450	261
450	271
450	371
450	416
450	448
450	466
450	549
450	558
450	588
451	9
451	25
451	78
451	83
451	106
451	118
451	133
451	150
451	154
451	166
451	171
451	191
451	217
451	245
451	253
451	257
451	295
451	317
451	382
451	393
451	410
451	526
451	539
451	570
452	41
452	223
452	236
452	278
452	308
452	338
452	351
452	355
452	374
452	398
452	431
452	436
452	500
452	517
452	554
453	66
453	98
453	130
453	140
453	176
453	182
453	195
453	207
453	284
453	289
453	299
453	313
453	323
453	344
453	364
453	389
453	426
453	442
453	456
453	481
453	490
453	505
453	511
453	583
454	31
454	48
454	92
454	124
454	157
454	161
454	187
454	260
454	265
454	305
454	333
454	368
454	403
454	415
454	473
454	535
454	565
454	575
454	594
455	14
455	20
455	54
455	61
455	87
455	109
455	144
455	151
455	202
455	212
455	230
455	242
455	248
455	360
455	379
455	408
455	462
455	493
455	521
456	36
456	116
456	219
456	236
456	275
456	294
456	316
456	353
456	421
456	447
456	451
456	467
456	485
456	516
456	545
456	555
456	588
457	27
457	69
457	75
457	82
457	103
457	176
457	207
457	281
457	328
457	347
457	374
457	432
457	438
457	442
457	549
457	571
458	43
458	57
458	127
458	134
458	141
458	167
458	184
458	225
458	251
458	254
458	258
458	265
458	269
458	287
458	309
458	322
458	338
458	367
458	385
458	392
458	424
458	457
458	478
458	499
458	510
458	528
458	561
459	8
459	49
459	62
459	93
459	99
459	119
459	147
459	154
459	161
459	191
459	197
459	245
459	301
459	377
459	398
459	411
459	418
459	582
459	595
460	30
460	108
460	231
460	239
460	334
460	405
460	415
460	447
460	463
460	472
460	490
460	541
460	566
460	574
461	17
461	23
461	80
461	85
461	172
461	202
461	218
461	275
461	282
461	290
461	316
461	343
461	349
461	356
461	360
461	371
461	484
461	504
461	524
461	591
462	36
462	68
462	74
462	115
462	130
462	145
462	312
462	434
462	441
462	518
462	554
463	52
463	96
463	103
463	124
463	137
463	151
463	178
463	194
463	209
463	226
463	249
463	262
463	295
463	305
463	328
463	340
463	385
463	397
463	422
463	428
463	452
463	458
463	510
463	534
463	586
464	59
464	64
464	89
464	119
464	158
464	164
464	184
464	256
464	287
464	301
464	367
464	390
464	410
464	415
464	475
464	481
464	546
464	559
464	579
465	32
465	41
465	48
465	189
465	205
465	213
465	231
465	236
465	243
465	271
465	282
465	316
465	322
465	402
465	463
465	469
465	488
465	528
465	564
466	25
466	84
466	169
466	198
466	220
466	277
466	332
466	345
466	354
466	406
466	446
466	492
466	502
466	514
466	522
466	541
466	568
466	594
467	107
467	113
467	128
467	133
467	154
467	248
467	253
467	266
467	291
467	310
467	371
467	380
467	395
467	432
467	437
467	498
467	548
467	572
468	15
468	72
468	78
468	100
468	142
468	149
468	175
468	260
468	306
468	338
468	362
468	426
468	441
468	456
468	507
468	554
469	22
469	37
469	55
469	65
469	86
469	93
469	122
469	137
469	163
469	181
469	226
469	238
469	243
469	297
469	327
469	386
469	419
469	460
469	484
469	561
470	31
470	44
470	159
470	188
470	209
470	215
470	270
470	280
470	320
470	333
470	357
470	367
470	391
470	401
470	409
470	415
470	444
470	467
470	473
470	478
470	490
470	516
470	524
470	535
470	548
470	581
470	589
471	116
471	170
471	195
471	202
471	232
471	255
471	275
471	286
471	301
471	344
471	349
471	450
472	60
472	103
472	110
472	132
472	153
472	221
472	249
472	264
472	292
472	375
472	381
472	437
472	500
472	529
472	595
473	12
473	53
473	81
473	96
473	127
473	141
473	177
473	236
473	242
473	310
473	340
473	370
473	398
473	425
473	464
473	540
473	568
474	17
474	28
474	67
474	73
474	90
474	145
474	150
474	259
474	362
474	387
474	393
474	408
474	418
474	430
474	456
474	469
474	476
474	510
474	575
475	40
475	47
475	120
475	136
475	155
475	160
475	186
475	208
475	227
475	270
475	279
475	288
475	299
475	304
475	316
475	323
475	330
475	336
475	354
475	414
475	441
475	482
475	496
475	534
475	554
475	562
476	23
476	33
476	166
476	192
476	199
476	205
476	216
476	252
476	489
476	522
476	546
477	131
477	173
477	222
477	233
477	246
477	274
477	283
477	347
477	379
477	435
477	448
477	464
477	515
477	571
477	589
478	10
478	55
478	63
478	78
478	86
478	94
478	100
478	107
478	113
478	125
478	142
478	239
478	262
478	294
478	342
478	374
478	394
478	426
478	501
478	526
478	580
479	28
479	42
479	72
479	178
479	184
479	212
479	257
479	267
479	312
479	356
479	362
479	368
479	389
479	400
479	406
479	431
479	453
479	472
479	479
479	507
479	551
479	593
480	17
480	83
480	136
480	146
480	152
480	278
480	288
480	305
480	319
480	327
480	332
480	383
480	415
480	420
480	487
480	493
480	539
480	565
481	49
481	86
481	97
481	157
481	168
481	196
481	203
481	217
481	229
481	251
481	352
481	441
481	460
481	513
481	521
481	575
482	129
482	162
482	190
482	223
482	235
482	245
482	300
482	342
482	366
482	379
482	394
482	410
482	436
482	533
482	559
483	15
483	20
483	31
483	36
483	60
483	74
483	105
483	111
483	116
483	123
483	173
483	239
483	257
483	261
483	271
483	336
483	358
483	446
483	466
483	475
483	483
483	545
484	10
484	68
484	142
484	179
484	294
484	348
484	373
484	387
484	405
484	425
484	450
484	501
484	568
484	584
484	589
485	43
485	54
485	91
485	148
485	185
485	218
485	265
485	282
485	306
485	311
485	317
485	329
485	353
485	399
485	419
485	431
485	456
485	470
485	495
485	574
486	77
486	98
486	136
486	165
486	199
486	253
486	275
486	288
486	322
486	436
486	509
486	537
486	553
486	579
486	596
487	25
487	62
487	82
487	120
487	126
487	158
487	206
487	224
487	230
487	237
487	248
487	261
487	363
487	369
487	378
487	383
487	409
487	460
487	516
487	522
487	561
488	38
488	86
488	115
488	131
488	175
488	188
488	194
488	211
488	242
488	270
488	297
488	338
488	388
488	441
488	475
488	489
488	567
488	585
489	18
489	31
489	48
489	72
489	102
489	109
489	143
489	151
489	169
489	266
489	291
489	302
489	311
489	333
489	346
489	395
489	416
489	530
489	541
489	547
490	10
490	136
490	181
490	201
490	322
490	356
490	402
490	423
490	446
490	454
490	467
490	483
490	511
491	57
491	77
491	219
491	256
491	284
491	351
491	367
491	374
491	384
491	438
491	505
491	578
491	594
492	66
492	73
492	86
492	90
492	96
492	131
492	188
492	206
492	227
492	233
492	239
492	270
492	278
492	307
492	316
492	326
492	340
492	360
492	431
492	459
492	493
492	499
493	142
493	147
493	158
493	171
493	245
493	295
493	379
493	390
493	410
493	536
493	554
493	567
493	573
494	29
494	35
494	42
494	51
494	83
494	112
494	118
494	165
494	178
494	194
494	260
494	289
494	332
494	397
494	471
494	503
494	518
494	531
494	546
494	559
495	60
495	72
495	101
495	107
495	184
495	199
495	214
495	302
495	345
495	356
495	441
495	463
495	478
495	524
495	541
495	585
496	15
496	22
496	207
496	222
496	265
496	312
496	319
496	350
496	371
496	414
496	426
496	488
496	513
497	46
497	94
497	128
497	189
497	228
497	242
497	253
497	270
497	275
497	282
497	364
497	376
497	384
497	404
497	421
497	434
497	447
497	454
497	467
497	508
497	596
498	77
498	88
498	121
498	137
498	150
498	160
498	171
498	182
498	237
498	248
498	299
498	341
498	393
498	475
498	481
498	496
498	503
498	535
499	64
499	117
499	143
499	292
499	325
499	337
499	387
499	519
499	526
499	539
499	549
499	570
500	27
500	166
500	178
500	192
500	198
500	204
500	211
500	258
500	307
500	333
500	353
500	375
500	380
500	398
500	409
500	544
500	556
500	563
500	578
501	34
501	40
501	51
501	57
501	70
501	83
501	99
501	110
501	154
501	219
501	232
501	287
501	316
501	348
501	359
501	368
501	441
501	459
501	507
501	590
502	11
502	19
502	125
502	131
502	226
502	243
502	264
502	280
502	364
502	425
502	448
502	464
502	513
502	532
502	596
503	93
503	182
503	252
503	270
503	320
503	391
503	404
503	415
503	432
503	471
503	478
503	485
503	489
504	76
504	103
504	115
504	136
504	144
504	161
504	171
504	303
504	312
504	339
504	344
504	501
504	542
504	547
504	570
505	23
505	46
505	85
505	186
505	275
505	328
505	334
505	420
505	454
505	552
505	577
506	14
506	30
506	53
506	65
506	119
506	176
506	196
506	201
506	206
506	211
506	217
506	238
506	258
506	291
506	353
506	366
506	373
506	380
506	397
506	496
506	520
506	527
506	559
506	592
507	9
507	37
507	60
507	70
507	97
507	109
507	149
507	166
507	223
507	232
507	245
507	251
507	359
507	386
507	412
507	429
507	436
507	442
507	508
507	535
507	582
508	126
508	133
508	155
508	181
508	269
508	279
508	285
508	297
508	323
508	349
508	449
508	460
508	474
508	479
508	512
508	529
509	81
509	90
509	139
509	191
509	303
509	317
509	407
509	467
509	486
509	564
510	102
510	113
510	159
510	241
510	263
510	343
510	382
510	391
510	416
510	425
510	492
510	524
510	548
510	572
511	24
511	49
511	120
511	171
511	186
511	212
511	228
511	309
511	335
511	364
511	370
511	376
511	394
511	499
511	506
511	531
511	540
511	576
512	10
512	32
512	41
512	56
512	75
512	85
512	96
512	143
512	165
512	176
512	197
512	203
512	219
512	255
512	274
512	329
512	355
512	410
512	432
512	535
512	554
512	560
512	567
513	68
513	107
513	130
513	225
513	268
513	283
513	289
513	313
513	346
513	400
513	440
513	447
513	456
513	517
513	593
514	15
514	62
514	150
514	207
514	236
514	248
514	324
514	386
514	405
514	420
514	463
514	474
514	529
514	580
514	587
515	91
515	136
515	179
515	190
515	232
515	264
515	278
515	296
515	301
515	319
515	340
515	360
515	366
515	469
515	501
515	512
515	545
516	42
516	52
516	80
516	102
516	124
516	161
516	172
516	194
516	214
516	334
516	373
516	380
516	392
516	428
516	435
516	481
516	494
516	506
516	522
516	539
516	551
516	559
516	573
517	46
517	98
517	111
517	166
517	220
517	253
517	258
517	351
517	415
517	487
517	565
518	21
518	28
518	35
518	73
518	117
518	131
518	145
518	150
518	185
518	226
518	241
518	327
518	398
518	499
518	533
519	59
519	85
519	139
519	155
519	203
519	271
519	284
519	310
519	344
519	371
519	409
519	419
519	451
519	457
519	536
519	594
520	38
520	66
520	104
520	174
520	191
520	197
520	236
520	264
520	277
520	292
520	316
520	322
520	357
520	376
520	443
520	464
520	475
520	516
520	562
520	584
521	42
521	51
521	180
521	209
521	248
521	299
521	304
521	338
521	367
521	384
521	390
521	402
521	431
521	482
521	528
521	556
521	578
522	78
522	122
522	149
522	161
522	169
522	230
522	254
522	332
522	362
522	423
522	471
522	493
522	511
522	522
522	541
522	548
523	92
523	135
523	214
523	224
523	414
523	437
523	504
523	567
524	16
524	24
524	97
524	110
524	129
524	185
524	327
524	350
524	396
524	552
525	31
525	37
525	145
525	192
525	220
525	238
525	244
525	260
525	266
525	274
525	281
525	287
525	344
525	446
525	454
525	460
525	488
526	11
526	71
526	116
526	141
526	176
526	198
526	205
526	295
526	312
526	320
526	336
526	357
526	371
526	378
526	385
526	407
526	467
526	498
526	508
526	519
526	526
526	557
526	581
527	51
527	59
527	83
527	90
527	103
527	122
527	154
527	166
527	232
527	250
527	300
527	430
527	513
527	533
527	545
527	562
527	574
528	44
528	65
528	134
528	210
528	306
528	351
528	364
528	391
528	401
528	419
528	439
528	473
528	479
528	552
529	147
529	160
529	170
529	181
529	226
529	256
529	291
529	325
529	374
529	412
529	424
529	492
529	569
530	21
530	96
530	110
530	128
530	216
530	263
530	278
530	331
530	342
530	504
530	540
530	593
531	77
531	187
531	202
531	240
531	268
531	284
531	296
531	335
531	368
531	396
531	446
531	462
531	486
531	499
531	509
531	515
532	10
532	37
532	61
532	70
532	90
532	177
532	193
532	207
532	221
532	235
532	315
532	347
532	358
532	380
532	387
532	452
532	469
532	522
532	528
532	577
532	585
533	29
533	56
533	83
533	102
533	122
533	138
533	143
533	213
533	228
533	248
533	301
533	309
533	401
533	430
533	534
533	543
533	548
533	554
534	44
534	154
534	160
534	183
534	197
534	253
534	259
534	272
534	321
534	327
534	371
534	407
534	475
534	502
535	132
535	171
535	289
535	338
535	363
535	418
535	424
535	441
535	481
535	495
535	511
535	565
536	18
536	22
536	26
536	50
536	95
536	107
536	113
536	244
536	278
536	333
536	353
536	378
536	392
536	461
536	467
536	557
537	66
537	74
537	81
537	126
537	147
537	165
537	187
537	203
537	209
537	216
537	238
537	265
537	296
537	344
537	383
537	435
537	449
537	489
537	518
537	525
537	532
537	579
537	589
538	31
538	38
538	59
538	88
538	119
538	223
538	232
538	307
538	314
538	319
538	360
538	368
538	388
538	398
538	507
538	539
538	551
539	142
539	158
539	177
539	251
539	283
539	300
539	327
539	374
539	410
539	421
539	428
539	456
539	477
539	484
539	545
539	573
540	46
540	53
540	103
540	184
540	258
540	272
540	403
540	442
540	493
540	563
541	95
541	152
541	192
541	198
541	277
541	290
541	340
541	348
541	392
541	414
541	465
541	501
541	514
541	558
542	171
542	212
542	234
542	246
542	310
542	472
542	518
543	36
543	110
543	123
543	134
543	204
543	219
543	229
543	240
543	266
543	324
543	332
543	354
543	381
543	438
543	484
543	526
543	533
544	71
544	78
544	98
544	163
544	284
544	296
544	303
544	360
544	373
544	386
544	426
544	432
544	489
544	507
544	540
545	32
545	43
545	64
545	84
545	91
545	116
545	139
545	181
545	250
545	337
545	367
545	396
545	407
545	453
545	477
545	551
545	575
546	48
546	58
546	104
546	126
546	145
546	157
546	174
546	187
546	201
546	256
546	271
546	316
546	346
546	418
546	442
546	461
546	467
546	515
546	545
546	562
546	569
547	194
547	208
547	222
547	265
547	279
547	403
547	485
547	496
548	111
548	168
548	229
548	235
548	240
548	289
548	311
548	333
548	449
548	503
548	522
548	529
549	75
549	151
549	162
549	215
549	244
549	321
549	327
549	342
549	357
549	373
549	379
549	390
549	412
549	436
549	481
549	490
549	556
550	52
550	98
550	134
550	185
550	200
550	302
550	307
550	352
550	363
550	423
550	429
550	473
550	511
550	542
551	48
551	89
551	118
551	141
551	172
551	178
551	249
551	262
551	268
551	285
551	295
551	335
551	346
551	369
551	397
551	417
551	439
551	458
551	478
551	519
551	549
551	560
551	568
552	66
552	83
552	159
552	193
552	223
552	254
552	276
552	465
552	485
552	506
553	105
553	130
553	148
553	188
553	206
553	228
553	234
553	241
553	281
553	313
553	321
553	377
553	405
553	446
553	492
553	513
553	526
554	57
554	72
554	80
554	101
554	113
554	165
554	183
554	212
554	290
554	307
554	332
554	340
554	350
554	384
554	392
554	428
554	435
554	453
554	500
554	537
554	554
554	577
555	126
555	156
555	177
555	247
555	344
555	358
555	398
555	421
555	470
555	476
555	482
556	68
556	85
556	92
556	134
556	143
556	218
556	258
556	269
556	293
556	300
556	365
556	456
556	488
556	519
556	544
556	565
557	62
557	74
557	119
557	147
557	172
557	187
557	192
557	201
557	207
557	225
557	234
557	238
557	243
557	251
557	263
557	273
557	278
557	310
557	314
557	321
557	353
557	371
557	411
557	443
557	461
557	494
557	505
557	512
557	528
557	561
