%!PS-Adobe-3.0 EPSF-3.0
%%Creator: (MATLAB, The Mathworks, Inc. Version 9.10.0.1649659 \(R2021a\) Update 1. Operating System: Windows 10)
%%Title: (C:/Users/sjenks/Box/APLab-Projects/Sam/ReinigerAnalysis/VSS2023 Figures/PCDCDC_DistVM.eps)
%%CreationDate: 2022-12-05T13:54:12
%%Pages: (atend)
%%BoundingBox:     0     0   420   315
%%LanguageLevel: 3
%%EndComments
%%BeginProlog
%%BeginResource: procset (Apache XML Graphics Std ProcSet) 1.2 0
%%Version: 1.2 0
%%Copyright: (Copyright 2001-2003,2010 The Apache Software Foundation. License terms: http://www.apache.org/licenses/LICENSE-2.0)
/bd{bind def}bind def
/ld{load def}bd
/GR/grestore ld
/GS/gsave ld
/RM/rmoveto ld
/C/curveto ld
/t/show ld
/L/lineto ld
/ML/setmiterlimit ld
/CT/concat ld
/f/fill ld
/N/newpath ld
/S/stroke ld
/CC/setcmykcolor ld
/A/ashow ld
/cp/closepath ld
/RC/setrgbcolor ld
/LJ/setlinejoin ld
/GC/setgray ld
/LW/setlinewidth ld
/M/moveto ld
/re {4 2 roll M
1 index 0 rlineto
0 exch rlineto
neg 0 rlineto
cp } bd
/_ctm matrix def
/_tm matrix def
/BT { _ctm currentmatrix pop matrix _tm copy pop 0 0 moveto } bd
/ET { _ctm setmatrix } bd
/iTm { _ctm setmatrix _tm concat } bd
/Tm { _tm astore pop iTm 0 0 moveto } bd
/ux 0.0 def
/uy 0.0 def
/F {
  /Tp exch def
  /Tf exch def
  Tf findfont Tp scalefont setfont
  /cf Tf def  /cs Tp def
} bd
/ULS {currentpoint /uy exch def /ux exch def} bd
/ULE {
  /Tcx currentpoint pop def
  gsave
  newpath
  cf findfont cs scalefont dup
  /FontMatrix get 0 get /Ts exch def /FontInfo get dup
  /UnderlinePosition get Ts mul /To exch def
  /UnderlineThickness get Ts mul /Tt exch def
  ux uy To add moveto  Tcx uy To add lineto
  Tt setlinewidth stroke
  grestore
} bd
/OLE {
  /Tcx currentpoint pop def
  gsave
  newpath
  cf findfont cs scalefont dup
  /FontMatrix get 0 get /Ts exch def /FontInfo get dup
  /UnderlinePosition get Ts mul /To exch def
  /UnderlineThickness get Ts mul /Tt exch def
  ux uy To add cs add moveto Tcx uy To add cs add lineto
  Tt setlinewidth stroke
  grestore
} bd
/SOE {
  /Tcx currentpoint pop def
  gsave
  newpath
  cf findfont cs scalefont dup
  /FontMatrix get 0 get /Ts exch def /FontInfo get dup
  /UnderlinePosition get Ts mul /To exch def
  /UnderlineThickness get Ts mul /Tt exch def
  ux uy To add cs 10 mul 26 idiv add moveto Tcx uy To add cs 10 mul 26 idiv add lineto
  Tt setlinewidth stroke
  grestore
} bd
/QT {
/Y22 exch store
/X22 exch store
/Y21 exch store
/X21 exch store
currentpoint
/Y21 load 2 mul add 3 div exch
/X21 load 2 mul add 3 div exch
/X21 load 2 mul /X22 load add 3 div
/Y21 load 2 mul /Y22 load add 3 div
/X22 load /Y22 load curveto
} bd
/SSPD {
dup length /d exch dict def
{
/v exch def
/k exch def
currentpagedevice k known {
/cpdv currentpagedevice k get def
v cpdv ne {
/upd false def
/nullv v type /nulltype eq def
/nullcpdv cpdv type /nulltype eq def
nullv nullcpdv or
{
/upd true def
} {
/sametype v type cpdv type eq def
sametype {
v type /arraytype eq {
/vlen v length def
/cpdvlen cpdv length def
vlen cpdvlen eq {
0 1 vlen 1 sub {
/i exch def
/obj v i get def
/cpdobj cpdv i get def
obj cpdobj ne {
/upd true def
exit
} if
} for
} {
/upd true def
} ifelse
} {
v type /dicttype eq {
v {
/dv exch def
/dk exch def
/cpddv cpdv dk get def
dv cpddv ne {
/upd true def
exit
} if
} forall
} {
/upd true def
} ifelse
} ifelse
} if
} ifelse
upd true eq {
d k v put
} if
} if
} if
} forall
d length 0 gt {
d setpagedevice
} if
} bd
/RE { % /NewFontName [NewEncodingArray] /FontName RE -
  findfont dup length dict begin
  {
    1 index /FID ne
    {def} {pop pop} ifelse
  } forall
  /Encoding exch def
  /FontName 1 index def
  currentdict definefont pop
  end
} bind def
%%EndResource
%%BeginResource: procset (Apache XML Graphics EPS ProcSet) 1.0 0
%%Version: 1.0 0
%%Copyright: (Copyright 2002-2003 The Apache Software Foundation. License terms: http://www.apache.org/licenses/LICENSE-2.0)
/BeginEPSF { %def
/b4_Inc_state save def         % Save state for cleanup
/dict_count countdictstack def % Count objects on dict stack
/op_count count 1 sub def      % Count objects on operand stack
userdict begin                 % Push userdict on dict stack
/showpage { } def              % Redefine showpage, { } = null proc
0 setgray 0 setlinecap         % Prepare graphics state
1 setlinewidth 0 setlinejoin
10 setmiterlimit [ ] 0 setdash newpath
/languagelevel where           % If level not equal to 1 then
{pop languagelevel             % set strokeadjust and
1 ne                           % overprint to their defaults.
{false setstrokeadjust false setoverprint
} if
} if
} bd
/EndEPSF { %def
count op_count sub {pop} repeat            % Clean up stacks
countdictstack dict_count sub {end} repeat
b4_Inc_state restore
} bd
%%EndResource
%FOPBeginFontDict
%%IncludeResource: font Courier-Oblique
%%IncludeResource: font Courier-BoldOblique
%%IncludeResource: font Courier-Bold
%%IncludeResource: font ZapfDingbats
%%IncludeResource: font Symbol
%%IncludeResource: font Helvetica
%%IncludeResource: font Helvetica-Oblique
%%IncludeResource: font Helvetica-Bold
%%IncludeResource: font Helvetica-BoldOblique
%%IncludeResource: font Times-Roman
%%IncludeResource: font Times-Italic
%%IncludeResource: font Times-Bold
%%IncludeResource: font Times-BoldItalic
%%IncludeResource: font Courier
%FOPEndFontDict
%%BeginResource: encoding WinAnsiEncoding
/WinAnsiEncoding [
/.notdef /.notdef /.notdef /.notdef /.notdef
/.notdef /.notdef /.notdef /.notdef /.notdef
/.notdef /.notdef /.notdef /.notdef /.notdef
/.notdef /.notdef /.notdef /.notdef /.notdef
/.notdef /.notdef /.notdef /.notdef /.notdef
/.notdef /.notdef /.notdef /.notdef /.notdef
/.notdef /.notdef /space /exclam /quotedbl
/numbersign /dollar /percent /ampersand /quotesingle
/parenleft /parenright /asterisk /plus /comma
/hyphen /period /slash /zero /one
/two /three /four /five /six
/seven /eight /nine /colon /semicolon
/less /equal /greater /question /at
/A /B /C /D /E
/F /G /H /I /J
/K /L /M /N /O
/P /Q /R /S /T
/U /V /W /X /Y
/Z /bracketleft /backslash /bracketright /asciicircum
/underscore /quoteleft /a /b /c
/d /e /f /g /h
/i /j /k /l /m
/n /o /p /q /r
/s /t /u /v /w
/x /y /z /braceleft /bar
/braceright /asciitilde /bullet /Euro /bullet
/quotesinglbase /florin /quotedblbase /ellipsis /dagger
/daggerdbl /circumflex /perthousand /Scaron /guilsinglleft
/OE /bullet /Zcaron /bullet /bullet
/quoteleft /quoteright /quotedblleft /quotedblright /bullet
/endash /emdash /asciitilde /trademark /scaron
/guilsinglright /oe /bullet /zcaron /Ydieresis
/space /exclamdown /cent /sterling /currency
/yen /brokenbar /section /dieresis /copyright
/ordfeminine /guillemotleft /logicalnot /sfthyphen /registered
/macron /degree /plusminus /twosuperior /threesuperior
/acute /mu /paragraph /middot /cedilla
/onesuperior /ordmasculine /guillemotright /onequarter /onehalf
/threequarters /questiondown /Agrave /Aacute /Acircumflex
/Atilde /Adieresis /Aring /AE /Ccedilla
/Egrave /Eacute /Ecircumflex /Edieresis /Igrave
/Iacute /Icircumflex /Idieresis /Eth /Ntilde
/Ograve /Oacute /Ocircumflex /Otilde /Odieresis
/multiply /Oslash /Ugrave /Uacute /Ucircumflex
/Udieresis /Yacute /Thorn /germandbls /agrave
/aacute /acircumflex /atilde /adieresis /aring
/ae /ccedilla /egrave /eacute /ecircumflex
/edieresis /igrave /iacute /icircumflex /idieresis
/eth /ntilde /ograve /oacute /ocircumflex
/otilde /odieresis /divide /oslash /ugrave
/uacute /ucircumflex /udieresis /yacute /thorn
/ydieresis
] def
%%EndResource
%FOPBeginFontReencode
/Courier-Oblique findfont
dup length dict begin
  {1 index /FID ne {def} {pop pop} ifelse} forall
  /Encoding WinAnsiEncoding def
  currentdict
end
/Courier-Oblique exch definefont pop
/Courier-BoldOblique findfont
dup length dict begin
  {1 index /FID ne {def} {pop pop} ifelse} forall
  /Encoding WinAnsiEncoding def
  currentdict
end
/Courier-BoldOblique exch definefont pop
/Courier-Bold findfont
dup length dict begin
  {1 index /FID ne {def} {pop pop} ifelse} forall
  /Encoding WinAnsiEncoding def
  currentdict
end
/Courier-Bold exch definefont pop
/Helvetica findfont
dup length dict begin
  {1 index /FID ne {def} {pop pop} ifelse} forall
  /Encoding WinAnsiEncoding def
  currentdict
end
/Helvetica exch definefont pop
/Helvetica-Oblique findfont
dup length dict begin
  {1 index /FID ne {def} {pop pop} ifelse} forall
  /Encoding WinAnsiEncoding def
  currentdict
end
/Helvetica-Oblique exch definefont pop
/Helvetica-Bold findfont
dup length dict begin
  {1 index /FID ne {def} {pop pop} ifelse} forall
  /Encoding WinAnsiEncoding def
  currentdict
end
/Helvetica-Bold exch definefont pop
/Helvetica-BoldOblique findfont
dup length dict begin
  {1 index /FID ne {def} {pop pop} ifelse} forall
  /Encoding WinAnsiEncoding def
  currentdict
end
/Helvetica-BoldOblique exch definefont pop
/Times-Roman findfont
dup length dict begin
  {1 index /FID ne {def} {pop pop} ifelse} forall
  /Encoding WinAnsiEncoding def
  currentdict
end
/Times-Roman exch definefont pop
/Times-Italic findfont
dup length dict begin
  {1 index /FID ne {def} {pop pop} ifelse} forall
  /Encoding WinAnsiEncoding def
  currentdict
end
/Times-Italic exch definefont pop
/Times-Bold findfont
dup length dict begin
  {1 index /FID ne {def} {pop pop} ifelse} forall
  /Encoding WinAnsiEncoding def
  currentdict
end
/Times-Bold exch definefont pop
/Times-BoldItalic findfont
dup length dict begin
  {1 index /FID ne {def} {pop pop} ifelse} forall
  /Encoding WinAnsiEncoding def
  currentdict
end
/Times-BoldItalic exch definefont pop
/Courier findfont
dup length dict begin
  {1 index /FID ne {def} {pop pop} ifelse} forall
  /Encoding WinAnsiEncoding def
  currentdict
end
/Courier exch definefont pop
%FOPEndFontReencode
%%EndProlog
%%Page: 1 1
%%PageBoundingBox: 0 0 420 315
%%BeginPageSetup
[1 0 0 -1 0 315] CT
%%EndPageSetup
GS
[0.75 0 0 0.75 0 0] CT
1 GC
N
0 0 560 420 re
f
GR
GS
[0.75 0 0 0.75 0 0] CT
1 GC
N
0 0 560 420 re
f
GR
GS
[0.75 0 0 0.75 0 0] CT
1 GC
N
73 374 M
507 374 L
507 31 L
73 31 L
cp
f
GR
GS
[0.75 0 0 0.75 0 0] CT
0.149 GC
2 setlinecap
1 LJ
0.667 LW
N
73 374 M
507 374 L
S
GR
GS
[0.75 0 0 0.75 0 0] CT
0.149 GC
2 setlinecap
1 LJ
0.667 LW
N
73 31 M
507 31 L
S
GR
GS
[0.75 0 0 0.75 0 0] CT
0.149 GC
2 setlinecap
1 LJ
0.667 LW
N
73 374 M
73 369.66 L
S
GR
GS
[0.75 0 0 0.75 0 0] CT
0.149 GC
2 setlinecap
1 LJ
0.667 LW
N
121.222 374 M
121.222 369.66 L
S
GR
GS
[0.75 0 0 0.75 0 0] CT
0.149 GC
2 setlinecap
1 LJ
0.667 LW
N
169.444 374 M
169.444 369.66 L
S
GR
GS
[0.75 0 0 0.75 0 0] CT
0.149 GC
2 setlinecap
1 LJ
0.667 LW
N
217.667 374 M
217.667 369.66 L
S
GR
GS
[0.75 0 0 0.75 0 0] CT
0.149 GC
2 setlinecap
1 LJ
0.667 LW
N
265.889 374 M
265.889 369.66 L
S
GR
GS
[0.75 0 0 0.75 0 0] CT
0.149 GC
2 setlinecap
1 LJ
0.667 LW
N
314.111 374 M
314.111 369.66 L
S
GR
GS
[0.75 0 0 0.75 0 0] CT
0.149 GC
2 setlinecap
1 LJ
0.667 LW
N
362.333 374 M
362.333 369.66 L
S
GR
GS
[0.75 0 0 0.75 0 0] CT
0.149 GC
2 setlinecap
1 LJ
0.667 LW
N
410.556 374 M
410.556 369.66 L
S
GR
GS
[0.75 0 0 0.75 0 0] CT
0.149 GC
2 setlinecap
1 LJ
0.667 LW
N
458.778 374 M
458.778 369.66 L
S
GR
GS
[0.75 0 0 0.75 0 0] CT
0.149 GC
2 setlinecap
1 LJ
0.667 LW
N
507 374 M
507 369.66 L
S
GR
GS
[0.75 0 0 0.75 0 0] CT
0.149 GC
2 setlinecap
1 LJ
0.667 LW
N
73 31 M
73 35.34 L
S
GR
GS
[0.75 0 0 0.75 0 0] CT
0.149 GC
2 setlinecap
1 LJ
0.667 LW
N
121.222 31 M
121.222 35.34 L
S
GR
GS
[0.75 0 0 0.75 0 0] CT
0.149 GC
2 setlinecap
1 LJ
0.667 LW
N
169.444 31 M
169.444 35.34 L
S
GR
GS
[0.75 0 0 0.75 0 0] CT
0.149 GC
2 setlinecap
1 LJ
0.667 LW
N
217.667 31 M
217.667 35.34 L
S
GR
GS
[0.75 0 0 0.75 0 0] CT
0.149 GC
2 setlinecap
1 LJ
0.667 LW
N
265.889 31 M
265.889 35.34 L
S
GR
GS
[0.75 0 0 0.75 0 0] CT
0.149 GC
2 setlinecap
1 LJ
0.667 LW
N
314.111 31 M
314.111 35.34 L
S
GR
GS
[0.75 0 0 0.75 0 0] CT
0.149 GC
2 setlinecap
1 LJ
0.667 LW
N
362.333 31 M
362.333 35.34 L
S
GR
GS
[0.75 0 0 0.75 0 0] CT
0.149 GC
2 setlinecap
1 LJ
0.667 LW
N
410.556 31 M
410.556 35.34 L
S
GR
GS
[0.75 0 0 0.75 0 0] CT
0.149 GC
2 setlinecap
1 LJ
0.667 LW
N
458.778 31 M
458.778 35.34 L
S
GR
GS
[0.75 0 0 0.75 0 0] CT
0.149 GC
2 setlinecap
1 LJ
0.667 LW
N
507 31 M
507 35.34 L
S
GR
GS
[0.75 0 0 0.75 54.75 284.50003] CT
0.149 GC
/Helvetica 13.333 F
GS
[1 0 0 1 0 0] CT
-10 14 moveto 
1 -1 scale
(-20) t 
GR
GR
GS
[0.75 0 0 0.75 90.91667 284.50003] CT
0.149 GC
/Helvetica 13.333 F
GS
[1 0 0 1 0 0] CT
-10 14 moveto 
1 -1 scale
(-15) t 
GR
GR
GS
[0.75 0 0 0.75 127.08333 284.50003] CT
0.149 GC
/Helvetica 13.333 F
GS
[1 0 0 1 0 0] CT
-10 14 moveto 
1 -1 scale
(-10) t 
GR
GR
GS
[0.75 0 0 0.75 163.25 284.50003] CT
0.149 GC
/Helvetica 13.333 F
GS
[1 0 0 1 0 0] CT
-6 14 moveto 
1 -1 scale
(-5) t 
GR
GR
GS
[0.75 0 0 0.75 199.41666 284.50003] CT
0.149 GC
/Helvetica 13.333 F
GS
[1 0 0 1 0 0] CT
-4 14 moveto 
1 -1 scale
(0) t 
GR
GR
GS
[0.75 0 0 0.75 235.58334 284.50003] CT
0.149 GC
/Helvetica 13.333 F
GS
[1 0 0 1 0 0] CT
-4 14 moveto 
1 -1 scale
(5) t 
GR
GR
GS
[0.75 0 0 0.75 271.75001 284.50003] CT
0.149 GC
/Helvetica 13.333 F
GS
[1 0 0 1 0 0] CT
-7.5 14 moveto 
1 -1 scale
(10) t 
GR
GR
GS
[0.75 0 0 0.75 307.91666 284.50003] CT
0.149 GC
/Helvetica 13.333 F
GS
[1 0 0 1 0 0] CT
-7.5 14 moveto 
1 -1 scale
(15) t 
GR
GR
GS
[0.75 0 0 0.75 344.08333 284.50003] CT
0.149 GC
/Helvetica 13.333 F
GS
[1 0 0 1 0 0] CT
-7.5 14 moveto 
1 -1 scale
(20) t 
GR
GR
GS
[0.75 0 0 0.75 380.25 284.50003] CT
0.149 GC
/Helvetica 13.333 F
GS
[1 0 0 1 0 0] CT
-7.5 14 moveto 
1 -1 scale
(25) t 
GR
GR
GS
[0.75 0 0 0.75 217.50016 298.24999] CT
0.149 GC
/Helvetica 14.667 F
GS
[1 0 0 1 0 0] CT
-52 15 moveto 
1 -1 scale
(eccentricity\(arc\)) t 
GR
GR
GS
[0.75 0 0 0.75 0 0] CT
0.149 GC
2 setlinecap
1 LJ
0.667 LW
N
73 374 M
73 31 L
S
GR
GS
[0.75 0 0 0.75 0 0] CT
0.149 GC
2 setlinecap
1 LJ
0.667 LW
N
507 374 M
507 31 L
S
GR
GS
[0.75 0 0 0.75 0 0] CT
0.149 GC
2 setlinecap
1 LJ
0.667 LW
N
73 374 M
77.34 374 L
S
GR
GS
[0.75 0 0 0.75 0 0] CT
0.149 GC
2 setlinecap
1 LJ
0.667 LW
N
73 316.833 M
77.34 316.833 L
S
GR
GS
[0.75 0 0 0.75 0 0] CT
0.149 GC
2 setlinecap
1 LJ
0.667 LW
N
73 259.667 M
77.34 259.667 L
S
GR
GS
[0.75 0 0 0.75 0 0] CT
0.149 GC
2 setlinecap
1 LJ
0.667 LW
N
73 202.5 M
77.34 202.5 L
S
GR
GS
[0.75 0 0 0.75 0 0] CT
0.149 GC
2 setlinecap
1 LJ
0.667 LW
N
73 145.333 M
77.34 145.333 L
S
GR
GS
[0.75 0 0 0.75 0 0] CT
0.149 GC
2 setlinecap
1 LJ
0.667 LW
N
73 88.167 M
77.34 88.167 L
S
GR
GS
[0.75 0 0 0.75 0 0] CT
0.149 GC
2 setlinecap
1 LJ
0.667 LW
N
73 31 M
77.34 31 L
S
GR
GS
[0.75 0 0 0.75 0 0] CT
0.149 GC
2 setlinecap
1 LJ
0.667 LW
N
507 374 M
502.66 374 L
S
GR
GS
[0.75 0 0 0.75 0 0] CT
0.149 GC
2 setlinecap
1 LJ
0.667 LW
N
507 316.833 M
502.66 316.833 L
S
GR
GS
[0.75 0 0 0.75 0 0] CT
0.149 GC
2 setlinecap
1 LJ
0.667 LW
N
507 259.667 M
502.66 259.667 L
S
GR
GS
[0.75 0 0 0.75 0 0] CT
0.149 GC
2 setlinecap
1 LJ
0.667 LW
N
507 202.5 M
502.66 202.5 L
S
GR
GS
[0.75 0 0 0.75 0 0] CT
0.149 GC
2 setlinecap
1 LJ
0.667 LW
N
507 145.333 M
502.66 145.333 L
S
GR
GS
[0.75 0 0 0.75 0 0] CT
0.149 GC
2 setlinecap
1 LJ
0.667 LW
N
507 88.167 M
502.66 88.167 L
S
GR
GS
[0.75 0 0 0.75 0 0] CT
0.149 GC
2 setlinecap
1 LJ
0.667 LW
N
507 31 M
502.66 31 L
S
GR
GS
[0.75 0 0 0.75 50.75 280.5] CT
0.149 GC
/Helvetica 13.333 F
GS
[1 0 0 1 0 0] CT
-19 5.5 moveto 
1 -1 scale
(0.9) t 
GR
GR
GS
[0.75 0 0 0.75 50.75 237.62501] CT
0.149 GC
/Helvetica 13.333 F
GS
[1 0 0 1 0 0] CT
-8 5.5 moveto 
1 -1 scale
(1) t 
GR
GR
GS
[0.75 0 0 0.75 50.75 194.74999] CT
0.149 GC
/Helvetica 13.333 F
GS
[1 0 0 1 0 0] CT
-19 5.5 moveto 
1 -1 scale
(1.1) t 
GR
GR
GS
[0.75 0 0 0.75 50.75 151.875] CT
0.149 GC
/Helvetica 13.333 F
GS
[1 0 0 1 0 0] CT
-19 5.5 moveto 
1 -1 scale
(1.2) t 
GR
GR
GS
[0.75 0 0 0.75 50.75 109] CT
0.149 GC
/Helvetica 13.333 F
GS
[1 0 0 1 0 0] CT
-19 5.5 moveto 
1 -1 scale
(1.3) t 
GR
GR
GS
[0.75 0 0 0.75 50.75 66.125] CT
0.149 GC
/Helvetica 13.333 F
GS
[1 0 0 1 0 0] CT
-19 5.5 moveto 
1 -1 scale
(1.4) t 
GR
GR
GS
[0.75 0 0 0.75 50.75 23.25] CT
0.149 GC
/Helvetica 13.333 F
GS
[1 0 0 1 0 0] CT
-19 5.5 moveto 
1 -1 scale
(1.5) t 
GR
GR
GS
[0 -0.75 0.75 0 30.75 218.25] CT
0.149 GC
/Helvetica 14.667 F
GS
[1 0 0 1 0 0] CT
0 0 moveto 
1 -1 scale
(Cone Density \(cones/deg) t 
GR
GR
GS
[0 -0.75 0.75 0 25.5 94.5] CT
0.149 GC
/Helvetica 11.733 F
GS
[1 0 0 1 0 0] CT
0 0 moveto 
1 -1 scale
(2) t 
GR
GR
GS
[0 -0.75 0.75 0 30.75 89.25] CT
0.149 GC
/Helvetica 14.667 F
GS
[1 0 0 1 0 0] CT
0 0 moveto 
1 -1 scale
(\)) t 
GR
GR
GS
[0.75 0 0 0.75 54.75 21] CT
0.149 GC
N
1.906 -0.375 M
1.906 -0.469 1.969 -0.563 QT
4.672 -3.25 L
1.969 -5.953 L
1.906 -6.016 1.906 -6.125 QT
1.906 -6.219 1.984 -6.305 QT
2.063 -6.391 2.172 -6.391 QT
2.266 -6.391 2.375 -6.297 QT
5.063 -3.609 L
7.734 -6.297 L
7.844 -6.391 7.922 -6.391 QT
8.031 -6.391 8.109 -6.313 QT
8.188 -6.234 8.188 -6.125 QT
8.188 -6.016 8.125 -5.953 QT
5.422 -3.25 L
8.125 -0.563 L
8.188 -0.469 8.188 -0.375 QT
8.188 -0.266 8.109 -0.188 QT
8.031 -0.109 7.922 -0.109 QT
7.828 -0.109 7.734 -0.203 QT
5.063 -2.891 L
2.375 -0.203 L
2.266 -0.109 2.172 -0.109 QT
2.063 -0.109 1.984 -0.195 QT
1.906 -0.281 1.906 -0.375 QT
cp
f
GR
GS
[0.75 0 0 0.75 63 21] CT
0.149 GC
/Helvetica 13.333 F
GS
[1 0 0 1 0 0] CT
0 0 moveto 
1 -1 scale
(10) t 
GR
GR
GS
[0.75 0 0 0.75 74.25 16.5] CT
0.149 GC
/Helvetica 10.667 F
GS
[1 0 0 1 0 0] CT
0 0 moveto 
1 -1 scale
(4) t 
GR
GR
GS
[0.75 0 0 0.75 217.50021 21.18752] CT
/Helvetica-Bold 14.667 F
GS
[1 0 0 1 0 0] CT
-108 -4 moveto 
1 -1 scale
(Vertical Meridian Cone Density) t 
GR
GR
GS
[0.75 0 0 0.75 0 0] CT
0 1 1 RC
1 LJ
0.667 LW
N
111.905 374.041 M
112.072 373.821 L
113.036 372.513 L
114.001 371.166 L
114.965 369.925 L
115.93 368.663 L
116.894 367.409 L
117.858 366.004 L
118.823 364.633 L
119.787 363.174 L
120.752 361.775 L
121.716 360.346 L
122.681 358.994 L
123.645 357.675 L
124.61 356.205 L
125.574 354.703 L
126.538 353.052 L
127.503 351.567 L
128.467 350.128 L
129.432 348.644 L
130.396 347.174 L
131.361 345.512 L
132.325 343.921 L
133.29 342.402 L
134.254 340.888 L
135.218 339.317 L
136.183 337.76 L
137.147 336.124 L
138.112 334.479 L
139.076 333.081 L
140.041 331.594 L
141.005 330.05 L
141.97 328.471 L
142.934 326.849 L
143.898 325.38 L
144.863 323.93 L
145.827 322.408 L
146.792 320.898 L
147.756 319.308 L
148.721 317.752 L
149.685 316.21 L
150.65 314.725 L
151.614 313.21 L
152.578 311.605 L
153.543 310.029 L
154.507 308.372 L
155.472 306.713 L
156.436 305.124 L
157.401 303.472 L
158.365 301.843 L
159.33 300.245 L
160.294 298.653 L
161.258 296.953 L
162.223 295.355 L
163.187 293.805 L
164.152 292.339 L
165.116 290.69 L
166.081 289.091 L
167.045 287.535 L
168.01 285.85 L
168.974 284.158 L
169.938 282.524 L
170.903 280.885 L
171.867 279.31 L
172.832 277.627 L
173.796 275.88 L
174.761 274.127 L
175.725 272.462 L
176.69 270.792 L
177.654 269.111 L
178.618 267.42 L
179.583 265.806 L
180.547 264.153 L
181.512 262.494 L
182.476 260.825 L
183.441 259.325 L
184.405 257.67 L
185.37 256 L
186.334 254.334 L
187.298 252.747 L
188.263 251.223 L
189.227 249.543 L
190.192 247.923 L
191.156 246.261 L
192.121 244.621 L
193.085 243.108 L
194.05 241.43 L
195.014 239.851 L
195.978 238.267 L
196.943 236.669 L
197.907 235.035 L
198.872 233.43 L
199.836 231.925 L
200.801 230.324 L
201.765 228.795 L
202.73 227.12 L
203.694 225.422 L
204.658 223.753 L
205.623 222.247 L
206.587 220.705 L
207.552 218.956 L
208.516 217.442 L
209.481 215.906 L
210.445 214.357 L
211.41 212.794 L
212.374 211.164 L
213.338 209.585 L
214.303 208.039 L
215.267 206.475 L
216.232 204.974 L
217.196 203.529 L
218.161 201.99 L
219.125 200.57 L
220.09 199.198 L
221.054 197.734 L
222.018 196.257 L
222.983 194.79 L
223.947 193.231 L
224.912 191.828 L
225.876 190.246 L
226.841 188.671 L
227.805 187.052 L
228.77 185.462 L
229.734 184.077 L
230.698 182.614 L
231.663 181.08 L
232.627 179.568 L
233.592 178.225 L
234.556 176.745 L
235.521 175.391 L
236.485 174.039 L
237.45 172.599 L
238.414 171.139 L
239.378 169.786 L
240.343 168.509 L
241.307 167.116 L
242.272 165.894 L
243.236 164.727 L
244.201 163.45 L
245.165 162.178 L
246.13 160.974 L
247.094 159.729 L
248.058 158.584 L
249.023 157.324 L
249.987 156.111 L
250.952 154.848 L
251.916 153.758 L
252.881 152.649 L
253.845 151.456 L
254.81 150.281 L
255.774 149.157 L
256.738 148.175 L
257.703 146.996 L
258.667 145.984 L
259.632 144.943 L
260.596 144.013 L
261.561 143.184 L
262.525 142.299 L
263.49 141.441 L
264.454 140.54 L
265.418 139.655 L
266.383 138.795 L
267.347 138.106 L
268.312 137.411 L
269.276 136.466 L
270.241 135.597 L
271.205 134.78 L
272.17 134.087 L
273.134 133.232 L
274.098 132.423 L
275.063 131.611 L
276.027 130.911 L
276.992 130.304 L
277.956 129.641 L
278.921 129.144 L
279.885 128.594 L
280.85 128.198 L
281.814 127.794 L
282.778 127.133 L
283.743 126.686 L
284.707 126.292 L
285.672 125.913 L
286.636 125.467 L
287.601 125.048 L
288.565 124.54 L
289.53 124.253 L
290.494 124.069 L
291.458 123.948 L
292.423 123.61 L
293.387 123.31 L
294.352 123.168 L
295.316 122.97 L
296.281 122.751 L
297.245 122.637 L
298.21 122.364 L
299.174 122.25 L
300.138 122.097 L
301.103 121.918 L
302.067 121.951 L
303.032 121.966 L
303.996 121.971 L
304.961 121.967 L
305.925 121.945 L
306.89 122.085 L
307.854 122.07 L
308.818 122.133 L
309.783 122.249 L
310.747 122.529 L
311.712 122.677 L
312.676 122.812 L
313.641 122.988 L
314.605 123.217 L
315.57 123.488 L
316.534 123.707 L
317.498 124.005 L
318.463 124.344 L
319.427 124.729 L
320.392 125.13 L
321.356 125.535 L
322.321 125.98 L
323.285 126.486 L
324.25 127.179 L
325.214 127.718 L
326.178 128.216 L
327.143 128.665 L
328.107 129.226 L
329.072 129.725 L
330.036 130.349 L
331.001 130.866 L
331.965 131.499 L
332.93 132.216 L
333.894 132.852 L
334.858 133.548 L
335.823 134.192 L
336.787 134.984 L
337.752 135.927 L
338.716 136.797 L
339.681 137.666 L
340.645 138.384 L
341.61 139.344 L
342.574 140.373 L
343.538 141.368 L
344.503 142.211 L
345.467 143.256 L
346.432 144.156 L
347.396 145.141 L
348.361 146.253 L
349.325 147.285 L
350.29 148.344 L
351.254 149.43 L
352.218 150.519 L
353.183 151.537 L
354.147 152.741 L
355.112 153.845 L
356.076 155.067 L
357.041 156.342 L
358.005 157.566 L
358.97 158.922 L
359.934 160.258 L
360.898 161.598 L
361.863 162.862 L
362.827 164.143 L
363.792 165.476 L
364.756 166.716 L
365.721 167.962 L
366.685 169.227 L
367.65 170.593 L
368.614 171.969 L
369.578 173.421 L
370.543 174.822 L
371.507 176.315 L
372.472 177.755 L
373.436 179.282 L
374.401 180.766 L
375.365 182.376 L
376.33 183.885 L
377.294 185.383 L
378.258 186.9 L
379.223 188.691 L
380.187 190.232 L
381.152 191.712 L
382.116 193.301 L
383.081 194.967 L
384.045 196.576 L
385.01 198.127 L
385.974 199.678 L
386.938 201.314 L
387.903 202.841 L
388.867 204.404 L
389.832 206.005 L
390.796 207.624 L
391.761 209.355 L
392.725 210.917 L
393.69 212.624 L
394.654 214.296 L
395.618 216.017 L
396.583 217.87 L
397.547 219.516 L
398.512 221.249 L
399.476 223.183 L
400.441 224.964 L
401.405 226.809 L
402.37 228.659 L
403.334 230.362 L
404.298 232.151 L
405.263 233.748 L
406.227 235.564 L
407.192 237.34 L
408.156 239.052 L
409.121 241.027 L
410.085 242.752 L
411.05 244.411 L
412.014 246.259 L
412.978 247.985 L
413.943 249.783 L
414.907 251.433 L
415.872 253.028 L
416.836 254.603 L
417.801 256.358 L
418.765 258.169 L
419.73 259.723 L
420.694 261.298 L
421.658 262.932 L
422.623 264.552 L
423.587 266.228 L
424.552 267.886 L
425.516 269.585 L
426.481 271.193 L
427.445 272.825 L
428.41 274.475 L
429.374 276.064 L
430.338 277.736 L
431.303 279.387 L
432.267 280.905 L
433.232 282.553 L
434.196 284.126 L
435.161 285.668 L
436.125 287.352 L
437.09 288.863 L
438.054 290.411 L
439.018 291.928 L
439.983 293.665 L
440.947 295.372 L
441.912 296.977 L
442.876 298.366 L
443.841 299.946 L
444.805 301.626 L
445.77 303.328 L
446.734 304.863 L
447.698 306.322 L
448.663 307.85 L
449.627 309.508 L
450.592 311.072 L
451.556 312.664 L
452.521 314.212 L
453.485 315.798 L
454.45 317.321 L
455.414 318.758 L
456.378 320.269 L
457.343 321.826 L
458.307 323.459 L
459.272 324.948 L
460.236 326.447 L
461.201 327.869 L
462.165 329.279 L
463.13 330.857 L
464.094 332.36 L
465.058 333.935 L
466.023 335.305 L
466.987 336.709 L
467.952 338.119 L
468.916 339.572 L
469.881 341.034 L
470.845 342.455 L
471.81 343.878 L
472.774 345.366 L
473.738 346.889 L
474.703 348.468 L
475.667 349.927 L
476.632 351.512 L
477.596 356.167 L
478.561 361.064 L
479.525 363.283 L
480.49 364.71 L
481.454 366.125 L
482.418 367.6 L
483.383 369.045 L
484.347 370.626 L
485.312 372.239 L
485.985 374.041 L
S
GR
GS
[0.75 0 0 0.75 0 0] CT
0 1 1 RC
[8 3 2 3] 0 setdash
2 LJ
0.667 LW
N
94.544 374.041 M
94.712 373.794 L
95.676 372.345 L
96.641 370.904 L
97.605 369.449 L
98.57 367.939 L
99.534 366.663 L
100.498 365.268 L
101.463 363.757 L
102.427 362.266 L
103.392 360.791 L
104.356 359.367 L
105.321 358.049 L
106.285 356.591 L
107.25 355.272 L
108.214 353.768 L
109.178 352.439 L
110.143 351.162 L
111.107 349.909 L
112.072 348.543 L
113.036 347.186 L
114.001 345.759 L
114.965 344.476 L
115.93 343.102 L
116.894 341.767 L
117.858 340.266 L
118.823 338.833 L
119.787 337.302 L
120.752 335.803 L
121.716 334.234 L
122.681 332.81 L
123.645 331.472 L
124.61 329.927 L
125.574 328.345 L
126.538 326.638 L
127.503 325.119 L
128.467 323.628 L
129.432 322.086 L
130.396 320.571 L
131.361 318.89 L
132.325 317.274 L
133.29 315.711 L
134.254 314.189 L
135.218 312.553 L
136.183 310.915 L
137.147 309.229 L
138.112 307.571 L
139.076 306.187 L
140.041 304.627 L
141.005 303.029 L
141.97 301.407 L
142.934 299.701 L
143.898 298.185 L
144.863 296.735 L
145.827 295.176 L
146.792 293.631 L
147.756 292.001 L
148.721 290.412 L
149.685 288.847 L
150.65 287.391 L
151.614 285.92 L
152.578 284.363 L
153.543 282.805 L
154.507 281.119 L
155.472 279.451 L
156.436 277.915 L
157.401 276.268 L
158.365 274.696 L
159.33 273.094 L
160.294 271.518 L
161.258 269.885 L
162.223 268.315 L
163.187 266.792 L
164.152 265.358 L
165.116 263.719 L
166.081 262.103 L
167.045 260.55 L
168.01 258.831 L
168.974 257.152 L
169.938 255.501 L
170.903 253.849 L
171.867 252.272 L
172.832 250.608 L
173.796 248.858 L
174.761 247.088 L
175.725 245.4 L
176.69 243.722 L
177.654 242.053 L
178.618 240.391 L
179.583 238.833 L
180.547 237.199 L
181.512 235.505 L
182.476 233.84 L
183.441 232.363 L
184.405 230.784 L
185.37 229.092 L
186.334 227.371 L
187.298 225.764 L
188.263 224.214 L
189.227 222.528 L
190.192 220.901 L
191.156 219.214 L
192.121 217.505 L
193.085 215.944 L
194.05 214.251 L
195.014 212.663 L
195.978 211.094 L
196.943 209.448 L
197.907 207.807 L
198.872 206.199 L
199.836 204.715 L
200.801 203.099 L
201.765 201.564 L
202.73 199.91 L
203.694 198.281 L
204.658 196.689 L
205.623 195.228 L
206.587 193.725 L
207.552 192.002 L
208.516 190.521 L
209.481 188.989 L
210.445 187.507 L
211.41 186.018 L
212.374 184.428 L
213.338 182.875 L
214.303 181.368 L
215.267 179.797 L
216.232 178.28 L
217.196 176.837 L
218.161 175.3 L
219.125 173.923 L
220.09 172.532 L
221.054 171.042 L
222.018 169.579 L
222.983 168.208 L
223.947 166.685 L
224.912 165.3 L
225.876 163.712 L
226.841 162.165 L
227.805 160.599 L
228.77 159.035 L
229.734 157.662 L
230.698 156.197 L
231.663 154.642 L
232.627 153.167 L
233.592 151.806 L
234.556 150.257 L
235.521 148.879 L
236.485 147.525 L
237.45 146.087 L
238.414 144.636 L
239.378 143.242 L
240.343 141.954 L
241.307 140.537 L
242.272 139.298 L
243.236 138.131 L
244.201 136.83 L
245.165 135.576 L
246.13 134.338 L
247.094 133.058 L
248.058 131.89 L
249.023 130.596 L
249.987 129.358 L
250.952 128.112 L
251.916 126.988 L
252.881 125.843 L
253.845 124.664 L
254.81 123.501 L
255.774 122.41 L
256.738 121.438 L
257.703 120.298 L
258.667 119.31 L
259.632 118.28 L
260.596 117.363 L
261.561 116.584 L
262.525 115.712 L
263.49 114.808 L
264.454 113.878 L
265.418 112.94 L
266.383 112.044 L
267.347 111.295 L
268.312 110.563 L
269.276 109.577 L
270.241 108.651 L
271.205 107.744 L
272.17 106.967 L
273.134 106.083 L
274.098 105.206 L
275.063 104.323 L
276.027 103.567 L
276.992 102.948 L
277.956 102.313 L
278.921 101.792 L
279.885 101.229 L
280.85 100.796 L
281.814 100.345 L
282.778 99.672 L
283.743 99.212 L
284.707 98.746 L
285.672 98.335 L
286.636 97.872 L
287.601 97.411 L
288.565 96.841 L
289.53 96.54 L
290.494 96.337 L
291.458 96.248 L
292.423 95.935 L
293.387 95.644 L
294.352 95.491 L
295.316 95.31 L
296.281 95.074 L
297.245 94.929 L
298.21 94.592 L
299.174 94.426 L
300.138 94.266 L
301.103 94.112 L
302.067 94.088 L
303.032 93.976 L
303.996 93.928 L
304.961 93.875 L
305.925 93.813 L
306.89 93.886 L
307.854 93.825 L
308.818 93.811 L
309.783 93.875 L
310.747 94.057 L
311.712 94.075 L
312.676 94.085 L
313.641 94.185 L
314.605 94.322 L
315.57 94.473 L
316.534 94.542 L
317.498 94.671 L
318.463 94.915 L
319.427 95.185 L
320.392 95.416 L
321.356 95.674 L
322.321 95.976 L
323.285 96.405 L
324.25 96.986 L
325.214 97.374 L
326.178 97.776 L
327.143 98.137 L
328.107 98.653 L
329.072 99.102 L
330.036 99.683 L
331.001 100.142 L
331.965 100.782 L
332.93 101.489 L
333.894 102.108 L
334.858 102.773 L
335.823 103.322 L
336.787 104.06 L
337.752 104.915 L
338.716 105.674 L
339.681 106.399 L
340.645 107.005 L
341.61 107.851 L
342.574 108.737 L
343.538 109.584 L
344.503 110.283 L
345.467 111.258 L
346.432 112.085 L
347.396 112.993 L
348.361 113.997 L
349.325 114.931 L
350.29 115.964 L
351.254 117.069 L
352.218 118.139 L
353.183 119.124 L
354.147 120.272 L
355.112 121.32 L
356.076 122.565 L
357.041 123.872 L
358.005 125.048 L
358.97 126.357 L
359.934 127.664 L
360.898 129.021 L
361.863 130.209 L
362.827 131.456 L
363.792 132.772 L
364.756 134.035 L
365.721 135.289 L
366.685 136.518 L
367.65 137.856 L
368.614 139.232 L
369.578 140.676 L
370.543 142.093 L
371.507 143.59 L
372.472 145.029 L
373.436 146.579 L
374.401 148.099 L
375.365 149.733 L
376.33 151.232 L
377.294 152.726 L
378.258 154.261 L
379.223 156.097 L
380.187 157.629 L
381.152 159.165 L
382.116 160.76 L
383.081 162.421 L
384.045 164.075 L
385.01 165.659 L
385.974 167.233 L
386.938 168.934 L
387.903 170.538 L
388.867 172.149 L
389.832 173.843 L
390.796 175.506 L
391.761 177.388 L
392.725 179.012 L
393.69 180.861 L
394.654 182.61 L
395.618 184.427 L
396.583 186.374 L
397.547 188.096 L
398.512 189.94 L
399.476 191.975 L
400.441 193.844 L
401.405 195.755 L
402.37 197.684 L
403.334 199.502 L
404.298 201.42 L
405.263 203.068 L
406.227 204.947 L
407.192 206.769 L
408.156 208.539 L
409.121 210.591 L
410.085 212.338 L
411.05 214.044 L
412.014 215.959 L
412.978 217.725 L
413.943 219.617 L
414.907 221.353 L
415.872 223.018 L
416.836 224.626 L
417.801 226.439 L
418.765 228.26 L
419.73 229.843 L
420.694 231.491 L
421.658 233.209 L
422.623 234.87 L
423.587 236.588 L
424.552 238.294 L
425.516 240.02 L
426.481 241.662 L
427.445 243.359 L
428.41 245.073 L
429.374 246.675 L
430.338 248.375 L
431.303 250.063 L
432.267 251.614 L
433.232 253.308 L
434.196 254.926 L
435.161 256.487 L
436.125 258.231 L
437.09 259.754 L
438.054 261.337 L
439.018 262.916 L
439.983 264.681 L
440.947 266.489 L
441.912 268.13 L
442.876 269.618 L
443.841 271.249 L
444.805 273.016 L
445.77 274.754 L
446.734 276.373 L
447.698 277.888 L
448.663 279.479 L
449.627 281.2 L
450.592 282.837 L
451.556 284.488 L
452.521 286.141 L
453.485 287.771 L
454.45 289.382 L
455.414 290.905 L
456.378 292.475 L
457.343 294.148 L
458.307 295.82 L
459.272 297.355 L
460.236 298.905 L
461.201 300.455 L
462.165 301.898 L
463.13 303.559 L
464.094 305.129 L
465.058 306.761 L
466.023 308.243 L
466.987 309.684 L
467.952 311.136 L
468.916 312.624 L
469.881 314.168 L
470.845 315.713 L
471.81 317.199 L
472.774 318.746 L
473.738 320.348 L
474.703 322.03 L
475.667 323.576 L
476.632 325.265 L
477.596 328.886 L
478.561 330.942 L
479.525 332.801 L
480.49 334.307 L
481.454 335.814 L
482.418 337.426 L
483.383 339.002 L
484.347 340.634 L
485.312 342.296 L
486.276 344.945 L
487.241 347.939 L
488.205 358.771 L
489.17 357.05 L
490.134 358.927 L
491.098 362.637 L
492.063 366.278 L
493.027 368.691 L
493.992 371.401 L
494.538 374.041 L
S
GR
GS
[0.75 0 0 0.75 0 0] CT
0 1 1 RC
[8 3 2 3] 0 setdash
2 LJ
0.667 LW
N
130.218 374.041 M
130.396 373.777 L
131.361 372.134 L
132.325 370.569 L
133.29 369.093 L
134.254 367.588 L
135.218 366.082 L
136.183 364.605 L
137.147 363.019 L
138.112 361.387 L
139.076 359.974 L
140.041 358.561 L
141.005 357.07 L
141.97 355.536 L
142.934 353.998 L
143.898 352.575 L
144.863 351.125 L
145.827 349.639 L
146.792 348.165 L
147.756 346.615 L
148.721 345.091 L
149.685 343.572 L
150.65 342.059 L
151.614 340.5 L
152.578 338.848 L
153.543 337.253 L
154.507 335.625 L
155.472 333.975 L
156.436 332.333 L
157.401 330.676 L
158.365 328.989 L
159.33 327.396 L
160.294 325.789 L
161.258 324.021 L
162.223 322.394 L
163.187 320.818 L
164.152 319.32 L
165.116 317.66 L
166.081 316.079 L
167.045 314.519 L
168.01 312.868 L
168.974 311.164 L
169.938 309.547 L
170.903 307.922 L
171.867 306.348 L
172.832 304.645 L
173.796 302.902 L
174.761 301.166 L
175.725 299.525 L
176.69 297.862 L
177.654 296.169 L
178.618 294.449 L
179.583 292.779 L
180.547 291.106 L
181.512 289.484 L
182.476 287.81 L
183.441 286.286 L
184.405 284.556 L
185.37 282.908 L
186.334 281.297 L
187.298 279.729 L
188.263 278.233 L
189.227 276.558 L
190.192 274.944 L
191.156 273.308 L
192.121 271.738 L
193.085 270.273 L
194.05 268.609 L
195.014 267.038 L
195.978 265.439 L
196.943 263.891 L
197.907 262.263 L
198.872 260.662 L
199.836 259.134 L
200.801 257.549 L
201.765 256.026 L
202.73 254.331 L
203.694 252.562 L
204.658 250.818 L
205.623 249.267 L
206.587 247.686 L
207.552 245.909 L
208.516 244.362 L
209.481 242.823 L
210.445 241.206 L
211.41 239.569 L
212.374 237.901 L
213.338 236.294 L
214.303 234.711 L
215.267 233.153 L
216.232 231.668 L
217.196 230.22 L
218.161 228.681 L
219.125 227.216 L
220.09 225.865 L
221.054 224.425 L
222.018 222.934 L
222.983 221.371 L
223.947 219.777 L
224.912 218.356 L
225.876 216.781 L
226.841 215.177 L
227.805 213.504 L
228.77 211.89 L
229.734 210.492 L
230.698 209.031 L
231.663 207.519 L
232.627 205.968 L
233.592 204.645 L
234.556 203.232 L
235.521 201.902 L
236.485 200.554 L
237.45 199.11 L
238.414 197.642 L
239.378 196.329 L
240.343 195.064 L
241.307 193.694 L
242.272 192.491 L
243.236 191.323 L
244.201 190.071 L
245.165 188.78 L
246.13 187.61 L
247.094 186.4 L
248.058 185.279 L
249.023 184.053 L
249.987 182.864 L
250.952 181.583 L
251.916 180.527 L
252.881 179.456 L
253.845 178.247 L
254.81 177.061 L
255.774 175.905 L
256.738 174.912 L
257.703 173.694 L
258.667 172.659 L
259.632 171.605 L
260.596 170.663 L
261.561 169.784 L
262.525 168.885 L
263.49 168.074 L
264.454 167.203 L
265.418 166.369 L
266.383 165.546 L
267.347 164.917 L
268.312 164.258 L
269.276 163.354 L
270.241 162.542 L
271.205 161.816 L
272.17 161.208 L
273.134 160.38 L
274.098 159.639 L
275.063 158.898 L
276.027 158.254 L
276.992 157.661 L
277.956 156.968 L
278.921 156.495 L
279.885 155.959 L
280.85 155.6 L
281.814 155.243 L
282.778 154.594 L
283.743 154.16 L
284.707 153.839 L
285.672 153.492 L
286.636 153.061 L
287.601 152.685 L
288.565 152.239 L
289.53 151.967 L
290.494 151.801 L
291.458 151.647 L
292.423 151.284 L
293.387 150.975 L
294.352 150.845 L
295.316 150.63 L
296.281 150.427 L
297.245 150.346 L
298.21 150.136 L
299.174 150.075 L
300.138 149.928 L
301.103 149.724 L
302.067 149.813 L
303.032 149.956 L
303.996 150.015 L
304.961 150.06 L
305.925 150.076 L
306.89 150.284 L
307.854 150.315 L
308.818 150.456 L
309.783 150.623 L
310.747 151 L
311.712 151.279 L
312.676 151.538 L
313.641 151.791 L
314.605 152.112 L
315.57 152.504 L
316.534 152.872 L
317.498 153.34 L
318.463 153.772 L
319.427 154.273 L
320.392 154.843 L
321.356 155.397 L
322.321 155.983 L
323.285 156.566 L
324.25 157.372 L
325.214 158.062 L
326.178 158.656 L
327.143 159.194 L
328.107 159.798 L
329.072 160.348 L
330.036 161.015 L
331.001 161.589 L
331.965 162.216 L
332.93 162.943 L
333.894 163.596 L
334.858 164.324 L
335.823 165.062 L
336.787 165.908 L
337.752 166.94 L
338.716 167.919 L
339.681 168.934 L
340.645 169.762 L
341.61 170.836 L
342.574 172.009 L
343.538 173.152 L
344.503 174.139 L
345.467 175.254 L
346.432 176.227 L
347.396 177.289 L
348.361 178.508 L
349.325 179.639 L
350.29 180.723 L
351.254 181.791 L
352.218 182.898 L
353.183 183.949 L
354.147 185.21 L
355.112 186.37 L
356.076 187.569 L
357.041 188.813 L
358.005 190.085 L
358.97 191.487 L
359.934 192.852 L
360.898 194.176 L
361.863 195.516 L
362.827 196.83 L
363.792 198.18 L
364.756 199.397 L
365.721 200.635 L
366.685 201.936 L
367.65 203.33 L
368.614 204.707 L
369.578 206.167 L
370.543 207.552 L
371.507 209.039 L
372.472 210.481 L
373.436 211.985 L
374.401 213.434 L
375.365 215.018 L
376.33 216.539 L
377.294 218.04 L
378.258 219.54 L
379.223 221.284 L
380.187 222.834 L
381.152 224.26 L
382.116 225.842 L
383.081 227.513 L
384.045 229.078 L
385.01 230.595 L
385.974 232.123 L
386.938 233.694 L
387.903 235.144 L
388.867 236.659 L
389.832 238.167 L
390.796 239.742 L
391.761 241.321 L
392.725 242.821 L
393.69 244.387 L
394.654 245.981 L
395.618 247.607 L
396.583 249.366 L
397.547 250.936 L
398.512 252.558 L
399.476 254.391 L
400.441 256.084 L
401.405 257.863 L
402.37 259.634 L
403.334 261.222 L
404.298 262.883 L
405.263 264.428 L
406.227 266.181 L
407.192 267.91 L
408.156 269.565 L
409.121 271.462 L
410.085 273.166 L
411.05 274.778 L
412.014 276.559 L
412.978 278.246 L
413.943 279.949 L
414.907 281.514 L
415.872 283.037 L
416.836 284.58 L
417.801 286.278 L
418.765 288.078 L
419.73 289.603 L
420.694 291.105 L
421.658 292.654 L
422.623 294.234 L
423.587 295.868 L
424.552 297.478 L
425.516 299.15 L
426.481 300.725 L
427.445 302.291 L
428.41 303.877 L
429.374 305.453 L
430.338 307.097 L
431.303 308.71 L
432.267 310.196 L
433.232 311.797 L
434.196 313.326 L
435.161 314.85 L
436.125 316.472 L
437.09 317.971 L
438.054 319.485 L
439.018 320.94 L
439.983 322.65 L
440.947 324.254 L
441.912 325.823 L
442.876 327.114 L
443.841 328.644 L
444.805 330.235 L
445.77 331.902 L
446.734 333.354 L
447.698 334.757 L
448.663 336.22 L
449.627 337.816 L
450.592 339.308 L
451.556 340.841 L
452.521 342.282 L
453.485 343.824 L
454.45 345.26 L
455.414 346.612 L
456.378 348.063 L
457.343 349.504 L
458.307 351.098 L
459.272 352.541 L
460.236 353.988 L
461.201 355.283 L
462.165 356.66 L
463.13 358.156 L
464.094 359.591 L
465.058 361.109 L
466.023 362.366 L
466.987 363.734 L
467.952 365.101 L
468.916 366.519 L
469.881 367.899 L
470.845 369.198 L
471.81 370.558 L
472.774 371.987 L
473.738 373.43 L
474.138 374.041 L
S
GR
GS
[0.75 0 0 0.75 0 0] CT
1 LJ
0.667 LW
N
98.847 374.041 M
99.487 373.192 L
100.451 371.846 L
101.416 370.522 L
102.38 369.216 L
103.345 367.878 L
104.309 366.545 L
105.274 365.137 L
106.238 363.807 L
107.202 362.349 L
108.167 360.861 L
109.131 359.532 L
110.096 358.159 L
111.06 356.674 L
112.025 355.199 L
112.989 353.735 L
113.954 352.127 L
114.918 350.759 L
115.882 349.248 L
116.847 347.766 L
117.811 346.26 L
118.776 344.645 L
119.74 343.058 L
120.705 341.655 L
121.669 340.236 L
122.634 338.832 L
123.598 337.319 L
124.562 335.812 L
125.527 334.268 L
126.491 332.642 L
127.456 331.161 L
128.42 329.688 L
129.385 328.125 L
130.349 326.595 L
131.314 325.147 L
132.278 323.668 L
133.242 322.09 L
134.207 320.532 L
135.171 319.082 L
136.136 317.469 L
137.1 316.007 L
138.065 314.378 L
139.029 312.716 L
139.994 311.058 L
140.958 309.562 L
141.922 307.906 L
142.887 306.274 L
143.851 304.596 L
144.816 302.858 L
145.78 301.239 L
146.745 299.734 L
147.709 298.179 L
148.674 296.447 L
149.638 294.806 L
150.602 293.159 L
151.567 291.587 L
152.531 289.895 L
153.496 288.23 L
154.46 286.417 L
155.425 284.579 L
156.389 282.991 L
157.354 281.206 L
158.318 279.31 L
159.283 277.619 L
160.247 275.866 L
161.211 274.163 L
162.176 272.612 L
163.14 271.027 L
164.105 269.35 L
165.069 267.644 L
166.034 266.087 L
166.998 264.51 L
167.962 263.024 L
168.927 261.433 L
169.891 259.712 L
170.856 258.123 L
171.82 256.517 L
172.785 255.002 L
173.749 253.394 L
174.714 251.758 L
175.678 250.107 L
176.643 248.441 L
177.607 246.767 L
178.571 245.166 L
179.536 243.559 L
180.5 241.917 L
181.465 240.147 L
182.429 238.477 L
183.394 236.836 L
184.358 235.199 L
185.322 233.521 L
186.287 231.848 L
187.251 230.197 L
188.216 228.593 L
189.18 227.089 L
190.145 225.455 L
191.109 223.892 L
192.074 222.348 L
193.038 220.925 L
194.002 219.532 L
194.967 218.006 L
195.931 216.518 L
196.896 215.022 L
197.86 213.545 L
198.825 212.071 L
199.789 210.475 L
200.754 208.749 L
201.718 207.167 L
202.682 205.585 L
203.647 204.044 L
204.611 202.49 L
205.576 200.907 L
206.54 199.424 L
207.505 197.88 L
208.469 196.462 L
209.434 194.861 L
210.398 193.207 L
211.362 191.566 L
212.327 189.982 L
213.291 188.435 L
214.256 186.77 L
215.22 185.241 L
216.185 183.713 L
217.149 182.298 L
218.114 180.768 L
219.078 179.264 L
220.042 177.829 L
221.007 176.293 L
221.971 174.828 L
222.936 173.39 L
223.9 171.987 L
224.865 170.668 L
225.829 169.427 L
226.794 168.03 L
227.758 166.716 L
228.722 165.377 L
229.687 164.08 L
230.651 162.827 L
231.616 161.426 L
232.58 159.986 L
233.545 158.604 L
234.509 157.171 L
235.474 155.924 L
236.438 154.78 L
237.402 153.526 L
238.367 152.193 L
239.331 150.893 L
240.296 149.66 L
241.26 148.465 L
242.225 147.207 L
243.189 146.021 L
244.154 144.721 L
245.118 143.582 L
246.082 142.426 L
247.047 141.199 L
248.011 139.849 L
248.976 138.693 L
249.94 137.584 L
250.905 136.547 L
251.869 135.415 L
252.834 134.383 L
253.798 133.387 L
254.762 132.394 L
255.727 131.417 L
256.691 130.54 L
257.656 129.607 L
258.62 128.663 L
259.585 127.793 L
260.549 126.91 L
261.514 126.154 L
262.478 125.262 L
263.443 124.322 L
264.407 123.702 L
265.371 123.081 L
266.336 122.494 L
267.3 121.76 L
268.265 121.165 L
269.229 120.7 L
270.194 120.234 L
271.158 119.627 L
272.122 119.265 L
273.087 118.753 L
274.051 118.144 L
275.016 117.616 L
275.98 117.218 L
276.945 116.854 L
277.909 116.504 L
278.874 116.144 L
279.838 115.815 L
280.802 115.353 L
281.767 115.176 L
282.731 114.836 L
283.696 114.439 L
284.66 114.174 L
285.625 113.893 L
286.589 113.56 L
287.554 113.269 L
288.518 113.083 L
289.482 112.962 L
290.447 112.97 L
291.411 112.91 L
292.376 112.738 L
293.34 112.721 L
294.305 112.726 L
295.269 112.717 L
296.234 112.682 L
297.198 112.73 L
298.163 112.793 L
299.127 112.844 L
300.091 112.851 L
301.056 112.862 L
302.02 113.065 L
302.985 113.228 L
303.949 113.512 L
304.914 113.92 L
305.878 114.242 L
306.842 114.608 L
307.807 115.278 L
308.771 115.772 L
309.736 116.281 L
310.7 116.874 L
311.665 117.437 L
312.629 117.913 L
313.594 118.445 L
314.558 118.934 L
315.522 119.408 L
316.487 119.933 L
317.451 120.463 L
318.416 121.043 L
319.38 121.527 L
320.345 122.069 L
321.309 122.671 L
322.274 123.378 L
323.238 123.948 L
324.202 124.668 L
325.167 125.27 L
326.131 126.038 L
327.096 126.691 L
328.06 127.368 L
329.025 128.09 L
329.989 128.802 L
330.954 129.646 L
331.918 130.3 L
332.883 131.122 L
333.847 132.064 L
334.811 133.097 L
335.776 134.204 L
336.74 135.412 L
337.705 136.544 L
338.669 137.661 L
339.634 138.733 L
340.598 139.785 L
341.563 140.989 L
342.527 142.182 L
343.491 143.255 L
344.456 144.466 L
345.42 145.772 L
346.385 147.275 L
347.349 148.763 L
348.314 150.198 L
349.278 151.576 L
350.242 153.092 L
351.207 154.533 L
352.171 156.07 L
353.136 157.636 L
354.1 159.202 L
355.065 160.809 L
356.029 162.361 L
356.994 164.036 L
357.958 165.634 L
358.922 167.23 L
359.887 168.861 L
360.851 170.429 L
361.816 171.896 L
362.78 173.357 L
363.745 174.834 L
364.709 176.355 L
365.674 177.832 L
366.638 179.33 L
367.603 180.838 L
368.567 182.289 L
369.531 183.783 L
370.496 185.325 L
371.46 186.719 L
372.425 188.169 L
373.389 189.776 L
374.354 191.289 L
375.318 192.76 L
376.283 194.158 L
377.247 195.794 L
378.211 197.383 L
379.176 198.939 L
380.14 200.374 L
381.105 202.003 L
382.069 203.745 L
383.034 205.328 L
383.998 206.902 L
384.962 208.613 L
385.927 210.432 L
386.891 212.332 L
387.856 214.106 L
388.82 215.837 L
389.785 217.664 L
390.749 219.567 L
391.714 221.61 L
392.678 223.307 L
393.642 225.151 L
394.607 227.039 L
395.571 228.865 L
396.536 230.732 L
397.5 232.438 L
398.465 234.214 L
399.429 236.137 L
400.394 238.068 L
401.358 239.855 L
402.322 241.444 L
403.287 243.142 L
404.251 244.837 L
405.216 246.543 L
406.18 248.237 L
407.145 249.867 L
408.109 251.51 L
409.074 253.237 L
410.038 255.011 L
411.003 256.836 L
411.967 258.475 L
412.931 260.096 L
413.896 261.753 L
414.86 263.34 L
415.825 264.91 L
416.789 266.671 L
417.754 268.354 L
418.718 269.957 L
419.682 271.564 L
420.647 273.167 L
421.611 274.776 L
422.576 276.367 L
423.54 278.178 L
424.505 279.946 L
425.469 281.652 L
426.434 283.326 L
427.398 285.114 L
428.362 286.922 L
429.327 288.671 L
430.291 290.381 L
431.256 292.103 L
432.22 293.902 L
433.185 295.477 L
434.149 297.178 L
435.114 298.872 L
436.078 300.566 L
437.042 302.162 L
438.007 303.824 L
438.971 305.585 L
439.936 307.235 L
440.9 308.813 L
441.865 310.327 L
442.829 311.946 L
443.794 313.603 L
444.758 315.243 L
445.723 316.791 L
446.687 318.318 L
447.651 319.897 L
448.616 321.354 L
449.58 322.945 L
450.545 324.601 L
451.509 326.149 L
452.474 327.733 L
453.438 329.345 L
454.402 330.94 L
455.367 332.41 L
456.331 333.927 L
457.296 335.453 L
458.26 336.96 L
459.225 338.518 L
460.189 340.185 L
461.154 341.726 L
462.118 343.288 L
463.082 344.88 L
464.047 346.464 L
465.011 349.337 L
465.976 355.042 L
466.94 357.906 L
467.905 360.315 L
468.869 361.934 L
469.834 363.532 L
470.798 365.188 L
471.763 366.979 L
472.727 368.913 L
473.691 370.985 L
474.656 373.027 L
474.849 374.041 L
S
GR
GS
[0.75 0 0 0.75 0 0] CT
[8 3 2 3] 0 setdash
2 LJ
0.667 LW
N
81.295 374.041 M
82.127 372.883 L
83.091 371.619 L
84.056 370.215 L
85.02 368.853 L
85.985 367.377 L
86.949 366.098 L
87.914 364.719 L
88.878 363.376 L
89.842 361.987 L
90.807 360.712 L
91.771 359.334 L
92.736 358.021 L
93.7 356.659 L
94.665 355.439 L
95.629 354.199 L
96.594 352.75 L
97.558 351.394 L
98.522 350.197 L
99.487 348.899 L
100.451 347.557 L
101.416 346.211 L
102.38 344.83 L
103.345 343.44 L
104.309 342.099 L
105.274 340.648 L
106.238 339.274 L
107.202 337.778 L
108.167 336.25 L
109.131 334.863 L
110.096 333.441 L
111.06 331.874 L
112.025 330.368 L
112.989 328.891 L
113.954 327.239 L
114.918 325.856 L
115.882 324.321 L
116.847 322.809 L
117.811 321.302 L
118.776 319.702 L
119.74 318.121 L
120.705 316.76 L
121.669 315.311 L
122.634 313.906 L
123.598 312.417 L
124.562 310.882 L
125.527 309.339 L
126.491 307.656 L
127.456 306.175 L
128.42 304.659 L
129.385 303.027 L
130.349 301.439 L
131.314 299.945 L
132.278 298.424 L
133.242 296.783 L
134.207 295.129 L
135.171 293.652 L
136.136 291.969 L
137.1 290.458 L
138.065 288.725 L
139.029 287.029 L
139.994 285.37 L
140.958 283.82 L
141.922 282.115 L
142.887 280.467 L
143.851 278.772 L
144.816 276.996 L
145.78 275.391 L
146.745 273.881 L
147.709 272.316 L
148.674 270.584 L
149.638 268.911 L
150.602 267.239 L
151.567 265.702 L
152.531 263.997 L
153.496 262.278 L
154.46 260.447 L
155.425 258.573 L
156.389 256.995 L
157.354 255.202 L
158.318 253.292 L
159.283 251.589 L
160.247 249.809 L
161.211 248.105 L
162.176 246.567 L
163.14 245.019 L
164.105 243.348 L
165.069 241.631 L
166.034 240.095 L
166.998 238.519 L
167.962 237.062 L
168.927 235.489 L
169.891 233.743 L
170.856 232.19 L
171.82 230.605 L
172.785 229.143 L
173.749 227.558 L
174.714 225.997 L
175.678 224.381 L
176.643 222.769 L
177.607 221.12 L
178.571 219.554 L
179.536 217.914 L
180.5 216.277 L
181.465 214.516 L
182.429 212.834 L
183.394 211.158 L
184.358 209.479 L
185.322 207.744 L
186.287 206.083 L
187.251 204.383 L
188.216 202.756 L
189.18 201.232 L
190.145 199.595 L
191.109 198.053 L
192.074 196.545 L
193.038 195.184 L
194.002 193.83 L
194.967 192.321 L
195.931 190.869 L
196.896 189.422 L
197.86 187.968 L
198.825 186.552 L
199.789 184.995 L
200.754 183.296 L
201.718 181.701 L
202.682 180.106 L
203.647 178.529 L
204.611 176.941 L
205.576 175.329 L
206.54 173.879 L
207.505 172.329 L
208.469 170.852 L
209.434 169.211 L
210.398 167.535 L
211.362 165.911 L
212.327 164.313 L
213.291 162.77 L
214.256 161.076 L
215.22 159.572 L
216.185 158.083 L
217.149 156.661 L
218.114 155.155 L
219.078 153.621 L
220.042 152.189 L
221.007 150.661 L
221.971 149.235 L
222.936 147.77 L
223.9 146.338 L
224.865 144.973 L
225.829 143.741 L
226.794 142.292 L
227.758 140.93 L
228.722 139.515 L
229.687 138.18 L
230.651 136.861 L
231.616 135.406 L
232.58 133.928 L
233.545 132.503 L
234.509 131.008 L
235.474 129.717 L
236.438 128.558 L
237.402 127.291 L
238.367 125.948 L
239.331 124.616 L
240.296 123.357 L
241.26 122.171 L
242.225 120.922 L
243.189 119.711 L
244.154 118.395 L
245.118 117.27 L
246.082 116.09 L
247.047 114.87 L
248.011 113.429 L
248.976 112.223 L
249.94 111.097 L
250.905 110.027 L
251.869 108.844 L
252.834 107.728 L
253.798 106.664 L
254.762 105.562 L
255.727 104.558 L
256.691 103.652 L
257.656 102.653 L
258.62 101.619 L
259.585 100.699 L
260.549 99.806 L
261.514 99.055 L
262.478 98.137 L
263.443 97.165 L
264.407 96.569 L
265.371 95.929 L
266.336 95.329 L
267.3 94.551 L
268.265 93.937 L
269.229 93.468 L
270.194 92.981 L
271.158 92.357 L
272.122 91.992 L
273.087 91.405 L
274.051 90.725 L
275.016 90.142 L
275.98 89.697 L
276.945 89.301 L
277.909 88.899 L
278.874 88.477 L
279.838 88.102 L
280.802 87.568 L
281.767 87.313 L
282.731 86.896 L
283.696 86.444 L
284.66 86.094 L
285.625 85.792 L
286.589 85.415 L
287.554 85.041 L
288.518 84.837 L
289.482 84.63 L
290.447 84.557 L
291.411 84.416 L
292.376 84.158 L
293.34 84.037 L
294.305 83.898 L
295.269 83.791 L
296.234 83.616 L
297.198 83.547 L
298.163 83.454 L
299.127 83.375 L
300.091 83.232 L
301.056 83.066 L
302.02 83.113 L
302.985 83.15 L
303.949 83.266 L
304.914 83.579 L
305.878 83.824 L
306.842 84.06 L
307.807 84.608 L
308.771 84.997 L
309.736 85.392 L
310.7 85.918 L
311.665 86.361 L
312.629 86.717 L
313.594 87.139 L
314.558 87.5 L
315.522 87.878 L
316.487 88.287 L
317.451 88.68 L
318.416 89.15 L
319.38 89.52 L
320.345 89.977 L
321.309 90.483 L
322.274 91.126 L
323.238 91.557 L
324.202 92.189 L
325.167 92.681 L
326.131 93.295 L
327.096 93.861 L
328.06 94.457 L
329.025 95.048 L
329.989 95.641 L
330.954 96.342 L
331.918 96.812 L
332.883 97.536 L
333.847 98.467 L
334.811 99.444 L
335.776 100.449 L
336.74 101.582 L
337.705 102.675 L
338.669 103.809 L
339.634 104.876 L
340.598 105.907 L
341.563 107.125 L
342.527 108.302 L
343.491 109.406 L
344.456 110.707 L
345.42 112.106 L
346.385 113.73 L
347.349 115.339 L
348.314 116.838 L
349.278 118.326 L
350.242 119.927 L
351.207 121.487 L
352.171 123.18 L
353.136 124.867 L
354.1 126.505 L
355.065 128.182 L
356.029 129.81 L
356.994 131.596 L
357.958 133.255 L
358.922 134.849 L
359.887 136.548 L
360.851 138.141 L
361.816 139.611 L
362.78 141.02 L
363.745 142.475 L
364.709 143.975 L
365.674 145.445 L
366.638 146.931 L
367.603 148.375 L
368.567 149.807 L
369.531 151.305 L
370.496 152.813 L
371.46 154.21 L
372.425 155.614 L
373.389 157.23 L
374.354 158.795 L
375.318 160.279 L
376.283 161.756 L
377.247 163.465 L
378.211 165.099 L
379.176 166.727 L
380.14 168.207 L
381.105 169.984 L
382.069 171.841 L
383.034 173.529 L
383.998 175.146 L
384.962 176.901 L
385.927 178.824 L
386.891 180.818 L
387.856 182.618 L
388.82 184.396 L
389.785 186.267 L
390.749 188.254 L
391.714 190.341 L
392.678 192.072 L
393.642 193.967 L
394.607 195.9 L
395.571 197.804 L
396.536 199.737 L
397.5 201.507 L
398.465 203.381 L
399.429 205.388 L
400.394 207.379 L
401.358 209.234 L
402.322 210.871 L
403.287 212.643 L
404.251 214.408 L
405.216 216.187 L
406.18 217.937 L
407.145 219.594 L
408.109 221.298 L
409.074 223.104 L
410.038 224.933 L
411.003 226.825 L
411.967 228.495 L
412.931 230.138 L
413.896 231.869 L
414.86 233.486 L
415.825 235.079 L
416.789 236.835 L
417.754 238.539 L
418.718 240.163 L
419.682 241.801 L
420.647 243.42 L
421.611 245.069 L
422.576 246.696 L
423.54 248.573 L
424.505 250.388 L
425.469 252.154 L
426.434 253.913 L
427.398 255.838 L
428.362 257.793 L
429.327 259.651 L
430.291 261.465 L
431.256 263.307 L
432.22 265.195 L
433.185 266.883 L
434.149 268.674 L
435.114 270.479 L
436.078 272.288 L
437.042 273.984 L
438.007 275.739 L
438.971 277.586 L
439.936 279.319 L
440.9 280.97 L
441.865 282.564 L
442.829 284.234 L
443.794 285.952 L
444.758 287.683 L
445.723 289.293 L
446.687 290.873 L
447.651 292.504 L
448.616 294.009 L
449.58 295.649 L
450.545 297.434 L
451.509 299.081 L
452.474 300.788 L
453.438 302.51 L
454.402 304.144 L
455.367 305.7 L
456.331 307.258 L
457.296 308.878 L
458.26 310.48 L
459.225 312.08 L
460.189 313.852 L
461.154 315.454 L
462.118 317.119 L
463.082 318.811 L
464.047 320.448 L
465.011 323.15 L
465.976 326.606 L
466.94 328.455 L
467.905 330.129 L
468.869 331.802 L
469.834 333.488 L
470.798 335.227 L
471.763 337.071 L
472.727 339.06 L
473.691 341.175 L
474.656 343.191 L
475.62 347 L
476.585 352.379 L
477.549 355.766 L
478.514 358.565 L
479.478 360.757 L
480.443 363.261 L
481.407 367.901 L
482.371 372.594 L
482.738 374.041 L
S
GR
GS
[0.75 0 0 0.75 0 0] CT
[8 3 2 3] 0 setdash
2 LJ
0.667 LW
N
115.972 374.041 M
116.847 372.723 L
117.811 371.219 L
118.776 369.588 L
119.74 367.994 L
120.705 366.551 L
121.669 365.161 L
122.634 363.759 L
123.598 362.22 L
124.562 360.742 L
125.527 359.197 L
126.491 357.629 L
127.456 356.147 L
128.42 354.716 L
129.385 353.223 L
130.349 351.751 L
131.314 350.349 L
132.278 348.913 L
133.242 347.397 L
134.207 345.935 L
135.171 344.512 L
136.136 342.968 L
137.1 341.556 L
138.065 340.032 L
139.029 338.403 L
139.994 336.745 L
140.958 335.305 L
141.922 333.697 L
142.887 332.082 L
143.851 330.421 L
144.816 328.72 L
145.78 327.086 L
146.745 325.588 L
147.709 324.042 L
148.674 322.31 L
149.638 320.7 L
150.602 319.079 L
151.567 317.471 L
152.531 315.793 L
153.496 314.182 L
154.46 312.388 L
155.425 310.586 L
156.389 308.987 L
157.354 307.21 L
158.318 305.329 L
159.283 303.648 L
160.247 301.922 L
161.211 300.221 L
162.176 298.657 L
163.14 297.035 L
164.105 295.353 L
165.069 293.657 L
166.034 292.08 L
166.998 290.502 L
167.962 288.987 L
168.927 287.377 L
169.891 285.68 L
170.856 284.057 L
171.82 282.429 L
172.785 280.861 L
173.749 279.231 L
174.714 277.519 L
175.678 275.833 L
176.643 274.113 L
177.607 272.414 L
178.571 270.778 L
179.536 269.205 L
180.5 267.556 L
181.465 265.778 L
182.429 264.12 L
183.394 262.515 L
184.358 260.919 L
185.322 259.298 L
186.287 257.614 L
187.251 256.01 L
188.216 254.431 L
189.18 252.945 L
190.145 251.315 L
191.109 249.731 L
192.074 248.151 L
193.038 246.666 L
194.002 245.234 L
194.967 243.692 L
195.931 242.168 L
196.896 240.622 L
197.86 239.121 L
198.825 237.59 L
199.789 235.954 L
200.754 234.203 L
201.718 232.633 L
202.682 231.063 L
203.647 229.559 L
204.611 228.038 L
205.576 226.484 L
206.54 224.969 L
207.505 223.432 L
208.469 222.072 L
209.434 220.511 L
210.398 218.879 L
211.362 217.221 L
212.327 215.65 L
213.291 214.099 L
214.256 212.465 L
215.22 210.91 L
216.185 209.344 L
217.149 207.935 L
218.114 206.381 L
219.078 204.907 L
220.042 203.47 L
221.007 201.925 L
221.971 200.421 L
222.936 199.009 L
223.9 197.636 L
224.865 196.364 L
225.829 195.114 L
226.794 193.766 L
227.758 192.501 L
228.722 191.238 L
229.687 189.98 L
230.651 188.793 L
231.616 187.447 L
232.58 186.044 L
233.545 184.705 L
234.509 183.334 L
235.474 182.131 L
236.438 181.002 L
237.402 179.761 L
238.367 178.439 L
239.331 177.169 L
240.296 175.964 L
241.26 174.759 L
242.225 173.491 L
243.189 172.33 L
244.154 171.046 L
245.118 169.894 L
246.082 168.763 L
247.047 167.527 L
248.011 166.269 L
248.976 165.163 L
249.94 164.071 L
250.905 163.066 L
251.869 161.986 L
252.834 161.038 L
253.798 160.11 L
254.762 159.226 L
255.727 158.277 L
256.691 157.428 L
257.656 156.562 L
258.62 155.706 L
259.585 154.887 L
260.549 154.014 L
261.514 153.253 L
262.478 152.388 L
263.443 151.479 L
264.407 150.834 L
265.371 150.232 L
266.336 149.659 L
267.3 148.968 L
268.265 148.392 L
269.229 147.932 L
270.194 147.487 L
271.158 146.898 L
272.122 146.538 L
273.087 146.101 L
274.051 145.563 L
275.016 145.09 L
275.98 144.739 L
276.945 144.406 L
277.909 144.11 L
278.874 143.811 L
279.838 143.527 L
280.802 143.138 L
281.767 143.038 L
282.731 142.776 L
283.696 142.435 L
284.66 142.254 L
285.625 141.993 L
286.589 141.705 L
287.554 141.496 L
288.518 141.329 L
289.482 141.294 L
290.447 141.384 L
291.411 141.404 L
292.376 141.319 L
293.34 141.405 L
294.305 141.554 L
295.269 141.644 L
296.234 141.748 L
297.198 141.914 L
298.163 142.132 L
299.127 142.313 L
300.091 142.47 L
301.056 142.658 L
302.02 143.016 L
302.985 143.305 L
303.949 143.759 L
304.914 144.261 L
305.878 144.66 L
306.842 145.157 L
307.807 145.948 L
308.771 146.547 L
309.736 147.171 L
310.7 147.831 L
311.665 148.513 L
312.629 149.109 L
313.594 149.751 L
314.558 150.368 L
315.522 150.939 L
316.487 151.578 L
317.451 152.245 L
318.416 152.935 L
319.38 153.535 L
320.345 154.161 L
321.309 154.86 L
322.274 155.631 L
323.238 156.338 L
324.202 157.147 L
325.167 157.859 L
326.131 158.781 L
327.096 159.521 L
328.06 160.278 L
329.025 161.132 L
329.989 161.964 L
330.954 162.951 L
331.918 163.788 L
332.883 164.709 L
333.847 165.661 L
334.811 166.751 L
335.776 167.959 L
336.74 169.241 L
337.705 170.412 L
338.669 171.513 L
339.634 172.591 L
340.598 173.662 L
341.563 174.853 L
342.527 176.062 L
343.491 177.104 L
344.456 178.225 L
345.42 179.438 L
346.385 180.82 L
347.349 182.186 L
348.314 183.559 L
349.278 184.825 L
350.242 186.258 L
351.207 187.579 L
352.171 188.96 L
353.136 190.406 L
354.1 191.899 L
355.065 193.437 L
356.029 194.912 L
356.994 196.476 L
357.958 198.013 L
358.922 199.612 L
359.887 201.175 L
360.851 202.716 L
361.816 204.181 L
362.78 205.694 L
363.745 207.193 L
364.709 208.736 L
365.674 210.218 L
366.638 211.729 L
367.603 213.302 L
368.567 214.771 L
369.531 216.262 L
370.496 217.836 L
371.46 219.229 L
372.425 220.724 L
373.389 222.323 L
374.354 223.784 L
375.318 225.24 L
376.283 226.56 L
377.247 228.122 L
378.211 229.667 L
379.176 231.151 L
380.14 232.541 L
381.105 234.021 L
382.069 235.649 L
383.034 237.127 L
383.998 238.658 L
384.962 240.326 L
385.927 242.039 L
386.891 243.846 L
387.856 245.593 L
388.82 247.277 L
389.785 249.06 L
390.749 250.88 L
391.714 252.878 L
392.678 254.542 L
393.642 256.334 L
394.607 258.178 L
395.571 259.926 L
396.536 261.727 L
397.5 263.37 L
398.465 265.046 L
399.429 266.886 L
400.394 268.758 L
401.358 270.477 L
402.322 272.018 L
403.287 273.642 L
404.251 275.266 L
405.216 276.898 L
406.18 278.536 L
407.145 280.139 L
408.109 281.722 L
409.074 283.369 L
410.038 285.09 L
411.003 286.847 L
411.967 288.454 L
412.931 290.053 L
413.896 291.638 L
414.86 293.194 L
415.825 294.741 L
416.789 296.508 L
417.754 298.17 L
418.718 299.751 L
419.682 301.328 L
420.647 302.915 L
421.611 304.483 L
422.576 306.038 L
423.54 307.782 L
424.505 309.504 L
425.469 311.151 L
426.434 312.738 L
427.398 314.391 L
428.362 316.051 L
429.327 317.69 L
430.291 319.297 L
431.256 320.898 L
432.22 322.608 L
433.185 324.071 L
434.149 325.682 L
435.114 327.266 L
436.078 328.844 L
437.042 330.341 L
438.007 331.909 L
438.971 333.583 L
439.936 335.152 L
440.9 336.657 L
441.865 338.09 L
442.829 339.658 L
443.794 341.253 L
444.758 342.803 L
445.723 344.288 L
446.687 345.762 L
447.651 347.289 L
448.616 348.7 L
449.58 350.24 L
450.545 351.769 L
451.509 353.217 L
452.474 354.677 L
453.438 356.179 L
454.402 357.735 L
455.367 359.121 L
456.331 360.597 L
457.296 362.029 L
458.26 363.44 L
459.225 364.955 L
460.189 366.518 L
461.154 367.998 L
462.118 369.458 L
463.082 370.95 L
464.047 372.479 L
464.542 374.041 L
S
GR
GS
[0.75 0 0 0.75 0 0] CT
1 0 1 RC
1 LJ
0.667 LW
N
102.915 374.041 M
103.319 373.45 L
104.283 372.128 L
105.248 370.734 L
106.212 369.462 L
107.177 368.093 L
108.141 366.826 L
109.105 365.451 L
110.07 363.945 L
111.034 362.467 L
111.999 361.115 L
112.963 359.698 L
113.928 358.259 L
114.892 356.739 L
115.857 355.219 L
116.821 353.783 L
117.786 352.366 L
118.75 350.842 L
119.714 349.272 L
120.679 347.794 L
121.643 346.284 L
122.608 344.812 L
123.572 343.333 L
124.537 341.705 L
125.501 340.082 L
126.466 338.601 L
127.43 337.094 L
128.394 335.596 L
129.359 334.108 L
130.323 332.429 L
131.288 330.9 L
132.252 329.443 L
133.217 327.748 L
134.181 326.176 L
135.146 324.618 L
136.11 323.112 L
137.074 321.626 L
138.039 320.02 L
139.003 318.435 L
139.968 316.944 L
140.932 315.453 L
141.897 314.023 L
142.861 312.48 L
143.826 310.952 L
144.79 309.413 L
145.754 307.952 L
146.719 306.433 L
147.683 304.847 L
148.648 303.147 L
149.612 301.513 L
150.577 299.756 L
151.541 298.287 L
152.506 296.704 L
153.47 295.06 L
154.434 293.517 L
155.399 291.854 L
156.363 290.116 L
157.328 288.536 L
158.292 286.903 L
159.257 285.302 L
160.221 283.612 L
161.186 281.836 L
162.15 280.164 L
163.114 278.424 L
164.079 276.525 L
165.043 274.724 L
166.008 273.108 L
166.972 271.384 L
167.937 269.665 L
168.901 267.825 L
169.866 266.032 L
170.83 264.292 L
171.794 262.654 L
172.759 260.916 L
173.723 259.275 L
174.688 257.539 L
175.652 255.786 L
176.617 254.129 L
177.581 252.439 L
178.546 250.789 L
179.51 249.084 L
180.474 247.259 L
181.439 245.428 L
182.403 243.632 L
183.368 241.83 L
184.332 240.124 L
185.297 238.304 L
186.261 236.572 L
187.226 234.749 L
188.19 233.067 L
189.154 231.525 L
190.119 229.894 L
191.083 228.157 L
192.048 226.418 L
193.012 224.802 L
193.977 223.169 L
194.941 221.675 L
195.906 220.171 L
196.87 218.553 L
197.834 217.12 L
198.799 215.684 L
199.763 214.183 L
200.728 212.577 L
201.692 211.17 L
202.657 209.634 L
203.621 208.243 L
204.586 206.777 L
205.55 205.165 L
206.514 203.599 L
207.479 202.089 L
208.443 200.619 L
209.408 199.078 L
210.372 197.439 L
211.337 196.03 L
212.301 194.675 L
213.266 193.172 L
214.23 191.587 L
215.194 190.188 L
216.159 188.788 L
217.123 187.328 L
218.088 185.78 L
219.052 184.328 L
220.017 182.744 L
220.981 181.26 L
221.946 179.627 L
222.91 178.127 L
223.874 176.837 L
224.839 175.393 L
225.803 174.126 L
226.768 172.822 L
227.732 171.314 L
228.697 169.987 L
229.661 168.564 L
230.626 167.261 L
231.59 166.07 L
232.554 164.722 L
233.519 163.5 L
234.483 162.214 L
235.448 160.988 L
236.412 159.827 L
237.377 158.591 L
238.341 157.359 L
239.306 156.113 L
240.27 154.861 L
241.234 153.84 L
242.199 152.677 L
243.163 151.527 L
244.128 150.408 L
245.092 149.266 L
246.057 148.092 L
247.021 146.924 L
247.986 145.724 L
248.95 144.748 L
249.914 143.652 L
250.879 142.606 L
251.843 141.653 L
252.808 140.578 L
253.772 139.53 L
254.737 138.65 L
255.701 137.681 L
256.665 136.69 L
257.63 135.603 L
258.594 134.524 L
259.559 133.422 L
260.523 132.484 L
261.488 131.387 L
262.452 130.559 L
263.417 129.581 L
264.381 128.609 L
265.346 127.759 L
266.31 126.87 L
267.274 126.024 L
268.239 125.186 L
269.203 124.434 L
270.168 123.678 L
271.132 123.013 L
272.097 122.44 L
273.061 121.902 L
274.026 121.323 L
274.99 120.694 L
275.954 120.143 L
276.919 119.608 L
277.883 119.109 L
278.848 118.635 L
279.812 118.14 L
280.777 117.801 L
281.741 117.398 L
282.706 117.187 L
283.67 117.019 L
284.634 116.873 L
285.599 116.803 L
286.563 116.623 L
287.528 116.635 L
288.492 116.55 L
289.457 116.461 L
290.421 116.341 L
291.385 116.173 L
292.35 116.073 L
293.314 116.06 L
294.279 116.109 L
295.243 116.198 L
296.208 116.268 L
297.172 116.296 L
298.137 116.318 L
299.101 116.441 L
300.066 116.565 L
301.03 116.652 L
301.994 116.664 L
302.959 116.725 L
303.923 116.88 L
304.888 116.953 L
305.852 117.012 L
306.817 117.145 L
307.781 117.256 L
308.746 117.351 L
309.71 117.444 L
310.674 117.723 L
311.639 117.949 L
312.603 118.385 L
313.568 118.777 L
314.532 119.028 L
315.497 119.332 L
316.461 119.882 L
317.426 120.326 L
318.39 120.723 L
319.354 121.219 L
320.319 121.735 L
321.283 122.252 L
322.248 122.777 L
323.212 123.465 L
324.177 124.012 L
325.141 124.716 L
326.105 125.264 L
327.07 125.734 L
328.034 126.389 L
328.999 127.006 L
329.963 127.716 L
330.928 128.415 L
331.892 129.267 L
332.857 129.963 L
333.821 130.8 L
334.786 131.622 L
335.75 132.343 L
336.714 133.196 L
337.679 133.956 L
338.643 134.857 L
339.608 135.808 L
340.572 136.785 L
341.537 137.797 L
342.501 138.729 L
343.466 139.87 L
344.43 141.004 L
345.394 142.133 L
346.359 143.27 L
347.323 144.419 L
348.288 145.55 L
349.252 146.676 L
350.217 147.884 L
351.181 149.003 L
352.146 150.162 L
353.11 151.383 L
354.074 152.708 L
355.039 153.848 L
356.003 155.17 L
356.968 156.448 L
357.932 157.608 L
358.897 158.85 L
359.861 160.058 L
360.826 161.453 L
361.79 162.856 L
362.754 164.191 L
363.719 165.595 L
364.683 167.132 L
365.648 168.717 L
366.612 170.291 L
367.577 171.746 L
368.541 173.192 L
369.505 174.668 L
370.47 176.231 L
371.434 177.793 L
372.399 179.327 L
373.363 180.76 L
374.328 182.244 L
375.292 183.808 L
376.257 185.381 L
377.221 186.85 L
378.186 188.41 L
379.15 189.834 L
380.114 191.354 L
381.079 192.93 L
382.043 194.552 L
383.008 196.229 L
383.972 197.81 L
384.937 199.48 L
385.901 201.13 L
386.866 202.761 L
387.83 204.511 L
388.794 206.195 L
389.759 207.927 L
390.723 209.793 L
391.688 211.593 L
392.652 213.461 L
393.617 215.315 L
394.581 216.959 L
395.546 218.677 L
396.51 220.552 L
397.474 222.588 L
398.439 224.268 L
399.403 226.068 L
400.368 227.876 L
401.332 229.752 L
402.297 231.767 L
403.261 233.43 L
404.225 235.097 L
405.19 236.982 L
406.154 238.885 L
407.119 240.741 L
408.083 242.538 L
409.048 244.173 L
410.012 245.668 L
410.977 247.355 L
411.941 249.055 L
412.905 250.777 L
413.87 252.364 L
414.834 253.989 L
415.799 255.581 L
416.763 257.25 L
417.728 258.965 L
418.692 260.674 L
419.657 262.265 L
420.621 264.034 L
421.586 265.761 L
422.55 267.497 L
423.514 269.153 L
424.479 270.844 L
425.443 272.491 L
426.408 274.232 L
427.372 275.904 L
428.337 277.506 L
429.301 279.211 L
430.266 280.801 L
431.23 282.485 L
432.194 284.276 L
433.159 285.988 L
434.123 287.692 L
435.088 289.285 L
436.052 290.979 L
437.017 292.748 L
437.981 294.372 L
438.945 295.929 L
439.91 297.492 L
440.874 299.045 L
441.839 300.716 L
442.803 302.22 L
443.768 303.806 L
444.732 305.505 L
445.697 307.162 L
446.661 308.718 L
447.626 310.393 L
448.59 311.957 L
449.554 313.473 L
450.519 315.093 L
451.483 316.696 L
452.448 318.258 L
453.412 319.916 L
454.377 321.479 L
455.341 322.966 L
456.306 324.578 L
457.27 326.035 L
458.234 327.562 L
459.199 329.143 L
460.163 330.717 L
461.128 332.238 L
462.092 333.711 L
463.057 335.196 L
464.021 336.712 L
464.986 338.18 L
465.95 339.724 L
466.914 341.303 L
467.879 342.905 L
468.843 344.439 L
469.808 346.123 L
470.772 351.104 L
471.737 355.963 L
472.701 357.911 L
473.666 359.479 L
474.63 361.089 L
475.594 362.617 L
476.559 364.145 L
477.523 365.698 L
478.488 367.516 L
479.452 369.883 L
480.417 372.99 L
480.628 374.041 L
S
GR
GS
[0.75 0 0 0.75 0 0] CT
1 0 1 RC
[8 3 2 3] 0 setdash
2 LJ
0.667 LW
N
86.446 374.041 M
86.923 373.314 L
87.888 371.961 L
88.852 370.546 L
89.817 369.14 L
90.781 367.632 L
91.746 366.163 L
92.71 364.851 L
93.674 363.448 L
94.639 361.894 L
95.603 360.52 L
96.568 358.962 L
97.532 357.509 L
98.497 356.07 L
99.461 354.55 L
100.426 353.188 L
101.39 351.762 L
102.354 350.334 L
103.319 348.883 L
104.283 347.511 L
105.248 346.068 L
106.212 344.779 L
107.177 343.372 L
108.141 342.062 L
109.105 340.625 L
110.07 339.047 L
111.034 337.499 L
111.999 336.118 L
112.963 334.687 L
113.928 333.157 L
114.892 331.562 L
115.857 330.002 L
116.821 328.52 L
117.786 327.045 L
118.75 325.499 L
119.714 323.885 L
120.679 322.359 L
121.643 320.802 L
122.608 319.234 L
123.572 317.68 L
124.537 316.013 L
125.501 314.341 L
126.466 312.812 L
127.43 311.208 L
128.394 309.632 L
129.359 308.088 L
130.323 306.332 L
131.288 304.717 L
132.252 303.242 L
133.217 301.52 L
134.181 299.925 L
135.146 298.31 L
136.11 296.752 L
137.074 295.216 L
138.039 293.613 L
139.003 291.995 L
139.968 290.472 L
140.932 288.905 L
141.897 287.435 L
142.861 285.86 L
143.826 284.314 L
144.79 282.768 L
145.754 281.254 L
146.719 279.7 L
147.683 278.094 L
148.648 276.405 L
149.612 274.786 L
150.577 273.053 L
151.541 271.55 L
152.506 269.949 L
153.47 268.335 L
154.434 266.838 L
155.399 265.197 L
156.363 263.489 L
157.328 261.936 L
158.292 260.311 L
159.257 258.739 L
160.221 257.091 L
161.186 255.37 L
162.15 253.72 L
163.114 251.988 L
164.079 250.104 L
165.043 248.314 L
166.008 246.736 L
166.972 245.041 L
167.937 243.37 L
168.901 241.601 L
169.866 239.83 L
170.83 238.067 L
171.794 236.413 L
172.759 234.72 L
173.723 233.08 L
174.688 231.344 L
175.652 229.59 L
176.617 227.948 L
177.581 226.277 L
178.546 224.638 L
179.51 222.941 L
180.474 221.109 L
181.439 219.293 L
182.403 217.489 L
183.368 215.691 L
184.332 213.975 L
185.297 212.173 L
186.261 210.435 L
187.226 208.595 L
188.19 206.896 L
189.154 205.378 L
190.119 203.732 L
191.083 202.002 L
192.048 200.279 L
193.012 198.666 L
193.977 196.999 L
194.941 195.495 L
195.906 194.004 L
196.87 192.42 L
197.834 190.995 L
198.799 189.528 L
199.763 188.042 L
200.728 186.442 L
201.692 185.052 L
202.657 183.516 L
203.621 182.125 L
204.586 180.647 L
205.55 179.047 L
206.514 177.468 L
207.479 175.97 L
208.443 174.49 L
209.408 172.948 L
210.372 171.33 L
211.337 169.917 L
212.301 168.578 L
213.266 167.14 L
214.23 165.604 L
215.194 164.207 L
216.159 162.825 L
217.123 161.384 L
218.088 159.831 L
219.052 158.359 L
220.017 156.805 L
220.981 155.293 L
221.946 153.666 L
222.91 152.19 L
223.874 150.901 L
224.839 149.447 L
225.803 148.157 L
226.768 146.82 L
227.732 145.257 L
228.697 143.906 L
229.661 142.449 L
230.626 141.115 L
231.59 139.867 L
232.554 138.449 L
233.519 137.157 L
234.483 135.859 L
235.448 134.606 L
236.412 133.401 L
237.377 132.136 L
238.341 130.866 L
239.306 129.603 L
240.27 128.319 L
241.234 127.273 L
242.199 126.054 L
243.163 124.866 L
244.128 123.774 L
245.092 122.643 L
246.057 121.47 L
247.021 120.324 L
247.986 119.179 L
248.95 118.256 L
249.914 117.18 L
250.879 116.164 L
251.843 115.259 L
252.808 114.246 L
253.772 113.252 L
254.737 112.428 L
255.701 111.473 L
256.665 110.512 L
257.63 109.423 L
258.594 108.353 L
259.559 107.266 L
260.523 106.284 L
261.488 105.174 L
262.452 104.335 L
263.417 103.326 L
264.381 102.33 L
265.346 101.413 L
266.31 100.473 L
267.274 99.585 L
268.239 98.69 L
269.203 97.913 L
270.168 97.158 L
271.132 96.516 L
272.097 95.993 L
273.061 95.465 L
274.026 94.873 L
274.99 94.297 L
275.954 93.753 L
276.919 93.222 L
277.883 92.711 L
278.848 92.174 L
279.812 91.634 L
280.777 91.279 L
281.741 90.828 L
282.706 90.618 L
283.67 90.384 L
284.634 90.192 L
285.599 90.075 L
286.563 89.889 L
287.528 89.875 L
288.492 89.708 L
289.457 89.507 L
290.421 89.278 L
291.385 89.006 L
292.35 88.852 L
293.314 88.743 L
294.279 88.708 L
295.243 88.673 L
296.208 88.632 L
297.172 88.575 L
298.137 88.512 L
299.101 88.55 L
300.066 88.606 L
301.03 88.567 L
301.994 88.477 L
302.959 88.504 L
303.923 88.625 L
304.888 88.593 L
305.852 88.539 L
306.817 88.575 L
307.781 88.61 L
308.746 88.586 L
309.71 88.527 L
310.674 88.597 L
311.639 88.668 L
312.603 88.949 L
313.568 89.219 L
314.532 89.36 L
315.497 89.528 L
316.461 89.931 L
317.426 90.291 L
318.39 90.543 L
319.354 90.925 L
320.319 91.316 L
321.283 91.734 L
322.248 92.147 L
323.212 92.747 L
324.177 93.205 L
325.141 93.843 L
326.105 94.325 L
327.07 94.72 L
328.034 95.309 L
328.999 95.893 L
329.963 96.533 L
330.928 97.191 L
331.892 97.97 L
332.857 98.586 L
333.821 99.354 L
334.786 100.127 L
335.75 100.827 L
336.714 101.63 L
337.679 102.343 L
338.643 103.23 L
339.608 104.149 L
340.572 105.103 L
341.537 106.038 L
342.501 106.929 L
343.466 108.099 L
344.43 109.213 L
345.394 110.293 L
346.359 111.362 L
347.323 112.478 L
348.288 113.604 L
349.252 114.761 L
350.217 115.938 L
351.181 117.037 L
352.146 118.219 L
353.11 119.424 L
354.074 120.716 L
355.039 121.875 L
356.003 123.197 L
356.968 124.447 L
357.932 125.596 L
358.897 126.806 L
359.861 128.011 L
360.826 129.434 L
361.79 130.808 L
362.754 132.088 L
363.719 133.512 L
364.683 135.081 L
365.648 136.637 L
366.612 138.215 L
367.577 139.71 L
368.541 141.192 L
369.505 142.737 L
370.47 144.32 L
371.434 145.925 L
372.399 147.528 L
373.363 148.939 L
374.328 150.528 L
375.292 152.147 L
376.257 153.748 L
377.221 155.271 L
378.186 156.825 L
379.15 158.268 L
380.114 159.904 L
381.079 161.536 L
382.043 163.203 L
383.008 164.889 L
383.972 166.52 L
384.937 168.308 L
385.901 170.026 L
386.866 171.718 L
387.83 173.509 L
388.794 175.271 L
389.759 177.075 L
390.723 178.995 L
391.688 180.871 L
392.652 182.825 L
393.617 184.762 L
394.581 186.484 L
395.546 188.272 L
396.51 190.205 L
397.474 192.341 L
398.439 194.091 L
399.403 195.962 L
400.368 197.818 L
401.332 199.742 L
402.297 201.839 L
403.261 203.577 L
404.225 205.293 L
405.19 207.233 L
406.154 209.178 L
407.119 211.105 L
408.083 212.977 L
409.048 214.627 L
410.012 216.199 L
410.977 217.921 L
411.941 219.674 L
412.905 221.461 L
413.87 223.11 L
414.834 224.813 L
415.799 226.462 L
416.763 228.191 L
417.728 229.925 L
418.692 231.671 L
419.657 233.293 L
420.621 235.091 L
421.586 236.844 L
422.55 238.591 L
423.514 240.261 L
424.479 241.988 L
425.443 243.658 L
426.408 245.463 L
427.372 247.19 L
428.337 248.843 L
429.301 250.627 L
430.266 252.313 L
431.23 253.995 L
432.194 255.851 L
433.159 257.605 L
434.123 259.408 L
435.088 261.063 L
436.052 262.829 L
437.017 264.636 L
437.981 266.366 L
438.945 267.988 L
439.91 269.606 L
440.874 271.173 L
441.839 272.874 L
442.803 274.448 L
443.768 276.123 L
444.732 277.888 L
445.697 279.559 L
446.661 281.17 L
447.626 282.906 L
448.59 284.522 L
449.554 286.03 L
450.519 287.716 L
451.483 289.397 L
452.448 291.013 L
453.412 292.737 L
454.377 294.413 L
455.341 295.937 L
456.306 297.638 L
457.27 299.158 L
458.234 300.743 L
459.199 302.365 L
460.163 303.986 L
461.128 305.528 L
462.092 307.065 L
463.057 308.596 L
464.021 310.184 L
464.986 311.732 L
465.95 313.329 L
466.914 314.989 L
467.879 316.675 L
468.843 318.313 L
469.808 320.096 L
470.772 324.105 L
471.737 326.126 L
472.701 327.73 L
473.666 329.386 L
474.63 331.064 L
475.594 332.683 L
476.559 334.321 L
477.523 336.01 L
478.488 337.912 L
479.452 340.21 L
480.417 342.874 L
481.381 340.209 L
482.346 348.335 L
483.31 355.052 L
484.274 356.571 L
485.239 361.747 L
486.203 365.245 L
487.168 369.156 L
488.132 371.055 L
488.39 374.041 L
S
GR
GS
[0.75 0 0 0.75 0 0] CT
1 0 1 RC
[8 3 2 3] 0 setdash
2 LJ
0.667 LW
N
120.131 374.041 M
120.679 373.228 L
121.643 371.767 L
122.608 370.389 L
123.572 368.985 L
124.537 367.397 L
125.501 365.822 L
126.466 364.39 L
127.43 362.979 L
128.394 361.561 L
129.359 360.128 L
130.323 358.526 L
131.288 357.083 L
132.252 355.644 L
133.217 353.976 L
134.181 352.427 L
135.146 350.926 L
136.11 349.472 L
137.074 348.036 L
138.039 346.428 L
139.003 344.874 L
139.968 343.415 L
140.932 342.001 L
141.897 340.611 L
142.861 339.101 L
143.826 337.589 L
144.79 336.058 L
145.754 334.649 L
146.719 333.167 L
147.683 331.6 L
148.648 329.89 L
149.612 328.241 L
150.577 326.459 L
151.541 325.024 L
152.506 323.459 L
153.47 321.784 L
154.434 320.195 L
155.399 318.511 L
156.363 316.744 L
157.328 315.137 L
158.292 313.496 L
159.257 311.866 L
160.221 310.134 L
161.186 308.302 L
162.15 306.609 L
163.114 304.861 L
164.079 302.946 L
165.043 301.134 L
166.008 299.481 L
166.972 297.727 L
167.937 295.96 L
168.901 294.049 L
169.866 292.234 L
170.83 290.516 L
171.794 288.894 L
172.759 287.111 L
173.723 285.471 L
174.688 283.734 L
175.652 281.982 L
176.617 280.309 L
177.581 278.601 L
178.546 276.94 L
179.51 275.227 L
180.474 273.41 L
181.439 271.562 L
182.403 269.774 L
183.368 267.97 L
184.332 266.274 L
185.297 264.435 L
186.261 262.708 L
187.226 260.904 L
188.19 259.237 L
189.154 257.671 L
190.119 256.057 L
191.083 254.312 L
192.048 252.557 L
193.012 250.938 L
193.977 249.339 L
194.941 247.855 L
195.906 246.337 L
196.87 244.686 L
197.834 243.246 L
198.799 241.839 L
199.763 240.325 L
200.728 238.712 L
201.692 237.288 L
202.657 235.752 L
203.621 234.361 L
204.586 232.907 L
205.55 231.282 L
206.514 229.73 L
207.479 228.208 L
208.443 226.748 L
209.408 225.208 L
210.372 223.548 L
211.337 222.143 L
212.301 220.772 L
213.266 219.205 L
214.23 217.57 L
215.194 216.17 L
216.159 214.752 L
217.123 213.273 L
218.088 211.729 L
219.052 210.298 L
220.017 208.683 L
220.981 207.227 L
221.946 205.588 L
222.91 204.064 L
223.874 202.774 L
224.839 201.339 L
225.803 200.094 L
226.768 198.825 L
227.732 197.371 L
228.697 196.069 L
229.661 194.679 L
230.626 193.407 L
231.59 192.273 L
232.554 190.995 L
233.519 189.842 L
234.483 188.569 L
235.448 187.371 L
236.412 186.252 L
237.377 185.046 L
238.341 183.853 L
239.306 182.624 L
240.27 181.402 L
241.234 180.408 L
242.199 179.3 L
243.163 178.189 L
244.128 177.042 L
245.092 175.888 L
246.057 174.715 L
247.021 173.525 L
247.986 172.27 L
248.95 171.24 L
249.914 170.125 L
250.879 169.048 L
251.843 168.047 L
252.808 166.91 L
253.772 165.808 L
254.737 164.873 L
255.701 163.89 L
256.665 162.869 L
257.63 161.783 L
258.594 160.694 L
259.559 159.578 L
260.523 158.684 L
261.488 157.6 L
262.452 156.783 L
263.417 155.836 L
264.381 154.887 L
265.346 154.104 L
266.31 153.266 L
267.274 152.462 L
268.239 151.683 L
269.203 150.954 L
270.168 150.197 L
271.132 149.51 L
272.097 148.887 L
273.061 148.34 L
274.026 147.773 L
274.99 147.092 L
275.954 146.534 L
276.919 145.994 L
277.883 145.507 L
278.848 145.096 L
279.812 144.647 L
280.777 144.323 L
281.741 143.967 L
282.706 143.757 L
283.67 143.653 L
284.634 143.553 L
285.599 143.531 L
286.563 143.356 L
287.528 143.394 L
288.492 143.391 L
289.457 143.414 L
290.421 143.405 L
291.385 143.34 L
292.35 143.294 L
293.314 143.377 L
294.279 143.51 L
295.243 143.723 L
296.208 143.905 L
297.172 144.018 L
298.137 144.123 L
299.101 144.331 L
300.066 144.525 L
301.03 144.736 L
301.994 144.852 L
302.959 144.946 L
303.923 145.136 L
304.888 145.312 L
305.852 145.485 L
306.817 145.714 L
307.781 145.903 L
308.746 146.116 L
309.71 146.361 L
310.674 146.849 L
311.639 147.23 L
312.603 147.822 L
313.568 148.335 L
314.532 148.697 L
315.497 149.136 L
316.461 149.833 L
317.426 150.362 L
318.39 150.902 L
319.354 151.513 L
320.319 152.155 L
321.283 152.771 L
322.248 153.407 L
323.212 154.184 L
324.177 154.82 L
325.141 155.589 L
326.105 156.203 L
327.07 156.749 L
328.034 157.469 L
328.999 158.119 L
329.963 158.898 L
330.928 159.639 L
331.892 160.563 L
332.857 161.34 L
333.821 162.247 L
334.786 163.117 L
335.75 163.858 L
336.714 164.761 L
337.679 165.569 L
338.643 166.483 L
339.608 167.467 L
340.572 168.466 L
341.537 169.555 L
342.501 170.53 L
343.466 171.64 L
344.43 172.796 L
345.394 173.972 L
346.359 175.177 L
347.323 176.359 L
348.288 177.496 L
349.252 178.591 L
350.217 179.829 L
351.181 180.97 L
352.146 182.105 L
353.11 183.342 L
354.074 184.7 L
355.039 185.82 L
356.003 187.142 L
356.968 188.449 L
357.932 189.619 L
358.897 190.893 L
359.861 192.104 L
360.826 193.473 L
361.79 194.905 L
362.754 196.294 L
363.719 197.677 L
364.683 199.184 L
365.648 200.798 L
366.612 202.366 L
367.577 203.781 L
368.541 205.193 L
369.505 206.598 L
370.47 208.142 L
371.434 209.66 L
372.399 211.126 L
373.363 212.58 L
374.328 213.96 L
375.292 215.47 L
376.257 217.013 L
377.221 218.428 L
378.186 219.995 L
379.15 221.4 L
380.114 222.803 L
381.079 224.323 L
382.043 225.901 L
383.008 227.568 L
383.972 229.1 L
384.937 230.652 L
385.901 232.233 L
386.866 233.804 L
387.83 235.513 L
388.794 237.118 L
389.759 238.78 L
390.723 240.59 L
391.688 242.316 L
392.652 244.097 L
393.617 245.867 L
394.581 247.435 L
395.546 249.082 L
396.51 250.899 L
397.474 252.835 L
398.439 254.446 L
399.403 256.174 L
400.368 257.933 L
401.332 259.761 L
402.297 261.696 L
403.261 263.283 L
404.225 264.901 L
405.19 266.732 L
406.154 268.593 L
407.119 270.376 L
408.083 272.099 L
409.048 273.719 L
410.012 275.136 L
410.977 276.79 L
411.941 278.437 L
412.905 280.094 L
413.87 281.619 L
414.834 283.165 L
415.799 284.7 L
416.763 286.309 L
417.728 288.005 L
418.692 289.678 L
419.657 291.237 L
420.621 292.976 L
421.586 294.678 L
422.55 296.403 L
423.514 298.044 L
424.479 299.699 L
425.443 301.324 L
426.408 303.001 L
427.372 304.618 L
428.337 306.169 L
429.301 307.796 L
430.266 309.29 L
431.23 310.975 L
432.194 312.702 L
433.159 314.371 L
434.123 315.975 L
435.088 317.508 L
436.052 319.128 L
437.017 320.859 L
437.981 322.378 L
438.945 323.871 L
439.91 325.378 L
440.874 326.917 L
441.839 328.559 L
442.803 329.993 L
443.768 331.49 L
444.732 333.122 L
445.697 334.766 L
446.661 336.266 L
447.626 337.879 L
448.59 339.392 L
449.554 340.916 L
450.519 342.471 L
451.483 343.995 L
452.448 345.504 L
453.412 347.096 L
454.377 348.545 L
455.341 349.994 L
456.306 351.518 L
457.27 352.913 L
458.234 354.38 L
459.199 355.921 L
460.163 357.447 L
461.128 358.948 L
462.092 360.357 L
463.057 361.796 L
464.021 363.24 L
464.986 364.628 L
465.95 366.12 L
466.914 367.616 L
467.879 369.134 L
468.843 370.566 L
469.808 372.15 L
470.114 374.041 L
S
GR
GS
[0.75 0 0 0.75 0 0] CT
1 GC
N
496 95 M
496 42 L
366 42 L
366 95 L
cp
f
GR
GS
[0.75 0 0 0.75 309.75 39] CT
/Helvetica 12 F
GS
[1 0 0 1 0 0] CT
0 5 moveto 
1 -1 scale
(PRL Centered) t 
GR
GR
GS
[0.75 0 0 0.75 0 0] CT
0 1 1 RC
1 LJ
0.667 LW
N
370 52 M
410 52 L
S
GR
GS
[0.75 0 0 0.75 309.75 51.375] CT
/Helvetica 12 F
GS
[1 0 0 1 0 0] CT
0 5 moveto 
1 -1 scale
(PCD Centered) t 
GR
GR
GS
[0.75 0 0 0.75 0 0] CT
1 LJ
0.667 LW
N
370 68.5 M
410 68.5 L
S
GR
GS
[0.75 0 0 0.75 309.75 63.75] CT
/Helvetica 12 F
GS
[1 0 0 1 0 0] CT
0 5 moveto 
1 -1 scale
(CDC Centered) t 
GR
GR
GS
[0.75 0 0 0.75 0 0] CT
1 0 1 RC
1 LJ
0.667 LW
N
370 85 M
410 85 L
S
GR
GS
[0.75 0 0 0.75 0 0] CT
0.149 GC
10.0 ML
0.667 LW
N
366 95 M
366 42 L
496 42 L
496 95 L
cp
S
GR
%%Trailer
%%Pages: 1
%%EOF
