%!PS-Adobe-3.0 EPSF-3.0
%%Creator: (MATLAB, The Mathworks, Inc. Version 9.10.0.1649659 \(R2021a\) Update 1. Operating System: Windows 10)
%%Title: (C:/Users/sjenks/Box/APLab-Projects/Sam/ReinigerAnalysis/VSS2023 Figures/PRL_DistVM.eps)
%%CreationDate: 2022-12-14T09:36:57
%%Pages: (atend)
%%BoundingBox:     0     0   420   315
%%LanguageLevel: 3
%%EndComments
%%BeginProlog
%%BeginResource: procset (Apache XML Graphics Std ProcSet) 1.2 0
%%Version: 1.2 0
%%Copyright: (Copyright 2001-2003,2010 The Apache Software Foundation. License terms: http://www.apache.org/licenses/LICENSE-2.0)
/bd{bind def}bind def
/ld{load def}bd
/GR/grestore ld
/GS/gsave ld
/RM/rmoveto ld
/C/curveto ld
/t/show ld
/L/lineto ld
/ML/setmiterlimit ld
/CT/concat ld
/f/fill ld
/N/newpath ld
/S/stroke ld
/CC/setcmykcolor ld
/A/ashow ld
/cp/closepath ld
/RC/setrgbcolor ld
/LJ/setlinejoin ld
/GC/setgray ld
/LW/setlinewidth ld
/M/moveto ld
/re {4 2 roll M
1 index 0 rlineto
0 exch rlineto
neg 0 rlineto
cp } bd
/_ctm matrix def
/_tm matrix def
/BT { _ctm currentmatrix pop matrix _tm copy pop 0 0 moveto } bd
/ET { _ctm setmatrix } bd
/iTm { _ctm setmatrix _tm concat } bd
/Tm { _tm astore pop iTm 0 0 moveto } bd
/ux 0.0 def
/uy 0.0 def
/F {
  /Tp exch def
  /Tf exch def
  Tf findfont Tp scalefont setfont
  /cf Tf def  /cs Tp def
} bd
/ULS {currentpoint /uy exch def /ux exch def} bd
/ULE {
  /Tcx currentpoint pop def
  gsave
  newpath
  cf findfont cs scalefont dup
  /FontMatrix get 0 get /Ts exch def /FontInfo get dup
  /UnderlinePosition get Ts mul /To exch def
  /UnderlineThickness get Ts mul /Tt exch def
  ux uy To add moveto  Tcx uy To add lineto
  Tt setlinewidth stroke
  grestore
} bd
/OLE {
  /Tcx currentpoint pop def
  gsave
  newpath
  cf findfont cs scalefont dup
  /FontMatrix get 0 get /Ts exch def /FontInfo get dup
  /UnderlinePosition get Ts mul /To exch def
  /UnderlineThickness get Ts mul /Tt exch def
  ux uy To add cs add moveto Tcx uy To add cs add lineto
  Tt setlinewidth stroke
  grestore
} bd
/SOE {
  /Tcx currentpoint pop def
  gsave
  newpath
  cf findfont cs scalefont dup
  /FontMatrix get 0 get /Ts exch def /FontInfo get dup
  /UnderlinePosition get Ts mul /To exch def
  /UnderlineThickness get Ts mul /Tt exch def
  ux uy To add cs 10 mul 26 idiv add moveto Tcx uy To add cs 10 mul 26 idiv add lineto
  Tt setlinewidth stroke
  grestore
} bd
/QT {
/Y22 exch store
/X22 exch store
/Y21 exch store
/X21 exch store
currentpoint
/Y21 load 2 mul add 3 div exch
/X21 load 2 mul add 3 div exch
/X21 load 2 mul /X22 load add 3 div
/Y21 load 2 mul /Y22 load add 3 div
/X22 load /Y22 load curveto
} bd
/SSPD {
dup length /d exch dict def
{
/v exch def
/k exch def
currentpagedevice k known {
/cpdv currentpagedevice k get def
v cpdv ne {
/upd false def
/nullv v type /nulltype eq def
/nullcpdv cpdv type /nulltype eq def
nullv nullcpdv or
{
/upd true def
} {
/sametype v type cpdv type eq def
sametype {
v type /arraytype eq {
/vlen v length def
/cpdvlen cpdv length def
vlen cpdvlen eq {
0 1 vlen 1 sub {
/i exch def
/obj v i get def
/cpdobj cpdv i get def
obj cpdobj ne {
/upd true def
exit
} if
} for
} {
/upd true def
} ifelse
} {
v type /dicttype eq {
v {
/dv exch def
/dk exch def
/cpddv cpdv dk get def
dv cpddv ne {
/upd true def
exit
} if
} forall
} {
/upd true def
} ifelse
} ifelse
} if
} ifelse
upd true eq {
d k v put
} if
} if
} if
} forall
d length 0 gt {
d setpagedevice
} if
} bd
/RE { % /NewFontName [NewEncodingArray] /FontName RE -
  findfont dup length dict begin
  {
    1 index /FID ne
    {def} {pop pop} ifelse
  } forall
  /Encoding exch def
  /FontName 1 index def
  currentdict definefont pop
  end
} bind def
%%EndResource
%%BeginResource: procset (Apache XML Graphics EPS ProcSet) 1.0 0
%%Version: 1.0 0
%%Copyright: (Copyright 2002-2003 The Apache Software Foundation. License terms: http://www.apache.org/licenses/LICENSE-2.0)
/BeginEPSF { %def
/b4_Inc_state save def         % Save state for cleanup
/dict_count countdictstack def % Count objects on dict stack
/op_count count 1 sub def      % Count objects on operand stack
userdict begin                 % Push userdict on dict stack
/showpage { } def              % Redefine showpage, { } = null proc
0 setgray 0 setlinecap         % Prepare graphics state
1 setlinewidth 0 setlinejoin
10 setmiterlimit [ ] 0 setdash newpath
/languagelevel where           % If level not equal to 1 then
{pop languagelevel             % set strokeadjust and
1 ne                           % overprint to their defaults.
{false setstrokeadjust false setoverprint
} if
} if
} bd
/EndEPSF { %def
count op_count sub {pop} repeat            % Clean up stacks
countdictstack dict_count sub {end} repeat
b4_Inc_state restore
} bd
%%EndResource
%FOPBeginFontDict
%%IncludeResource: font Courier-Oblique
%%IncludeResource: font Courier-BoldOblique
%%IncludeResource: font Courier-Bold
%%IncludeResource: font ZapfDingbats
%%IncludeResource: font Symbol
%%IncludeResource: font Helvetica
%%IncludeResource: font Helvetica-Oblique
%%IncludeResource: font Helvetica-Bold
%%IncludeResource: font Helvetica-BoldOblique
%%IncludeResource: font Times-Roman
%%IncludeResource: font Times-Italic
%%IncludeResource: font Times-Bold
%%IncludeResource: font Times-BoldItalic
%%IncludeResource: font Courier
%FOPEndFontDict
%%BeginResource: encoding WinAnsiEncoding
/WinAnsiEncoding [
/.notdef /.notdef /.notdef /.notdef /.notdef
/.notdef /.notdef /.notdef /.notdef /.notdef
/.notdef /.notdef /.notdef /.notdef /.notdef
/.notdef /.notdef /.notdef /.notdef /.notdef
/.notdef /.notdef /.notdef /.notdef /.notdef
/.notdef /.notdef /.notdef /.notdef /.notdef
/.notdef /.notdef /space /exclam /quotedbl
/numbersign /dollar /percent /ampersand /quotesingle
/parenleft /parenright /asterisk /plus /comma
/hyphen /period /slash /zero /one
/two /three /four /five /six
/seven /eight /nine /colon /semicolon
/less /equal /greater /question /at
/A /B /C /D /E
/F /G /H /I /J
/K /L /M /N /O
/P /Q /R /S /T
/U /V /W /X /Y
/Z /bracketleft /backslash /bracketright /asciicircum
/underscore /quoteleft /a /b /c
/d /e /f /g /h
/i /j /k /l /m
/n /o /p /q /r
/s /t /u /v /w
/x /y /z /braceleft /bar
/braceright /asciitilde /bullet /Euro /bullet
/quotesinglbase /florin /quotedblbase /ellipsis /dagger
/daggerdbl /circumflex /perthousand /Scaron /guilsinglleft
/OE /bullet /Zcaron /bullet /bullet
/quoteleft /quoteright /quotedblleft /quotedblright /bullet
/endash /emdash /asciitilde /trademark /scaron
/guilsinglright /oe /bullet /zcaron /Ydieresis
/space /exclamdown /cent /sterling /currency
/yen /brokenbar /section /dieresis /copyright
/ordfeminine /guillemotleft /logicalnot /sfthyphen /registered
/macron /degree /plusminus /twosuperior /threesuperior
/acute /mu /paragraph /middot /cedilla
/onesuperior /ordmasculine /guillemotright /onequarter /onehalf
/threequarters /questiondown /Agrave /Aacute /Acircumflex
/Atilde /Adieresis /Aring /AE /Ccedilla
/Egrave /Eacute /Ecircumflex /Edieresis /Igrave
/Iacute /Icircumflex /Idieresis /Eth /Ntilde
/Ograve /Oacute /Ocircumflex /Otilde /Odieresis
/multiply /Oslash /Ugrave /Uacute /Ucircumflex
/Udieresis /Yacute /Thorn /germandbls /agrave
/aacute /acircumflex /atilde /adieresis /aring
/ae /ccedilla /egrave /eacute /ecircumflex
/edieresis /igrave /iacute /icircumflex /idieresis
/eth /ntilde /ograve /oacute /ocircumflex
/otilde /odieresis /divide /oslash /ugrave
/uacute /ucircumflex /udieresis /yacute /thorn
/ydieresis
] def
%%EndResource
%FOPBeginFontReencode
/Courier-Oblique findfont
dup length dict begin
  {1 index /FID ne {def} {pop pop} ifelse} forall
  /Encoding WinAnsiEncoding def
  currentdict
end
/Courier-Oblique exch definefont pop
/Courier-BoldOblique findfont
dup length dict begin
  {1 index /FID ne {def} {pop pop} ifelse} forall
  /Encoding WinAnsiEncoding def
  currentdict
end
/Courier-BoldOblique exch definefont pop
/Courier-Bold findfont
dup length dict begin
  {1 index /FID ne {def} {pop pop} ifelse} forall
  /Encoding WinAnsiEncoding def
  currentdict
end
/Courier-Bold exch definefont pop
/Helvetica findfont
dup length dict begin
  {1 index /FID ne {def} {pop pop} ifelse} forall
  /Encoding WinAnsiEncoding def
  currentdict
end
/Helvetica exch definefont pop
/Helvetica-Oblique findfont
dup length dict begin
  {1 index /FID ne {def} {pop pop} ifelse} forall
  /Encoding WinAnsiEncoding def
  currentdict
end
/Helvetica-Oblique exch definefont pop
/Helvetica-Bold findfont
dup length dict begin
  {1 index /FID ne {def} {pop pop} ifelse} forall
  /Encoding WinAnsiEncoding def
  currentdict
end
/Helvetica-Bold exch definefont pop
/Helvetica-BoldOblique findfont
dup length dict begin
  {1 index /FID ne {def} {pop pop} ifelse} forall
  /Encoding WinAnsiEncoding def
  currentdict
end
/Helvetica-BoldOblique exch definefont pop
/Times-Roman findfont
dup length dict begin
  {1 index /FID ne {def} {pop pop} ifelse} forall
  /Encoding WinAnsiEncoding def
  currentdict
end
/Times-Roman exch definefont pop
/Times-Italic findfont
dup length dict begin
  {1 index /FID ne {def} {pop pop} ifelse} forall
  /Encoding WinAnsiEncoding def
  currentdict
end
/Times-Italic exch definefont pop
/Times-Bold findfont
dup length dict begin
  {1 index /FID ne {def} {pop pop} ifelse} forall
  /Encoding WinAnsiEncoding def
  currentdict
end
/Times-Bold exch definefont pop
/Times-BoldItalic findfont
dup length dict begin
  {1 index /FID ne {def} {pop pop} ifelse} forall
  /Encoding WinAnsiEncoding def
  currentdict
end
/Times-BoldItalic exch definefont pop
/Courier findfont
dup length dict begin
  {1 index /FID ne {def} {pop pop} ifelse} forall
  /Encoding WinAnsiEncoding def
  currentdict
end
/Courier exch definefont pop
%FOPEndFontReencode
%%EndProlog
%%Page: 1 1
%%PageBoundingBox: 0 0 420 315
%%BeginPageSetup
[1 0 0 -1 0 315] CT
%%EndPageSetup
GS
[0.75 0 0 0.75 0 0] CT
1 GC
N
0 0 560 420 re
f
GR
GS
[0.75 0 0 0.75 0 0] CT
1 GC
N
0 0 560 420 re
f
GR
GS
[0.75 0 0 0.75 0 0] CT
1 GC
N
73 374 M
507 374 L
507 31 L
73 31 L
cp
f
GR
GS
[0.75 0 0 0.75 0 0] CT
0.149 GC
2 setlinecap
1 LJ
0.667 LW
N
73 374 M
507 374 L
S
GR
GS
[0.75 0 0 0.75 0 0] CT
0.149 GC
2 setlinecap
1 LJ
0.667 LW
N
73 31 M
507 31 L
S
GR
GS
[0.75 0 0 0.75 0 0] CT
0.149 GC
2 setlinecap
1 LJ
0.667 LW
N
73 374 M
73 369.66 L
S
GR
GS
[0.75 0 0 0.75 0 0] CT
0.149 GC
2 setlinecap
1 LJ
0.667 LW
N
127.25 374 M
127.25 369.66 L
S
GR
GS
[0.75 0 0 0.75 0 0] CT
0.149 GC
2 setlinecap
1 LJ
0.667 LW
N
181.5 374 M
181.5 369.66 L
S
GR
GS
[0.75 0 0 0.75 0 0] CT
0.149 GC
2 setlinecap
1 LJ
0.667 LW
N
235.75 374 M
235.75 369.66 L
S
GR
GS
[0.75 0 0 0.75 0 0] CT
0.149 GC
2 setlinecap
1 LJ
0.667 LW
N
290 374 M
290 369.66 L
S
GR
GS
[0.75 0 0 0.75 0 0] CT
0.149 GC
2 setlinecap
1 LJ
0.667 LW
N
344.25 374 M
344.25 369.66 L
S
GR
GS
[0.75 0 0 0.75 0 0] CT
0.149 GC
2 setlinecap
1 LJ
0.667 LW
N
398.5 374 M
398.5 369.66 L
S
GR
GS
[0.75 0 0 0.75 0 0] CT
0.149 GC
2 setlinecap
1 LJ
0.667 LW
N
452.75 374 M
452.75 369.66 L
S
GR
GS
[0.75 0 0 0.75 0 0] CT
0.149 GC
2 setlinecap
1 LJ
0.667 LW
N
507 374 M
507 369.66 L
S
GR
GS
[0.75 0 0 0.75 0 0] CT
0.149 GC
2 setlinecap
1 LJ
0.667 LW
N
73 31 M
73 35.34 L
S
GR
GS
[0.75 0 0 0.75 0 0] CT
0.149 GC
2 setlinecap
1 LJ
0.667 LW
N
127.25 31 M
127.25 35.34 L
S
GR
GS
[0.75 0 0 0.75 0 0] CT
0.149 GC
2 setlinecap
1 LJ
0.667 LW
N
181.5 31 M
181.5 35.34 L
S
GR
GS
[0.75 0 0 0.75 0 0] CT
0.149 GC
2 setlinecap
1 LJ
0.667 LW
N
235.75 31 M
235.75 35.34 L
S
GR
GS
[0.75 0 0 0.75 0 0] CT
0.149 GC
2 setlinecap
1 LJ
0.667 LW
N
290 31 M
290 35.34 L
S
GR
GS
[0.75 0 0 0.75 0 0] CT
0.149 GC
2 setlinecap
1 LJ
0.667 LW
N
344.25 31 M
344.25 35.34 L
S
GR
GS
[0.75 0 0 0.75 0 0] CT
0.149 GC
2 setlinecap
1 LJ
0.667 LW
N
398.5 31 M
398.5 35.34 L
S
GR
GS
[0.75 0 0 0.75 0 0] CT
0.149 GC
2 setlinecap
1 LJ
0.667 LW
N
452.75 31 M
452.75 35.34 L
S
GR
GS
[0.75 0 0 0.75 0 0] CT
0.149 GC
2 setlinecap
1 LJ
0.667 LW
N
507 31 M
507 35.34 L
S
GR
GS
[0.75 0 0 0.75 54.75 284.30001] CT
0.149 GC
/Helvetica 12 F
GS
[1 0 0 1 0 0] CT
-9 13 moveto 
1 -1 scale
(-20) t 
GR
GR
GS
[0.75 0 0 0.75 95.4375 284.30001] CT
0.149 GC
/Helvetica 12 F
GS
[1 0 0 1 0 0] CT
-9 13 moveto 
1 -1 scale
(-15) t 
GR
GR
GS
[0.75 0 0 0.75 136.125 284.30001] CT
0.149 GC
/Helvetica 12 F
GS
[1 0 0 1 0 0] CT
-9 13 moveto 
1 -1 scale
(-10) t 
GR
GR
GS
[0.75 0 0 0.75 176.8125 284.30001] CT
0.149 GC
/Helvetica 12 F
GS
[1 0 0 1 0 0] CT
-5.5 13 moveto 
1 -1 scale
(-5) t 
GR
GR
GS
[0.75 0 0 0.75 217.5 284.30001] CT
0.149 GC
/Helvetica 12 F
GS
[1 0 0 1 0 0] CT
-3.5 13 moveto 
1 -1 scale
(0) t 
GR
GR
GS
[0.75 0 0 0.75 258.1875 284.30001] CT
0.149 GC
/Helvetica 12 F
GS
[1 0 0 1 0 0] CT
-3.5 13 moveto 
1 -1 scale
(5) t 
GR
GR
GS
[0.75 0 0 0.75 298.875 284.30001] CT
0.149 GC
/Helvetica 12 F
GS
[1 0 0 1 0 0] CT
-7 13 moveto 
1 -1 scale
(10) t 
GR
GR
GS
[0.75 0 0 0.75 339.5625 284.30001] CT
0.149 GC
/Helvetica 12 F
GS
[1 0 0 1 0 0] CT
-7 13 moveto 
1 -1 scale
(15) t 
GR
GR
GS
[0.75 0 0 0.75 380.25 284.30001] CT
0.149 GC
/Helvetica 12 F
GS
[1 0 0 1 0 0] CT
-7 13 moveto 
1 -1 scale
(20) t 
GR
GR
GS
[0.75 0 0 0.75 217.50016 297.3] CT
0.149 GC
/Helvetica 13.2 F
GS
[1 0 0 1 0 0] CT
-74.5 14 moveto 
1 -1 scale
(Eccentricity wrt PRL \(arc\)) t 
GR
GR
GS
[0.75 0 0 0.75 0 0] CT
0.149 GC
2 setlinecap
1 LJ
0.667 LW
N
73 374 M
73 31 L
S
GR
GS
[0.75 0 0 0.75 0 0] CT
0.149 GC
2 setlinecap
1 LJ
0.667 LW
N
507 374 M
507 31 L
S
GR
GS
[0.75 0 0 0.75 0 0] CT
0.149 GC
2 setlinecap
1 LJ
0.667 LW
N
73 374 M
77.34 374 L
S
GR
GS
[0.75 0 0 0.75 0 0] CT
0.149 GC
2 setlinecap
1 LJ
0.667 LW
N
73 325 M
77.34 325 L
S
GR
GS
[0.75 0 0 0.75 0 0] CT
0.149 GC
2 setlinecap
1 LJ
0.667 LW
N
73 276 M
77.34 276 L
S
GR
GS
[0.75 0 0 0.75 0 0] CT
0.149 GC
2 setlinecap
1 LJ
0.667 LW
N
73 227 M
77.34 227 L
S
GR
GS
[0.75 0 0 0.75 0 0] CT
0.149 GC
2 setlinecap
1 LJ
0.667 LW
N
73 178 M
77.34 178 L
S
GR
GS
[0.75 0 0 0.75 0 0] CT
0.149 GC
2 setlinecap
1 LJ
0.667 LW
N
73 129 M
77.34 129 L
S
GR
GS
[0.75 0 0 0.75 0 0] CT
0.149 GC
2 setlinecap
1 LJ
0.667 LW
N
73 80 M
77.34 80 L
S
GR
GS
[0.75 0 0 0.75 0 0] CT
0.149 GC
2 setlinecap
1 LJ
0.667 LW
N
73 31 M
77.34 31 L
S
GR
GS
[0.75 0 0 0.75 0 0] CT
0.149 GC
2 setlinecap
1 LJ
0.667 LW
N
507 374 M
502.66 374 L
S
GR
GS
[0.75 0 0 0.75 0 0] CT
0.149 GC
2 setlinecap
1 LJ
0.667 LW
N
507 325 M
502.66 325 L
S
GR
GS
[0.75 0 0 0.75 0 0] CT
0.149 GC
2 setlinecap
1 LJ
0.667 LW
N
507 276 M
502.66 276 L
S
GR
GS
[0.75 0 0 0.75 0 0] CT
0.149 GC
2 setlinecap
1 LJ
0.667 LW
N
507 227 M
502.66 227 L
S
GR
GS
[0.75 0 0 0.75 0 0] CT
0.149 GC
2 setlinecap
1 LJ
0.667 LW
N
507 178 M
502.66 178 L
S
GR
GS
[0.75 0 0 0.75 0 0] CT
0.149 GC
2 setlinecap
1 LJ
0.667 LW
N
507 129 M
502.66 129 L
S
GR
GS
[0.75 0 0 0.75 0 0] CT
0.149 GC
2 setlinecap
1 LJ
0.667 LW
N
507 80 M
502.66 80 L
S
GR
GS
[0.75 0 0 0.75 0 0] CT
0.149 GC
2 setlinecap
1 LJ
0.667 LW
N
507 31 M
502.66 31 L
S
GR
GS
[0.75 0 0 0.75 50.95 280.5] CT
0.149 GC
/Helvetica 12 F
GS
[1 0 0 1 0 0] CT
-17 5 moveto 
1 -1 scale
(0.9) t 
GR
GR
GS
[0.75 0 0 0.75 50.95 243.75] CT
0.149 GC
/Helvetica 12 F
GS
[1 0 0 1 0 0] CT
-7 5 moveto 
1 -1 scale
(1) t 
GR
GR
GS
[0.75 0 0 0.75 50.95 207] CT
0.149 GC
/Helvetica 12 F
GS
[1 0 0 1 0 0] CT
-17 5 moveto 
1 -1 scale
(1.1) t 
GR
GR
GS
[0.75 0 0 0.75 50.95 170.25] CT
0.149 GC
/Helvetica 12 F
GS
[1 0 0 1 0 0] CT
-17 5 moveto 
1 -1 scale
(1.2) t 
GR
GR
GS
[0.75 0 0 0.75 50.95 133.5] CT
0.149 GC
/Helvetica 12 F
GS
[1 0 0 1 0 0] CT
-17 5 moveto 
1 -1 scale
(1.3) t 
GR
GR
GS
[0.75 0 0 0.75 50.95 96.75] CT
0.149 GC
/Helvetica 12 F
GS
[1 0 0 1 0 0] CT
-17 5 moveto 
1 -1 scale
(1.4) t 
GR
GR
GS
[0.75 0 0 0.75 50.95 60] CT
0.149 GC
/Helvetica 12 F
GS
[1 0 0 1 0 0] CT
-17 5 moveto 
1 -1 scale
(1.5) t 
GR
GR
GS
[0.75 0 0 0.75 50.95 23.25] CT
0.149 GC
/Helvetica 12 F
GS
[1 0 0 1 0 0] CT
-17 5 moveto 
1 -1 scale
(1.6) t 
GR
GR
GS
[0 -0.75 0.75 0 33 210.75] CT
0.149 GC
/Helvetica 13.2 F
GS
[1 0 0 1 0 0] CT
0 0 moveto 
1 -1 scale
(Cone density \(cones/deg) t 
GR
GR
GS
[0 -0.75 0.75 0 28.5 101.25] CT
0.149 GC
/Helvetica 10.56 F
GS
[1 0 0 1 0 0] CT
0 0 moveto 
1 -1 scale
(2) t 
GR
GR
GS
[0 -0.75 0.75 0 33 96.75] CT
0.149 GC
/Helvetica 13.2 F
GS
[1 0 0 1 0 0] CT
0 0 moveto 
1 -1 scale
(\)) t 
GR
GR
GS
[0.75 0 0 0.75 54.75 21] CT
0.149 GC
N
1.766 -0.344 M
1.766 -0.438 1.828 -0.516 QT
4.313 -3 L
1.828 -5.5 L
1.766 -5.563 1.766 -5.656 QT
1.766 -5.75 1.836 -5.82 QT
1.906 -5.891 2 -5.891 QT
2.094 -5.891 2.188 -5.813 QT
4.672 -3.328 L
7.141 -5.813 L
7.25 -5.891 7.313 -5.891 QT
7.422 -5.891 7.492 -5.82 QT
7.563 -5.75 7.563 -5.656 QT
7.563 -5.563 7.5 -5.5 QT
5 -3 L
7.5 -0.516 L
7.563 -0.438 7.563 -0.344 QT
7.563 -0.25 7.492 -0.18 QT
7.422 -0.109 7.313 -0.109 QT
7.234 -0.109 7.141 -0.188 QT
4.672 -2.672 L
2.188 -0.188 L
2.094 -0.109 2 -0.109 QT
1.906 -0.109 1.836 -0.188 QT
1.766 -0.266 1.766 -0.344 QT
cp
f
GR
GS
[0.75 0 0 0.75 62.25 21] CT
0.149 GC
/Helvetica 12 F
GS
[1 0 0 1 0 0] CT
0 0 moveto 
1 -1 scale
(10) t 
GR
GR
GS
[0.75 0 0 0.75 72.75 16.5] CT
0.149 GC
/Helvetica 9.6 F
GS
[1 0 0 1 0 0] CT
0 0 moveto 
1 -1 scale
(4) t 
GR
GR
GS
[0.75 0 0 0.75 0 0] CT
0 1 0 RC
1 LJ
0.667 LW
N
108.398 374.041 M
109.218 371.946 L
110.303 370.749 L
111.388 369.455 L
112.473 368.279 L
113.558 367.094 L
114.643 366.044 L
115.728 364.738 L
116.813 363.479 L
117.898 362.178 L
118.983 360.864 L
120.068 359.797 L
121.153 358.603 L
122.238 357.231 L
123.323 355.902 L
124.408 354.619 L
125.493 353.355 L
126.578 352.119 L
127.663 350.795 L
128.748 349.357 L
129.833 347.952 L
130.918 346.514 L
132.003 345.014 L
133.088 343.697 L
134.173 342.235 L
135.258 340.868 L
136.343 339.5 L
137.428 337.971 L
138.513 336.538 L
139.598 335.074 L
140.683 333.707 L
141.768 332.339 L
142.853 330.911 L
143.938 329.388 L
145.023 328.124 L
146.108 326.811 L
147.193 325.521 L
148.278 324.129 L
149.363 322.778 L
150.448 321.409 L
151.533 320.066 L
152.618 318.837 L
153.703 317.607 L
154.788 316.232 L
155.873 314.838 L
156.958 313.522 L
158.043 312.344 L
159.128 311.08 L
160.213 309.664 L
161.298 308.159 L
162.383 306.798 L
163.468 305.297 L
164.553 304.076 L
165.638 302.661 L
166.723 301.235 L
167.808 299.6 L
168.893 298.141 L
169.978 296.628 L
171.063 295.302 L
172.148 294.003 L
173.233 292.643 L
174.318 291.154 L
175.403 289.781 L
176.488 288.233 L
177.573 286.887 L
178.658 285.437 L
179.743 284.057 L
180.828 282.499 L
181.913 281.073 L
182.998 279.682 L
184.083 278.307 L
185.168 276.887 L
186.253 275.422 L
187.338 273.948 L
188.423 272.597 L
189.508 271.208 L
190.593 269.954 L
191.678 268.531 L
192.763 267.114 L
193.848 265.775 L
194.933 264.381 L
196.018 263.158 L
197.103 261.929 L
198.188 260.482 L
199.273 259.163 L
200.358 257.926 L
201.443 256.789 L
202.528 255.533 L
203.613 254.253 L
204.698 252.99 L
205.783 251.665 L
206.868 250.334 L
207.953 249.109 L
209.038 247.712 L
210.123 246.165 L
211.208 244.668 L
212.293 243.113 L
213.378 241.552 L
214.463 240.156 L
215.548 238.619 L
216.633 237.049 L
217.718 235.616 L
218.803 234.227 L
219.888 232.717 L
220.973 231.261 L
222.058 229.886 L
223.143 228.505 L
224.228 227.175 L
225.313 225.909 L
226.398 224.51 L
227.483 223.108 L
228.568 221.736 L
229.653 220.371 L
230.738 219.016 L
231.823 217.709 L
232.908 216.356 L
233.993 214.919 L
235.078 213.651 L
236.163 212.312 L
237.248 210.935 L
238.333 209.372 L
239.418 208.014 L
240.503 206.801 L
241.588 205.411 L
242.673 204.059 L
243.758 202.652 L
244.843 201.138 L
245.928 199.775 L
247.013 198.422 L
248.098 196.89 L
249.183 195.567 L
250.268 194.073 L
251.353 192.622 L
252.438 191.285 L
253.523 190.018 L
254.608 188.568 L
255.693 187.262 L
256.778 186.088 L
257.863 184.945 L
258.948 183.833 L
260.033 182.582 L
261.118 181.445 L
262.203 180.273 L
263.288 179.329 L
264.373 178.293 L
265.458 177.153 L
266.543 175.986 L
267.628 174.897 L
268.713 173.917 L
269.798 172.912 L
270.883 171.832 L
271.968 170.593 L
273.053 169.506 L
274.138 168.318 L
275.223 167.114 L
276.308 165.937 L
277.393 165.023 L
278.478 163.857 L
279.563 162.788 L
280.648 161.782 L
281.733 160.763 L
282.818 159.842 L
283.903 158.766 L
284.988 157.794 L
286.073 156.801 L
287.158 155.941 L
288.243 155.056 L
289.328 154.286 L
290.413 153.505 L
291.498 152.727 L
292.583 152.056 L
293.668 151.452 L
294.753 150.787 L
295.838 150.136 L
296.923 149.667 L
298.008 149.185 L
299.093 148.632 L
300.178 148.199 L
301.263 147.713 L
302.348 147.475 L
303.433 147.122 L
304.518 146.68 L
305.603 146.4 L
306.688 146.072 L
307.773 145.82 L
308.858 145.351 L
309.943 145.05 L
311.028 144.786 L
312.113 144.536 L
313.198 144.443 L
314.283 144.271 L
315.368 143.972 L
316.453 144.006 L
317.538 143.946 L
318.623 143.893 L
319.708 143.941 L
320.793 144.079 L
321.878 144.18 L
322.963 143.991 L
324.048 144.09 L
325.133 144.223 L
326.218 144.354 L
327.303 144.337 L
328.388 144.279 L
329.473 144.449 L
330.558 144.532 L
331.643 144.603 L
332.728 144.742 L
333.813 144.832 L
334.898 144.976 L
335.983 145.152 L
337.068 145.357 L
338.153 145.627 L
339.238 145.939 L
340.323 146.407 L
341.408 147.041 L
342.493 147.499 L
343.578 148.059 L
344.663 148.649 L
345.748 149.489 L
346.833 150.239 L
347.918 150.846 L
349.003 151.581 L
350.088 152.258 L
351.173 153.004 L
352.258 153.665 L
353.343 154.315 L
354.428 155.106 L
355.513 155.913 L
356.598 156.945 L
357.683 157.686 L
358.768 158.542 L
359.853 159.299 L
360.938 160.154 L
362.023 160.971 L
363.108 161.957 L
364.193 162.818 L
365.278 163.646 L
366.363 164.655 L
367.448 165.753 L
368.533 166.674 L
369.618 167.619 L
370.703 168.725 L
371.788 169.868 L
372.873 171.003 L
373.958 172.081 L
375.043 172.959 L
376.128 173.981 L
377.213 175.006 L
378.298 176.183 L
379.383 177.348 L
380.468 178.469 L
381.553 179.701 L
382.638 181.007 L
383.723 182.186 L
384.808 183.499 L
385.893 184.628 L
386.978 185.726 L
388.063 186.928 L
389.148 188.181 L
390.233 189.349 L
391.318 190.446 L
392.403 191.642 L
393.488 192.804 L
394.573 193.978 L
395.658 195.246 L
396.743 196.341 L
397.828 197.724 L
398.913 199.147 L
399.998 200.328 L
401.083 201.719 L
402.168 203.215 L
403.253 204.773 L
404.338 206.226 L
405.423 207.73 L
406.508 209.1 L
407.593 210.607 L
408.678 212.248 L
409.763 213.699 L
410.848 215.163 L
411.933 216.45 L
413.018 217.801 L
414.103 219.12 L
415.188 220.363 L
416.273 221.55 L
417.358 222.702 L
418.443 223.856 L
419.528 225.174 L
420.613 226.438 L
421.698 227.659 L
422.783 228.919 L
423.868 230.15 L
424.953 231.448 L
426.038 232.909 L
427.123 234.103 L
428.208 235.444 L
429.293 236.864 L
430.378 238.232 L
431.463 239.934 L
432.548 241.392 L
433.633 242.729 L
434.718 244.126 L
435.803 245.525 L
436.888 247.346 L
437.973 248.849 L
439.058 250.135 L
440.143 251.497 L
441.228 252.911 L
442.313 254.506 L
443.398 256.137 L
444.483 257.602 L
445.568 258.809 L
446.653 260.282 L
447.738 261.929 L
448.823 263.439 L
449.908 264.911 L
450.993 266.331 L
452.078 267.855 L
453.163 269.64 L
454.248 271.105 L
455.333 272.565 L
456.418 273.918 L
457.503 275.428 L
458.588 276.955 L
459.673 278.298 L
460.758 279.583 L
461.843 280.959 L
462.928 282.484 L
464.013 283.971 L
465.098 285.384 L
466.183 286.823 L
467.268 288.362 L
468.353 289.856 L
469.438 291.304 L
470.523 292.679 L
471.608 294.212 L
472.693 295.787 L
473.778 297.149 L
474.863 298.395 L
475.948 299.753 L
477.033 301.186 L
478.118 302.673 L
479.203 303.931 L
480.288 305.179 L
481.373 306.396 L
482.458 307.796 L
483.543 309.275 L
484.628 310.607 L
485.713 311.788 L
486.798 313.072 L
487.883 314.45 L
488.968 315.821 L
490.053 317.117 L
491.138 318.438 L
492.223 319.699 L
493.308 321.041 L
494.393 322.391 L
495.478 323.788 L
496.563 325.152 L
497.648 326.433 L
498.733 327.69 L
499.818 328.945 L
500.903 330.326 L
501.988 331.773 L
503.073 333.197 L
504.158 334.539 L
505.243 335.897 L
506.328 337.306 L
507.052 338.195 L
S
GR
GS
[0.75 0 0 0.75 0 0] CT
0 1 0 RC
[8 3 2 3] 0 setdash
2 LJ
0.667 LW
N
97.081 374.041 M
97.283 373.742 L
98.368 372.203 L
99.453 370.461 L
100.538 368.672 L
101.623 366.725 L
102.708 364.122 L
103.793 358.551 L
104.878 353.919 L
105.963 348.621 L
107.048 347.238 L
108.133 345.69 L
109.218 343.664 L
110.303 342.332 L
111.388 340.897 L
112.473 339.722 L
113.558 338.61 L
114.643 337.552 L
115.728 336.214 L
116.813 334.826 L
117.898 333.473 L
118.983 332.127 L
120.068 331.059 L
121.153 329.76 L
122.238 328.312 L
123.323 326.92 L
124.408 325.647 L
125.493 324.358 L
126.578 323.062 L
127.663 321.615 L
128.748 320.044 L
129.833 318.572 L
130.918 317.104 L
132.003 315.545 L
133.088 314.11 L
134.173 312.498 L
135.258 311.063 L
136.343 309.679 L
137.428 308.086 L
138.513 306.534 L
139.598 304.959 L
140.683 303.571 L
141.768 302.211 L
142.853 300.682 L
143.938 299.129 L
145.023 297.825 L
146.108 296.491 L
147.193 295.204 L
148.278 293.785 L
149.363 292.418 L
150.448 291.01 L
151.533 289.58 L
152.618 288.323 L
153.703 287.1 L
154.788 285.689 L
155.873 284.263 L
156.958 282.847 L
158.043 281.537 L
159.128 280.185 L
160.213 278.653 L
161.298 277.105 L
162.383 275.677 L
163.468 274.049 L
164.553 272.722 L
165.638 271.173 L
166.723 269.678 L
167.808 267.954 L
168.893 266.386 L
169.978 264.745 L
171.063 263.336 L
172.148 261.933 L
173.233 260.469 L
174.318 258.872 L
175.403 257.38 L
176.488 255.77 L
177.573 254.355 L
178.658 252.877 L
179.743 251.47 L
180.828 249.849 L
181.913 248.38 L
182.998 246.966 L
184.083 245.487 L
185.168 244.055 L
186.253 242.639 L
187.338 241.196 L
188.423 239.858 L
189.508 238.362 L
190.593 237.072 L
191.678 235.647 L
192.763 234.189 L
193.848 232.871 L
194.933 231.446 L
196.018 230.139 L
197.103 228.915 L
198.188 227.452 L
199.273 226.145 L
200.358 224.988 L
201.443 223.949 L
202.528 222.647 L
203.613 221.344 L
204.698 220.045 L
205.783 218.732 L
206.868 217.445 L
207.953 216.193 L
209.038 214.743 L
210.123 213.201 L
211.208 211.696 L
212.293 210.155 L
213.378 208.53 L
214.463 207.1 L
215.548 205.556 L
216.633 203.947 L
217.718 202.47 L
218.803 201.1 L
219.888 199.501 L
220.973 197.992 L
222.058 196.58 L
223.143 195.206 L
224.228 193.855 L
225.313 192.504 L
226.398 191.069 L
227.483 189.629 L
228.568 188.269 L
229.653 186.866 L
230.738 185.428 L
231.823 184.114 L
232.908 182.779 L
233.993 181.41 L
235.078 180.152 L
236.163 178.823 L
237.248 177.454 L
238.333 175.827 L
239.418 174.542 L
240.503 173.336 L
241.588 171.907 L
242.673 170.56 L
243.758 169.151 L
244.843 167.666 L
245.928 166.275 L
247.013 164.894 L
248.098 163.248 L
249.183 161.888 L
250.268 160.435 L
251.353 159.011 L
252.438 157.652 L
253.523 156.417 L
254.608 154.955 L
255.693 153.627 L
256.778 152.402 L
257.863 151.294 L
258.948 150.203 L
260.033 148.94 L
261.118 147.793 L
262.203 146.577 L
263.288 145.632 L
264.373 144.62 L
265.458 143.43 L
266.543 142.256 L
267.628 141.212 L
268.713 140.278 L
269.798 139.353 L
270.883 138.255 L
271.968 137.006 L
273.053 136.004 L
274.138 134.754 L
275.223 133.51 L
276.308 132.318 L
277.393 131.4 L
278.478 130.274 L
279.563 129.175 L
280.648 128.128 L
281.733 127.066 L
282.818 126.157 L
283.903 125.155 L
284.988 124.164 L
286.073 123.201 L
287.158 122.334 L
288.243 121.464 L
289.328 120.628 L
290.413 119.813 L
291.498 119.01 L
292.583 118.292 L
293.668 117.67 L
294.753 116.969 L
295.838 116.291 L
296.923 115.779 L
298.008 115.256 L
299.093 114.641 L
300.178 114.188 L
301.263 113.738 L
302.348 113.626 L
303.433 113.319 L
304.518 112.884 L
305.603 112.632 L
306.688 112.403 L
307.773 112.219 L
308.858 111.804 L
309.943 111.45 L
311.028 111.091 L
312.113 110.873 L
313.198 110.731 L
314.283 110.464 L
315.368 110.068 L
316.453 110.127 L
317.538 110.048 L
318.623 109.964 L
319.708 109.965 L
320.793 110.114 L
321.878 110.233 L
322.963 110.136 L
324.048 110.281 L
325.133 110.396 L
326.218 110.599 L
327.303 110.594 L
328.388 110.504 L
329.473 110.716 L
330.558 110.806 L
331.643 110.824 L
332.728 110.82 L
333.813 110.756 L
334.898 110.863 L
335.983 110.955 L
337.068 111.141 L
338.153 111.394 L
339.238 111.685 L
340.323 112.058 L
341.408 112.654 L
342.493 113.053 L
343.578 113.566 L
344.663 114.107 L
345.748 114.896 L
346.833 115.529 L
347.918 116.056 L
349.003 116.733 L
350.088 117.291 L
351.173 117.908 L
352.258 118.444 L
353.343 119.006 L
354.428 119.717 L
355.513 120.426 L
356.598 121.472 L
357.683 122.154 L
358.768 122.976 L
359.853 123.684 L
360.938 124.55 L
362.023 125.305 L
363.108 126.283 L
364.193 127.049 L
365.278 127.865 L
366.363 128.905 L
367.448 130.075 L
368.533 130.968 L
369.618 131.897 L
370.703 133.014 L
371.788 134.186 L
372.873 135.391 L
373.958 136.55 L
375.043 137.423 L
376.128 138.492 L
377.213 139.592 L
378.298 140.878 L
379.383 142.091 L
380.468 143.234 L
381.553 144.523 L
382.638 145.943 L
383.723 147.192 L
384.808 148.621 L
385.893 149.725 L
386.978 150.826 L
388.063 152.053 L
389.148 153.372 L
390.233 154.468 L
391.318 155.563 L
392.403 156.754 L
393.488 157.966 L
394.573 159.109 L
395.658 160.334 L
396.743 161.47 L
397.828 162.95 L
398.913 164.393 L
399.998 165.546 L
401.083 166.978 L
402.168 168.562 L
403.253 170.333 L
404.338 171.795 L
405.423 173.327 L
406.508 174.701 L
407.593 176.152 L
408.678 177.901 L
409.763 179.358 L
410.848 180.833 L
411.933 182.051 L
413.018 183.399 L
414.103 184.742 L
415.188 185.963 L
416.273 187.145 L
417.358 188.329 L
418.443 189.529 L
419.528 190.863 L
420.613 192.124 L
421.698 193.387 L
422.783 194.652 L
423.868 195.823 L
424.953 197.039 L
426.038 198.459 L
427.123 199.663 L
428.208 201.058 L
429.293 202.508 L
430.378 203.852 L
431.463 205.694 L
432.548 207.206 L
433.633 208.616 L
434.718 210.046 L
435.803 211.467 L
436.888 213.362 L
437.973 214.892 L
439.058 216.209 L
440.143 217.528 L
441.228 218.911 L
442.313 220.51 L
443.398 222.141 L
444.483 223.591 L
445.568 224.809 L
446.653 226.328 L
447.738 228.024 L
448.823 229.54 L
449.908 230.946 L
450.993 232.305 L
452.078 233.822 L
453.163 235.701 L
454.248 237.16 L
455.333 238.576 L
456.418 239.91 L
457.503 241.445 L
458.588 242.929 L
459.673 244.281 L
460.758 245.491 L
461.843 246.901 L
462.928 248.466 L
464.013 250.053 L
465.098 251.506 L
466.183 252.935 L
467.268 254.54 L
468.353 256.116 L
469.438 257.547 L
470.523 258.96 L
471.608 260.523 L
472.693 262.228 L
473.778 263.694 L
474.863 264.953 L
475.948 266.289 L
477.033 267.751 L
478.118 269.218 L
479.203 270.515 L
480.288 271.731 L
481.373 272.909 L
482.458 274.346 L
483.543 275.825 L
484.628 277.123 L
485.713 278.235 L
486.798 279.575 L
487.883 281.064 L
488.968 282.506 L
490.053 283.792 L
491.138 285.135 L
492.223 286.434 L
493.308 287.9 L
494.393 289.298 L
495.478 290.776 L
496.563 292.097 L
497.648 293.421 L
498.733 294.645 L
499.818 295.883 L
500.903 297.156 L
501.988 298.54 L
503.073 299.853 L
504.158 301.199 L
505.243 302.51 L
506.328 303.895 L
507.052 304.773 L
S
GR
GS
[0.75 0 0 0.75 0 0] CT
0 1 0 RC
[8 3 2 3] 0 setdash
2 LJ
0.667 LW
N
132.403 374.041 M
133.088 373.284 L
134.173 371.971 L
135.258 370.673 L
136.343 369.32 L
137.428 367.856 L
138.513 366.541 L
139.598 365.19 L
140.683 363.844 L
141.768 362.466 L
142.853 361.141 L
143.938 359.646 L
145.023 358.424 L
146.108 357.13 L
147.193 355.838 L
148.278 354.473 L
149.363 353.138 L
150.448 351.809 L
151.533 350.551 L
152.618 349.35 L
153.703 348.115 L
154.788 346.775 L
155.873 345.412 L
156.958 344.197 L
158.043 343.15 L
159.128 341.976 L
160.213 340.676 L
161.298 339.214 L
162.383 337.919 L
163.468 336.545 L
164.553 335.43 L
165.638 334.148 L
166.723 332.792 L
167.808 331.246 L
168.893 329.896 L
169.978 328.512 L
171.063 327.268 L
172.148 326.072 L
173.233 324.816 L
174.318 323.436 L
175.403 322.182 L
176.488 320.696 L
177.573 319.419 L
178.658 317.997 L
179.743 316.645 L
180.828 315.15 L
181.913 313.766 L
182.998 312.398 L
184.083 311.126 L
185.168 309.72 L
186.253 308.205 L
187.338 306.699 L
188.423 305.336 L
189.508 304.053 L
190.593 302.836 L
191.678 301.415 L
192.763 300.038 L
193.848 298.678 L
194.933 297.315 L
196.018 296.178 L
197.103 294.943 L
198.188 293.512 L
199.273 292.18 L
200.358 290.863 L
201.443 289.629 L
202.528 288.418 L
203.613 287.162 L
204.698 285.934 L
205.783 284.599 L
206.868 283.222 L
207.953 282.024 L
209.038 280.681 L
210.123 279.129 L
211.208 277.639 L
212.293 276.07 L
213.378 274.574 L
214.463 273.212 L
215.548 271.683 L
216.633 270.151 L
217.718 268.761 L
218.803 267.353 L
219.888 265.933 L
220.973 264.53 L
222.058 263.192 L
223.143 261.803 L
224.228 260.496 L
225.313 259.315 L
226.398 257.952 L
227.483 256.587 L
228.568 255.203 L
229.653 253.875 L
230.738 252.605 L
231.823 251.304 L
232.908 249.932 L
233.993 248.429 L
235.078 247.149 L
236.163 245.8 L
237.248 244.417 L
238.333 242.916 L
239.418 241.487 L
240.503 240.265 L
241.588 238.915 L
242.673 237.558 L
243.758 236.153 L
244.843 234.61 L
245.928 233.274 L
247.013 231.95 L
248.098 230.533 L
249.183 229.246 L
250.268 227.712 L
251.353 226.234 L
252.438 224.919 L
253.523 223.62 L
254.608 222.181 L
255.693 220.898 L
256.778 219.774 L
257.863 218.596 L
258.948 217.463 L
260.033 216.223 L
261.118 215.097 L
262.203 213.97 L
263.288 213.026 L
264.373 211.966 L
265.458 210.876 L
266.543 209.715 L
267.628 208.582 L
268.713 207.556 L
269.798 206.471 L
270.883 205.41 L
271.968 204.18 L
273.053 203.008 L
274.138 201.883 L
275.223 200.717 L
276.308 199.556 L
277.393 198.645 L
278.478 197.44 L
279.563 196.4 L
280.648 195.436 L
281.733 194.46 L
282.818 193.526 L
283.903 192.376 L
284.988 191.424 L
286.073 190.401 L
287.158 189.548 L
288.243 188.648 L
289.328 187.943 L
290.413 187.197 L
291.498 186.443 L
292.583 185.82 L
293.668 185.234 L
294.753 184.606 L
295.838 183.98 L
296.923 183.556 L
298.008 183.113 L
299.093 182.622 L
300.178 182.21 L
301.263 181.688 L
302.348 181.325 L
303.433 180.925 L
304.518 180.476 L
305.603 180.168 L
306.688 179.74 L
307.773 179.42 L
308.858 178.898 L
309.943 178.651 L
311.028 178.48 L
312.113 178.199 L
313.198 178.155 L
314.283 178.079 L
315.368 177.876 L
316.453 177.886 L
317.538 177.844 L
318.623 177.822 L
319.708 177.917 L
320.793 178.044 L
321.878 178.128 L
322.963 177.847 L
324.048 177.898 L
325.133 178.051 L
326.218 178.109 L
327.303 178.081 L
328.388 178.055 L
329.473 178.182 L
330.558 178.258 L
331.643 178.381 L
332.728 178.665 L
333.813 178.908 L
334.898 179.089 L
335.983 179.349 L
337.068 179.574 L
338.153 179.861 L
339.238 180.192 L
340.323 180.756 L
341.408 181.428 L
342.493 181.944 L
343.578 182.551 L
344.663 183.191 L
345.748 184.083 L
346.833 184.95 L
347.918 185.635 L
349.003 186.429 L
350.088 187.225 L
351.173 188.101 L
352.258 188.887 L
353.343 189.625 L
354.428 190.496 L
355.513 191.4 L
356.598 192.419 L
357.683 193.219 L
358.768 194.108 L
359.853 194.914 L
360.938 195.759 L
362.023 196.638 L
363.108 197.632 L
364.193 198.588 L
365.278 199.427 L
366.363 200.404 L
367.448 201.432 L
368.533 202.38 L
369.618 203.342 L
370.703 204.435 L
371.788 205.549 L
372.873 206.616 L
373.958 207.612 L
375.043 208.496 L
376.128 209.471 L
377.213 210.42 L
378.298 211.489 L
379.383 212.606 L
380.468 213.705 L
381.553 214.878 L
382.638 216.071 L
383.723 217.18 L
384.808 218.376 L
385.893 219.531 L
386.978 220.627 L
388.063 221.803 L
389.148 222.99 L
390.233 224.23 L
391.318 225.33 L
392.403 226.53 L
393.488 227.642 L
394.573 228.848 L
395.658 230.159 L
396.743 231.211 L
397.828 232.499 L
398.913 233.901 L
399.998 235.111 L
401.083 236.461 L
402.168 237.868 L
403.253 239.213 L
404.338 240.658 L
405.423 242.133 L
406.508 243.499 L
407.593 245.061 L
408.678 246.595 L
409.763 248.041 L
410.848 249.492 L
411.933 250.848 L
413.018 252.203 L
414.103 253.498 L
415.188 254.763 L
416.273 255.954 L
417.358 257.075 L
418.443 258.182 L
419.528 259.484 L
420.613 260.751 L
421.698 261.93 L
422.783 263.185 L
423.868 264.477 L
424.953 265.856 L
426.038 267.359 L
427.123 268.543 L
428.208 269.831 L
429.293 271.219 L
430.378 272.613 L
431.463 274.174 L
432.548 275.579 L
433.633 276.843 L
434.718 278.205 L
435.803 279.582 L
436.888 281.33 L
437.973 282.806 L
439.058 284.062 L
440.143 285.465 L
441.228 286.911 L
442.313 288.503 L
443.398 290.133 L
444.483 291.614 L
445.568 292.808 L
446.653 294.236 L
447.738 295.833 L
448.823 297.337 L
449.908 298.877 L
450.993 300.357 L
452.078 301.889 L
453.163 303.58 L
454.248 305.051 L
455.333 306.553 L
456.418 307.925 L
457.503 309.411 L
458.588 310.981 L
459.673 312.316 L
460.758 313.674 L
461.843 315.018 L
462.928 316.502 L
464.013 317.889 L
465.098 319.262 L
466.183 320.711 L
467.268 322.185 L
468.353 323.596 L
469.438 325.062 L
470.523 326.399 L
471.608 327.9 L
472.693 329.345 L
473.778 330.603 L
474.863 331.837 L
475.948 333.217 L
477.033 334.62 L
478.118 336.128 L
479.203 337.348 L
480.288 338.628 L
481.373 339.884 L
482.458 341.245 L
483.543 342.726 L
484.628 344.091 L
485.713 345.341 L
486.798 346.569 L
487.883 347.836 L
488.968 349.136 L
490.053 350.441 L
491.138 351.74 L
492.223 352.963 L
493.308 354.182 L
494.393 355.485 L
495.478 356.799 L
496.563 358.207 L
497.648 359.445 L
498.733 360.736 L
499.818 362.006 L
500.903 363.496 L
501.988 365.006 L
503.073 366.541 L
504.158 367.878 L
505.243 369.283 L
506.328 370.718 L
507.052 371.617 L
S
GR
GS
[0.75 0 0 0.75 0 0] CT
0 1 0 RC
1 LJ
0.667 LW
N
108.398 374.041 M
109.218 371.946 L
110.303 370.749 L
111.388 369.455 L
112.473 368.279 L
113.558 367.094 L
114.643 366.044 L
115.728 364.738 L
116.813 363.479 L
117.898 362.178 L
118.983 360.864 L
120.068 359.797 L
121.153 358.603 L
122.238 357.231 L
123.323 355.902 L
124.408 354.619 L
125.493 353.355 L
126.578 352.119 L
127.663 350.795 L
128.748 349.357 L
129.833 347.952 L
130.918 346.514 L
132.003 345.014 L
133.088 343.697 L
134.173 342.235 L
135.258 340.868 L
136.343 339.5 L
137.428 337.971 L
138.513 336.538 L
139.598 335.074 L
140.683 333.707 L
141.768 332.339 L
142.853 330.911 L
143.938 329.388 L
145.023 328.124 L
146.108 326.811 L
147.193 325.521 L
148.278 324.129 L
149.363 322.778 L
150.448 321.409 L
151.533 320.066 L
152.618 318.837 L
153.703 317.607 L
154.788 316.232 L
155.873 314.838 L
156.958 313.522 L
158.043 312.344 L
159.128 311.08 L
160.213 309.664 L
161.298 308.159 L
162.383 306.798 L
163.468 305.297 L
164.553 304.076 L
165.638 302.661 L
166.723 301.235 L
167.808 299.6 L
168.893 298.141 L
169.978 296.628 L
171.063 295.302 L
172.148 294.003 L
173.233 292.643 L
174.318 291.154 L
175.403 289.781 L
176.488 288.233 L
177.573 286.887 L
178.658 285.437 L
179.743 284.057 L
180.828 282.499 L
181.913 281.073 L
182.998 279.682 L
184.083 278.307 L
185.168 276.887 L
186.253 275.422 L
187.338 273.948 L
188.423 272.597 L
189.508 271.208 L
190.593 269.954 L
191.678 268.531 L
192.763 267.114 L
193.848 265.775 L
194.933 264.381 L
196.018 263.158 L
197.103 261.929 L
198.188 260.482 L
199.273 259.163 L
200.358 257.926 L
201.443 256.789 L
202.528 255.533 L
203.613 254.253 L
204.698 252.99 L
205.783 251.665 L
206.868 250.334 L
207.953 249.109 L
209.038 247.712 L
210.123 246.165 L
211.208 244.668 L
212.293 243.113 L
213.378 241.552 L
214.463 240.156 L
215.548 238.619 L
216.633 237.049 L
217.718 235.616 L
218.803 234.227 L
219.888 232.717 L
220.973 231.261 L
222.058 229.886 L
223.143 228.505 L
224.228 227.175 L
225.313 225.909 L
226.398 224.51 L
227.483 223.108 L
228.568 221.736 L
229.653 220.371 L
230.738 219.016 L
231.823 217.709 L
232.908 216.356 L
233.993 214.919 L
235.078 213.651 L
236.163 212.312 L
237.248 210.935 L
238.333 209.372 L
239.418 208.014 L
240.503 206.801 L
241.588 205.411 L
242.673 204.059 L
243.758 202.652 L
244.843 201.138 L
245.928 199.775 L
247.013 198.422 L
248.098 196.89 L
249.183 195.567 L
250.268 194.073 L
251.353 192.622 L
252.438 191.285 L
253.523 190.018 L
254.608 188.568 L
255.693 187.262 L
256.778 186.088 L
257.863 184.945 L
258.948 183.833 L
260.033 182.582 L
261.118 181.445 L
262.203 180.273 L
263.288 179.329 L
264.373 178.293 L
265.458 177.153 L
266.543 175.986 L
267.628 174.897 L
268.713 173.917 L
269.798 172.912 L
270.883 171.832 L
271.968 170.593 L
273.053 169.506 L
274.138 168.318 L
275.223 167.114 L
276.308 165.937 L
277.393 165.023 L
278.478 163.857 L
279.563 162.788 L
280.648 161.782 L
281.733 160.763 L
282.818 159.842 L
283.903 158.766 L
284.988 157.794 L
286.073 156.801 L
287.158 155.941 L
288.243 155.056 L
289.328 154.286 L
290.413 153.505 L
291.498 152.727 L
292.583 152.056 L
293.668 151.452 L
294.753 150.787 L
295.838 150.136 L
296.923 149.667 L
298.008 149.185 L
299.093 148.632 L
300.178 148.199 L
301.263 147.713 L
302.348 147.475 L
303.433 147.122 L
304.518 146.68 L
305.603 146.4 L
306.688 146.072 L
307.773 145.82 L
308.858 145.351 L
309.943 145.05 L
311.028 144.786 L
312.113 144.536 L
313.198 144.443 L
314.283 144.271 L
315.368 143.972 L
316.453 144.006 L
317.538 143.946 L
318.623 143.893 L
319.708 143.941 L
320.793 144.079 L
321.878 144.18 L
322.963 143.991 L
324.048 144.09 L
325.133 144.223 L
326.218 144.354 L
327.303 144.337 L
328.388 144.279 L
329.473 144.449 L
330.558 144.532 L
331.643 144.603 L
332.728 144.742 L
333.813 144.832 L
334.898 144.976 L
335.983 145.152 L
337.068 145.357 L
338.153 145.627 L
339.238 145.939 L
340.323 146.407 L
341.408 147.041 L
342.493 147.499 L
343.578 148.059 L
344.663 148.649 L
345.748 149.489 L
346.833 150.239 L
347.918 150.846 L
349.003 151.581 L
350.088 152.258 L
351.173 153.004 L
352.258 153.665 L
353.343 154.315 L
354.428 155.106 L
355.513 155.913 L
356.598 156.945 L
357.683 157.686 L
358.768 158.542 L
359.853 159.299 L
360.938 160.154 L
362.023 160.971 L
363.108 161.957 L
364.193 162.818 L
365.278 163.646 L
366.363 164.655 L
367.448 165.753 L
368.533 166.674 L
369.618 167.619 L
370.703 168.725 L
371.788 169.868 L
372.873 171.003 L
373.958 172.081 L
375.043 172.959 L
376.128 173.981 L
377.213 175.006 L
378.298 176.183 L
379.383 177.348 L
380.468 178.469 L
381.553 179.701 L
382.638 181.007 L
383.723 182.186 L
384.808 183.499 L
385.893 184.628 L
386.978 185.726 L
388.063 186.928 L
389.148 188.181 L
390.233 189.349 L
391.318 190.446 L
392.403 191.642 L
393.488 192.804 L
394.573 193.978 L
395.658 195.246 L
396.743 196.341 L
397.828 197.724 L
398.913 199.147 L
399.998 200.328 L
401.083 201.719 L
402.168 203.215 L
403.253 204.773 L
404.338 206.226 L
405.423 207.73 L
406.508 209.1 L
407.593 210.607 L
408.678 212.248 L
409.763 213.699 L
410.848 215.163 L
411.933 216.45 L
413.018 217.801 L
414.103 219.12 L
415.188 220.363 L
416.273 221.55 L
417.358 222.702 L
418.443 223.856 L
419.528 225.174 L
420.613 226.438 L
421.698 227.659 L
422.783 228.919 L
423.868 230.15 L
424.953 231.448 L
426.038 232.909 L
427.123 234.103 L
428.208 235.444 L
429.293 236.864 L
430.378 238.232 L
431.463 239.934 L
432.548 241.392 L
433.633 242.729 L
434.718 244.126 L
435.803 245.525 L
436.888 247.346 L
437.973 248.849 L
439.058 250.135 L
440.143 251.497 L
441.228 252.911 L
442.313 254.506 L
443.398 256.137 L
444.483 257.602 L
445.568 258.809 L
446.653 260.282 L
447.738 261.929 L
448.823 263.439 L
449.908 264.911 L
450.993 266.331 L
452.078 267.855 L
453.163 269.64 L
454.248 271.105 L
455.333 272.565 L
456.418 273.918 L
457.503 275.428 L
458.588 276.955 L
459.673 278.298 L
460.758 279.583 L
461.843 280.959 L
462.928 282.484 L
464.013 283.971 L
465.098 285.384 L
466.183 286.823 L
467.268 288.362 L
468.353 289.856 L
469.438 291.304 L
470.523 292.679 L
471.608 294.212 L
472.693 295.787 L
473.778 297.149 L
474.863 298.395 L
475.948 299.753 L
477.033 301.186 L
478.118 302.673 L
479.203 303.931 L
480.288 305.179 L
481.373 306.396 L
482.458 307.796 L
483.543 309.275 L
484.628 310.607 L
485.713 311.788 L
486.798 313.072 L
487.883 314.45 L
488.968 315.821 L
490.053 317.117 L
491.138 318.438 L
492.223 319.699 L
493.308 321.041 L
494.393 322.391 L
495.478 323.788 L
496.563 325.152 L
497.648 326.433 L
498.733 327.69 L
499.818 328.945 L
500.903 330.326 L
501.988 331.773 L
503.073 333.197 L
504.158 334.539 L
505.243 335.897 L
506.328 337.306 L
507.052 338.195 L
S
GR
GS
[0.75 0 0 0.75 0 0] CT
0 1 0 RC
[8 3 2 3] 0 setdash
2 LJ
0.667 LW
N
97.081 374.041 M
97.283 373.742 L
98.368 372.203 L
99.453 370.461 L
100.538 368.672 L
101.623 366.725 L
102.708 364.122 L
103.793 358.551 L
104.878 353.919 L
105.963 348.621 L
107.048 347.238 L
108.133 345.69 L
109.218 343.664 L
110.303 342.332 L
111.388 340.897 L
112.473 339.722 L
113.558 338.61 L
114.643 337.552 L
115.728 336.214 L
116.813 334.826 L
117.898 333.473 L
118.983 332.127 L
120.068 331.059 L
121.153 329.76 L
122.238 328.312 L
123.323 326.92 L
124.408 325.647 L
125.493 324.358 L
126.578 323.062 L
127.663 321.615 L
128.748 320.044 L
129.833 318.572 L
130.918 317.104 L
132.003 315.545 L
133.088 314.11 L
134.173 312.498 L
135.258 311.063 L
136.343 309.679 L
137.428 308.086 L
138.513 306.534 L
139.598 304.959 L
140.683 303.571 L
141.768 302.211 L
142.853 300.682 L
143.938 299.129 L
145.023 297.825 L
146.108 296.491 L
147.193 295.204 L
148.278 293.785 L
149.363 292.418 L
150.448 291.01 L
151.533 289.58 L
152.618 288.323 L
153.703 287.1 L
154.788 285.689 L
155.873 284.263 L
156.958 282.847 L
158.043 281.537 L
159.128 280.185 L
160.213 278.653 L
161.298 277.105 L
162.383 275.677 L
163.468 274.049 L
164.553 272.722 L
165.638 271.173 L
166.723 269.678 L
167.808 267.954 L
168.893 266.386 L
169.978 264.745 L
171.063 263.336 L
172.148 261.933 L
173.233 260.469 L
174.318 258.872 L
175.403 257.38 L
176.488 255.77 L
177.573 254.355 L
178.658 252.877 L
179.743 251.47 L
180.828 249.849 L
181.913 248.38 L
182.998 246.966 L
184.083 245.487 L
185.168 244.055 L
186.253 242.639 L
187.338 241.196 L
188.423 239.858 L
189.508 238.362 L
190.593 237.072 L
191.678 235.647 L
192.763 234.189 L
193.848 232.871 L
194.933 231.446 L
196.018 230.139 L
197.103 228.915 L
198.188 227.452 L
199.273 226.145 L
200.358 224.988 L
201.443 223.949 L
202.528 222.647 L
203.613 221.344 L
204.698 220.045 L
205.783 218.732 L
206.868 217.445 L
207.953 216.193 L
209.038 214.743 L
210.123 213.201 L
211.208 211.696 L
212.293 210.155 L
213.378 208.53 L
214.463 207.1 L
215.548 205.556 L
216.633 203.947 L
217.718 202.47 L
218.803 201.1 L
219.888 199.501 L
220.973 197.992 L
222.058 196.58 L
223.143 195.206 L
224.228 193.855 L
225.313 192.504 L
226.398 191.069 L
227.483 189.629 L
228.568 188.269 L
229.653 186.866 L
230.738 185.428 L
231.823 184.114 L
232.908 182.779 L
233.993 181.41 L
235.078 180.152 L
236.163 178.823 L
237.248 177.454 L
238.333 175.827 L
239.418 174.542 L
240.503 173.336 L
241.588 171.907 L
242.673 170.56 L
243.758 169.151 L
244.843 167.666 L
245.928 166.275 L
247.013 164.894 L
248.098 163.248 L
249.183 161.888 L
250.268 160.435 L
251.353 159.011 L
252.438 157.652 L
253.523 156.417 L
254.608 154.955 L
255.693 153.627 L
256.778 152.402 L
257.863 151.294 L
258.948 150.203 L
260.033 148.94 L
261.118 147.793 L
262.203 146.577 L
263.288 145.632 L
264.373 144.62 L
265.458 143.43 L
266.543 142.256 L
267.628 141.212 L
268.713 140.278 L
269.798 139.353 L
270.883 138.255 L
271.968 137.006 L
273.053 136.004 L
274.138 134.754 L
275.223 133.51 L
276.308 132.318 L
277.393 131.4 L
278.478 130.274 L
279.563 129.175 L
280.648 128.128 L
281.733 127.066 L
282.818 126.157 L
283.903 125.155 L
284.988 124.164 L
286.073 123.201 L
287.158 122.334 L
288.243 121.464 L
289.328 120.628 L
290.413 119.813 L
291.498 119.01 L
292.583 118.292 L
293.668 117.67 L
294.753 116.969 L
295.838 116.291 L
296.923 115.779 L
298.008 115.256 L
299.093 114.641 L
300.178 114.188 L
301.263 113.738 L
302.348 113.626 L
303.433 113.319 L
304.518 112.884 L
305.603 112.632 L
306.688 112.403 L
307.773 112.219 L
308.858 111.804 L
309.943 111.45 L
311.028 111.091 L
312.113 110.873 L
313.198 110.731 L
314.283 110.464 L
315.368 110.068 L
316.453 110.127 L
317.538 110.048 L
318.623 109.964 L
319.708 109.965 L
320.793 110.114 L
321.878 110.233 L
322.963 110.136 L
324.048 110.281 L
325.133 110.396 L
326.218 110.599 L
327.303 110.594 L
328.388 110.504 L
329.473 110.716 L
330.558 110.806 L
331.643 110.824 L
332.728 110.82 L
333.813 110.756 L
334.898 110.863 L
335.983 110.955 L
337.068 111.141 L
338.153 111.394 L
339.238 111.685 L
340.323 112.058 L
341.408 112.654 L
342.493 113.053 L
343.578 113.566 L
344.663 114.107 L
345.748 114.896 L
346.833 115.529 L
347.918 116.056 L
349.003 116.733 L
350.088 117.291 L
351.173 117.908 L
352.258 118.444 L
353.343 119.006 L
354.428 119.717 L
355.513 120.426 L
356.598 121.472 L
357.683 122.154 L
358.768 122.976 L
359.853 123.684 L
360.938 124.55 L
362.023 125.305 L
363.108 126.283 L
364.193 127.049 L
365.278 127.865 L
366.363 128.905 L
367.448 130.075 L
368.533 130.968 L
369.618 131.897 L
370.703 133.014 L
371.788 134.186 L
372.873 135.391 L
373.958 136.55 L
375.043 137.423 L
376.128 138.492 L
377.213 139.592 L
378.298 140.878 L
379.383 142.091 L
380.468 143.234 L
381.553 144.523 L
382.638 145.943 L
383.723 147.192 L
384.808 148.621 L
385.893 149.725 L
386.978 150.826 L
388.063 152.053 L
389.148 153.372 L
390.233 154.468 L
391.318 155.563 L
392.403 156.754 L
393.488 157.966 L
394.573 159.109 L
395.658 160.334 L
396.743 161.47 L
397.828 162.95 L
398.913 164.393 L
399.998 165.546 L
401.083 166.978 L
402.168 168.562 L
403.253 170.333 L
404.338 171.795 L
405.423 173.327 L
406.508 174.701 L
407.593 176.152 L
408.678 177.901 L
409.763 179.358 L
410.848 180.833 L
411.933 182.051 L
413.018 183.399 L
414.103 184.742 L
415.188 185.963 L
416.273 187.145 L
417.358 188.329 L
418.443 189.529 L
419.528 190.863 L
420.613 192.124 L
421.698 193.387 L
422.783 194.652 L
423.868 195.823 L
424.953 197.039 L
426.038 198.459 L
427.123 199.663 L
428.208 201.058 L
429.293 202.508 L
430.378 203.852 L
431.463 205.694 L
432.548 207.206 L
433.633 208.616 L
434.718 210.046 L
435.803 211.467 L
436.888 213.362 L
437.973 214.892 L
439.058 216.209 L
440.143 217.528 L
441.228 218.911 L
442.313 220.51 L
443.398 222.141 L
444.483 223.591 L
445.568 224.809 L
446.653 226.328 L
447.738 228.024 L
448.823 229.54 L
449.908 230.946 L
450.993 232.305 L
452.078 233.822 L
453.163 235.701 L
454.248 237.16 L
455.333 238.576 L
456.418 239.91 L
457.503 241.445 L
458.588 242.929 L
459.673 244.281 L
460.758 245.491 L
461.843 246.901 L
462.928 248.466 L
464.013 250.053 L
465.098 251.506 L
466.183 252.935 L
467.268 254.54 L
468.353 256.116 L
469.438 257.547 L
470.523 258.96 L
471.608 260.523 L
472.693 262.228 L
473.778 263.694 L
474.863 264.953 L
475.948 266.289 L
477.033 267.751 L
478.118 269.218 L
479.203 270.515 L
480.288 271.731 L
481.373 272.909 L
482.458 274.346 L
483.543 275.825 L
484.628 277.123 L
485.713 278.235 L
486.798 279.575 L
487.883 281.064 L
488.968 282.506 L
490.053 283.792 L
491.138 285.135 L
492.223 286.434 L
493.308 287.9 L
494.393 289.298 L
495.478 290.776 L
496.563 292.097 L
497.648 293.421 L
498.733 294.645 L
499.818 295.883 L
500.903 297.156 L
501.988 298.54 L
503.073 299.853 L
504.158 301.199 L
505.243 302.51 L
506.328 303.895 L
507.052 304.773 L
S
GR
GS
[0.75 0 0 0.75 0 0] CT
0 1 0 RC
[8 3 2 3] 0 setdash
2 LJ
0.667 LW
N
132.403 374.041 M
133.088 373.284 L
134.173 371.971 L
135.258 370.673 L
136.343 369.32 L
137.428 367.856 L
138.513 366.541 L
139.598 365.19 L
140.683 363.844 L
141.768 362.466 L
142.853 361.141 L
143.938 359.646 L
145.023 358.424 L
146.108 357.13 L
147.193 355.838 L
148.278 354.473 L
149.363 353.138 L
150.448 351.809 L
151.533 350.551 L
152.618 349.35 L
153.703 348.115 L
154.788 346.775 L
155.873 345.412 L
156.958 344.197 L
158.043 343.15 L
159.128 341.976 L
160.213 340.676 L
161.298 339.214 L
162.383 337.919 L
163.468 336.545 L
164.553 335.43 L
165.638 334.148 L
166.723 332.792 L
167.808 331.246 L
168.893 329.896 L
169.978 328.512 L
171.063 327.268 L
172.148 326.072 L
173.233 324.816 L
174.318 323.436 L
175.403 322.182 L
176.488 320.696 L
177.573 319.419 L
178.658 317.997 L
179.743 316.645 L
180.828 315.15 L
181.913 313.766 L
182.998 312.398 L
184.083 311.126 L
185.168 309.72 L
186.253 308.205 L
187.338 306.699 L
188.423 305.336 L
189.508 304.053 L
190.593 302.836 L
191.678 301.415 L
192.763 300.038 L
193.848 298.678 L
194.933 297.315 L
196.018 296.178 L
197.103 294.943 L
198.188 293.512 L
199.273 292.18 L
200.358 290.863 L
201.443 289.629 L
202.528 288.418 L
203.613 287.162 L
204.698 285.934 L
205.783 284.599 L
206.868 283.222 L
207.953 282.024 L
209.038 280.681 L
210.123 279.129 L
211.208 277.639 L
212.293 276.07 L
213.378 274.574 L
214.463 273.212 L
215.548 271.683 L
216.633 270.151 L
217.718 268.761 L
218.803 267.353 L
219.888 265.933 L
220.973 264.53 L
222.058 263.192 L
223.143 261.803 L
224.228 260.496 L
225.313 259.315 L
226.398 257.952 L
227.483 256.587 L
228.568 255.203 L
229.653 253.875 L
230.738 252.605 L
231.823 251.304 L
232.908 249.932 L
233.993 248.429 L
235.078 247.149 L
236.163 245.8 L
237.248 244.417 L
238.333 242.916 L
239.418 241.487 L
240.503 240.265 L
241.588 238.915 L
242.673 237.558 L
243.758 236.153 L
244.843 234.61 L
245.928 233.274 L
247.013 231.95 L
248.098 230.533 L
249.183 229.246 L
250.268 227.712 L
251.353 226.234 L
252.438 224.919 L
253.523 223.62 L
254.608 222.181 L
255.693 220.898 L
256.778 219.774 L
257.863 218.596 L
258.948 217.463 L
260.033 216.223 L
261.118 215.097 L
262.203 213.97 L
263.288 213.026 L
264.373 211.966 L
265.458 210.876 L
266.543 209.715 L
267.628 208.582 L
268.713 207.556 L
269.798 206.471 L
270.883 205.41 L
271.968 204.18 L
273.053 203.008 L
274.138 201.883 L
275.223 200.717 L
276.308 199.556 L
277.393 198.645 L
278.478 197.44 L
279.563 196.4 L
280.648 195.436 L
281.733 194.46 L
282.818 193.526 L
283.903 192.376 L
284.988 191.424 L
286.073 190.401 L
287.158 189.548 L
288.243 188.648 L
289.328 187.943 L
290.413 187.197 L
291.498 186.443 L
292.583 185.82 L
293.668 185.234 L
294.753 184.606 L
295.838 183.98 L
296.923 183.556 L
298.008 183.113 L
299.093 182.622 L
300.178 182.21 L
301.263 181.688 L
302.348 181.325 L
303.433 180.925 L
304.518 180.476 L
305.603 180.168 L
306.688 179.74 L
307.773 179.42 L
308.858 178.898 L
309.943 178.651 L
311.028 178.48 L
312.113 178.199 L
313.198 178.155 L
314.283 178.079 L
315.368 177.876 L
316.453 177.886 L
317.538 177.844 L
318.623 177.822 L
319.708 177.917 L
320.793 178.044 L
321.878 178.128 L
322.963 177.847 L
324.048 177.898 L
325.133 178.051 L
326.218 178.109 L
327.303 178.081 L
328.388 178.055 L
329.473 178.182 L
330.558 178.258 L
331.643 178.381 L
332.728 178.665 L
333.813 178.908 L
334.898 179.089 L
335.983 179.349 L
337.068 179.574 L
338.153 179.861 L
339.238 180.192 L
340.323 180.756 L
341.408 181.428 L
342.493 181.944 L
343.578 182.551 L
344.663 183.191 L
345.748 184.083 L
346.833 184.95 L
347.918 185.635 L
349.003 186.429 L
350.088 187.225 L
351.173 188.101 L
352.258 188.887 L
353.343 189.625 L
354.428 190.496 L
355.513 191.4 L
356.598 192.419 L
357.683 193.219 L
358.768 194.108 L
359.853 194.914 L
360.938 195.759 L
362.023 196.638 L
363.108 197.632 L
364.193 198.588 L
365.278 199.427 L
366.363 200.404 L
367.448 201.432 L
368.533 202.38 L
369.618 203.342 L
370.703 204.435 L
371.788 205.549 L
372.873 206.616 L
373.958 207.612 L
375.043 208.496 L
376.128 209.471 L
377.213 210.42 L
378.298 211.489 L
379.383 212.606 L
380.468 213.705 L
381.553 214.878 L
382.638 216.071 L
383.723 217.18 L
384.808 218.376 L
385.893 219.531 L
386.978 220.627 L
388.063 221.803 L
389.148 222.99 L
390.233 224.23 L
391.318 225.33 L
392.403 226.53 L
393.488 227.642 L
394.573 228.848 L
395.658 230.159 L
396.743 231.211 L
397.828 232.499 L
398.913 233.901 L
399.998 235.111 L
401.083 236.461 L
402.168 237.868 L
403.253 239.213 L
404.338 240.658 L
405.423 242.133 L
406.508 243.499 L
407.593 245.061 L
408.678 246.595 L
409.763 248.041 L
410.848 249.492 L
411.933 250.848 L
413.018 252.203 L
414.103 253.498 L
415.188 254.763 L
416.273 255.954 L
417.358 257.075 L
418.443 258.182 L
419.528 259.484 L
420.613 260.751 L
421.698 261.93 L
422.783 263.185 L
423.868 264.477 L
424.953 265.856 L
426.038 267.359 L
427.123 268.543 L
428.208 269.831 L
429.293 271.219 L
430.378 272.613 L
431.463 274.174 L
432.548 275.579 L
433.633 276.843 L
434.718 278.205 L
435.803 279.582 L
436.888 281.33 L
437.973 282.806 L
439.058 284.062 L
440.143 285.465 L
441.228 286.911 L
442.313 288.503 L
443.398 290.133 L
444.483 291.614 L
445.568 292.808 L
446.653 294.236 L
447.738 295.833 L
448.823 297.337 L
449.908 298.877 L
450.993 300.357 L
452.078 301.889 L
453.163 303.58 L
454.248 305.051 L
455.333 306.553 L
456.418 307.925 L
457.503 309.411 L
458.588 310.981 L
459.673 312.316 L
460.758 313.674 L
461.843 315.018 L
462.928 316.502 L
464.013 317.889 L
465.098 319.262 L
466.183 320.711 L
467.268 322.185 L
468.353 323.596 L
469.438 325.062 L
470.523 326.399 L
471.608 327.9 L
472.693 329.345 L
473.778 330.603 L
474.863 331.837 L
475.948 333.217 L
477.033 334.62 L
478.118 336.128 L
479.203 337.348 L
480.288 338.628 L
481.373 339.884 L
482.458 341.245 L
483.543 342.726 L
484.628 344.091 L
485.713 345.341 L
486.798 346.569 L
487.883 347.836 L
488.968 349.136 L
490.053 350.441 L
491.138 351.74 L
492.223 352.963 L
493.308 354.182 L
494.393 355.485 L
495.478 356.799 L
496.563 358.207 L
497.648 359.445 L
498.733 360.736 L
499.818 362.006 L
500.903 363.496 L
501.988 365.006 L
503.073 366.541 L
504.158 367.878 L
505.243 369.283 L
506.328 370.718 L
507.052 371.617 L
S
GR
%%Trailer
%%Pages: 1
%%EOF
