%!PS-Adobe-3.0 EPSF-3.0
%%Creator: (MATLAB, The Mathworks, Inc. Version 9.10.0.1649659 \(R2021a\) Update 1. Operating System: Windows 10)
%%Title: (C:/Users/sjenks/Box/APLab-Projects/Sam/ReinigerAnalysis/VSS2023 Figures/VMAprlcdc_CDperf.eps)
%%CreationDate: 2022-11-30T10:15:04
%%Pages: (atend)
%%BoundingBox:     0     0   270   314
%%LanguageLevel: 3
%%EndComments
%%BeginProlog
%%BeginResource: procset (Apache XML Graphics Std ProcSet) 1.2 0
%%Version: 1.2 0
%%Copyright: (Copyright 2001-2003,2010 The Apache Software Foundation. License terms: http://www.apache.org/licenses/LICENSE-2.0)
/bd{bind def}bind def
/ld{load def}bd
/GR/grestore ld
/GS/gsave ld
/RM/rmoveto ld
/C/curveto ld
/t/show ld
/L/lineto ld
/ML/setmiterlimit ld
/CT/concat ld
/f/fill ld
/N/newpath ld
/S/stroke ld
/CC/setcmykcolor ld
/A/ashow ld
/cp/closepath ld
/RC/setrgbcolor ld
/LJ/setlinejoin ld
/GC/setgray ld
/LW/setlinewidth ld
/M/moveto ld
/re {4 2 roll M
1 index 0 rlineto
0 exch rlineto
neg 0 rlineto
cp } bd
/_ctm matrix def
/_tm matrix def
/BT { _ctm currentmatrix pop matrix _tm copy pop 0 0 moveto } bd
/ET { _ctm setmatrix } bd
/iTm { _ctm setmatrix _tm concat } bd
/Tm { _tm astore pop iTm 0 0 moveto } bd
/ux 0.0 def
/uy 0.0 def
/F {
  /Tp exch def
  /Tf exch def
  Tf findfont Tp scalefont setfont
  /cf Tf def  /cs Tp def
} bd
/ULS {currentpoint /uy exch def /ux exch def} bd
/ULE {
  /Tcx currentpoint pop def
  gsave
  newpath
  cf findfont cs scalefont dup
  /FontMatrix get 0 get /Ts exch def /FontInfo get dup
  /UnderlinePosition get Ts mul /To exch def
  /UnderlineThickness get Ts mul /Tt exch def
  ux uy To add moveto  Tcx uy To add lineto
  Tt setlinewidth stroke
  grestore
} bd
/OLE {
  /Tcx currentpoint pop def
  gsave
  newpath
  cf findfont cs scalefont dup
  /FontMatrix get 0 get /Ts exch def /FontInfo get dup
  /UnderlinePosition get Ts mul /To exch def
  /UnderlineThickness get Ts mul /Tt exch def
  ux uy To add cs add moveto Tcx uy To add cs add lineto
  Tt setlinewidth stroke
  grestore
} bd
/SOE {
  /Tcx currentpoint pop def
  gsave
  newpath
  cf findfont cs scalefont dup
  /FontMatrix get 0 get /Ts exch def /FontInfo get dup
  /UnderlinePosition get Ts mul /To exch def
  /UnderlineThickness get Ts mul /Tt exch def
  ux uy To add cs 10 mul 26 idiv add moveto Tcx uy To add cs 10 mul 26 idiv add lineto
  Tt setlinewidth stroke
  grestore
} bd
/QT {
/Y22 exch store
/X22 exch store
/Y21 exch store
/X21 exch store
currentpoint
/Y21 load 2 mul add 3 div exch
/X21 load 2 mul add 3 div exch
/X21 load 2 mul /X22 load add 3 div
/Y21 load 2 mul /Y22 load add 3 div
/X22 load /Y22 load curveto
} bd
/SSPD {
dup length /d exch dict def
{
/v exch def
/k exch def
currentpagedevice k known {
/cpdv currentpagedevice k get def
v cpdv ne {
/upd false def
/nullv v type /nulltype eq def
/nullcpdv cpdv type /nulltype eq def
nullv nullcpdv or
{
/upd true def
} {
/sametype v type cpdv type eq def
sametype {
v type /arraytype eq {
/vlen v length def
/cpdvlen cpdv length def
vlen cpdvlen eq {
0 1 vlen 1 sub {
/i exch def
/obj v i get def
/cpdobj cpdv i get def
obj cpdobj ne {
/upd true def
exit
} if
} for
} {
/upd true def
} ifelse
} {
v type /dicttype eq {
v {
/dv exch def
/dk exch def
/cpddv cpdv dk get def
dv cpddv ne {
/upd true def
exit
} if
} forall
} {
/upd true def
} ifelse
} ifelse
} if
} ifelse
upd true eq {
d k v put
} if
} if
} if
} forall
d length 0 gt {
d setpagedevice
} if
} bd
/RE { % /NewFontName [NewEncodingArray] /FontName RE -
  findfont dup length dict begin
  {
    1 index /FID ne
    {def} {pop pop} ifelse
  } forall
  /Encoding exch def
  /FontName 1 index def
  currentdict definefont pop
  end
} bind def
%%EndResource
%%BeginResource: procset (Apache XML Graphics EPS ProcSet) 1.0 0
%%Version: 1.0 0
%%Copyright: (Copyright 2002-2003 The Apache Software Foundation. License terms: http://www.apache.org/licenses/LICENSE-2.0)
/BeginEPSF { %def
/b4_Inc_state save def         % Save state for cleanup
/dict_count countdictstack def % Count objects on dict stack
/op_count count 1 sub def      % Count objects on operand stack
userdict begin                 % Push userdict on dict stack
/showpage { } def              % Redefine showpage, { } = null proc
0 setgray 0 setlinecap         % Prepare graphics state
1 setlinewidth 0 setlinejoin
10 setmiterlimit [ ] 0 setdash newpath
/languagelevel where           % If level not equal to 1 then
{pop languagelevel             % set strokeadjust and
1 ne                           % overprint to their defaults.
{false setstrokeadjust false setoverprint
} if
} if
} bd
/EndEPSF { %def
count op_count sub {pop} repeat            % Clean up stacks
countdictstack dict_count sub {end} repeat
b4_Inc_state restore
} bd
%%EndResource
%FOPBeginFontDict
%%IncludeResource: font Courier-Oblique
%%IncludeResource: font Courier-BoldOblique
%%IncludeResource: font Courier-Bold
%%IncludeResource: font ZapfDingbats
%%IncludeResource: font Symbol
%%IncludeResource: font Helvetica
%%IncludeResource: font Helvetica-Oblique
%%IncludeResource: font Helvetica-Bold
%%IncludeResource: font Helvetica-BoldOblique
%%IncludeResource: font Times-Roman
%%IncludeResource: font Times-Italic
%%IncludeResource: font Times-Bold
%%IncludeResource: font Times-BoldItalic
%%IncludeResource: font Courier
%FOPEndFontDict
%%BeginResource: encoding WinAnsiEncoding
/WinAnsiEncoding [
/.notdef /.notdef /.notdef /.notdef /.notdef
/.notdef /.notdef /.notdef /.notdef /.notdef
/.notdef /.notdef /.notdef /.notdef /.notdef
/.notdef /.notdef /.notdef /.notdef /.notdef
/.notdef /.notdef /.notdef /.notdef /.notdef
/.notdef /.notdef /.notdef /.notdef /.notdef
/.notdef /.notdef /space /exclam /quotedbl
/numbersign /dollar /percent /ampersand /quotesingle
/parenleft /parenright /asterisk /plus /comma
/hyphen /period /slash /zero /one
/two /three /four /five /six
/seven /eight /nine /colon /semicolon
/less /equal /greater /question /at
/A /B /C /D /E
/F /G /H /I /J
/K /L /M /N /O
/P /Q /R /S /T
/U /V /W /X /Y
/Z /bracketleft /backslash /bracketright /asciicircum
/underscore /quoteleft /a /b /c
/d /e /f /g /h
/i /j /k /l /m
/n /o /p /q /r
/s /t /u /v /w
/x /y /z /braceleft /bar
/braceright /asciitilde /bullet /Euro /bullet
/quotesinglbase /florin /quotedblbase /ellipsis /dagger
/daggerdbl /circumflex /perthousand /Scaron /guilsinglleft
/OE /bullet /Zcaron /bullet /bullet
/quoteleft /quoteright /quotedblleft /quotedblright /bullet
/endash /emdash /asciitilde /trademark /scaron
/guilsinglright /oe /bullet /zcaron /Ydieresis
/space /exclamdown /cent /sterling /currency
/yen /brokenbar /section /dieresis /copyright
/ordfeminine /guillemotleft /logicalnot /sfthyphen /registered
/macron /degree /plusminus /twosuperior /threesuperior
/acute /mu /paragraph /middot /cedilla
/onesuperior /ordmasculine /guillemotright /onequarter /onehalf
/threequarters /questiondown /Agrave /Aacute /Acircumflex
/Atilde /Adieresis /Aring /AE /Ccedilla
/Egrave /Eacute /Ecircumflex /Edieresis /Igrave
/Iacute /Icircumflex /Idieresis /Eth /Ntilde
/Ograve /Oacute /Ocircumflex /Otilde /Odieresis
/multiply /Oslash /Ugrave /Uacute /Ucircumflex
/Udieresis /Yacute /Thorn /germandbls /agrave
/aacute /acircumflex /atilde /adieresis /aring
/ae /ccedilla /egrave /eacute /ecircumflex
/edieresis /igrave /iacute /icircumflex /idieresis
/eth /ntilde /ograve /oacute /ocircumflex
/otilde /odieresis /divide /oslash /ugrave
/uacute /ucircumflex /udieresis /yacute /thorn
/ydieresis
] def
%%EndResource
%FOPBeginFontReencode
/Courier-Oblique findfont
dup length dict begin
  {1 index /FID ne {def} {pop pop} ifelse} forall
  /Encoding WinAnsiEncoding def
  currentdict
end
/Courier-Oblique exch definefont pop
/Courier-BoldOblique findfont
dup length dict begin
  {1 index /FID ne {def} {pop pop} ifelse} forall
  /Encoding WinAnsiEncoding def
  currentdict
end
/Courier-BoldOblique exch definefont pop
/Courier-Bold findfont
dup length dict begin
  {1 index /FID ne {def} {pop pop} ifelse} forall
  /Encoding WinAnsiEncoding def
  currentdict
end
/Courier-Bold exch definefont pop
/Helvetica findfont
dup length dict begin
  {1 index /FID ne {def} {pop pop} ifelse} forall
  /Encoding WinAnsiEncoding def
  currentdict
end
/Helvetica exch definefont pop
/Helvetica-Oblique findfont
dup length dict begin
  {1 index /FID ne {def} {pop pop} ifelse} forall
  /Encoding WinAnsiEncoding def
  currentdict
end
/Helvetica-Oblique exch definefont pop
/Helvetica-Bold findfont
dup length dict begin
  {1 index /FID ne {def} {pop pop} ifelse} forall
  /Encoding WinAnsiEncoding def
  currentdict
end
/Helvetica-Bold exch definefont pop
/Helvetica-BoldOblique findfont
dup length dict begin
  {1 index /FID ne {def} {pop pop} ifelse} forall
  /Encoding WinAnsiEncoding def
  currentdict
end
/Helvetica-BoldOblique exch definefont pop
/Times-Roman findfont
dup length dict begin
  {1 index /FID ne {def} {pop pop} ifelse} forall
  /Encoding WinAnsiEncoding def
  currentdict
end
/Times-Roman exch definefont pop
/Times-Italic findfont
dup length dict begin
  {1 index /FID ne {def} {pop pop} ifelse} forall
  /Encoding WinAnsiEncoding def
  currentdict
end
/Times-Italic exch definefont pop
/Times-Bold findfont
dup length dict begin
  {1 index /FID ne {def} {pop pop} ifelse} forall
  /Encoding WinAnsiEncoding def
  currentdict
end
/Times-Bold exch definefont pop
/Times-BoldItalic findfont
dup length dict begin
  {1 index /FID ne {def} {pop pop} ifelse} forall
  /Encoding WinAnsiEncoding def
  currentdict
end
/Times-BoldItalic exch definefont pop
/Courier findfont
dup length dict begin
  {1 index /FID ne {def} {pop pop} ifelse} forall
  /Encoding WinAnsiEncoding def
  currentdict
end
/Courier exch definefont pop
%FOPEndFontReencode
%%EndProlog
%%Page: 1 1
%%PageBoundingBox: 0 0 270 314
%%BeginPageSetup
[1 0 0 -1 0 314] CT
%%EndPageSetup
GS
[0.75 0 0 0.75 0 -0.25] CT
N
0 0 M
360 0 L
360 419 L
0 419 L
0 0 L
cp
clip
1 GC
N
0 0 360 419 re
f
GR
GS
[0.75 0 0 0.75 0 -0.25] CT
1 GC
N
0 0 360 419 re
f
GR
GS
[0.75 0 0 0.75 0 -0.25] CT
1 GC
N
53 373 M
310 373 L
310 31 L
53 31 L
cp
f
GR
GS
[0.75 0 0 0.75 0 -0.25] CT
0.149 GC
2 setlinecap
1 LJ
0.667 LW
N
53 373 M
310 373 L
S
GR
GS
[0.75 0 0 0.75 0 -0.25] CT
0.149 GC
2 setlinecap
1 LJ
0.667 LW
N
53 31 M
310 31 L
S
GR
GS
[0.75 0 0 0.75 0 -0.25] CT
0.149 GC
2 setlinecap
1 LJ
0.667 LW
N
95.833 373 M
95.833 369.58 L
S
GR
GS
[0.75 0 0 0.75 0 -0.25] CT
0.149 GC
2 setlinecap
1 LJ
0.667 LW
N
267.167 373 M
267.167 369.58 L
S
GR
GS
[0.75 0 0 0.75 0 -0.25] CT
0.149 GC
2 setlinecap
1 LJ
0.667 LW
N
95.833 31 M
95.833 34.42 L
S
GR
GS
[0.75 0 0 0.75 0 -0.25] CT
0.149 GC
2 setlinecap
1 LJ
0.667 LW
N
267.167 31 M
267.167 34.42 L
S
GR
GS
[0.75 0 0 0.75 71.875 283.30001] CT
0.149 GC
/Helvetica 12 F
GS
[1 0 0 1 0 0] CT
-46.5 13 moveto 
1 -1 scale
(Superior/lowerVF) t 
GR
GR
GS
[0.75 0 0 0.75 200.37499 283.30001] CT
0.149 GC
/Helvetica 12 F
GS
[1 0 0 1 0 0] CT
-44.5 13 moveto 
1 -1 scale
(Inferior/UpperVF) t 
GR
GR
GS
[0.75 0 0 0.75 0 -0.25] CT
0 1 0 RC
2 setlinecap
1 LJ
0.667 LW
N
53 373 M
53 31 L
S
GR
GS
[0.75 0 0 0.75 0 -0.25] CT
0 1 0 RC
2 setlinecap
1 LJ
0.667 LW
N
53 373 M
56.42 373 L
S
GR
GS
[0.75 0 0 0.75 0 -0.25] CT
0 1 0 RC
2 setlinecap
1 LJ
0.667 LW
N
53 330.25 M
56.42 330.25 L
S
GR
GS
[0.75 0 0 0.75 0 -0.25] CT
0 1 0 RC
2 setlinecap
1 LJ
0.667 LW
N
53 287.5 M
56.42 287.5 L
S
GR
GS
[0.75 0 0 0.75 0 -0.25] CT
0 1 0 RC
2 setlinecap
1 LJ
0.667 LW
N
53 244.75 M
56.42 244.75 L
S
GR
GS
[0.75 0 0 0.75 0 -0.25] CT
0 1 0 RC
2 setlinecap
1 LJ
0.667 LW
N
53 202 M
56.42 202 L
S
GR
GS
[0.75 0 0 0.75 0 -0.25] CT
0 1 0 RC
2 setlinecap
1 LJ
0.667 LW
N
53 159.25 M
56.42 159.25 L
S
GR
GS
[0.75 0 0 0.75 0 -0.25] CT
0 1 0 RC
2 setlinecap
1 LJ
0.667 LW
N
53 116.5 M
56.42 116.5 L
S
GR
GS
[0.75 0 0 0.75 0 -0.25] CT
0 1 0 RC
2 setlinecap
1 LJ
0.667 LW
N
53 73.75 M
56.42 73.75 L
S
GR
GS
[0.75 0 0 0.75 0 -0.25] CT
0 1 0 RC
2 setlinecap
1 LJ
0.667 LW
N
53 31 M
56.42 31 L
S
GR
GS
[0.75 0 0 0.75 35.95 279.5] CT
0 1 0 RC
/Helvetica 12 F
GS
[1 0 0 1 0 0] CT
-17 5 moveto 
1 -1 scale
(0.8) t 
GR
GR
GS
[0.75 0 0 0.75 35.95 247.4375] CT
0 1 0 RC
/Helvetica 12 F
GS
[1 0 0 1 0 0] CT
-24 5 moveto 
1 -1 scale
(0.85) t 
GR
GR
GS
[0.75 0 0 0.75 35.95 215.375] CT
0 1 0 RC
/Helvetica 12 F
GS
[1 0 0 1 0 0] CT
-17 5 moveto 
1 -1 scale
(0.9) t 
GR
GR
GS
[0.75 0 0 0.75 35.95 183.3125] CT
0 1 0 RC
/Helvetica 12 F
GS
[1 0 0 1 0 0] CT
-24 5 moveto 
1 -1 scale
(0.95) t 
GR
GR
GS
[0.75 0 0 0.75 35.95 151.25] CT
0 1 0 RC
/Helvetica 12 F
GS
[1 0 0 1 0 0] CT
-7 5 moveto 
1 -1 scale
(1) t 
GR
GR
GS
[0.75 0 0 0.75 35.95 119.1875] CT
0 1 0 RC
/Helvetica 12 F
GS
[1 0 0 1 0 0] CT
-24 5 moveto 
1 -1 scale
(1.05) t 
GR
GR
GS
[0.75 0 0 0.75 35.95 87.125] CT
0 1 0 RC
/Helvetica 12 F
GS
[1 0 0 1 0 0] CT
-17 5 moveto 
1 -1 scale
(1.1) t 
GR
GR
GS
[0.75 0 0 0.75 35.95 55.0625] CT
0 1 0 RC
/Helvetica 12 F
GS
[1 0 0 1 0 0] CT
-24 5 moveto 
1 -1 scale
(1.15) t 
GR
GR
GS
[0.75 0 0 0.75 35.95 23] CT
0 1 0 RC
/Helvetica 12 F
GS
[1 0 0 1 0 0] CT
-17 5 moveto 
1 -1 scale
(1.2) t 
GR
GR
GS
[0 -0.75 0.75 0 12.75 210.5] CT
0 1 0 RC
/Helvetica 13.2 F
GS
[1 0 0 1 0 0] CT
0 0 moveto 
1 -1 scale
(Cone density \(cones/deg) t 
GR
GR
GS
[0 -0.75 0.75 0 8.25 101] CT
0 1 0 RC
/Helvetica 10.56 F
GS
[1 0 0 1 0 0] CT
0 0 moveto 
1 -1 scale
(2) t 
GR
GR
GS
[0 -0.75 0.75 0 12.75 96.5] CT
0 1 0 RC
/Helvetica 13.2 F
GS
[1 0 0 1 0 0] CT
0 0 moveto 
1 -1 scale
(\)) t 
GR
GR
GS
[0.75 0 0 0.75 39.75 20.75] CT
0 1 0 RC
N
1.766 -0.344 M
1.766 -0.438 1.828 -0.516 QT
4.313 -3 L
1.828 -5.5 L
1.766 -5.563 1.766 -5.656 QT
1.766 -5.75 1.836 -5.82 QT
1.906 -5.891 2 -5.891 QT
2.094 -5.891 2.188 -5.813 QT
4.672 -3.328 L
7.141 -5.813 L
7.25 -5.891 7.313 -5.891 QT
7.422 -5.891 7.492 -5.82 QT
7.563 -5.75 7.563 -5.656 QT
7.563 -5.563 7.5 -5.5 QT
5 -3 L
7.5 -0.516 L
7.563 -0.438 7.563 -0.344 QT
7.563 -0.25 7.492 -0.18 QT
7.422 -0.109 7.313 -0.109 QT
7.234 -0.109 7.141 -0.188 QT
4.672 -2.672 L
2.188 -0.188 L
2.094 -0.109 2 -0.109 QT
1.906 -0.109 1.836 -0.188 QT
1.766 -0.266 1.766 -0.344 QT
cp
f
GR
GS
[0.75 0 0 0.75 47.25 20.75] CT
0 1 0 RC
/Helvetica 12 F
GS
[1 0 0 1 0 0] CT
0 0 moveto 
1 -1 scale
(10) t 
GR
GR
GS
[0.75 0 0 0.75 57.75 16.25] CT
0 1 0 RC
/Helvetica 9.6 F
GS
[1 0 0 1 0 0] CT
0 0 moveto 
1 -1 scale
(4) t 
GR
GR
GS
[0.75 0 0 0.75 0 -0.25] CT
1 0 1 RC
2 setlinecap
1 LJ
0.667 LW
N
310 373 M
310 31 L
S
GR
GS
[0.75 0 0 0.75 0 -0.25] CT
1 0 1 RC
2 setlinecap
1 LJ
0.667 LW
N
310 373 M
306.58 373 L
S
GR
GS
[0.75 0 0 0.75 0 -0.25] CT
1 0 1 RC
2 setlinecap
1 LJ
0.667 LW
N
310 338.8 M
306.58 338.8 L
S
GR
GS
[0.75 0 0 0.75 0 -0.25] CT
1 0 1 RC
2 setlinecap
1 LJ
0.667 LW
N
310 304.6 M
306.58 304.6 L
S
GR
GS
[0.75 0 0 0.75 0 -0.25] CT
1 0 1 RC
2 setlinecap
1 LJ
0.667 LW
N
310 270.4 M
306.58 270.4 L
S
GR
GS
[0.75 0 0 0.75 0 -0.25] CT
1 0 1 RC
2 setlinecap
1 LJ
0.667 LW
N
310 236.2 M
306.58 236.2 L
S
GR
GS
[0.75 0 0 0.75 0 -0.25] CT
1 0 1 RC
2 setlinecap
1 LJ
0.667 LW
N
310 202 M
306.58 202 L
S
GR
GS
[0.75 0 0 0.75 0 -0.25] CT
1 0 1 RC
2 setlinecap
1 LJ
0.667 LW
N
310 167.8 M
306.58 167.8 L
S
GR
GS
[0.75 0 0 0.75 0 -0.25] CT
1 0 1 RC
2 setlinecap
1 LJ
0.667 LW
N
310 133.6 M
306.58 133.6 L
S
GR
GS
[0.75 0 0 0.75 0 -0.25] CT
1 0 1 RC
2 setlinecap
1 LJ
0.667 LW
N
310 99.4 M
306.58 99.4 L
S
GR
GS
[0.75 0 0 0.75 0 -0.25] CT
1 0 1 RC
2 setlinecap
1 LJ
0.667 LW
N
310 65.2 M
306.58 65.2 L
S
GR
GS
[0.75 0 0 0.75 0 -0.25] CT
1 0 1 RC
2 setlinecap
1 LJ
0.667 LW
N
310 31 M
306.58 31 L
S
GR
GS
[0.75 0 0 0.75 236.30001 279.5] CT
1 0 1 RC
/Helvetica 12 F
GS
[1 0 0 1 0 0] CT
0 5 moveto 
1 -1 scale
(0.5) t 
GR
GR
GS
[0.75 0 0 0.75 236.30001 253.84999] CT
1 0 1 RC
/Helvetica 12 F
GS
[1 0 0 1 0 0] CT
0 5 moveto 
1 -1 scale
(0.55) t 
GR
GR
GS
[0.75 0 0 0.75 236.30001 228.19998] CT
1 0 1 RC
/Helvetica 12 F
GS
[1 0 0 1 0 0] CT
0 5 moveto 
1 -1 scale
(0.6) t 
GR
GR
GS
[0.75 0 0 0.75 236.30001 202.55002] CT
1 0 1 RC
/Helvetica 12 F
GS
[1 0 0 1 0 0] CT
0 5 moveto 
1 -1 scale
(0.65) t 
GR
GR
GS
[0.75 0 0 0.75 236.30001 176.90001] CT
1 0 1 RC
/Helvetica 12 F
GS
[1 0 0 1 0 0] CT
0 5 moveto 
1 -1 scale
(0.7) t 
GR
GR
GS
[0.75 0 0 0.75 236.30001 151.25] CT
1 0 1 RC
/Helvetica 12 F
GS
[1 0 0 1 0 0] CT
0 5 moveto 
1 -1 scale
(0.75) t 
GR
GR
GS
[0.75 0 0 0.75 236.30001 125.59999] CT
1 0 1 RC
/Helvetica 12 F
GS
[1 0 0 1 0 0] CT
0 5 moveto 
1 -1 scale
(0.8) t 
GR
GR
GS
[0.75 0 0 0.75 236.30001 99.94999] CT
1 0 1 RC
/Helvetica 12 F
GS
[1 0 0 1 0 0] CT
0 5 moveto 
1 -1 scale
(0.85) t 
GR
GR
GS
[0.75 0 0 0.75 236.30001 74.30001] CT
1 0 1 RC
/Helvetica 12 F
GS
[1 0 0 1 0 0] CT
0 5 moveto 
1 -1 scale
(0.9) t 
GR
GR
GS
[0.75 0 0 0.75 236.30001 48.65] CT
1 0 1 RC
/Helvetica 12 F
GS
[1 0 0 1 0 0] CT
0 5 moveto 
1 -1 scale
(0.95) t 
GR
GR
GS
[0.75 0 0 0.75 236.30001 23] CT
1 0 1 RC
/Helvetica 12 F
GS
[1 0 0 1 0 0] CT
0 5 moveto 
1 -1 scale
(1) t 
GR
GR
GS
[0 -0.75 0.75 0 257.29999 151.24987] CT
1 0 1 RC
/Helvetica 13.2 F
GS
[1 0 0 1 0 0] CT
-56.5 14 moveto 
1 -1 scale
(Proportion Correct\)) t 
GR
GR
GS
[0.75 0 0 0.75 0 -0.25] CT
N
53 31 M
310 31 L
310 373 L
53 373 L
53 31 L
cp
clip
0 1 0 RC
1 LJ
0.667 LW
N
95.833 246.835 M
95.833 280.665 L
S
GR
GS
[0.75 0 0 0.75 0 -0.25] CT
N
53 31 M
310 31 L
310 373 L
53 373 L
53 31 L
cp
clip
0 1 0 RC
1 LJ
0.667 LW
N
267.167 120.58 M
267.167 164.026 L
S
GR
GS
[0.75 0 0 0.75 0 -0.25] CT
N
53 31 M
310 31 L
310 373 L
53 373 L
53 31 L
cp
clip
0 1 0 RC
1 LJ
0.667 LW
N
95.833 246.835 M
95.833 213.005 L
S
GR
GS
[0.75 0 0 0.75 0 -0.25] CT
N
53 31 M
310 31 L
310 373 L
53 373 L
53 31 L
cp
clip
0 1 0 RC
1 LJ
0.667 LW
N
267.167 120.58 M
267.167 77.135 L
S
GR
GS
[0.75 0 0 0.75 0 -0.25] CT
0 1 0 RC
1 LJ
0.667 LW
N
95.833 246.835 M
267.167 120.58 L
S
GR
GS
[0.75 0 0 0.75 71.875 184.87636] CT
0 1 0 RC
N
1.333 0 M
1.333 0.736 0.736 1.333 0 1.333 C
-0.736 1.333 -1.333 0.736 -1.333 0 C
-1.333 -0.736 -0.736 -1.333 0 -1.333 C
0.736 -1.333 1.333 -0.736 1.333 0 C
cp
f
GR
GS
[0.75 0 0 0.75 200.37499 90.18528] CT
0 1 0 RC
N
/f-1057828618{1.333 0 M
1.333 0.736 0.736 1.333 0 1.333 C
-0.736 1.333 -1.333 0.736 -1.333 0 C
-1.333 -0.736 -0.736 -1.333 0 -1.333 C
0.736 -1.333 1.333 -0.736 1.333 0 C
cp}def
f-1057828618
f
GR
GS
[0.75 0 0 0.75 71.875 210.24901] CT
N
-42.833 -249.665 M
214.167 -249.665 L
214.167 92.335 L
-42.833 92.335 L
-42.833 -249.665 L
cp
clip
0 1 0 RC
N
-4 0 M
4 0 L
f
GR
GS
[0.75 0 0 0.75 71.875 210.24901] CT
N
-42.833 -249.665 M
214.167 -249.665 L
214.167 92.335 L
-42.833 92.335 L
-42.833 -249.665 L
cp
clip
0 1 0 RC
10.0 ML
0.667 LW
N
-4 0 M
4 0 L
S
GR
GS
[0.75 0 0 0.75 200.37499 122.76917] CT
N
-214.167 -133.026 M
42.833 -133.026 L
42.833 208.974 L
-214.167 208.974 L
-214.167 -133.026 L
cp
clip
0 1 0 RC
N
/f-401390582{-4 0 M
4 0 L}def
f-401390582
f
GR
GS
[0.75 0 0 0.75 200.37499 122.76917] CT
N
-214.167 -133.026 M
42.833 -133.026 L
42.833 208.974 L
-214.167 208.974 L
-214.167 -133.026 L
cp
clip
0 1 0 RC
10.0 ML
0.667 LW
N
-4 0 M
4 0 L
S
GR
GS
[0.75 0 0 0.75 71.875 159.50365] CT
N
-42.833 -182.005 M
214.167 -182.005 L
214.167 159.995 L
-42.833 159.995 L
-42.833 -182.005 L
cp
clip
0 1 0 RC
N
f-401390582
f
GR
GS
[0.75 0 0 0.75 71.875 159.50365] CT
N
-42.833 -182.005 M
214.167 -182.005 L
214.167 159.995 L
-42.833 159.995 L
-42.833 -182.005 L
cp
clip
0 1 0 RC
10.0 ML
0.667 LW
N
-4 0 M
4 0 L
S
GR
GS
[0.75 0 0 0.75 200.37499 57.60139] CT
N
-214.167 -46.135 M
42.833 -46.135 L
42.833 295.865 L
-214.167 295.865 L
-214.167 -46.135 L
cp
clip
0 1 0 RC
N
f-401390582
f
GR
GS
[0.75 0 0 0.75 200.37499 57.60139] CT
N
-214.167 -46.135 M
42.833 -46.135 L
42.833 295.865 L
-214.167 295.865 L
-214.167 -46.135 L
cp
clip
0 1 0 RC
10.0 ML
0.667 LW
N
-4 0 M
4 0 L
S
GR
GS
[0.75 0 0 0.75 0 -0.25] CT
N
53 31 M
310 31 L
310 373 L
53 373 L
53 31 L
cp
clip
0 0 1 RC
1 LJ
0.667 LW
N
95.833 176.066 M
95.833 209.896 L
S
GR
GS
[0.75 0 0 0.75 0 -0.25] CT
N
53 31 M
310 31 L
310 373 L
53 373 L
53 31 L
cp
clip
0 0 1 RC
1 LJ
0.667 LW
N
267.167 209.602 M
267.167 253.047 L
S
GR
GS
[0.75 0 0 0.75 0 -0.25] CT
N
53 31 M
310 31 L
310 373 L
53 373 L
53 31 L
cp
clip
0 0 1 RC
1 LJ
0.667 LW
N
95.833 176.066 M
95.833 142.236 L
S
GR
GS
[0.75 0 0 0.75 0 -0.25] CT
N
53 31 M
310 31 L
310 373 L
53 373 L
53 31 L
cp
clip
0 0 1 RC
1 LJ
0.667 LW
N
267.167 209.602 M
267.167 166.156 L
S
GR
GS
[0.75 0 0 0.75 0 -0.25] CT
0 0 1 RC
1 LJ
0.667 LW
N
95.833 176.066 M
267.167 209.602 L
S
GR
GS
[0.75 0 0 0.75 71.875 131.79939] CT
0 0 1 RC
N
f-1057828618
f
GR
GS
[0.75 0 0 0.75 200.37499 156.95117] CT
0 0 1 RC
N
f-1057828618
f
GR
GS
[0.75 0 0 0.75 71.875 157.17204] CT
N
-42.833 -178.896 M
214.167 -178.896 L
214.167 163.104 L
-42.833 163.104 L
-42.833 -178.896 L
cp
clip
0 0 1 RC
N
f-401390582
f
GR
GS
[0.75 0 0 0.75 71.875 157.17204] CT
N
-42.833 -178.896 M
214.167 -178.896 L
214.167 163.104 L
-42.833 163.104 L
-42.833 -178.896 L
cp
clip
0 0 1 RC
10.0 ML
0.667 LW
N
-4 0 M
4 0 L
S
GR
GS
[0.75 0 0 0.75 200.37499 189.53506] CT
N
-214.167 -222.047 M
42.833 -222.047 L
42.833 119.953 L
-214.167 119.953 L
-214.167 -222.047 L
cp
clip
0 0 1 RC
N
f-401390582
f
GR
GS
[0.75 0 0 0.75 200.37499 189.53506] CT
N
-214.167 -222.047 M
42.833 -222.047 L
42.833 119.953 L
-214.167 119.953 L
-214.167 -222.047 L
cp
clip
0 0 1 RC
10.0 ML
0.667 LW
N
-4 0 M
4 0 L
S
GR
GS
[0.75 0 0 0.75 71.875 106.42669] CT
N
-42.833 -111.236 M
214.167 -111.236 L
214.167 230.764 L
-42.833 230.764 L
-42.833 -111.236 L
cp
clip
0 0 1 RC
N
f-401390582
f
GR
GS
[0.75 0 0 0.75 71.875 106.42669] CT
N
-42.833 -111.236 M
214.167 -111.236 L
214.167 230.764 L
-42.833 230.764 L
-42.833 -111.236 L
cp
clip
0 0 1 RC
10.0 ML
0.667 LW
N
-4 0 M
4 0 L
S
GR
GS
[0.75 0 0 0.75 200.37499 124.36728] CT
N
-214.167 -135.156 M
42.833 -135.156 L
42.833 206.844 L
-214.167 206.844 L
-214.167 -135.156 L
cp
clip
0 0 1 RC
N
f-401390582
f
GR
GS
[0.75 0 0 0.75 200.37499 124.36728] CT
N
-214.167 -135.156 M
42.833 -135.156 L
42.833 206.844 L
-214.167 206.844 L
-214.167 -135.156 L
cp
clip
0 0 1 RC
10.0 ML
0.667 LW
N
-4 0 M
4 0 L
S
GR
GS
[0.75 0 0 0.75 0 -0.25] CT
N
53 31 M
310 31 L
310 373 L
53 373 L
53 31 L
cp
clip
1 0 1 RC
1 LJ
0.667 LW
N
95.833 286.688 M
95.833 316.248 L
S
GR
GS
[0.75 0 0 0.75 0 -0.25] CT
N
53 31 M
310 31 L
310 373 L
53 373 L
53 31 L
cp
clip
1 0 1 RC
1 LJ
0.667 LW
N
267.167 209.08 M
267.167 238.197 L
S
GR
GS
[0.75 0 0 0.75 0 -0.25] CT
N
53 31 M
310 31 L
310 373 L
53 373 L
53 31 L
cp
clip
1 0 1 RC
1 LJ
0.667 LW
N
95.833 286.688 M
95.833 257.128 L
S
GR
GS
[0.75 0 0 0.75 0 -0.25] CT
N
53 31 M
310 31 L
310 373 L
53 373 L
53 31 L
cp
clip
1 0 1 RC
1 LJ
0.667 LW
N
267.167 209.08 M
267.167 179.962 L
S
GR
GS
[0.75 0 0 0.75 0 -0.25] CT
1 0 1 RC
1 LJ
0.667 LW
N
95.833 286.688 M
267.167 209.08 L
S
GR
GS
[0.75 0 0 0.75 71.875 214.7659] CT
1 0 1 RC
N
f-1057828618
f
GR
GS
[0.75 0 0 0.75 200.37499 156.55988] CT
1 0 1 RC
N
f-1057828618
f
GR
GS
[0.75 0 0 0.75 71.875 236.93565] CT
N
-42.833 -285.248 M
214.167 -285.248 L
214.167 56.752 L
-42.833 56.752 L
-42.833 -285.248 L
cp
clip
1 0 1 RC
N
f-401390582
f
GR
GS
[0.75 0 0 0.75 71.875 236.93565] CT
N
-42.833 -285.248 M
214.167 -285.248 L
214.167 56.752 L
-42.833 56.752 L
-42.833 -285.248 L
cp
clip
1 0 1 RC
10.0 ML
0.667 LW
N
-4 0 M
4 0 L
S
GR
GS
[0.75 0 0 0.75 200.37499 178.39802] CT
N
-214.167 -207.197 M
42.833 -207.197 L
42.833 134.803 L
-214.167 134.803 L
-214.167 -207.197 L
cp
clip
1 0 1 RC
N
f-401390582
f
GR
GS
[0.75 0 0 0.75 200.37499 178.39802] CT
N
-214.167 -207.197 M
42.833 -207.197 L
42.833 134.803 L
-214.167 134.803 L
-214.167 -207.197 L
cp
clip
1 0 1 RC
10.0 ML
0.667 LW
N
-4 0 M
4 0 L
S
GR
GS
[0.75 0 0 0.75 71.875 192.59613] CT
N
-42.833 -226.128 M
214.167 -226.128 L
214.167 115.872 L
-42.833 115.872 L
-42.833 -226.128 L
cp
clip
1 0 1 RC
N
f-401390582
f
GR
GS
[0.75 0 0 0.75 71.875 192.59613] CT
N
-42.833 -226.128 M
214.167 -226.128 L
214.167 115.872 L
-42.833 115.872 L
-42.833 -226.128 L
cp
clip
1 0 1 RC
10.0 ML
0.667 LW
N
-4 0 M
4 0 L
S
GR
GS
[0.75 0 0 0.75 200.37499 134.72178] CT
N
-214.167 -148.962 M
42.833 -148.962 L
42.833 193.038 L
-214.167 193.038 L
-214.167 -148.962 L
cp
clip
1 0 1 RC
N
f-401390582
f
GR
GS
[0.75 0 0 0.75 200.37499 134.72178] CT
N
-214.167 -148.962 M
42.833 -148.962 L
42.833 193.038 L
-214.167 193.038 L
-214.167 -148.962 L
cp
clip
1 0 1 RC
10.0 ML
0.667 LW
N
-4 0 M
4 0 L
S
GR
GS
[0.75 0 0 0.75 0 -0.25] CT
1 GC
N
/f1142237230{300 89 M
300 42 L
178 42 L
178 89 L
cp}def
f1142237230
f
GR
GS
[0.75 0 0 0.75 168.75 38] CT
/Helvetica 10.8 F
GS
[1 0 0 1 0 0] CT
0 4 moveto 
1 -1 scale
(PRL Centered) t 
GR
GR
GS
[0.75 0 0 0.75 0 -0.25] CT
0 1 0 RC
1 LJ
0.667 LW
N
182 51 M
222 51 L
S
GR
GS
[0.75 0 0 0.75 151.5 41.9375] CT
0 1 0 RC
N
f-401390582
f
GR
GS
[0.75 0 0 0.75 151.5 41.9375] CT
0 1 0 RC
10.0 ML
0.667 LW
N
-4 0 M
4 0 L
S
GR
GS
[0.75 0 0 0.75 151.5 34.0625] CT
0 1 0 RC
N
f-401390582
f
GR
GS
[0.75 0 0 0.75 151.5 34.0625] CT
0 1 0 RC
10.0 ML
0.667 LW
N
-4 0 M
4 0 L
S
GR
GS
[0.75 0 0 0.75 0 -0.25] CT
0 1 0 RC
1 LJ
0.667 LW
N
202 56.25 M
202 45.75 L
S
GR
GS
[0.75 0 0 0.75 151.5 38] CT
0 1 0 RC
N
f-1057828618
f
GR
GS
[0.75 0 0 0.75 168.75 48.875] CT
/Helvetica 10.8 F
GS
[1 0 0 1 0 0] CT
0 4 moveto 
1 -1 scale
(CDC Centered) t 
GR
GR
GS
[0.75 0 0 0.75 0 -0.25] CT
0 0 1 RC
1 LJ
0.667 LW
N
182 65.5 M
222 65.5 L
S
GR
GS
[0.75 0 0 0.75 151.5 52.8125] CT
0 0 1 RC
N
f-401390582
f
GR
GS
[0.75 0 0 0.75 151.5 52.8125] CT
0 0 1 RC
10.0 ML
0.667 LW
N
-4 0 M
4 0 L
S
GR
GS
[0.75 0 0 0.75 151.5 44.9375] CT
0 0 1 RC
N
f-401390582
f
GR
GS
[0.75 0 0 0.75 151.5 44.9375] CT
0 0 1 RC
10.0 ML
0.667 LW
N
-4 0 M
4 0 L
S
GR
GS
[0.75 0 0 0.75 0 -0.25] CT
0 0 1 RC
1 LJ
0.667 LW
N
202 70.75 M
202 60.25 L
S
GR
GS
[0.75 0 0 0.75 151.5 48.875] CT
0 0 1 RC
N
f-1057828618
f
GR
GS
[0.75 0 0 0.75 168.75 59.75] CT
/Helvetica 10.8 F
GS
[1 0 0 1 0 0] CT
0 4 moveto 
1 -1 scale
(Performance) t 
GR
GR
GS
[0.75 0 0 0.75 0 -0.25] CT
1 0 1 RC
1 LJ
0.667 LW
N
182 80 M
222 80 L
S
GR
GS
[0.75 0 0 0.75 151.5 63.6875] CT
1 0 1 RC
N
f-401390582
f
GR
GS
[0.75 0 0 0.75 151.5 63.6875] CT
1 0 1 RC
10.0 ML
0.667 LW
N
-4 0 M
4 0 L
S
GR
GS
[0.75 0 0 0.75 151.5 55.8125] CT
1 0 1 RC
N
f-401390582
f
GR
GS
[0.75 0 0 0.75 151.5 55.8125] CT
1 0 1 RC
10.0 ML
0.667 LW
N
-4 0 M
4 0 L
S
GR
GS
[0.75 0 0 0.75 0 -0.25] CT
1 0 1 RC
1 LJ
0.667 LW
N
202 85.25 M
202 74.75 L
S
GR
GS
[0.75 0 0 0.75 151.5 59.75] CT
1 0 1 RC
N
f-1057828618
f
GR
GS
[0.75 0 0 0.75 0 -0.25] CT
0.149 GC
10.0 ML
0.667 LW
N
178 89 M
178 42 L
300 42 L
300 89 L
cp
S
GR
%%Trailer
%%Pages: 1
%%EOF
