%!PS-Adobe-3.0 EPSF-3.0
%%Creator: (MATLAB, The Mathworks, Inc. Version 9.10.0.1649659 \(R2021a\) Update 1. Operating System: Windows 10)
%%Title: (C:/Users/sjenks/Box/APLab-Projects/Sam/ReinigerAnalysis/VSS2023 Figures/VMAprlcdc_CDperf_20.eps)
%%CreationDate: 2022-12-05T14:02:49
%%Pages: (atend)
%%BoundingBox:     0     0   289   315
%%LanguageLevel: 3
%%EndComments
%%BeginProlog
%%BeginResource: procset (Apache XML Graphics Std ProcSet) 1.2 0
%%Version: 1.2 0
%%Copyright: (Copyright 2001-2003,2010 The Apache Software Foundation. License terms: http://www.apache.org/licenses/LICENSE-2.0)
/bd{bind def}bind def
/ld{load def}bd
/GR/grestore ld
/GS/gsave ld
/RM/rmoveto ld
/C/curveto ld
/t/show ld
/L/lineto ld
/ML/setmiterlimit ld
/CT/concat ld
/f/fill ld
/N/newpath ld
/S/stroke ld
/CC/setcmykcolor ld
/A/ashow ld
/cp/closepath ld
/RC/setrgbcolor ld
/LJ/setlinejoin ld
/GC/setgray ld
/LW/setlinewidth ld
/M/moveto ld
/re {4 2 roll M
1 index 0 rlineto
0 exch rlineto
neg 0 rlineto
cp } bd
/_ctm matrix def
/_tm matrix def
/BT { _ctm currentmatrix pop matrix _tm copy pop 0 0 moveto } bd
/ET { _ctm setmatrix } bd
/iTm { _ctm setmatrix _tm concat } bd
/Tm { _tm astore pop iTm 0 0 moveto } bd
/ux 0.0 def
/uy 0.0 def
/F {
  /Tp exch def
  /Tf exch def
  Tf findfont Tp scalefont setfont
  /cf Tf def  /cs Tp def
} bd
/ULS {currentpoint /uy exch def /ux exch def} bd
/ULE {
  /Tcx currentpoint pop def
  gsave
  newpath
  cf findfont cs scalefont dup
  /FontMatrix get 0 get /Ts exch def /FontInfo get dup
  /UnderlinePosition get Ts mul /To exch def
  /UnderlineThickness get Ts mul /Tt exch def
  ux uy To add moveto  Tcx uy To add lineto
  Tt setlinewidth stroke
  grestore
} bd
/OLE {
  /Tcx currentpoint pop def
  gsave
  newpath
  cf findfont cs scalefont dup
  /FontMatrix get 0 get /Ts exch def /FontInfo get dup
  /UnderlinePosition get Ts mul /To exch def
  /UnderlineThickness get Ts mul /Tt exch def
  ux uy To add cs add moveto Tcx uy To add cs add lineto
  Tt setlinewidth stroke
  grestore
} bd
/SOE {
  /Tcx currentpoint pop def
  gsave
  newpath
  cf findfont cs scalefont dup
  /FontMatrix get 0 get /Ts exch def /FontInfo get dup
  /UnderlinePosition get Ts mul /To exch def
  /UnderlineThickness get Ts mul /Tt exch def
  ux uy To add cs 10 mul 26 idiv add moveto Tcx uy To add cs 10 mul 26 idiv add lineto
  Tt setlinewidth stroke
  grestore
} bd
/QT {
/Y22 exch store
/X22 exch store
/Y21 exch store
/X21 exch store
currentpoint
/Y21 load 2 mul add 3 div exch
/X21 load 2 mul add 3 div exch
/X21 load 2 mul /X22 load add 3 div
/Y21 load 2 mul /Y22 load add 3 div
/X22 load /Y22 load curveto
} bd
/SSPD {
dup length /d exch dict def
{
/v exch def
/k exch def
currentpagedevice k known {
/cpdv currentpagedevice k get def
v cpdv ne {
/upd false def
/nullv v type /nulltype eq def
/nullcpdv cpdv type /nulltype eq def
nullv nullcpdv or
{
/upd true def
} {
/sametype v type cpdv type eq def
sametype {
v type /arraytype eq {
/vlen v length def
/cpdvlen cpdv length def
vlen cpdvlen eq {
0 1 vlen 1 sub {
/i exch def
/obj v i get def
/cpdobj cpdv i get def
obj cpdobj ne {
/upd true def
exit
} if
} for
} {
/upd true def
} ifelse
} {
v type /dicttype eq {
v {
/dv exch def
/dk exch def
/cpddv cpdv dk get def
dv cpddv ne {
/upd true def
exit
} if
} forall
} {
/upd true def
} ifelse
} ifelse
} if
} ifelse
upd true eq {
d k v put
} if
} if
} if
} forall
d length 0 gt {
d setpagedevice
} if
} bd
/RE { % /NewFontName [NewEncodingArray] /FontName RE -
  findfont dup length dict begin
  {
    1 index /FID ne
    {def} {pop pop} ifelse
  } forall
  /Encoding exch def
  /FontName 1 index def
  currentdict definefont pop
  end
} bind def
%%EndResource
%%BeginResource: procset (Apache XML Graphics EPS ProcSet) 1.0 0
%%Version: 1.0 0
%%Copyright: (Copyright 2002-2003 The Apache Software Foundation. License terms: http://www.apache.org/licenses/LICENSE-2.0)
/BeginEPSF { %def
/b4_Inc_state save def         % Save state for cleanup
/dict_count countdictstack def % Count objects on dict stack
/op_count count 1 sub def      % Count objects on operand stack
userdict begin                 % Push userdict on dict stack
/showpage { } def              % Redefine showpage, { } = null proc
0 setgray 0 setlinecap         % Prepare graphics state
1 setlinewidth 0 setlinejoin
10 setmiterlimit [ ] 0 setdash newpath
/languagelevel where           % If level not equal to 1 then
{pop languagelevel             % set strokeadjust and
1 ne                           % overprint to their defaults.
{false setstrokeadjust false setoverprint
} if
} if
} bd
/EndEPSF { %def
count op_count sub {pop} repeat            % Clean up stacks
countdictstack dict_count sub {end} repeat
b4_Inc_state restore
} bd
%%EndResource
%FOPBeginFontDict
%%IncludeResource: font Courier-Oblique
%%IncludeResource: font Courier-BoldOblique
%%IncludeResource: font Courier-Bold
%%IncludeResource: font ZapfDingbats
%%IncludeResource: font Symbol
%%IncludeResource: font Helvetica
%%IncludeResource: font Helvetica-Oblique
%%IncludeResource: font Helvetica-Bold
%%IncludeResource: font Helvetica-BoldOblique
%%IncludeResource: font Times-Roman
%%IncludeResource: font Times-Italic
%%IncludeResource: font Times-Bold
%%IncludeResource: font Times-BoldItalic
%%IncludeResource: font Courier
%FOPEndFontDict
%%BeginResource: encoding WinAnsiEncoding
/WinAnsiEncoding [
/.notdef /.notdef /.notdef /.notdef /.notdef
/.notdef /.notdef /.notdef /.notdef /.notdef
/.notdef /.notdef /.notdef /.notdef /.notdef
/.notdef /.notdef /.notdef /.notdef /.notdef
/.notdef /.notdef /.notdef /.notdef /.notdef
/.notdef /.notdef /.notdef /.notdef /.notdef
/.notdef /.notdef /space /exclam /quotedbl
/numbersign /dollar /percent /ampersand /quotesingle
/parenleft /parenright /asterisk /plus /comma
/hyphen /period /slash /zero /one
/two /three /four /five /six
/seven /eight /nine /colon /semicolon
/less /equal /greater /question /at
/A /B /C /D /E
/F /G /H /I /J
/K /L /M /N /O
/P /Q /R /S /T
/U /V /W /X /Y
/Z /bracketleft /backslash /bracketright /asciicircum
/underscore /quoteleft /a /b /c
/d /e /f /g /h
/i /j /k /l /m
/n /o /p /q /r
/s /t /u /v /w
/x /y /z /braceleft /bar
/braceright /asciitilde /bullet /Euro /bullet
/quotesinglbase /florin /quotedblbase /ellipsis /dagger
/daggerdbl /circumflex /perthousand /Scaron /guilsinglleft
/OE /bullet /Zcaron /bullet /bullet
/quoteleft /quoteright /quotedblleft /quotedblright /bullet
/endash /emdash /asciitilde /trademark /scaron
/guilsinglright /oe /bullet /zcaron /Ydieresis
/space /exclamdown /cent /sterling /currency
/yen /brokenbar /section /dieresis /copyright
/ordfeminine /guillemotleft /logicalnot /sfthyphen /registered
/macron /degree /plusminus /twosuperior /threesuperior
/acute /mu /paragraph /middot /cedilla
/onesuperior /ordmasculine /guillemotright /onequarter /onehalf
/threequarters /questiondown /Agrave /Aacute /Acircumflex
/Atilde /Adieresis /Aring /AE /Ccedilla
/Egrave /Eacute /Ecircumflex /Edieresis /Igrave
/Iacute /Icircumflex /Idieresis /Eth /Ntilde
/Ograve /Oacute /Ocircumflex /Otilde /Odieresis
/multiply /Oslash /Ugrave /Uacute /Ucircumflex
/Udieresis /Yacute /Thorn /germandbls /agrave
/aacute /acircumflex /atilde /adieresis /aring
/ae /ccedilla /egrave /eacute /ecircumflex
/edieresis /igrave /iacute /icircumflex /idieresis
/eth /ntilde /ograve /oacute /ocircumflex
/otilde /odieresis /divide /oslash /ugrave
/uacute /ucircumflex /udieresis /yacute /thorn
/ydieresis
] def
%%EndResource
%FOPBeginFontReencode
/Courier-Oblique findfont
dup length dict begin
  {1 index /FID ne {def} {pop pop} ifelse} forall
  /Encoding WinAnsiEncoding def
  currentdict
end
/Courier-Oblique exch definefont pop
/Courier-BoldOblique findfont
dup length dict begin
  {1 index /FID ne {def} {pop pop} ifelse} forall
  /Encoding WinAnsiEncoding def
  currentdict
end
/Courier-BoldOblique exch definefont pop
/Courier-Bold findfont
dup length dict begin
  {1 index /FID ne {def} {pop pop} ifelse} forall
  /Encoding WinAnsiEncoding def
  currentdict
end
/Courier-Bold exch definefont pop
/Helvetica findfont
dup length dict begin
  {1 index /FID ne {def} {pop pop} ifelse} forall
  /Encoding WinAnsiEncoding def
  currentdict
end
/Helvetica exch definefont pop
/Helvetica-Oblique findfont
dup length dict begin
  {1 index /FID ne {def} {pop pop} ifelse} forall
  /Encoding WinAnsiEncoding def
  currentdict
end
/Helvetica-Oblique exch definefont pop
/Helvetica-Bold findfont
dup length dict begin
  {1 index /FID ne {def} {pop pop} ifelse} forall
  /Encoding WinAnsiEncoding def
  currentdict
end
/Helvetica-Bold exch definefont pop
/Helvetica-BoldOblique findfont
dup length dict begin
  {1 index /FID ne {def} {pop pop} ifelse} forall
  /Encoding WinAnsiEncoding def
  currentdict
end
/Helvetica-BoldOblique exch definefont pop
/Times-Roman findfont
dup length dict begin
  {1 index /FID ne {def} {pop pop} ifelse} forall
  /Encoding WinAnsiEncoding def
  currentdict
end
/Times-Roman exch definefont pop
/Times-Italic findfont
dup length dict begin
  {1 index /FID ne {def} {pop pop} ifelse} forall
  /Encoding WinAnsiEncoding def
  currentdict
end
/Times-Italic exch definefont pop
/Times-Bold findfont
dup length dict begin
  {1 index /FID ne {def} {pop pop} ifelse} forall
  /Encoding WinAnsiEncoding def
  currentdict
end
/Times-Bold exch definefont pop
/Times-BoldItalic findfont
dup length dict begin
  {1 index /FID ne {def} {pop pop} ifelse} forall
  /Encoding WinAnsiEncoding def
  currentdict
end
/Times-BoldItalic exch definefont pop
/Courier findfont
dup length dict begin
  {1 index /FID ne {def} {pop pop} ifelse} forall
  /Encoding WinAnsiEncoding def
  currentdict
end
/Courier exch definefont pop
%FOPEndFontReencode
%%EndProlog
%%Page: 1 1
%%PageBoundingBox: 0 0 289 315
%%BeginPageSetup
[1 0 0 -1 0 315] CT
%%EndPageSetup
GS
[0.75 0 0 0.75 0 0] CT
1 GC
N
0 0 385 420 re
f
GR
GS
[0.75 0 0 0.75 0 0] CT
1 GC
N
0 0 385 420 re
f
GR
GS
[0.75 0 0 0.75 0 0] CT
1 GC
N
58 374 M
331 374 L
331 31 L
58 31 L
cp
f
GR
GS
[0.75 0 0 0.75 0 0] CT
0.149 GC
2 setlinecap
1 LJ
0.667 LW
N
58 374 M
331 374 L
S
GR
GS
[0.75 0 0 0.75 0 0] CT
0.149 GC
2 setlinecap
1 LJ
0.667 LW
N
58 31 M
331 31 L
S
GR
GS
[0.75 0 0 0.75 0 0] CT
0.149 GC
2 setlinecap
1 LJ
0.667 LW
N
103.5 374 M
103.5 370.57 L
S
GR
GS
[0.75 0 0 0.75 0 0] CT
0.149 GC
2 setlinecap
1 LJ
0.667 LW
N
285.5 374 M
285.5 370.57 L
S
GR
GS
[0.75 0 0 0.75 0 0] CT
0.149 GC
2 setlinecap
1 LJ
0.667 LW
N
103.5 31 M
103.5 34.43 L
S
GR
GS
[0.75 0 0 0.75 0 0] CT
0.149 GC
2 setlinecap
1 LJ
0.667 LW
N
285.5 31 M
285.5 34.43 L
S
GR
GS
[0.75 0 0 0.75 77.625 284.50001] CT
0.149 GC
/Helvetica 13.333 F
GS
[1 0 0 1 0 0] CT
-51.5 14 moveto 
1 -1 scale
(Superior/lowerVF) t 
GR
GR
GS
[0.75 0 0 0.75 214.125 284.50001] CT
0.149 GC
/Helvetica 13.333 F
GS
[1 0 0 1 0 0] CT
-49.5 14 moveto 
1 -1 scale
(Inferior/UpperVF) t 
GR
GR
GS
[0.75 0 0 0.75 0 0] CT
0 1 0 RC
2 setlinecap
1 LJ
0.667 LW
N
58 374 M
58 31 L
S
GR
GS
[0.75 0 0 0.75 0 0] CT
0 1 0 RC
2 setlinecap
1 LJ
0.667 LW
N
58 374 M
61.43 374 L
S
GR
GS
[0.75 0 0 0.75 0 0] CT
0 1 0 RC
2 setlinecap
1 LJ
0.667 LW
N
58 331.125 M
61.43 331.125 L
S
GR
GS
[0.75 0 0 0.75 0 0] CT
0 1 0 RC
2 setlinecap
1 LJ
0.667 LW
N
58 288.25 M
61.43 288.25 L
S
GR
GS
[0.75 0 0 0.75 0 0] CT
0 1 0 RC
2 setlinecap
1 LJ
0.667 LW
N
58 245.375 M
61.43 245.375 L
S
GR
GS
[0.75 0 0 0.75 0 0] CT
0 1 0 RC
2 setlinecap
1 LJ
0.667 LW
N
58 202.5 M
61.43 202.5 L
S
GR
GS
[0.75 0 0 0.75 0 0] CT
0 1 0 RC
2 setlinecap
1 LJ
0.667 LW
N
58 159.625 M
61.43 159.625 L
S
GR
GS
[0.75 0 0 0.75 0 0] CT
0 1 0 RC
2 setlinecap
1 LJ
0.667 LW
N
58 116.75 M
61.43 116.75 L
S
GR
GS
[0.75 0 0 0.75 0 0] CT
0 1 0 RC
2 setlinecap
1 LJ
0.667 LW
N
58 73.875 M
61.43 73.875 L
S
GR
GS
[0.75 0 0 0.75 0 0] CT
0 1 0 RC
2 setlinecap
1 LJ
0.667 LW
N
58 31 M
61.43 31 L
S
GR
GS
[0.75 0 0 0.75 39.5 280.5] CT
0 1 0 RC
/Helvetica 13.333 F
GS
[1 0 0 1 0 0] CT
-19 5.5 moveto 
1 -1 scale
(0.8) t 
GR
GR
GS
[0.75 0 0 0.75 39.5 248.34375] CT
0 1 0 RC
/Helvetica 13.333 F
GS
[1 0 0 1 0 0] CT
-26 5.5 moveto 
1 -1 scale
(0.85) t 
GR
GR
GS
[0.75 0 0 0.75 39.5 216.1875] CT
0 1 0 RC
/Helvetica 13.333 F
GS
[1 0 0 1 0 0] CT
-19 5.5 moveto 
1 -1 scale
(0.9) t 
GR
GR
GS
[0.75 0 0 0.75 39.5 184.03125] CT
0 1 0 RC
/Helvetica 13.333 F
GS
[1 0 0 1 0 0] CT
-26 5.5 moveto 
1 -1 scale
(0.95) t 
GR
GR
GS
[0.75 0 0 0.75 39.5 151.875] CT
0 1 0 RC
/Helvetica 13.333 F
GS
[1 0 0 1 0 0] CT
-8 5.5 moveto 
1 -1 scale
(1) t 
GR
GR
GS
[0.75 0 0 0.75 39.5 119.71875] CT
0 1 0 RC
/Helvetica 13.333 F
GS
[1 0 0 1 0 0] CT
-26 5.5 moveto 
1 -1 scale
(1.05) t 
GR
GR
GS
[0.75 0 0 0.75 39.5 87.5625] CT
0 1 0 RC
/Helvetica 13.333 F
GS
[1 0 0 1 0 0] CT
-19 5.5 moveto 
1 -1 scale
(1.1) t 
GR
GR
GS
[0.75 0 0 0.75 39.5 55.40625] CT
0 1 0 RC
/Helvetica 13.333 F
GS
[1 0 0 1 0 0] CT
-26 5.5 moveto 
1 -1 scale
(1.15) t 
GR
GR
GS
[0.75 0 0 0.75 39.5 23.25] CT
0 1 0 RC
/Helvetica 13.333 F
GS
[1 0 0 1 0 0] CT
-19 5.5 moveto 
1 -1 scale
(1.2) t 
GR
GR
GS
[0 -0.75 0.75 0 14.25 217.5] CT
0 1 0 RC
/Helvetica 14.667 F
GS
[1 0 0 1 0 0] CT
0 0 moveto 
1 -1 scale
(Cone density \(cones/deg) t 
GR
GR
GS
[0 -0.75 0.75 0 9 95.25] CT
0 1 0 RC
/Helvetica 11.733 F
GS
[1 0 0 1 0 0] CT
0 0 moveto 
1 -1 scale
(2) t 
GR
GR
GS
[0 -0.75 0.75 0 14.25 90] CT
0 1 0 RC
/Helvetica 14.667 F
GS
[1 0 0 1 0 0] CT
0 0 moveto 
1 -1 scale
(\)) t 
GR
GR
GS
[0.75 0 0 0.75 43.5 21] CT
0 1 0 RC
N
1.906 -0.375 M
1.906 -0.469 1.969 -0.563 QT
4.672 -3.25 L
1.969 -5.953 L
1.906 -6.016 1.906 -6.125 QT
1.906 -6.219 1.984 -6.305 QT
2.063 -6.391 2.172 -6.391 QT
2.266 -6.391 2.375 -6.297 QT
5.063 -3.609 L
7.734 -6.297 L
7.844 -6.391 7.922 -6.391 QT
8.031 -6.391 8.109 -6.313 QT
8.188 -6.234 8.188 -6.125 QT
8.188 -6.016 8.125 -5.953 QT
5.422 -3.25 L
8.125 -0.563 L
8.188 -0.469 8.188 -0.375 QT
8.188 -0.266 8.109 -0.188 QT
8.031 -0.109 7.922 -0.109 QT
7.828 -0.109 7.734 -0.203 QT
5.063 -2.891 L
2.375 -0.203 L
2.266 -0.109 2.172 -0.109 QT
2.063 -0.109 1.984 -0.195 QT
1.906 -0.281 1.906 -0.375 QT
cp
f
GR
GS
[0.75 0 0 0.75 51.75 21] CT
0 1 0 RC
/Helvetica 13.333 F
GS
[1 0 0 1 0 0] CT
0 0 moveto 
1 -1 scale
(10) t 
GR
GR
GS
[0.75 0 0 0.75 63 16.5] CT
0 1 0 RC
/Helvetica 10.667 F
GS
[1 0 0 1 0 0] CT
0 0 moveto 
1 -1 scale
(4) t 
GR
GR
GS
[0.75 0 0 0.75 0 0] CT
1 0 1 RC
2 setlinecap
1 LJ
0.667 LW
N
331 374 M
331 31 L
S
GR
GS
[0.75 0 0 0.75 0 0] CT
1 0 1 RC
2 setlinecap
1 LJ
0.667 LW
N
331 374 M
327.57 374 L
S
GR
GS
[0.75 0 0 0.75 0 0] CT
1 0 1 RC
2 setlinecap
1 LJ
0.667 LW
N
331 339.7 M
327.57 339.7 L
S
GR
GS
[0.75 0 0 0.75 0 0] CT
1 0 1 RC
2 setlinecap
1 LJ
0.667 LW
N
331 305.4 M
327.57 305.4 L
S
GR
GS
[0.75 0 0 0.75 0 0] CT
1 0 1 RC
2 setlinecap
1 LJ
0.667 LW
N
331 271.1 M
327.57 271.1 L
S
GR
GS
[0.75 0 0 0.75 0 0] CT
1 0 1 RC
2 setlinecap
1 LJ
0.667 LW
N
331 236.8 M
327.57 236.8 L
S
GR
GS
[0.75 0 0 0.75 0 0] CT
1 0 1 RC
2 setlinecap
1 LJ
0.667 LW
N
331 202.5 M
327.57 202.5 L
S
GR
GS
[0.75 0 0 0.75 0 0] CT
1 0 1 RC
2 setlinecap
1 LJ
0.667 LW
N
331 168.2 M
327.57 168.2 L
S
GR
GS
[0.75 0 0 0.75 0 0] CT
1 0 1 RC
2 setlinecap
1 LJ
0.667 LW
N
331 133.9 M
327.57 133.9 L
S
GR
GS
[0.75 0 0 0.75 0 0] CT
1 0 1 RC
2 setlinecap
1 LJ
0.667 LW
N
331 99.6 M
327.57 99.6 L
S
GR
GS
[0.75 0 0 0.75 0 0] CT
1 0 1 RC
2 setlinecap
1 LJ
0.667 LW
N
331 65.3 M
327.57 65.3 L
S
GR
GS
[0.75 0 0 0.75 0 0] CT
1 0 1 RC
2 setlinecap
1 LJ
0.667 LW
N
331 31 M
327.57 31 L
S
GR
GS
[0.75 0 0 0.75 252.25001 280.5] CT
1 0 1 RC
/Helvetica 13.333 F
GS
[1 0 0 1 0 0] CT
0 5.5 moveto 
1 -1 scale
(0.5) t 
GR
GR
GS
[0.75 0 0 0.75 252.25001 254.77499] CT
1 0 1 RC
/Helvetica 13.333 F
GS
[1 0 0 1 0 0] CT
0 5.5 moveto 
1 -1 scale
(0.55) t 
GR
GR
GS
[0.75 0 0 0.75 252.25001 229.05] CT
1 0 1 RC
/Helvetica 13.333 F
GS
[1 0 0 1 0 0] CT
0 5.5 moveto 
1 -1 scale
(0.6) t 
GR
GR
GS
[0.75 0 0 0.75 252.25001 203.325] CT
1 0 1 RC
/Helvetica 13.333 F
GS
[1 0 0 1 0 0] CT
0 5.5 moveto 
1 -1 scale
(0.65) t 
GR
GR
GS
[0.75 0 0 0.75 252.25001 177.6] CT
1 0 1 RC
/Helvetica 13.333 F
GS
[1 0 0 1 0 0] CT
0 5.5 moveto 
1 -1 scale
(0.7) t 
GR
GR
GS
[0.75 0 0 0.75 252.25001 151.875] CT
1 0 1 RC
/Helvetica 13.333 F
GS
[1 0 0 1 0 0] CT
0 5.5 moveto 
1 -1 scale
(0.75) t 
GR
GR
GS
[0.75 0 0 0.75 252.25001 126.15] CT
1 0 1 RC
/Helvetica 13.333 F
GS
[1 0 0 1 0 0] CT
0 5.5 moveto 
1 -1 scale
(0.8) t 
GR
GR
GS
[0.75 0 0 0.75 252.25001 100.42498] CT
1 0 1 RC
/Helvetica 13.333 F
GS
[1 0 0 1 0 0] CT
0 5.5 moveto 
1 -1 scale
(0.85) t 
GR
GR
GS
[0.75 0 0 0.75 252.25001 74.70001] CT
1 0 1 RC
/Helvetica 13.333 F
GS
[1 0 0 1 0 0] CT
0 5.5 moveto 
1 -1 scale
(0.9) t 
GR
GR
GS
[0.75 0 0 0.75 252.25001 48.97501] CT
1 0 1 RC
/Helvetica 13.333 F
GS
[1 0 0 1 0 0] CT
0 5.5 moveto 
1 -1 scale
(0.95) t 
GR
GR
GS
[0.75 0 0 0.75 252.25001 23.25] CT
1 0 1 RC
/Helvetica 13.333 F
GS
[1 0 0 1 0 0] CT
0 5.5 moveto 
1 -1 scale
(1) t 
GR
GR
GS
[0 -0.75 0.75 0 274.75001 151.87487] CT
1 0 1 RC
/Helvetica 14.667 F
GS
[1 0 0 1 0 0] CT
-62.5 15 moveto 
1 -1 scale
(Proportion Correct\)) t 
GR
GR
GS
[0.75 0 0 0.75 0 0] CT
N
58 31 M
331 31 L
331 374 L
58 374 L
58 31 L
cp
clip
0 1 0 RC
1 LJ
0.667 LW
N
103.5 238.698 M
103.5 318.729 L
S
GR
GS
[0.75 0 0 0.75 0 0] CT
N
58 31 M
331 31 L
331 374 L
58 374 L
58 31 L
cp
clip
0 1 0 RC
1 LJ
0.667 LW
N
285.5 197.244 M
285.5 314.4 L
S
GR
GS
[0.75 0 0 0.75 0 0] CT
N
58 31 M
331 31 L
331 374 L
58 374 L
58 31 L
cp
clip
0 1 0 RC
1 LJ
0.667 LW
N
103.5 238.698 M
103.5 158.668 L
S
GR
GS
[0.75 0 0 0.75 0 0] CT
N
58 31 M
331 31 L
331 374 L
58 374 L
58 31 L
cp
clip
0 1 0 RC
1 LJ
0.667 LW
N
285.5 197.244 M
285.5 80.088 L
S
GR
GS
[0.75 0 0 0.75 0 0] CT
0 1 0 RC
1 LJ
0.667 LW
N
103.5 238.698 M
285.5 197.244 L
S
GR
GS
[0.75 0 0 0.75 77.625 179.02373] CT
0 1 0 RC
N
1.333 0 M
1.333 0.736 0.736 1.333 0 1.333 C
-0.736 1.333 -1.333 0.736 -1.333 0 C
-1.333 -0.736 -0.736 -1.333 0 -1.333 C
0.736 -1.333 1.333 -0.736 1.333 0 C
cp
f
GR
GS
[0.75 0 0 0.75 214.125 147.93272] CT
0 1 0 RC
N
/f-1057828618{1.333 0 M
1.333 0.736 0.736 1.333 0 1.333 C
-0.736 1.333 -1.333 0.736 -1.333 0 C
-1.333 -0.736 -0.736 -1.333 0 -1.333 C
0.736 -1.333 1.333 -0.736 1.333 0 C
cp}def
f-1057828618
f
GR
GS
[0.75 0 0 0.75 77.625 239.04646] CT
N
-45.5 -287.729 M
227.5 -287.729 L
227.5 55.271 L
-45.5 55.271 L
-45.5 -287.729 L
cp
clip
0 1 0 RC
N
-4 0 M
4 0 L
f
GR
GS
[0.75 0 0 0.75 77.625 239.04646] CT
N
-45.5 -287.729 M
227.5 -287.729 L
227.5 55.271 L
-45.5 55.271 L
-45.5 -287.729 L
cp
clip
0 1 0 RC
10.0 ML
0.667 LW
N
-4 0 M
4 0 L
S
GR
GS
[0.75 0 0 0.75 214.125 235.79986] CT
N
-227.5 -283.4 M
45.5 -283.4 L
45.5 59.6 L
-227.5 59.6 L
-227.5 -283.4 L
cp
clip
0 1 0 RC
N
/f-401390582{-4 0 M
4 0 L}def
f-401390582
f
GR
GS
[0.75 0 0 0.75 214.125 235.79986] CT
N
-227.5 -283.4 M
45.5 -283.4 L
45.5 59.6 L
-227.5 59.6 L
-227.5 -283.4 L
cp
clip
0 1 0 RC
10.0 ML
0.667 LW
N
-4 0 M
4 0 L
S
GR
GS
[0.75 0 0 0.75 77.625 119.00101] CT
N
-45.5 -127.668 M
227.5 -127.668 L
227.5 215.332 L
-45.5 215.332 L
-45.5 -127.668 L
cp
clip
0 1 0 RC
N
f-401390582
f
GR
GS
[0.75 0 0 0.75 77.625 119.00101] CT
N
-45.5 -127.668 M
227.5 -127.668 L
227.5 215.332 L
-45.5 215.332 L
-45.5 -127.668 L
cp
clip
0 1 0 RC
10.0 ML
0.667 LW
N
-4 0 M
4 0 L
S
GR
GS
[0.75 0 0 0.75 214.125 60.06564] CT
N
-227.5 -49.088 M
45.5 -49.088 L
45.5 293.912 L
-227.5 293.912 L
-227.5 -49.088 L
cp
clip
0 1 0 RC
N
f-401390582
f
GR
GS
[0.75 0 0 0.75 214.125 60.06564] CT
N
-227.5 -49.088 M
45.5 -49.088 L
45.5 293.912 L
-227.5 293.912 L
-227.5 -49.088 L
cp
clip
0 1 0 RC
10.0 ML
0.667 LW
N
-4 0 M
4 0 L
S
GR
GS
[0.75 0 0 0.75 0 0] CT
N
58 31 M
331 31 L
331 374 L
58 374 L
58 31 L
cp
clip
0 0 1 RC
1 LJ
0.667 LW
N
103.5 197.052 M
103.5 277.083 L
S
GR
GS
[0.75 0 0 0.75 0 0] CT
N
58 31 M
331 31 L
331 374 L
58 374 L
58 31 L
cp
clip
0 0 1 RC
1 LJ
0.667 LW
N
285.5 209.816 M
285.5 326.972 L
S
GR
GS
[0.75 0 0 0.75 0 0] CT
N
58 31 M
331 31 L
331 374 L
58 374 L
58 31 L
cp
clip
0 0 1 RC
1 LJ
0.667 LW
N
103.5 197.052 M
103.5 117.022 L
S
GR
GS
[0.75 0 0 0.75 0 0] CT
N
58 31 M
331 31 L
331 374 L
58 374 L
58 31 L
cp
clip
0 0 1 RC
1 LJ
0.667 LW
N
285.5 209.816 M
285.5 92.66 L
S
GR
GS
[0.75 0 0 0.75 0 0] CT
0 0 1 RC
1 LJ
0.667 LW
N
103.5 197.052 M
285.5 209.816 L
S
GR
GS
[0.75 0 0 0.75 77.625 147.78921] CT
0 0 1 RC
N
f-1057828618
f
GR
GS
[0.75 0 0 0.75 214.125 157.36179] CT
0 0 1 RC
N
f-1057828618
f
GR
GS
[0.75 0 0 0.75 77.625 207.81194] CT
N
-45.5 -246.083 M
227.5 -246.083 L
227.5 96.917 L
-45.5 96.917 L
-45.5 -246.083 L
cp
clip
0 0 1 RC
N
f-401390582
f
GR
GS
[0.75 0 0 0.75 77.625 207.81194] CT
N
-45.5 -246.083 M
227.5 -246.083 L
227.5 96.917 L
-45.5 96.917 L
-45.5 -246.083 L
cp
clip
0 0 1 RC
10.0 ML
0.667 LW
N
-4 0 M
4 0 L
S
GR
GS
[0.75 0 0 0.75 214.125 245.22887] CT
N
-227.5 -295.972 M
45.5 -295.972 L
45.5 47.028 L
-227.5 47.028 L
-227.5 -295.972 L
cp
clip
0 0 1 RC
N
f-401390582
f
GR
GS
[0.75 0 0 0.75 214.125 245.22887] CT
N
-227.5 -295.972 M
45.5 -295.972 L
45.5 47.028 L
-227.5 47.028 L
-227.5 -295.972 L
cp
clip
0 0 1 RC
10.0 ML
0.667 LW
N
-4 0 M
4 0 L
S
GR
GS
[0.75 0 0 0.75 77.625 87.76649] CT
N
-45.5 -86.022 M
227.5 -86.022 L
227.5 256.978 L
-45.5 256.978 L
-45.5 -86.022 L
cp
clip
0 0 1 RC
N
f-401390582
f
GR
GS
[0.75 0 0 0.75 77.625 87.76649] CT
N
-45.5 -86.022 M
227.5 -86.022 L
227.5 256.978 L
-45.5 256.978 L
-45.5 -86.022 L
cp
clip
0 0 1 RC
10.0 ML
0.667 LW
N
-4 0 M
4 0 L
S
GR
GS
[0.75 0 0 0.75 214.125 69.49464] CT
N
-227.5 -61.66 M
45.5 -61.66 L
45.5 281.34 L
-227.5 281.34 L
-227.5 -61.66 L
cp
clip
0 0 1 RC
N
f-401390582
f
GR
GS
[0.75 0 0 0.75 214.125 69.49464] CT
N
-227.5 -61.66 M
45.5 -61.66 L
45.5 281.34 L
-227.5 281.34 L
-227.5 -61.66 L
cp
clip
0 0 1 RC
10.0 ML
0.667 LW
N
-4 0 M
4 0 L
S
GR
GS
[0.75 0 0 0.75 0 0] CT
N
58 31 M
331 31 L
331 374 L
58 374 L
58 31 L
cp
clip
1 0 1 RC
1 LJ
0.667 LW
N
103.5 287.435 M
103.5 317.082 L
S
GR
GS
[0.75 0 0 0.75 0 0] CT
N
58 31 M
331 31 L
331 374 L
58 374 L
58 31 L
cp
clip
1 0 1 RC
1 LJ
0.667 LW
N
285.5 209.601 M
285.5 238.803 L
S
GR
GS
[0.75 0 0 0.75 0 0] CT
N
58 31 M
331 31 L
331 374 L
58 374 L
58 31 L
cp
clip
1 0 1 RC
1 LJ
0.667 LW
N
103.5 287.435 M
103.5 257.789 L
S
GR
GS
[0.75 0 0 0.75 0 0] CT
N
58 31 M
331 31 L
331 374 L
58 374 L
58 31 L
cp
clip
1 0 1 RC
1 LJ
0.667 LW
N
285.5 209.601 M
285.5 180.398 L
S
GR
GS
[0.75 0 0 0.75 0 0] CT
1 0 1 RC
1 LJ
0.667 LW
N
103.5 287.435 M
285.5 209.601 L
S
GR
GS
[0.75 0 0 0.75 77.625 215.57661] CT
1 0 1 RC
N
f-1057828618
f
GR
GS
[0.75 0 0 0.75 214.125 157.20041] CT
1 0 1 RC
N
f-1057828618
f
GR
GS
[0.75 0 0 0.75 77.625 237.81118] CT
N
-45.5 -286.082 M
227.5 -286.082 L
227.5 56.918 L
-45.5 56.918 L
-45.5 -286.082 L
cp
clip
1 0 1 RC
N
f-401390582
f
GR
GS
[0.75 0 0 0.75 77.625 237.81118] CT
N
-45.5 -286.082 M
227.5 -286.082 L
227.5 56.918 L
-45.5 56.918 L
-45.5 -286.082 L
cp
clip
1 0 1 RC
10.0 ML
0.667 LW
N
-4 0 M
4 0 L
S
GR
GS
[0.75 0 0 0.75 214.125 179.10239] CT
N
-227.5 -207.803 M
45.5 -207.803 L
45.5 135.197 L
-227.5 135.197 L
-227.5 -207.803 L
cp
clip
1 0 1 RC
N
f-401390582
f
GR
GS
[0.75 0 0 0.75 214.125 179.10239] CT
N
-227.5 -207.803 M
45.5 -207.803 L
45.5 135.197 L
-227.5 135.197 L
-227.5 -207.803 L
cp
clip
1 0 1 RC
10.0 ML
0.667 LW
N
-4 0 M
4 0 L
S
GR
GS
[0.75 0 0 0.75 77.625 193.34203] CT
N
-45.5 -226.789 M
227.5 -226.789 L
227.5 116.211 L
-45.5 116.211 L
-45.5 -226.789 L
cp
clip
1 0 1 RC
N
f-401390582
f
GR
GS
[0.75 0 0 0.75 77.625 193.34203] CT
N
-45.5 -226.789 M
227.5 -226.789 L
227.5 116.211 L
-45.5 116.211 L
-45.5 -226.789 L
cp
clip
1 0 1 RC
10.0 ML
0.667 LW
N
-4 0 M
4 0 L
S
GR
GS
[0.75 0 0 0.75 214.125 135.29845] CT
N
-227.5 -149.398 M
45.5 -149.398 L
45.5 193.602 L
-227.5 193.602 L
-227.5 -149.398 L
cp
clip
1 0 1 RC
N
f-401390582
f
GR
GS
[0.75 0 0 0.75 214.125 135.29845] CT
N
-227.5 -149.398 M
45.5 -149.398 L
45.5 193.602 L
-227.5 193.602 L
-227.5 -149.398 L
cp
clip
1 0 1 RC
10.0 ML
0.667 LW
N
-4 0 M
4 0 L
S
GR
GS
[0.75 0 0 0.75 0 0] CT
1 GC
N
/f2114955150{320 95 M
320 42 L
190 42 L
190 95 L
cp}def
f2114955150
f
GR
GS
[0.75 0 0 0.75 177.75 39] CT
/Helvetica 12 F
GS
[1 0 0 1 0 0] CT
0 5 moveto 
1 -1 scale
(PRL Centered) t 
GR
GR
GS
[0.75 0 0 0.75 0 0] CT
0 1 0 RC
1 LJ
0.667 LW
N
194 52 M
234 52 L
S
GR
GS
[0.75 0 0 0.75 160.5 43.5] CT
0 1 0 RC
N
f-401390582
f
GR
GS
[0.75 0 0 0.75 160.5 43.5] CT
0 1 0 RC
10.0 ML
0.667 LW
N
-4 0 M
4 0 L
S
GR
GS
[0.75 0 0 0.75 160.5 34.5] CT
0 1 0 RC
N
f-401390582
f
GR
GS
[0.75 0 0 0.75 160.5 34.5] CT
0 1 0 RC
10.0 ML
0.667 LW
N
-4 0 M
4 0 L
S
GR
GS
[0.75 0 0 0.75 0 0] CT
0 1 0 RC
1 LJ
0.667 LW
N
214 58 M
214 46 L
S
GR
GS
[0.75 0 0 0.75 160.5 39] CT
0 1 0 RC
N
f-1057828618
f
GR
GS
[0.75 0 0 0.75 177.75 51.375] CT
/Helvetica 12 F
GS
[1 0 0 1 0 0] CT
0 5 moveto 
1 -1 scale
(CDC Centered) t 
GR
GR
GS
[0.75 0 0 0.75 0 0] CT
0 0 1 RC
1 LJ
0.667 LW
N
194 68.5 M
234 68.5 L
S
GR
GS
[0.75 0 0 0.75 160.5 55.875] CT
0 0 1 RC
N
f-401390582
f
GR
GS
[0.75 0 0 0.75 160.5 55.875] CT
0 0 1 RC
10.0 ML
0.667 LW
N
-4 0 M
4 0 L
S
GR
GS
[0.75 0 0 0.75 160.5 46.875] CT
0 0 1 RC
N
f-401390582
f
GR
GS
[0.75 0 0 0.75 160.5 46.875] CT
0 0 1 RC
10.0 ML
0.667 LW
N
-4 0 M
4 0 L
S
GR
GS
[0.75 0 0 0.75 0 0] CT
0 0 1 RC
1 LJ
0.667 LW
N
214 74.5 M
214 62.5 L
S
GR
GS
[0.75 0 0 0.75 160.5 51.375] CT
0 0 1 RC
N
f-1057828618
f
GR
GS
[0.75 0 0 0.75 177.75 63.75] CT
/Helvetica 12 F
GS
[1 0 0 1 0 0] CT
0 5 moveto 
1 -1 scale
(Performance) t 
GR
GR
GS
[0.75 0 0 0.75 0 0] CT
1 0 1 RC
1 LJ
0.667 LW
N
194 85 M
234 85 L
S
GR
GS
[0.75 0 0 0.75 160.5 68.25] CT
1 0 1 RC
N
f-401390582
f
GR
GS
[0.75 0 0 0.75 160.5 68.25] CT
1 0 1 RC
10.0 ML
0.667 LW
N
-4 0 M
4 0 L
S
GR
GS
[0.75 0 0 0.75 160.5 59.25] CT
1 0 1 RC
N
f-401390582
f
GR
GS
[0.75 0 0 0.75 160.5 59.25] CT
1 0 1 RC
10.0 ML
0.667 LW
N
-4 0 M
4 0 L
S
GR
GS
[0.75 0 0 0.75 0 0] CT
1 0 1 RC
1 LJ
0.667 LW
N
214 91 M
214 79 L
S
GR
GS
[0.75 0 0 0.75 160.5 63.75] CT
1 0 1 RC
N
f-1057828618
f
GR
GS
[0.75 0 0 0.75 0 0] CT
0.149 GC
10.0 ML
0.667 LW
N
190 95 M
190 42 L
320 42 L
320 95 L
cp
S
GR
%%Trailer
%%Pages: 1
%%EOF
