%!PS-Adobe-3.0 EPSF-3.0
%%Creator: (MATLAB, The Mathworks, Inc. Version 9.10.0.1649659 \(R2021a\) Update 1. Operating System: Windows 10)
%%Title: C:/Users/sjenks/Desktop/research/rochester/AO/adaptiveoptics/ConeDesity/ReinigerConeDensity/Figures/VM_CDdist.eps
%%CreationDate: 2022-10-18T13:52:46
%%Pages: (atend)
%%BoundingBox:     0     0   420   315
%%LanguageLevel: 3
%%EndComments
%%BeginProlog
%%BeginResource: procset (Apache XML Graphics Std ProcSet) 1.2 0
%%Version: 1.2 0
%%Copyright: (Copyright 2001-2003,2010 The Apache Software Foundation. License terms: http://www.apache.org/licenses/LICENSE-2.0)
/bd{bind def}bind def
/ld{load def}bd
/GR/grestore ld
/GS/gsave ld
/RM/rmoveto ld
/C/curveto ld
/t/show ld
/L/lineto ld
/ML/setmiterlimit ld
/CT/concat ld
/f/fill ld
/N/newpath ld
/S/stroke ld
/CC/setcmykcolor ld
/A/ashow ld
/cp/closepath ld
/RC/setrgbcolor ld
/LJ/setlinejoin ld
/GC/setgray ld
/LW/setlinewidth ld
/M/moveto ld
/re {4 2 roll M
1 index 0 rlineto
0 exch rlineto
neg 0 rlineto
cp } bd
/_ctm matrix def
/_tm matrix def
/BT { _ctm currentmatrix pop matrix _tm copy pop 0 0 moveto } bd
/ET { _ctm setmatrix } bd
/iTm { _ctm setmatrix _tm concat } bd
/Tm { _tm astore pop iTm 0 0 moveto } bd
/ux 0.0 def
/uy 0.0 def
/F {
  /Tp exch def
  /Tf exch def
  Tf findfont Tp scalefont setfont
  /cf Tf def  /cs Tp def
} bd
/ULS {currentpoint /uy exch def /ux exch def} bd
/ULE {
  /Tcx currentpoint pop def
  gsave
  newpath
  cf findfont cs scalefont dup
  /FontMatrix get 0 get /Ts exch def /FontInfo get dup
  /UnderlinePosition get Ts mul /To exch def
  /UnderlineThickness get Ts mul /Tt exch def
  ux uy To add moveto  Tcx uy To add lineto
  Tt setlinewidth stroke
  grestore
} bd
/OLE {
  /Tcx currentpoint pop def
  gsave
  newpath
  cf findfont cs scalefont dup
  /FontMatrix get 0 get /Ts exch def /FontInfo get dup
  /UnderlinePosition get Ts mul /To exch def
  /UnderlineThickness get Ts mul /Tt exch def
  ux uy To add cs add moveto Tcx uy To add cs add lineto
  Tt setlinewidth stroke
  grestore
} bd
/SOE {
  /Tcx currentpoint pop def
  gsave
  newpath
  cf findfont cs scalefont dup
  /FontMatrix get 0 get /Ts exch def /FontInfo get dup
  /UnderlinePosition get Ts mul /To exch def
  /UnderlineThickness get Ts mul /Tt exch def
  ux uy To add cs 10 mul 26 idiv add moveto Tcx uy To add cs 10 mul 26 idiv add lineto
  Tt setlinewidth stroke
  grestore
} bd
/QT {
/Y22 exch store
/X22 exch store
/Y21 exch store
/X21 exch store
currentpoint
/Y21 load 2 mul add 3 div exch
/X21 load 2 mul add 3 div exch
/X21 load 2 mul /X22 load add 3 div
/Y21 load 2 mul /Y22 load add 3 div
/X22 load /Y22 load curveto
} bd
/SSPD {
dup length /d exch dict def
{
/v exch def
/k exch def
currentpagedevice k known {
/cpdv currentpagedevice k get def
v cpdv ne {
/upd false def
/nullv v type /nulltype eq def
/nullcpdv cpdv type /nulltype eq def
nullv nullcpdv or
{
/upd true def
} {
/sametype v type cpdv type eq def
sametype {
v type /arraytype eq {
/vlen v length def
/cpdvlen cpdv length def
vlen cpdvlen eq {
0 1 vlen 1 sub {
/i exch def
/obj v i get def
/cpdobj cpdv i get def
obj cpdobj ne {
/upd true def
exit
} if
} for
} {
/upd true def
} ifelse
} {
v type /dicttype eq {
v {
/dv exch def
/dk exch def
/cpddv cpdv dk get def
dv cpddv ne {
/upd true def
exit
} if
} forall
} {
/upd true def
} ifelse
} ifelse
} if
} ifelse
upd true eq {
d k v put
} if
} if
} if
} forall
d length 0 gt {
d setpagedevice
} if
} bd
/RE { % /NewFontName [NewEncodingArray] /FontName RE -
  findfont dup length dict begin
  {
    1 index /FID ne
    {def} {pop pop} ifelse
  } forall
  /Encoding exch def
  /FontName 1 index def
  currentdict definefont pop
  end
} bind def
%%EndResource
%%BeginResource: procset (Apache XML Graphics EPS ProcSet) 1.0 0
%%Version: 1.0 0
%%Copyright: (Copyright 2002-2003 The Apache Software Foundation. License terms: http://www.apache.org/licenses/LICENSE-2.0)
/BeginEPSF { %def
/b4_Inc_state save def         % Save state for cleanup
/dict_count countdictstack def % Count objects on dict stack
/op_count count 1 sub def      % Count objects on operand stack
userdict begin                 % Push userdict on dict stack
/showpage { } def              % Redefine showpage, { } = null proc
0 setgray 0 setlinecap         % Prepare graphics state
1 setlinewidth 0 setlinejoin
10 setmiterlimit [ ] 0 setdash newpath
/languagelevel where           % If level not equal to 1 then
{pop languagelevel             % set strokeadjust and
1 ne                           % overprint to their defaults.
{false setstrokeadjust false setoverprint
} if
} if
} bd
/EndEPSF { %def
count op_count sub {pop} repeat            % Clean up stacks
countdictstack dict_count sub {end} repeat
b4_Inc_state restore
} bd
%%EndResource
%FOPBeginFontDict
%%IncludeResource: font Courier-Oblique
%%IncludeResource: font Courier-BoldOblique
%%IncludeResource: font Courier-Bold
%%IncludeResource: font ZapfDingbats
%%IncludeResource: font Symbol
%%IncludeResource: font Helvetica
%%IncludeResource: font Helvetica-Oblique
%%IncludeResource: font Helvetica-Bold
%%IncludeResource: font Helvetica-BoldOblique
%%IncludeResource: font Times-Roman
%%IncludeResource: font Times-Italic
%%IncludeResource: font Times-Bold
%%IncludeResource: font Times-BoldItalic
%%IncludeResource: font Courier
%FOPEndFontDict
%%BeginResource: encoding WinAnsiEncoding
/WinAnsiEncoding [
/.notdef /.notdef /.notdef /.notdef /.notdef
/.notdef /.notdef /.notdef /.notdef /.notdef
/.notdef /.notdef /.notdef /.notdef /.notdef
/.notdef /.notdef /.notdef /.notdef /.notdef
/.notdef /.notdef /.notdef /.notdef /.notdef
/.notdef /.notdef /.notdef /.notdef /.notdef
/.notdef /.notdef /space /exclam /quotedbl
/numbersign /dollar /percent /ampersand /quotesingle
/parenleft /parenright /asterisk /plus /comma
/hyphen /period /slash /zero /one
/two /three /four /five /six
/seven /eight /nine /colon /semicolon
/less /equal /greater /question /at
/A /B /C /D /E
/F /G /H /I /J
/K /L /M /N /O
/P /Q /R /S /T
/U /V /W /X /Y
/Z /bracketleft /backslash /bracketright /asciicircum
/underscore /quoteleft /a /b /c
/d /e /f /g /h
/i /j /k /l /m
/n /o /p /q /r
/s /t /u /v /w
/x /y /z /braceleft /bar
/braceright /asciitilde /bullet /Euro /bullet
/quotesinglbase /florin /quotedblbase /ellipsis /dagger
/daggerdbl /circumflex /perthousand /Scaron /guilsinglleft
/OE /bullet /Zcaron /bullet /bullet
/quoteleft /quoteright /quotedblleft /quotedblright /bullet
/endash /emdash /asciitilde /trademark /scaron
/guilsinglright /oe /bullet /zcaron /Ydieresis
/space /exclamdown /cent /sterling /currency
/yen /brokenbar /section /dieresis /copyright
/ordfeminine /guillemotleft /logicalnot /sfthyphen /registered
/macron /degree /plusminus /twosuperior /threesuperior
/acute /mu /paragraph /middot /cedilla
/onesuperior /ordmasculine /guillemotright /onequarter /onehalf
/threequarters /questiondown /Agrave /Aacute /Acircumflex
/Atilde /Adieresis /Aring /AE /Ccedilla
/Egrave /Eacute /Ecircumflex /Edieresis /Igrave
/Iacute /Icircumflex /Idieresis /Eth /Ntilde
/Ograve /Oacute /Ocircumflex /Otilde /Odieresis
/multiply /Oslash /Ugrave /Uacute /Ucircumflex
/Udieresis /Yacute /Thorn /germandbls /agrave
/aacute /acircumflex /atilde /adieresis /aring
/ae /ccedilla /egrave /eacute /ecircumflex
/edieresis /igrave /iacute /icircumflex /idieresis
/eth /ntilde /ograve /oacute /ocircumflex
/otilde /odieresis /divide /oslash /ugrave
/uacute /ucircumflex /udieresis /yacute /thorn
/ydieresis
] def
%%EndResource
%FOPBeginFontReencode
/Courier-Oblique findfont
dup length dict begin
  {1 index /FID ne {def} {pop pop} ifelse} forall
  /Encoding WinAnsiEncoding def
  currentdict
end
/Courier-Oblique exch definefont pop
/Courier-BoldOblique findfont
dup length dict begin
  {1 index /FID ne {def} {pop pop} ifelse} forall
  /Encoding WinAnsiEncoding def
  currentdict
end
/Courier-BoldOblique exch definefont pop
/Courier-Bold findfont
dup length dict begin
  {1 index /FID ne {def} {pop pop} ifelse} forall
  /Encoding WinAnsiEncoding def
  currentdict
end
/Courier-Bold exch definefont pop
/Helvetica findfont
dup length dict begin
  {1 index /FID ne {def} {pop pop} ifelse} forall
  /Encoding WinAnsiEncoding def
  currentdict
end
/Helvetica exch definefont pop
/Helvetica-Oblique findfont
dup length dict begin
  {1 index /FID ne {def} {pop pop} ifelse} forall
  /Encoding WinAnsiEncoding def
  currentdict
end
/Helvetica-Oblique exch definefont pop
/Helvetica-Bold findfont
dup length dict begin
  {1 index /FID ne {def} {pop pop} ifelse} forall
  /Encoding WinAnsiEncoding def
  currentdict
end
/Helvetica-Bold exch definefont pop
/Helvetica-BoldOblique findfont
dup length dict begin
  {1 index /FID ne {def} {pop pop} ifelse} forall
  /Encoding WinAnsiEncoding def
  currentdict
end
/Helvetica-BoldOblique exch definefont pop
/Times-Roman findfont
dup length dict begin
  {1 index /FID ne {def} {pop pop} ifelse} forall
  /Encoding WinAnsiEncoding def
  currentdict
end
/Times-Roman exch definefont pop
/Times-Italic findfont
dup length dict begin
  {1 index /FID ne {def} {pop pop} ifelse} forall
  /Encoding WinAnsiEncoding def
  currentdict
end
/Times-Italic exch definefont pop
/Times-Bold findfont
dup length dict begin
  {1 index /FID ne {def} {pop pop} ifelse} forall
  /Encoding WinAnsiEncoding def
  currentdict
end
/Times-Bold exch definefont pop
/Times-BoldItalic findfont
dup length dict begin
  {1 index /FID ne {def} {pop pop} ifelse} forall
  /Encoding WinAnsiEncoding def
  currentdict
end
/Times-BoldItalic exch definefont pop
/Courier findfont
dup length dict begin
  {1 index /FID ne {def} {pop pop} ifelse} forall
  /Encoding WinAnsiEncoding def
  currentdict
end
/Courier exch definefont pop
%FOPEndFontReencode
%%EndProlog
%%Page: 1 1
%%PageBoundingBox: 0 0 420 315
%%BeginPageSetup
[1 0 0 -1 0 315] CT
%%EndPageSetup
GS
[0.75 0 0 0.75 0 0] CT
1 GC
N
0 0 560 420 re
f
GR
GS
[0.75 0 0 0.75 0 0] CT
1 GC
N
0 0 560 420 re
f
GR
GS
[0.75 0 0 0.75 0 0] CT
1 GC
N
73 374 M
507 374 L
507 31 L
73 31 L
cp
f
GR
GS
[0.75 0 0 0.75 0 0] CT
0.149 GC
2 setlinecap
1 LJ
0.667 LW
N
73 374 M
507 374 L
S
GR
GS
[0.75 0 0 0.75 0 0] CT
0.149 GC
2 setlinecap
1 LJ
0.667 LW
N
73 31 M
507 31 L
S
GR
GS
[0.75 0 0 0.75 0 0] CT
0.149 GC
2 setlinecap
1 LJ
0.667 LW
N
73 374 M
73 369.66 L
S
GR
GS
[0.75 0 0 0.75 0 0] CT
0.149 GC
2 setlinecap
1 LJ
0.667 LW
N
145.333 374 M
145.333 369.66 L
S
GR
GS
[0.75 0 0 0.75 0 0] CT
0.149 GC
2 setlinecap
1 LJ
0.667 LW
N
217.667 374 M
217.667 369.66 L
S
GR
GS
[0.75 0 0 0.75 0 0] CT
0.149 GC
2 setlinecap
1 LJ
0.667 LW
N
290 374 M
290 369.66 L
S
GR
GS
[0.75 0 0 0.75 0 0] CT
0.149 GC
2 setlinecap
1 LJ
0.667 LW
N
362.333 374 M
362.333 369.66 L
S
GR
GS
[0.75 0 0 0.75 0 0] CT
0.149 GC
2 setlinecap
1 LJ
0.667 LW
N
434.667 374 M
434.667 369.66 L
S
GR
GS
[0.75 0 0 0.75 0 0] CT
0.149 GC
2 setlinecap
1 LJ
0.667 LW
N
507 374 M
507 369.66 L
S
GR
GS
[0.75 0 0 0.75 0 0] CT
0.149 GC
2 setlinecap
1 LJ
0.667 LW
N
73 31 M
73 35.34 L
S
GR
GS
[0.75 0 0 0.75 0 0] CT
0.149 GC
2 setlinecap
1 LJ
0.667 LW
N
145.333 31 M
145.333 35.34 L
S
GR
GS
[0.75 0 0 0.75 0 0] CT
0.149 GC
2 setlinecap
1 LJ
0.667 LW
N
217.667 31 M
217.667 35.34 L
S
GR
GS
[0.75 0 0 0.75 0 0] CT
0.149 GC
2 setlinecap
1 LJ
0.667 LW
N
290 31 M
290 35.34 L
S
GR
GS
[0.75 0 0 0.75 0 0] CT
0.149 GC
2 setlinecap
1 LJ
0.667 LW
N
362.333 31 M
362.333 35.34 L
S
GR
GS
[0.75 0 0 0.75 0 0] CT
0.149 GC
2 setlinecap
1 LJ
0.667 LW
N
434.667 31 M
434.667 35.34 L
S
GR
GS
[0.75 0 0 0.75 0 0] CT
0.149 GC
2 setlinecap
1 LJ
0.667 LW
N
507 31 M
507 35.34 L
S
GR
GS
[0.75 0 0 0.75 54.75 284.50001] CT
0.149 GC
/Helvetica 13.333 F
GS
[1 0 0 1 0 0] CT
-10 14 moveto 
1 -1 scale
(-30) t 
GR
GR
GS
[0.75 0 0 0.75 109 284.50001] CT
0.149 GC
/Helvetica 13.333 F
GS
[1 0 0 1 0 0] CT
-10 14 moveto 
1 -1 scale
(-20) t 
GR
GR
GS
[0.75 0 0 0.75 163.25 284.50001] CT
0.149 GC
/Helvetica 13.333 F
GS
[1 0 0 1 0 0] CT
-10 14 moveto 
1 -1 scale
(-10) t 
GR
GR
GS
[0.75 0 0 0.75 217.5 284.50001] CT
0.149 GC
/Helvetica 13.333 F
GS
[1 0 0 1 0 0] CT
-4 14 moveto 
1 -1 scale
(0) t 
GR
GR
GS
[0.75 0 0 0.75 271.75001 284.50001] CT
0.149 GC
/Helvetica 13.333 F
GS
[1 0 0 1 0 0] CT
-7.5 14 moveto 
1 -1 scale
(10) t 
GR
GR
GS
[0.75 0 0 0.75 325.99999 284.50001] CT
0.149 GC
/Helvetica 13.333 F
GS
[1 0 0 1 0 0] CT
-7.5 14 moveto 
1 -1 scale
(20) t 
GR
GR
GS
[0.75 0 0 0.75 380.25 284.50001] CT
0.149 GC
/Helvetica 13.333 F
GS
[1 0 0 1 0 0] CT
-7.5 14 moveto 
1 -1 scale
(30) t 
GR
GR
GS
[0.75 0 0 0.75 217.50016 298.24999] CT
0.149 GC
/Helvetica 14.667 F
GS
[1 0 0 1 0 0] CT
-67.5 15 moveto 
1 -1 scale
(Degrees Eccentricity) t 
GR
GR
GS
[0.75 0 0 0.75 0 0] CT
0.149 GC
2 setlinecap
1 LJ
0.667 LW
N
73 374 M
73 31 L
S
GR
GS
[0.75 0 0 0.75 0 0] CT
0.149 GC
2 setlinecap
1 LJ
0.667 LW
N
507 374 M
507 31 L
S
GR
GS
[0.75 0 0 0.75 0 0] CT
0.149 GC
2 setlinecap
1 LJ
0.667 LW
N
73 374 M
77.34 374 L
S
GR
GS
[0.75 0 0 0.75 0 0] CT
0.149 GC
2 setlinecap
1 LJ
0.667 LW
N
73 339.7 M
77.34 339.7 L
S
GR
GS
[0.75 0 0 0.75 0 0] CT
0.149 GC
2 setlinecap
1 LJ
0.667 LW
N
73 305.4 M
77.34 305.4 L
S
GR
GS
[0.75 0 0 0.75 0 0] CT
0.149 GC
2 setlinecap
1 LJ
0.667 LW
N
73 271.1 M
77.34 271.1 L
S
GR
GS
[0.75 0 0 0.75 0 0] CT
0.149 GC
2 setlinecap
1 LJ
0.667 LW
N
73 236.8 M
77.34 236.8 L
S
GR
GS
[0.75 0 0 0.75 0 0] CT
0.149 GC
2 setlinecap
1 LJ
0.667 LW
N
73 202.5 M
77.34 202.5 L
S
GR
GS
[0.75 0 0 0.75 0 0] CT
0.149 GC
2 setlinecap
1 LJ
0.667 LW
N
73 168.2 M
77.34 168.2 L
S
GR
GS
[0.75 0 0 0.75 0 0] CT
0.149 GC
2 setlinecap
1 LJ
0.667 LW
N
73 133.9 M
77.34 133.9 L
S
GR
GS
[0.75 0 0 0.75 0 0] CT
0.149 GC
2 setlinecap
1 LJ
0.667 LW
N
73 99.6 M
77.34 99.6 L
S
GR
GS
[0.75 0 0 0.75 0 0] CT
0.149 GC
2 setlinecap
1 LJ
0.667 LW
N
73 65.3 M
77.34 65.3 L
S
GR
GS
[0.75 0 0 0.75 0 0] CT
0.149 GC
2 setlinecap
1 LJ
0.667 LW
N
73 31 M
77.34 31 L
S
GR
GS
[0.75 0 0 0.75 0 0] CT
0.149 GC
2 setlinecap
1 LJ
0.667 LW
N
507 374 M
502.66 374 L
S
GR
GS
[0.75 0 0 0.75 0 0] CT
0.149 GC
2 setlinecap
1 LJ
0.667 LW
N
507 339.7 M
502.66 339.7 L
S
GR
GS
[0.75 0 0 0.75 0 0] CT
0.149 GC
2 setlinecap
1 LJ
0.667 LW
N
507 305.4 M
502.66 305.4 L
S
GR
GS
[0.75 0 0 0.75 0 0] CT
0.149 GC
2 setlinecap
1 LJ
0.667 LW
N
507 271.1 M
502.66 271.1 L
S
GR
GS
[0.75 0 0 0.75 0 0] CT
0.149 GC
2 setlinecap
1 LJ
0.667 LW
N
507 236.8 M
502.66 236.8 L
S
GR
GS
[0.75 0 0 0.75 0 0] CT
0.149 GC
2 setlinecap
1 LJ
0.667 LW
N
507 202.5 M
502.66 202.5 L
S
GR
GS
[0.75 0 0 0.75 0 0] CT
0.149 GC
2 setlinecap
1 LJ
0.667 LW
N
507 168.2 M
502.66 168.2 L
S
GR
GS
[0.75 0 0 0.75 0 0] CT
0.149 GC
2 setlinecap
1 LJ
0.667 LW
N
507 133.9 M
502.66 133.9 L
S
GR
GS
[0.75 0 0 0.75 0 0] CT
0.149 GC
2 setlinecap
1 LJ
0.667 LW
N
507 99.6 M
502.66 99.6 L
S
GR
GS
[0.75 0 0 0.75 0 0] CT
0.149 GC
2 setlinecap
1 LJ
0.667 LW
N
507 65.3 M
502.66 65.3 L
S
GR
GS
[0.75 0 0 0.75 0 0] CT
0.149 GC
2 setlinecap
1 LJ
0.667 LW
N
507 31 M
502.66 31 L
S
GR
GS
[0.75 0 0 0.75 50.75 280.5] CT
0.149 GC
/Helvetica 13.333 F
GS
[1 0 0 1 0 0] CT
-19 5.5 moveto 
1 -1 scale
(0.8) t 
GR
GR
GS
[0.75 0 0 0.75 50.75 254.77501] CT
0.149 GC
/Helvetica 13.333 F
GS
[1 0 0 1 0 0] CT
-19 5.5 moveto 
1 -1 scale
(0.9) t 
GR
GR
GS
[0.75 0 0 0.75 50.75 229.05] CT
0.149 GC
/Helvetica 13.333 F
GS
[1 0 0 1 0 0] CT
-8 5.5 moveto 
1 -1 scale
(1) t 
GR
GR
GS
[0.75 0 0 0.75 50.75 203.325] CT
0.149 GC
/Helvetica 13.333 F
GS
[1 0 0 1 0 0] CT
-19 5.5 moveto 
1 -1 scale
(1.1) t 
GR
GR
GS
[0.75 0 0 0.75 50.75 177.6] CT
0.149 GC
/Helvetica 13.333 F
GS
[1 0 0 1 0 0] CT
-19 5.5 moveto 
1 -1 scale
(1.2) t 
GR
GR
GS
[0.75 0 0 0.75 50.75 151.875] CT
0.149 GC
/Helvetica 13.333 F
GS
[1 0 0 1 0 0] CT
-19 5.5 moveto 
1 -1 scale
(1.3) t 
GR
GR
GS
[0.75 0 0 0.75 50.75 126.15] CT
0.149 GC
/Helvetica 13.333 F
GS
[1 0 0 1 0 0] CT
-19 5.5 moveto 
1 -1 scale
(1.4) t 
GR
GR
GS
[0.75 0 0 0.75 50.75 100.425] CT
0.149 GC
/Helvetica 13.333 F
GS
[1 0 0 1 0 0] CT
-19 5.5 moveto 
1 -1 scale
(1.5) t 
GR
GR
GS
[0.75 0 0 0.75 50.75 74.7] CT
0.149 GC
/Helvetica 13.333 F
GS
[1 0 0 1 0 0] CT
-19 5.5 moveto 
1 -1 scale
(1.6) t 
GR
GR
GS
[0.75 0 0 0.75 50.75 48.975] CT
0.149 GC
/Helvetica 13.333 F
GS
[1 0 0 1 0 0] CT
-19 5.5 moveto 
1 -1 scale
(1.7) t 
GR
GR
GS
[0.75 0 0 0.75 50.75 23.25] CT
0.149 GC
/Helvetica 13.333 F
GS
[1 0 0 1 0 0] CT
-19 5.5 moveto 
1 -1 scale
(1.8) t 
GR
GR
GS
[0 -0.75 0.75 0 30.75 225.75] CT
0.149 GC
/Helvetica 14.667 F
GS
[1 0 0 1 0 0] CT
0 0 moveto 
1 -1 scale
(Cone Density \(cones/degree) t 
GR
GR
GS
[0 -0.75 0.75 0 25.5 86.25] CT
0.149 GC
/Helvetica 11.733 F
GS
[1 0 0 1 0 0] CT
0 0 moveto 
1 -1 scale
(2) t 
GR
GR
GS
[0 -0.75 0.75 0 30.75 81] CT
0.149 GC
/Helvetica 14.667 F
GS
[1 0 0 1 0 0] CT
0 0 moveto 
1 -1 scale
(\)) t 
GR
GR
GS
[0.75 0 0 0.75 54.75 21] CT
0.149 GC
N
1.906 -0.375 M
1.906 -0.469 1.969 -0.563 QT
4.672 -3.25 L
1.969 -5.953 L
1.906 -6.016 1.906 -6.125 QT
1.906 -6.219 1.984 -6.305 QT
2.063 -6.391 2.172 -6.391 QT
2.266 -6.391 2.375 -6.297 QT
5.063 -3.609 L
7.734 -6.297 L
7.844 -6.391 7.922 -6.391 QT
8.031 -6.391 8.109 -6.313 QT
8.188 -6.234 8.188 -6.125 QT
8.188 -6.016 8.125 -5.953 QT
5.422 -3.25 L
8.125 -0.563 L
8.188 -0.469 8.188 -0.375 QT
8.188 -0.266 8.109 -0.188 QT
8.031 -0.109 7.922 -0.109 QT
7.828 -0.109 7.734 -0.203 QT
5.063 -2.891 L
2.375 -0.203 L
2.266 -0.109 2.172 -0.109 QT
2.063 -0.109 1.984 -0.195 QT
1.906 -0.281 1.906 -0.375 QT
cp
f
GR
GS
[0.75 0 0 0.75 63 21] CT
0.149 GC
/Helvetica 13.333 F
GS
[1 0 0 1 0 0] CT
0 0 moveto 
1 -1 scale
(10) t 
GR
GR
GS
[0.75 0 0 0.75 74.25 16.5] CT
0.149 GC
/Helvetica 10.667 F
GS
[1 0 0 1 0 0] CT
0 0 moveto 
1 -1 scale
(4) t 
GR
GR
GS
[0.75 0 0 0.75 217.50021 21.18748] CT
/Helvetica-Bold 14.667 F
GS
[1 0 0 1 0 0] CT
-140.5 -4 moveto 
1 -1 scale
(Cone Density along the Vertical Merdian) t 
GR
GR
GS
[0.75 0 0 0.75 0 0] CT
0 1 1 RC
1 LJ
0.667 LW
N
123.432 374.041 M
123.633 373.469 L
124.357 371.46 L
125.08 369.975 L
125.803 368.217 L
126.527 366.133 L
127.25 364.216 L
127.973 363.186 L
128.697 362.195 L
129.42 359.951 L
130.143 356.486 L
130.867 355.776 L
131.59 355.013 L
132.313 354.256 L
133.037 353.48 L
133.76 352.751 L
134.483 351.953 L
135.207 351.17 L
135.93 350.338 L
136.653 349.6 L
137.377 348.803 L
138.1 348.018 L
138.823 347.208 L
139.547 346.456 L
140.27 345.653 L
140.993 344.864 L
141.717 344.063 L
142.44 343.333 L
143.163 342.605 L
143.887 341.756 L
144.61 340.952 L
145.333 340.228 L
146.057 339.461 L
146.78 338.647 L
147.503 337.842 L
148.227 337.064 L
148.95 336.267 L
149.673 335.462 L
150.397 334.62 L
151.12 333.822 L
151.843 332.94 L
152.567 332.059 L
153.29 331.26 L
154.013 330.445 L
154.737 329.555 L
155.46 328.68 L
156.183 327.805 L
156.907 326.843 L
157.63 326.032 L
158.353 325.143 L
159.077 324.248 L
159.8 323.362 L
160.523 322.397 L
161.247 321.443 L
161.97 320.606 L
162.693 319.759 L
163.417 318.921 L
164.14 318.012 L
164.863 317.1 L
165.587 316.168 L
166.31 315.197 L
167.033 314.326 L
167.757 313.442 L
168.48 312.504 L
169.203 311.594 L
169.927 310.728 L
170.65 309.846 L
171.373 308.914 L
172.097 307.986 L
172.82 307.124 L
173.543 306.175 L
174.267 305.309 L
174.99 304.331 L
175.713 303.349 L
176.437 302.355 L
177.16 301.465 L
177.883 300.484 L
178.607 299.513 L
179.33 298.503 L
180.053 297.446 L
180.777 296.459 L
181.5 295.546 L
182.223 294.607 L
182.947 293.547 L
183.67 292.546 L
184.393 291.554 L
185.117 290.611 L
185.84 289.592 L
186.563 288.603 L
187.287 287.512 L
188.01 286.413 L
188.733 285.461 L
189.457 284.393 L
190.18 283.285 L
190.903 282.286 L
191.627 281.231 L
192.35 280.212 L
193.073 279.295 L
193.797 278.352 L
194.52 277.349 L
195.243 276.332 L
195.967 275.41 L
196.69 274.48 L
197.413 273.596 L
198.137 272.638 L
198.86 271.609 L
199.583 270.66 L
200.307 269.719 L
201.03 268.814 L
201.753 267.846 L
202.477 266.866 L
203.2 265.88 L
203.923 264.884 L
204.647 263.88 L
205.37 262.917 L
206.093 261.96 L
206.817 260.976 L
207.54 259.919 L
208.263 258.906 L
208.987 257.919 L
209.71 256.937 L
210.433 255.933 L
211.157 254.923 L
211.88 253.941 L
212.603 252.977 L
213.327 252.076 L
214.05 251.106 L
214.773 250.17 L
215.497 249.256 L
216.22 248.416 L
216.943 247.597 L
217.667 246.695 L
218.39 245.817 L
219.113 244.927 L
219.837 244.042 L
220.56 243.174 L
221.283 242.228 L
222.007 241.188 L
222.73 240.238 L
223.453 239.287 L
224.177 238.37 L
224.9 237.439 L
225.623 236.511 L
226.347 235.606 L
227.07 234.671 L
227.793 233.83 L
228.517 232.887 L
229.24 231.903 L
229.963 230.935 L
230.687 229.997 L
231.41 229.099 L
232.133 228.115 L
232.857 227.209 L
233.58 226.321 L
234.303 225.496 L
235.027 224.599 L
235.75 223.719 L
236.473 222.88 L
237.197 221.995 L
237.92 221.153 L
238.643 220.294 L
239.367 219.458 L
240.09 218.709 L
240.813 217.994 L
241.537 217.163 L
242.26 216.38 L
242.983 215.581 L
243.707 214.819 L
244.43 214.083 L
245.153 213.259 L
245.877 212.395 L
246.6 211.6 L
247.323 210.749 L
248.047 210.014 L
248.77 209.332 L
249.493 208.59 L
250.217 207.818 L
250.94 207.042 L
251.663 206.316 L
252.387 205.613 L
253.11 204.889 L
253.833 204.193 L
254.557 203.434 L
255.28 202.767 L
256.003 202.097 L
256.727 201.374 L
257.45 200.603 L
258.173 199.933 L
258.897 199.298 L
259.62 198.704 L
260.343 198.058 L
261.067 197.446 L
261.79 196.866 L
262.513 196.329 L
263.237 195.763 L
263.96 195.257 L
264.683 194.718 L
265.407 194.172 L
266.13 193.661 L
266.853 193.131 L
267.577 192.701 L
268.3 192.204 L
269.023 191.653 L
269.747 191.3 L
270.47 190.964 L
271.193 190.647 L
271.917 190.252 L
272.64 189.94 L
273.363 189.7 L
274.087 189.45 L
274.81 189.117 L
275.533 188.913 L
276.257 188.678 L
276.98 188.359 L
277.703 188.064 L
278.427 187.844 L
279.15 187.644 L
279.873 187.449 L
280.597 187.255 L
281.32 187.064 L
282.043 186.824 L
282.767 186.756 L
283.49 186.603 L
284.213 186.389 L
284.937 186.262 L
285.66 186.112 L
286.383 185.966 L
287.107 185.823 L
287.83 185.743 L
288.553 185.709 L
289.277 185.754 L
290 185.767 L
290.723 185.702 L
291.447 185.743 L
292.17 185.841 L
292.893 185.882 L
293.617 185.912 L
294.34 186.012 L
295.063 186.088 L
295.787 186.173 L
296.51 186.242 L
297.233 186.32 L
297.957 186.48 L
298.68 186.625 L
299.403 186.837 L
300.127 187.127 L
300.85 187.322 L
301.573 187.579 L
302.297 188.021 L
303.02 188.357 L
303.743 188.694 L
304.467 189.067 L
305.19 189.445 L
305.913 189.76 L
306.637 190.114 L
307.36 190.447 L
308.083 190.76 L
308.807 191.085 L
309.53 191.432 L
310.253 191.783 L
310.977 192.095 L
311.7 192.429 L
312.423 192.798 L
313.147 193.202 L
313.87 193.557 L
314.593 193.979 L
315.317 194.342 L
316.04 194.824 L
316.763 195.226 L
317.487 195.638 L
318.21 196.097 L
318.933 196.535 L
319.657 197.062 L
320.38 197.48 L
321.103 197.984 L
321.827 198.513 L
322.55 199.122 L
323.273 199.778 L
323.997 200.508 L
324.72 201.17 L
325.443 201.797 L
326.167 202.414 L
326.89 203.015 L
327.613 203.68 L
328.337 204.356 L
329.06 204.947 L
329.783 205.604 L
330.507 206.297 L
331.23 207.136 L
331.953 207.962 L
332.677 208.764 L
333.4 209.502 L
334.123 210.366 L
334.847 211.153 L
335.57 212.009 L
336.293 212.894 L
337.017 213.783 L
337.74 214.687 L
338.463 215.537 L
339.187 216.463 L
339.91 217.377 L
340.633 218.295 L
341.357 219.215 L
342.08 220.103 L
342.803 220.933 L
343.527 221.774 L
344.25 222.63 L
344.973 223.513 L
345.697 224.36 L
346.42 225.217 L
347.143 226.12 L
347.867 226.966 L
348.59 227.808 L
349.313 228.713 L
350.037 229.541 L
350.76 230.372 L
351.483 231.301 L
352.207 232.172 L
352.93 233.028 L
353.653 233.846 L
354.377 234.772 L
355.1 235.69 L
355.823 236.605 L
356.547 237.445 L
357.27 238.409 L
357.993 239.428 L
358.717 240.343 L
359.44 241.272 L
360.163 242.282 L
360.887 243.357 L
361.61 244.482 L
362.333 245.539 L
363.057 246.562 L
363.78 247.631 L
364.503 248.732 L
365.227 249.959 L
365.95 250.964 L
366.673 252.046 L
367.397 253.152 L
368.12 254.239 L
368.843 255.369 L
369.567 256.385 L
370.29 257.443 L
371.013 258.596 L
371.737 259.75 L
372.46 260.828 L
373.183 261.788 L
373.907 262.804 L
374.63 263.826 L
375.353 264.852 L
376.077 265.873 L
376.8 266.862 L
377.523 267.856 L
378.247 268.898 L
378.97 269.955 L
379.693 271.029 L
380.417 272.014 L
381.14 272.973 L
381.863 273.951 L
382.587 274.884 L
383.31 275.8 L
384.033 276.847 L
384.757 277.848 L
385.48 278.804 L
386.203 279.747 L
386.927 280.699 L
387.65 281.658 L
388.373 282.611 L
389.097 283.685 L
389.82 284.714 L
390.543 285.718 L
391.267 286.7 L
391.99 287.774 L
392.713 288.845 L
393.437 289.871 L
394.16 290.891 L
394.883 291.913 L
395.607 292.984 L
396.33 293.922 L
397.053 294.934 L
397.777 295.932 L
398.5 296.946 L
399.223 297.896 L
399.947 298.876 L
400.67 299.921 L
401.393 300.911 L
402.117 301.839 L
402.84 302.756 L
403.563 303.718 L
404.287 304.704 L
405.01 305.679 L
405.733 306.613 L
406.457 307.528 L
407.18 308.499 L
407.903 309.37 L
408.627 310.314 L
409.35 311.306 L
410.073 312.232 L
410.797 313.177 L
411.52 314.139 L
412.243 315.094 L
412.967 315.959 L
413.69 316.854 L
414.413 317.758 L
415.137 318.671 L
415.86 319.605 L
416.583 320.598 L
417.307 321.519 L
418.03 322.442 L
418.753 323.405 L
419.477 324.355 L
420.2 326.1 L
420.923 329.587 L
421.647 331.314 L
422.37 332.771 L
423.093 333.75 L
423.817 334.714 L
424.54 335.71 L
425.263 336.781 L
425.987 337.948 L
426.71 339.214 L
427.433 340.448 L
428.157 343.536 L
428.88 349.245 L
429.603 354.829 L
430.327 357.379 L
431.05 359.372 L
431.773 361.567 L
432.497 364.751 L
433.22 367.947 L
433.943 371.006 L
434.086 374.041 L
S
GR
GS
[0.75 0 0 0.75 0 0] CT
0 1 1 RC
[10 6] 0 setdash
2 LJ
0.667 LW
N
119.119 374.041 M
119.293 372.24 L
120.017 367.544 L
120.74 362.355 L
121.463 359.067 L
122.187 356.287 L
122.91 354.203 L
123.633 353.035 L
124.357 352.199 L
125.08 351.348 L
125.803 350.314 L
126.527 348.834 L
127.25 347.199 L
127.973 346.171 L
128.697 345.133 L
129.42 344.259 L
130.143 342.1 L
130.867 341.372 L
131.59 340.559 L
132.313 339.775 L
133.037 338.96 L
133.76 338.198 L
134.483 337.35 L
135.207 336.524 L
135.93 335.66 L
136.653 334.894 L
137.377 334.061 L
138.1 333.243 L
138.823 332.393 L
139.547 331.618 L
140.27 330.796 L
140.993 330.012 L
141.717 329.191 L
142.44 328.452 L
143.163 327.7 L
143.887 326.823 L
144.61 326.009 L
145.333 325.29 L
146.057 324.513 L
146.78 323.701 L
147.503 322.882 L
148.227 322.058 L
148.95 321.229 L
149.673 320.419 L
150.397 319.55 L
151.12 318.725 L
151.843 317.82 L
152.567 316.914 L
153.29 316.08 L
154.013 315.235 L
154.737 314.295 L
155.46 313.402 L
156.183 312.519 L
156.907 311.53 L
157.63 310.71 L
158.353 309.807 L
159.077 308.893 L
159.8 308.009 L
160.523 307.053 L
161.247 306.104 L
161.97 305.292 L
162.693 304.428 L
163.417 303.589 L
164.14 302.695 L
164.863 301.765 L
165.587 300.832 L
166.31 299.826 L
167.033 298.958 L
167.757 298.047 L
168.48 297.067 L
169.203 296.122 L
169.927 295.228 L
170.65 294.32 L
171.373 293.351 L
172.097 292.364 L
172.82 291.487 L
173.543 290.497 L
174.267 289.601 L
174.99 288.559 L
175.713 287.557 L
176.437 286.564 L
177.16 285.641 L
177.883 284.631 L
178.607 283.652 L
179.33 282.63 L
180.053 281.548 L
180.777 280.569 L
181.5 279.65 L
182.223 278.705 L
182.947 277.642 L
183.67 276.621 L
184.393 275.613 L
185.117 274.692 L
185.84 273.663 L
186.563 272.643 L
187.287 271.54 L
188.01 270.419 L
188.733 269.473 L
189.457 268.401 L
190.18 267.287 L
190.903 266.283 L
191.627 265.211 L
192.35 264.192 L
193.073 263.284 L
193.797 262.365 L
194.52 261.365 L
195.243 260.343 L
195.967 259.435 L
196.69 258.508 L
197.413 257.642 L
198.137 256.696 L
198.86 255.652 L
199.583 254.725 L
200.307 253.801 L
201.03 252.928 L
201.753 251.974 L
202.477 251.041 L
203.2 250.077 L
203.923 249.115 L
204.647 248.127 L
205.37 247.184 L
206.093 246.208 L
206.817 245.228 L
207.54 244.177 L
208.263 243.155 L
208.987 242.146 L
209.71 241.138 L
210.433 240.099 L
211.157 239.095 L
211.88 238.085 L
212.603 237.106 L
213.327 236.193 L
214.05 235.223 L
214.773 234.3 L
215.497 233.41 L
216.22 232.611 L
216.943 231.819 L
217.667 230.928 L
218.39 230.075 L
219.113 229.216 L
219.837 228.347 L
220.56 227.517 L
221.283 226.597 L
222.007 225.573 L
222.73 224.615 L
223.453 223.656 L
224.177 222.718 L
224.9 221.766 L
225.623 220.824 L
226.347 219.936 L
227.07 218.996 L
227.793 218.12 L
228.517 217.157 L
229.24 216.16 L
229.963 215.206 L
230.687 214.262 L
231.41 213.372 L
232.133 212.373 L
232.857 211.484 L
233.58 210.627 L
234.303 209.804 L
235.027 208.925 L
235.75 208.032 L
236.473 207.2 L
237.197 206.33 L
237.92 205.521 L
238.643 204.646 L
239.367 203.794 L
240.09 203.027 L
240.813 202.327 L
241.537 201.466 L
242.26 200.654 L
242.983 199.809 L
243.707 199.028 L
244.43 198.255 L
245.153 197.403 L
245.877 196.516 L
246.6 195.704 L
247.323 194.817 L
248.047 194.059 L
248.77 193.37 L
249.493 192.622 L
250.217 191.852 L
250.94 191.059 L
251.663 190.321 L
252.387 189.628 L
253.11 188.92 L
253.833 188.214 L
254.557 187.452 L
255.28 186.799 L
256.003 186.122 L
256.727 185.409 L
257.45 184.595 L
258.173 183.904 L
258.897 183.269 L
259.62 182.666 L
260.343 182.001 L
261.067 181.339 L
261.79 180.724 L
262.513 180.143 L
263.237 179.567 L
263.96 179.052 L
264.683 178.48 L
265.407 177.888 L
266.13 177.35 L
266.853 176.813 L
267.577 176.398 L
268.3 175.901 L
269.023 175.336 L
269.747 175.008 L
270.47 174.677 L
271.193 174.368 L
271.917 173.968 L
272.64 173.668 L
273.363 173.445 L
274.087 173.197 L
274.81 172.868 L
275.533 172.67 L
276.257 172.429 L
276.98 172.09 L
277.703 171.772 L
278.427 171.533 L
279.15 171.324 L
279.873 171.104 L
280.597 170.884 L
281.32 170.668 L
282.043 170.404 L
282.767 170.309 L
283.49 170.138 L
284.213 169.903 L
284.937 169.742 L
285.66 169.591 L
286.383 169.451 L
287.107 169.276 L
287.83 169.204 L
288.553 169.142 L
289.277 169.162 L
290 169.156 L
290.723 169.062 L
291.447 169.072 L
292.17 169.147 L
292.893 169.158 L
293.617 169.135 L
294.34 169.213 L
295.063 169.217 L
295.787 169.259 L
296.51 169.282 L
297.233 169.303 L
297.957 169.391 L
298.68 169.492 L
299.403 169.626 L
300.127 169.892 L
300.85 170.037 L
301.573 170.241 L
302.297 170.636 L
303.02 170.937 L
303.743 171.224 L
304.467 171.568 L
305.19 171.902 L
305.913 172.163 L
306.637 172.476 L
307.36 172.758 L
308.083 173.034 L
308.807 173.29 L
309.53 173.572 L
310.253 173.851 L
310.977 174.106 L
311.7 174.391 L
312.423 174.701 L
313.147 175.043 L
313.87 175.317 L
314.593 175.671 L
315.317 175.961 L
316.04 176.36 L
316.763 176.712 L
317.487 177.075 L
318.21 177.469 L
318.933 177.837 L
319.657 178.286 L
320.38 178.604 L
321.103 179.052 L
321.827 179.541 L
322.55 180.102 L
323.273 180.682 L
323.997 181.368 L
324.72 181.989 L
325.443 182.59 L
326.167 183.179 L
326.89 183.742 L
327.613 184.366 L
328.337 184.999 L
329.06 185.566 L
329.783 186.225 L
330.507 186.909 L
331.23 187.778 L
331.953 188.632 L
332.677 189.431 L
333.4 190.177 L
334.123 191.062 L
334.847 191.873 L
335.57 192.784 L
336.293 193.71 L
337.017 194.612 L
337.74 195.522 L
338.463 196.368 L
339.187 197.316 L
339.91 198.242 L
340.633 199.135 L
341.357 200.063 L
342.08 200.937 L
342.803 201.741 L
343.527 202.528 L
344.25 203.355 L
344.973 204.209 L
345.697 205.031 L
346.42 205.858 L
347.143 206.719 L
347.867 207.54 L
348.59 208.358 L
349.313 209.232 L
350.037 210.058 L
350.76 210.841 L
351.483 211.759 L
352.207 212.644 L
352.93 213.498 L
353.653 214.356 L
354.377 215.303 L
355.1 216.233 L
355.823 217.186 L
356.547 218.045 L
357.27 219.097 L
357.993 220.177 L
358.717 221.144 L
359.44 222.092 L
360.163 223.123 L
360.887 224.258 L
361.61 225.435 L
362.333 226.505 L
363.057 227.551 L
363.78 228.637 L
364.503 229.774 L
365.227 231.031 L
365.95 232.052 L
366.673 233.157 L
367.397 234.28 L
368.12 235.413 L
368.843 236.588 L
369.567 237.641 L
370.29 238.758 L
371.013 239.962 L
371.737 241.152 L
372.46 242.275 L
373.183 243.267 L
373.907 244.329 L
374.63 245.396 L
375.353 246.469 L
376.077 247.527 L
376.8 248.537 L
377.523 249.572 L
378.247 250.666 L
378.97 251.754 L
379.693 252.862 L
380.417 253.868 L
381.14 254.836 L
381.863 255.853 L
382.587 256.798 L
383.31 257.719 L
384.033 258.759 L
384.757 259.77 L
385.48 260.737 L
386.203 261.691 L
386.927 262.65 L
387.65 263.632 L
388.373 264.607 L
389.097 265.718 L
389.82 266.764 L
390.543 267.799 L
391.267 268.827 L
391.99 269.987 L
392.713 271.144 L
393.437 272.231 L
394.16 273.314 L
394.883 274.406 L
395.607 275.53 L
396.33 276.537 L
397.053 277.602 L
397.777 278.663 L
398.5 279.748 L
399.223 280.757 L
399.947 281.79 L
400.67 282.885 L
401.393 283.926 L
402.117 284.894 L
402.84 285.864 L
403.563 286.854 L
404.287 287.876 L
405.01 288.905 L
405.733 289.879 L
406.457 290.827 L
407.18 291.838 L
407.903 292.737 L
408.627 293.709 L
409.35 294.78 L
410.073 295.767 L
410.797 296.787 L
411.52 297.817 L
412.243 298.795 L
412.967 299.707 L
413.69 300.623 L
414.413 301.582 L
415.137 302.557 L
415.86 303.518 L
416.583 304.573 L
417.307 305.531 L
418.03 306.514 L
418.753 307.541 L
419.477 308.524 L
420.2 310.17 L
420.923 312.276 L
421.647 313.374 L
422.37 314.378 L
423.093 315.392 L
423.817 316.413 L
424.54 317.461 L
425.263 318.564 L
425.987 319.767 L
426.71 321.067 L
427.433 322.286 L
428.157 324.62 L
428.88 327.909 L
429.603 329.973 L
430.327 331.689 L
431.05 333.018 L
431.773 334.535 L
432.497 337.338 L
433.22 340.208 L
433.943 342.534 L
434.667 353.034 L
435.39 360.634 L
436.113 371.69 L
436.279 374.041 L
S
GR
GS
[0.75 0 0 0.75 0 0] CT
0 1 1 RC
[10 6] 0 setdash
2 LJ
0.667 LW
N
129.663 374.041 M
130.143 370.872 L
130.867 370.181 L
131.59 369.467 L
132.313 368.738 L
133.037 367.999 L
133.76 367.304 L
134.483 366.556 L
135.207 365.815 L
135.93 365.015 L
136.653 364.306 L
137.377 363.545 L
138.1 362.792 L
138.823 362.022 L
139.547 361.294 L
140.27 360.509 L
140.993 359.717 L
141.717 358.934 L
142.44 358.213 L
143.163 357.511 L
143.887 356.689 L
144.61 355.895 L
145.333 355.165 L
146.057 354.409 L
146.78 353.593 L
147.503 352.803 L
148.227 352.07 L
148.95 351.305 L
149.673 350.505 L
150.397 349.69 L
151.12 348.918 L
151.843 348.06 L
152.567 347.203 L
153.29 346.44 L
154.013 345.654 L
154.737 344.814 L
155.46 343.959 L
156.183 343.091 L
156.907 342.157 L
157.63 341.353 L
158.353 340.478 L
159.077 339.602 L
159.8 338.716 L
160.523 337.741 L
161.247 336.783 L
161.97 335.92 L
162.693 335.091 L
163.417 334.253 L
164.14 333.329 L
164.863 332.435 L
165.587 331.503 L
166.31 330.567 L
167.033 329.694 L
167.757 328.836 L
168.48 327.942 L
169.203 327.067 L
169.927 326.228 L
170.65 325.372 L
171.373 324.477 L
172.097 323.607 L
172.82 322.762 L
173.543 321.854 L
174.267 321.016 L
174.99 320.103 L
175.713 319.14 L
176.437 318.147 L
177.16 317.289 L
177.883 316.336 L
178.607 315.375 L
179.33 314.376 L
180.053 313.343 L
180.777 312.35 L
181.5 311.441 L
182.223 310.509 L
182.947 309.451 L
183.67 308.471 L
184.393 307.495 L
185.117 306.53 L
185.84 305.52 L
186.563 304.563 L
187.287 303.484 L
188.01 302.407 L
188.733 301.448 L
189.457 300.385 L
190.18 299.282 L
190.903 298.289 L
191.627 297.251 L
192.35 296.233 L
193.073 295.306 L
193.797 294.339 L
194.52 293.332 L
195.243 292.322 L
195.967 291.386 L
196.69 290.452 L
197.413 289.549 L
198.137 288.581 L
198.86 287.566 L
199.583 286.595 L
200.307 285.638 L
201.03 284.699 L
201.753 283.718 L
202.477 282.691 L
203.2 281.683 L
203.923 280.653 L
204.647 279.634 L
205.37 278.649 L
206.093 277.712 L
206.817 276.724 L
207.54 275.661 L
208.263 274.657 L
208.987 273.692 L
209.71 272.736 L
210.433 271.767 L
211.157 270.75 L
211.88 269.797 L
212.603 268.848 L
213.327 267.958 L
214.05 266.99 L
214.773 266.04 L
215.497 265.102 L
216.22 264.222 L
216.943 263.376 L
217.667 262.461 L
218.39 261.559 L
219.113 260.637 L
219.837 259.737 L
220.56 258.832 L
221.283 257.858 L
222.007 256.803 L
222.73 255.861 L
223.453 254.918 L
224.177 254.022 L
224.9 253.111 L
225.623 252.198 L
226.347 251.275 L
227.07 250.346 L
227.793 249.54 L
228.517 248.618 L
229.24 247.646 L
229.963 246.664 L
230.687 245.733 L
231.41 244.826 L
232.133 243.858 L
232.857 242.933 L
233.58 242.016 L
234.303 241.189 L
235.027 240.272 L
235.75 239.406 L
236.473 238.559 L
237.197 237.661 L
237.92 236.785 L
238.643 235.941 L
239.367 235.122 L
240.09 234.39 L
240.813 233.662 L
241.537 232.86 L
242.26 232.106 L
242.983 231.352 L
243.707 230.61 L
244.43 229.91 L
245.153 229.115 L
245.877 228.275 L
246.6 227.496 L
247.323 226.68 L
248.047 225.969 L
248.77 225.295 L
249.493 224.558 L
250.217 223.783 L
250.94 223.025 L
251.663 222.312 L
252.387 221.599 L
253.11 220.858 L
253.833 220.172 L
254.557 219.416 L
255.28 218.735 L
256.003 218.071 L
256.727 217.339 L
257.45 216.61 L
258.173 215.963 L
258.897 215.327 L
259.62 214.742 L
260.343 214.115 L
261.067 213.553 L
261.79 213.009 L
262.513 212.516 L
263.237 211.958 L
263.96 211.461 L
264.683 210.955 L
265.407 210.456 L
266.13 209.972 L
266.853 209.449 L
267.577 209.005 L
268.3 208.507 L
269.023 207.97 L
269.747 207.593 L
270.47 207.251 L
271.193 206.926 L
271.917 206.536 L
272.64 206.213 L
273.363 205.956 L
274.087 205.703 L
274.81 205.365 L
275.533 205.155 L
276.257 204.928 L
276.98 204.628 L
277.703 204.355 L
278.427 204.155 L
279.15 203.964 L
279.873 203.795 L
280.597 203.627 L
281.32 203.461 L
282.043 203.245 L
282.767 203.203 L
283.49 203.069 L
284.213 202.875 L
284.937 202.782 L
285.66 202.633 L
286.383 202.481 L
287.107 202.37 L
287.83 202.281 L
288.553 202.277 L
289.277 202.347 L
290 202.378 L
290.723 202.342 L
291.447 202.414 L
292.17 202.536 L
292.893 202.607 L
293.617 202.689 L
294.34 202.811 L
295.063 202.959 L
295.787 203.087 L
296.51 203.202 L
297.233 203.338 L
297.957 203.569 L
298.68 203.758 L
299.403 204.047 L
300.127 204.361 L
300.85 204.606 L
301.573 204.918 L
302.297 205.406 L
303.02 205.777 L
303.743 206.163 L
304.467 206.566 L
305.19 206.987 L
305.913 207.356 L
306.637 207.753 L
307.36 208.136 L
308.083 208.487 L
308.807 208.88 L
309.53 209.293 L
310.253 209.715 L
310.977 210.085 L
311.7 210.468 L
312.423 210.895 L
313.147 211.361 L
313.87 211.796 L
314.593 212.287 L
315.317 212.722 L
316.04 213.289 L
316.763 213.74 L
317.487 214.201 L
318.21 214.724 L
318.933 215.234 L
319.657 215.837 L
320.38 216.356 L
321.103 216.916 L
321.827 217.485 L
322.55 218.142 L
323.273 218.873 L
323.997 219.648 L
324.72 220.351 L
325.443 221.005 L
326.167 221.649 L
326.89 222.289 L
327.613 222.994 L
328.337 223.714 L
329.06 224.328 L
329.783 224.982 L
330.507 225.686 L
331.23 226.494 L
331.953 227.291 L
332.677 228.096 L
333.4 228.827 L
334.123 229.669 L
334.847 230.434 L
335.57 231.234 L
336.293 232.078 L
337.017 232.954 L
337.74 233.853 L
338.463 234.706 L
339.187 235.609 L
339.91 236.512 L
340.633 237.455 L
341.357 238.366 L
342.08 239.268 L
342.803 240.125 L
343.527 241.019 L
344.25 241.905 L
344.973 242.818 L
345.697 243.689 L
346.42 244.576 L
347.143 245.521 L
347.867 246.391 L
348.59 247.258 L
349.313 248.194 L
350.037 249.025 L
350.76 249.904 L
351.483 250.844 L
352.207 251.699 L
352.93 252.559 L
353.653 253.337 L
354.377 254.241 L
355.1 255.146 L
355.823 256.024 L
356.547 256.845 L
357.27 257.721 L
357.993 258.68 L
358.717 259.543 L
359.44 260.451 L
360.163 261.441 L
360.887 262.457 L
361.61 263.529 L
362.333 264.572 L
363.057 265.572 L
363.78 266.624 L
364.503 267.689 L
365.227 268.888 L
365.95 269.877 L
366.673 270.936 L
367.397 272.024 L
368.12 273.066 L
368.843 274.15 L
369.567 275.13 L
370.29 276.129 L
371.013 277.23 L
371.737 278.348 L
372.46 279.381 L
373.183 280.309 L
373.907 281.28 L
374.63 282.256 L
375.353 283.234 L
376.077 284.218 L
376.8 285.187 L
377.523 286.14 L
378.247 287.129 L
378.97 288.155 L
379.693 289.195 L
380.417 290.16 L
381.14 291.111 L
381.863 292.049 L
382.587 292.97 L
383.31 293.882 L
384.033 294.936 L
384.757 295.927 L
385.48 296.872 L
386.203 297.802 L
386.927 298.749 L
387.65 299.684 L
388.373 300.616 L
389.097 301.652 L
389.82 302.664 L
390.543 303.637 L
391.267 304.573 L
391.99 305.562 L
392.713 306.545 L
393.437 307.511 L
394.16 308.468 L
394.883 309.419 L
395.607 310.437 L
396.33 311.308 L
397.053 312.266 L
397.777 313.201 L
398.5 314.144 L
399.223 315.034 L
399.947 315.962 L
400.67 316.957 L
401.393 317.896 L
402.117 318.784 L
402.84 319.649 L
403.563 320.581 L
404.287 321.532 L
405.01 322.453 L
405.733 323.346 L
406.457 324.229 L
407.18 325.16 L
407.903 326.003 L
408.627 326.919 L
409.35 327.832 L
410.073 328.697 L
410.797 329.567 L
411.52 330.462 L
412.243 331.393 L
412.967 332.21 L
413.69 333.085 L
414.413 333.934 L
415.137 334.785 L
415.86 335.693 L
416.583 336.623 L
417.307 337.507 L
418.03 338.371 L
418.753 339.269 L
419.477 340.185 L
420.2 342.031 L
420.923 346.898 L
421.647 349.254 L
422.37 351.165 L
423.093 352.108 L
423.817 353.016 L
424.54 353.959 L
425.263 354.998 L
425.987 356.129 L
426.71 357.362 L
427.433 358.608 L
428.157 362.451 L
428.88 370.58 L
429.155 374.041 L
S
GR
GS
[0.75 0 0 0.75 0 0] CT
1 LJ
0.667 LW
N
163.564 374.041 M
163.706 373.671 L
164.429 372.171 L
165.153 370.214 L
165.876 365.076 L
166.599 362.67 L
167.323 361.041 L
168.046 359.013 L
168.769 357.533 L
169.493 356.685 L
170.216 355.895 L
170.939 355.13 L
171.663 354.359 L
172.386 353.548 L
173.109 352.755 L
173.833 351.948 L
174.556 351.136 L
175.279 350.441 L
176.003 349.655 L
176.726 348.777 L
177.449 347.925 L
178.173 347.113 L
178.896 346.308 L
179.619 345.558 L
180.343 344.73 L
181.066 343.958 L
181.789 343.105 L
182.513 342.324 L
183.236 341.549 L
183.959 340.808 L
184.683 340.043 L
185.406 339.264 L
186.129 338.444 L
186.853 337.699 L
187.576 336.939 L
188.299 336.185 L
189.023 335.338 L
189.746 334.506 L
190.469 333.638 L
191.193 332.775 L
191.916 331.899 L
192.639 331.085 L
193.363 330.3 L
194.086 329.404 L
194.809 328.496 L
195.533 327.503 L
196.256 326.613 L
196.979 325.737 L
197.703 324.853 L
198.426 323.989 L
199.149 322.975 L
199.873 322.032 L
200.596 321.117 L
201.319 320.205 L
202.043 319.271 L
202.766 318.356 L
203.489 317.377 L
204.213 316.381 L
204.936 315.539 L
205.659 314.62 L
206.383 313.718 L
207.106 312.755 L
207.829 311.788 L
208.553 310.898 L
209.276 310.016 L
209.999 309.113 L
210.723 308.234 L
211.446 307.291 L
212.169 306.349 L
212.893 305.458 L
213.616 304.569 L
214.339 303.685 L
215.063 302.719 L
215.786 301.788 L
216.509 300.773 L
217.233 299.803 L
217.956 298.865 L
218.679 297.887 L
219.403 296.898 L
220.126 295.945 L
220.849 295.002 L
221.573 293.994 L
222.296 293.074 L
223.019 292.14 L
223.743 291.272 L
224.466 290.306 L
225.189 289.342 L
225.913 288.411 L
226.636 287.408 L
227.359 286.394 L
228.083 285.403 L
228.806 284.409 L
229.529 283.482 L
230.253 282.469 L
230.976 281.411 L
231.699 280.366 L
232.423 279.37 L
233.146 278.371 L
233.869 277.362 L
234.593 276.33 L
235.316 275.376 L
236.039 274.388 L
236.763 273.385 L
237.486 272.375 L
238.209 271.481 L
238.933 270.54 L
239.656 269.527 L
240.379 268.544 L
241.103 267.612 L
241.826 266.702 L
242.549 265.724 L
243.273 264.771 L
243.996 263.828 L
244.719 262.866 L
245.443 261.966 L
246.166 260.988 L
246.889 260.044 L
247.613 259.112 L
248.336 258.174 L
249.059 257.213 L
249.783 256.256 L
250.506 255.371 L
251.229 254.409 L
251.953 253.502 L
252.676 252.501 L
253.399 251.502 L
254.123 250.498 L
254.846 249.611 L
255.569 248.702 L
256.293 247.639 L
257.016 246.752 L
257.739 245.829 L
258.463 244.917 L
259.186 243.99 L
259.909 243.023 L
260.633 242.084 L
261.356 241.174 L
262.079 240.274 L
262.803 239.389 L
263.526 238.538 L
264.249 237.611 L
264.973 236.758 L
265.696 235.924 L
266.419 235.041 L
267.143 234.14 L
267.866 233.248 L
268.589 232.333 L
269.313 231.507 L
270.036 230.571 L
270.759 229.631 L
271.483 228.689 L
272.206 227.766 L
272.929 226.967 L
273.653 226.125 L
274.376 225.228 L
275.099 224.361 L
275.823 223.585 L
276.546 222.73 L
277.269 221.97 L
277.993 221.2 L
278.716 220.384 L
279.439 219.547 L
280.163 218.78 L
280.886 218.01 L
281.609 217.21 L
282.333 216.505 L
283.056 215.839 L
283.779 215.087 L
284.503 214.338 L
285.226 213.639 L
285.949 212.906 L
286.673 212.239 L
287.396 211.489 L
288.119 210.778 L
288.843 210.032 L
289.566 209.369 L
290.289 208.723 L
291.013 208.036 L
291.736 207.313 L
292.459 206.662 L
293.183 206.08 L
293.906 205.391 L
294.629 204.788 L
295.353 204.196 L
296.076 203.662 L
296.799 203.188 L
297.523 202.692 L
298.246 202.194 L
298.969 201.649 L
299.693 201.129 L
300.416 200.637 L
301.139 200.239 L
301.863 199.834 L
302.586 199.265 L
303.309 198.741 L
304.033 198.282 L
304.756 197.893 L
305.479 197.406 L
306.203 196.947 L
306.926 196.477 L
307.649 196.069 L
308.373 195.72 L
309.096 195.341 L
309.819 195.054 L
310.543 194.706 L
311.266 194.479 L
311.989 194.25 L
312.713 193.873 L
313.436 193.625 L
314.159 193.396 L
314.883 193.192 L
315.606 192.967 L
316.329 192.75 L
317.053 192.446 L
317.776 192.281 L
318.499 192.198 L
319.223 192.164 L
319.946 191.963 L
320.669 191.77 L
321.393 191.669 L
322.116 191.59 L
322.839 191.474 L
323.563 191.404 L
324.286 191.23 L
325.009 191.193 L
325.733 191.13 L
326.456 191.043 L
327.179 191.084 L
327.903 191.076 L
328.626 191.079 L
329.349 191.095 L
330.073 191.121 L
330.796 191.229 L
331.519 191.242 L
332.243 191.278 L
332.966 191.348 L
333.689 191.517 L
334.413 191.614 L
335.136 191.715 L
335.859 191.83 L
336.583 191.977 L
337.306 192.119 L
338.029 192.251 L
338.753 192.473 L
339.476 192.717 L
340.199 192.962 L
340.923 193.222 L
341.646 193.472 L
342.369 193.769 L
343.093 194.105 L
343.816 194.536 L
344.539 194.881 L
345.263 195.171 L
345.986 195.46 L
346.709 195.8 L
347.433 196.1 L
348.156 196.492 L
348.879 196.824 L
349.603 197.197 L
350.326 197.639 L
351.049 198.033 L
351.773 198.434 L
352.496 198.819 L
353.219 199.307 L
353.943 199.899 L
354.666 200.419 L
355.389 200.943 L
356.113 201.393 L
356.836 201.976 L
357.559 202.608 L
358.283 203.214 L
359.006 203.72 L
359.729 204.365 L
360.453 204.916 L
361.176 205.5 L
361.899 206.164 L
362.623 206.79 L
363.346 207.411 L
364.069 208.064 L
364.793 208.705 L
365.516 209.313 L
366.239 210.037 L
366.963 210.693 L
367.686 211.418 L
368.409 212.186 L
369.133 212.925 L
369.856 213.735 L
370.579 214.543 L
371.303 215.353 L
372.026 216.106 L
372.749 216.868 L
373.473 217.692 L
374.196 218.429 L
374.919 219.197 L
375.643 219.968 L
376.366 220.777 L
377.089 221.6 L
377.813 222.469 L
378.536 223.305 L
379.259 224.187 L
379.983 225.054 L
380.706 225.954 L
381.429 226.806 L
382.153 227.762 L
382.876 228.656 L
383.599 229.542 L
384.323 230.439 L
385.046 231.458 L
385.769 232.373 L
386.493 233.214 L
387.216 234.116 L
387.939 235.062 L
388.663 235.979 L
389.386 236.884 L
390.109 237.798 L
390.833 238.748 L
391.556 239.655 L
392.279 240.582 L
393.003 241.518 L
393.726 242.49 L
394.449 243.513 L
395.173 244.45 L
395.896 245.447 L
396.619 246.453 L
397.343 247.451 L
398.066 248.532 L
398.789 249.529 L
399.513 250.531 L
400.236 251.632 L
400.959 252.688 L
401.683 253.775 L
402.406 254.858 L
403.129 255.87 L
403.853 256.928 L
404.576 257.873 L
405.299 258.953 L
406.023 259.998 L
406.746 261.02 L
407.469 262.194 L
408.193 263.222 L
408.916 264.207 L
409.639 265.309 L
410.363 266.351 L
411.086 267.416 L
411.809 268.388 L
412.533 269.32 L
413.256 270.261 L
413.979 271.301 L
414.703 272.372 L
415.426 273.28 L
416.149 274.191 L
416.873 275.15 L
417.596 276.082 L
418.319 277.086 L
419.043 278.076 L
419.766 279.031 L
420.489 279.965 L
421.213 280.908 L
421.936 281.869 L
422.659 282.815 L
423.383 283.764 L
424.106 284.73 L
424.829 285.599 L
425.553 286.556 L
426.276 287.488 L
426.999 288.394 L
427.723 289.372 L
428.446 290.268 L
429.169 291.187 L
429.893 292.081 L
430.616 293.128 L
431.339 294.153 L
432.063 295.108 L
432.786 295.945 L
433.509 296.882 L
434.233 297.869 L
434.956 298.883 L
435.679 299.801 L
436.403 300.682 L
437.126 301.6 L
437.849 302.594 L
438.573 303.512 L
439.296 304.458 L
440.019 305.376 L
440.743 306.336 L
441.466 307.227 L
442.189 308.073 L
442.913 308.962 L
443.636 309.885 L
444.359 310.862 L
445.083 311.754 L
445.806 312.638 L
446.529 313.44 L
447.253 314.284 L
447.976 315.215 L
448.699 316.122 L
449.423 317.052 L
450.146 317.858 L
450.869 318.71 L
451.593 319.552 L
452.316 320.432 L
453.039 321.307 L
453.763 322.145 L
454.486 323.007 L
455.209 323.898 L
455.933 324.825 L
456.656 325.759 L
457.379 326.624 L
458.103 327.575 L
458.826 330.445 L
459.549 333.597 L
460.273 334.718 L
460.996 335.581 L
461.719 336.445 L
462.443 337.334 L
463.166 338.198 L
463.889 339.149 L
464.613 340.152 L
465.336 341.652 L
466.059 343.584 L
466.783 350.743 L
467.506 352.298 L
468.229 357.01 L
468.953 359.587 L
469.676 362.823 L
470.399 365.941 L
471.123 368.697 L
471.846 371.643 L
472.144 374.041 L
S
GR
GS
[0.75 0 0 0.75 0 0] CT
[10 6] 0 setdash
2 LJ
0.667 LW
N
157.274 374.041 M
157.919 370.923 L
158.643 367.53 L
159.366 363.128 L
160.089 359.445 L
160.813 356.115 L
161.536 354.224 L
162.259 352.804 L
162.983 351.589 L
163.706 350.937 L
164.429 351.887 L
165.153 353.187 L
165.876 350.46 L
166.599 348.355 L
167.323 346.715 L
168.046 344.614 L
168.769 343.089 L
169.493 342.222 L
170.216 341.351 L
170.939 340.513 L
171.663 339.663 L
172.386 338.784 L
173.109 337.927 L
173.833 337.05 L
174.556 336.157 L
175.279 335.409 L
176.003 334.579 L
176.726 333.672 L
177.449 332.773 L
178.173 331.897 L
178.896 331.028 L
179.619 330.248 L
180.343 329.375 L
181.066 328.578 L
181.789 327.666 L
182.513 326.86 L
183.236 326.078 L
183.959 325.323 L
184.683 324.496 L
185.406 323.687 L
186.129 322.817 L
186.853 322.045 L
187.576 321.216 L
188.299 320.413 L
189.023 319.506 L
189.746 318.635 L
190.469 317.722 L
191.193 316.797 L
191.916 315.834 L
192.639 314.976 L
193.363 314.179 L
194.086 313.237 L
194.809 312.28 L
195.533 311.252 L
196.256 310.343 L
196.979 309.435 L
197.703 308.517 L
198.426 307.625 L
199.149 306.599 L
199.873 305.642 L
200.596 304.7 L
201.319 303.784 L
202.043 302.81 L
202.766 301.846 L
203.489 300.837 L
204.213 299.832 L
204.936 299 L
205.659 298.036 L
206.383 297.104 L
207.106 296.114 L
207.829 295.096 L
208.553 294.178 L
209.276 293.296 L
209.999 292.372 L
210.723 291.472 L
211.446 290.504 L
212.169 289.543 L
212.893 288.64 L
213.616 287.771 L
214.339 286.917 L
215.063 285.98 L
215.786 285.06 L
216.509 284.028 L
217.233 283.056 L
217.956 282.152 L
218.679 281.18 L
219.403 280.228 L
220.126 279.274 L
220.849 278.343 L
221.573 277.379 L
222.296 276.475 L
223.019 275.557 L
223.743 274.708 L
224.466 273.748 L
225.189 272.773 L
225.913 271.845 L
226.636 270.823 L
227.359 269.817 L
228.083 268.816 L
228.806 267.812 L
229.529 266.883 L
230.253 265.881 L
230.976 264.823 L
231.699 263.77 L
232.423 262.759 L
233.146 261.755 L
233.869 260.752 L
234.593 259.74 L
235.316 258.822 L
236.039 257.847 L
236.763 256.823 L
237.486 255.818 L
238.209 254.939 L
238.933 254.05 L
239.656 253.025 L
240.379 252.007 L
241.103 251.066 L
241.826 250.148 L
242.549 249.169 L
243.273 248.211 L
243.996 247.253 L
244.719 246.255 L
245.443 245.326 L
246.166 244.337 L
246.889 243.389 L
247.613 242.466 L
248.336 241.499 L
249.059 240.536 L
249.783 239.577 L
250.506 238.706 L
251.229 237.737 L
251.953 236.826 L
252.676 235.839 L
253.399 234.885 L
254.123 233.934 L
254.846 233.077 L
255.569 232.193 L
256.293 231.153 L
257.016 230.287 L
257.739 229.365 L
258.463 228.496 L
259.186 227.614 L
259.909 226.679 L
260.633 225.759 L
261.356 224.872 L
262.079 223.973 L
262.803 223.084 L
263.526 222.241 L
264.249 221.321 L
264.973 220.496 L
265.696 219.655 L
266.419 218.758 L
267.143 217.862 L
267.866 217.026 L
268.589 216.132 L
269.313 215.322 L
270.036 214.38 L
270.759 213.461 L
271.483 212.552 L
272.206 211.652 L
272.929 210.87 L
273.653 210.034 L
274.376 209.131 L
275.099 208.293 L
275.823 207.52 L
276.546 206.646 L
277.269 205.89 L
277.993 205.121 L
278.716 204.312 L
279.439 203.484 L
280.163 202.698 L
280.886 201.935 L
281.609 201.125 L
282.333 200.416 L
283.056 199.753 L
283.779 198.988 L
284.503 198.252 L
285.226 197.543 L
285.949 196.792 L
286.673 196.12 L
287.396 195.352 L
288.119 194.631 L
288.843 193.913 L
289.566 193.242 L
290.289 192.586 L
291.013 191.914 L
291.736 191.201 L
292.459 190.582 L
293.183 190.013 L
293.906 189.349 L
294.629 188.766 L
295.353 188.19 L
296.076 187.679 L
296.799 187.249 L
297.523 186.77 L
298.246 186.262 L
298.969 185.719 L
299.693 185.182 L
300.416 184.678 L
301.139 184.261 L
301.863 183.859 L
302.586 183.284 L
303.309 182.731 L
304.033 182.227 L
304.756 181.806 L
305.479 181.315 L
306.203 180.827 L
306.926 180.332 L
307.649 179.89 L
308.373 179.537 L
309.096 179.174 L
309.819 178.883 L
310.543 178.519 L
311.266 178.264 L
311.989 178.006 L
312.713 177.626 L
313.436 177.375 L
314.159 177.12 L
314.883 176.899 L
315.606 176.672 L
316.329 176.436 L
317.053 176.105 L
317.776 175.937 L
318.499 175.846 L
319.223 175.833 L
319.946 175.645 L
320.669 175.45 L
321.393 175.338 L
322.116 175.262 L
322.839 175.133 L
323.563 175.042 L
324.286 174.825 L
325.009 174.752 L
325.733 174.687 L
326.456 174.618 L
327.179 174.639 L
327.903 174.582 L
328.626 174.563 L
329.349 174.553 L
330.073 174.56 L
330.796 174.637 L
331.519 174.634 L
332.243 174.625 L
332.966 174.666 L
333.689 174.785 L
334.413 174.831 L
335.136 174.868 L
335.859 174.947 L
336.583 175.05 L
337.306 175.136 L
338.029 175.195 L
338.753 175.33 L
339.476 175.529 L
340.199 175.719 L
340.923 175.893 L
341.646 176.074 L
342.369 176.315 L
343.093 176.626 L
343.816 177.014 L
344.539 177.283 L
345.263 177.526 L
345.986 177.786 L
346.709 178.109 L
347.433 178.391 L
348.156 178.75 L
348.879 179.064 L
349.603 179.437 L
350.326 179.868 L
351.049 180.257 L
351.773 180.643 L
352.496 180.976 L
353.219 181.444 L
353.943 182.005 L
354.666 182.465 L
355.389 182.91 L
356.113 183.299 L
356.836 183.829 L
357.559 184.385 L
358.283 184.894 L
359.006 185.315 L
359.729 185.909 L
360.453 186.417 L
361.176 186.949 L
361.899 187.539 L
362.623 188.09 L
363.346 188.678 L
364.069 189.314 L
364.793 189.936 L
365.516 190.519 L
366.239 191.202 L
366.963 191.808 L
367.686 192.532 L
368.409 193.31 L
369.133 194.008 L
369.856 194.789 L
370.579 195.569 L
371.303 196.369 L
372.026 197.058 L
372.749 197.798 L
373.473 198.608 L
374.196 199.356 L
374.919 200.118 L
375.643 200.859 L
376.366 201.656 L
377.089 202.481 L
377.813 203.345 L
378.536 204.184 L
379.259 205.076 L
379.983 205.94 L
380.706 206.85 L
381.429 207.717 L
382.153 208.674 L
382.876 209.547 L
383.599 210.422 L
384.323 211.317 L
385.046 212.344 L
385.769 213.244 L
386.493 214.097 L
387.216 214.983 L
387.939 215.91 L
388.663 216.815 L
389.386 217.71 L
390.109 218.616 L
390.833 219.588 L
391.556 220.513 L
392.279 221.453 L
393.003 222.437 L
393.726 223.435 L
394.449 224.551 L
395.173 225.517 L
395.896 226.586 L
396.619 227.638 L
397.343 228.7 L
398.066 229.829 L
398.789 230.866 L
399.513 231.923 L
400.236 233.08 L
400.959 234.178 L
401.683 235.291 L
402.406 236.412 L
403.129 237.488 L
403.853 238.611 L
404.576 239.575 L
405.299 240.681 L
406.023 241.749 L
406.746 242.796 L
407.469 244.007 L
408.193 245.043 L
408.916 246.052 L
409.639 247.19 L
410.363 248.246 L
411.086 249.353 L
411.809 250.374 L
412.533 251.335 L
413.256 252.288 L
413.979 253.362 L
414.703 254.433 L
415.426 255.346 L
416.149 256.282 L
416.873 257.291 L
417.596 258.246 L
418.319 259.272 L
419.043 260.28 L
419.766 261.24 L
420.489 262.188 L
421.213 263.16 L
421.936 264.139 L
422.659 265.083 L
423.383 266.044 L
424.106 267.026 L
424.829 267.903 L
425.553 268.881 L
426.276 269.828 L
426.999 270.741 L
427.723 271.75 L
428.446 272.649 L
429.169 273.574 L
429.893 274.5 L
430.616 275.564 L
431.339 276.654 L
432.063 277.631 L
432.786 278.519 L
433.509 279.479 L
434.233 280.52 L
434.956 281.554 L
435.679 282.526 L
436.403 283.449 L
437.126 284.405 L
437.849 285.444 L
438.573 286.408 L
439.296 287.389 L
440.019 288.371 L
440.743 289.362 L
441.466 290.303 L
442.189 291.207 L
442.913 292.134 L
443.636 293.125 L
444.359 294.122 L
445.083 295.027 L
445.806 295.944 L
446.529 296.831 L
447.253 297.694 L
447.976 298.667 L
448.699 299.616 L
449.423 300.583 L
450.146 301.462 L
450.869 302.337 L
451.593 303.203 L
452.316 304.104 L
453.039 305.034 L
453.763 305.951 L
454.486 306.851 L
455.209 307.785 L
455.933 308.763 L
456.656 309.764 L
457.379 310.681 L
458.103 311.692 L
458.826 313.931 L
459.549 315.315 L
460.273 316.212 L
460.996 317.124 L
461.719 318.042 L
462.443 319.011 L
463.166 319.954 L
463.889 320.94 L
464.613 321.972 L
465.336 323.517 L
466.059 325.362 L
466.783 332.026 L
467.506 330.973 L
468.229 332.211 L
468.953 334.602 L
469.676 336.552 L
470.399 338.154 L
471.123 339.264 L
471.846 342.038 L
472.569 346.637 L
473.293 355.545 L
474.016 363.481 L
474.658 374.041 L
S
GR
GS
[0.75 0 0 0.75 0 0] CT
[10 6] 0 setdash
2 LJ
0.667 LW
N
167.814 374.041 M
168.046 373.413 L
168.769 371.977 L
169.493 371.148 L
170.216 370.439 L
170.939 369.748 L
171.663 369.055 L
172.386 368.312 L
173.109 367.583 L
173.833 366.847 L
174.556 366.116 L
175.279 365.472 L
176.003 364.731 L
176.726 363.882 L
177.449 363.077 L
178.173 362.328 L
178.896 361.588 L
179.619 360.867 L
180.343 360.085 L
181.066 359.338 L
181.789 358.544 L
182.513 357.788 L
183.236 357.02 L
183.959 356.293 L
184.683 355.591 L
185.406 354.841 L
186.129 354.072 L
186.853 353.353 L
187.576 352.661 L
188.299 351.958 L
189.023 351.17 L
189.746 350.377 L
190.469 349.554 L
191.193 348.752 L
191.916 347.964 L
192.639 347.194 L
193.363 346.42 L
194.086 345.572 L
194.809 344.712 L
195.533 343.753 L
196.256 342.883 L
196.979 342.038 L
197.703 341.19 L
198.426 340.353 L
199.149 339.351 L
199.873 338.423 L
200.596 337.534 L
201.319 336.626 L
202.043 335.732 L
202.766 334.866 L
203.489 333.918 L
204.213 332.929 L
204.936 332.077 L
205.659 331.203 L
206.383 330.332 L
207.106 329.396 L
207.829 328.48 L
208.553 327.617 L
209.276 326.736 L
209.999 325.854 L
210.723 324.996 L
211.446 324.077 L
212.169 323.156 L
212.893 322.276 L
213.616 321.366 L
214.339 320.453 L
215.063 319.458 L
215.786 318.515 L
216.509 317.518 L
217.233 316.551 L
217.956 315.579 L
218.679 314.594 L
219.403 313.569 L
220.126 312.615 L
220.849 311.662 L
221.573 310.61 L
222.296 309.674 L
223.019 308.722 L
223.743 307.835 L
224.466 306.865 L
225.189 305.912 L
225.913 304.978 L
226.636 303.992 L
227.359 302.972 L
228.083 301.99 L
228.806 301.005 L
229.529 300.081 L
230.253 299.056 L
230.976 297.998 L
231.699 296.962 L
232.423 295.981 L
233.146 294.987 L
233.869 293.971 L
234.593 292.92 L
235.316 291.931 L
236.039 290.929 L
236.763 289.947 L
237.486 288.933 L
238.209 288.024 L
238.933 287.03 L
239.656 286.028 L
240.379 285.081 L
241.103 284.158 L
241.826 283.256 L
242.549 282.279 L
243.273 281.331 L
243.996 280.403 L
244.719 279.477 L
245.443 278.606 L
246.166 277.639 L
246.889 276.7 L
247.613 275.759 L
248.336 274.849 L
249.059 273.89 L
249.783 272.936 L
250.506 272.036 L
251.229 271.081 L
251.953 270.178 L
252.676 269.164 L
253.399 268.119 L
254.123 267.063 L
254.846 266.145 L
255.569 265.212 L
256.293 264.124 L
257.016 263.217 L
257.739 262.293 L
258.463 261.338 L
259.186 260.366 L
259.909 259.366 L
260.633 258.409 L
261.356 257.475 L
262.079 256.576 L
262.803 255.695 L
263.526 254.835 L
264.249 253.901 L
264.973 253.019 L
265.696 252.192 L
266.419 251.324 L
267.143 250.418 L
267.866 249.471 L
268.589 248.533 L
269.313 247.692 L
270.036 246.761 L
270.759 245.8 L
271.483 244.826 L
272.206 243.881 L
272.929 243.064 L
273.653 242.216 L
274.376 241.325 L
275.099 240.429 L
275.823 239.65 L
276.546 238.814 L
277.269 238.05 L
277.993 237.278 L
278.716 236.456 L
279.439 235.61 L
280.163 234.861 L
280.886 234.084 L
281.609 233.295 L
282.333 232.594 L
283.056 231.925 L
283.779 231.185 L
284.503 230.424 L
285.226 229.734 L
285.949 229.02 L
286.673 228.357 L
287.396 227.626 L
288.119 226.924 L
288.843 226.151 L
289.566 225.496 L
290.289 224.861 L
291.013 224.158 L
291.736 223.425 L
292.459 222.743 L
293.183 222.147 L
293.906 221.433 L
294.629 220.811 L
295.353 220.202 L
296.076 219.644 L
296.799 219.127 L
297.523 218.614 L
298.246 218.127 L
298.969 217.58 L
299.693 217.076 L
300.416 216.597 L
301.139 216.217 L
301.863 215.809 L
302.586 215.246 L
303.309 214.752 L
304.033 214.336 L
304.756 213.981 L
305.479 213.497 L
306.203 213.067 L
306.926 212.622 L
307.649 212.248 L
308.373 211.902 L
309.096 211.508 L
309.819 211.225 L
310.543 210.892 L
311.266 210.694 L
311.989 210.495 L
312.713 210.121 L
313.436 209.875 L
314.159 209.673 L
314.883 209.485 L
315.606 209.261 L
316.329 209.064 L
317.053 208.787 L
317.776 208.626 L
318.499 208.55 L
319.223 208.496 L
319.946 208.281 L
320.669 208.089 L
321.393 208.001 L
322.116 207.919 L
322.839 207.815 L
323.563 207.766 L
324.286 207.636 L
325.009 207.633 L
325.733 207.573 L
326.456 207.467 L
327.179 207.528 L
327.903 207.569 L
328.626 207.596 L
329.349 207.637 L
330.073 207.682 L
330.796 207.822 L
331.519 207.849 L
332.243 207.932 L
332.966 208.03 L
333.689 208.249 L
334.413 208.398 L
335.136 208.562 L
335.859 208.713 L
336.583 208.904 L
337.306 209.103 L
338.029 209.308 L
338.753 209.617 L
339.476 209.905 L
340.199 210.204 L
340.923 210.551 L
341.646 210.87 L
342.369 211.222 L
343.093 211.584 L
343.816 212.058 L
344.539 212.478 L
345.263 212.815 L
345.986 213.134 L
346.709 213.491 L
347.433 213.808 L
348.156 214.234 L
348.879 214.584 L
349.603 214.957 L
350.326 215.411 L
351.049 215.808 L
351.773 216.224 L
352.496 216.662 L
353.219 217.17 L
353.943 217.793 L
354.666 218.374 L
355.389 218.976 L
356.113 219.486 L
356.836 220.122 L
357.559 220.83 L
358.283 221.533 L
359.006 222.124 L
359.729 222.821 L
360.453 223.416 L
361.176 224.052 L
361.899 224.79 L
362.623 225.49 L
363.346 226.144 L
364.069 226.815 L
364.793 227.474 L
365.516 228.106 L
366.239 228.872 L
366.963 229.578 L
367.686 230.304 L
368.409 231.061 L
369.133 231.843 L
369.856 232.681 L
370.579 233.516 L
371.303 234.336 L
372.026 235.154 L
372.749 235.938 L
373.473 236.776 L
374.196 237.503 L
374.919 238.275 L
375.643 239.077 L
376.366 239.898 L
377.089 240.718 L
377.813 241.593 L
378.536 242.426 L
379.259 243.297 L
379.983 244.168 L
380.706 245.058 L
381.429 245.896 L
382.153 246.851 L
382.876 247.765 L
383.599 248.663 L
384.323 249.561 L
385.046 250.572 L
385.769 251.503 L
386.493 252.331 L
387.216 253.248 L
387.939 254.214 L
388.663 255.143 L
389.386 256.059 L
390.109 256.979 L
390.833 257.909 L
391.556 258.796 L
392.279 259.711 L
393.003 260.598 L
393.726 261.546 L
394.449 262.475 L
395.173 263.384 L
395.896 264.308 L
396.619 265.267 L
397.343 266.203 L
398.066 267.235 L
398.789 268.192 L
399.513 269.139 L
400.236 270.184 L
400.959 271.197 L
401.683 272.259 L
402.406 273.304 L
403.129 274.252 L
403.853 275.244 L
404.576 276.172 L
405.299 277.225 L
406.023 278.246 L
406.746 279.245 L
407.469 280.382 L
408.193 281.402 L
408.916 282.361 L
409.639 283.429 L
410.363 284.457 L
411.086 285.479 L
411.809 286.403 L
412.533 287.304 L
413.256 288.233 L
413.979 289.24 L
414.703 290.31 L
415.426 291.215 L
416.149 292.101 L
416.873 293.009 L
417.596 293.918 L
418.319 294.901 L
419.043 295.871 L
419.766 296.822 L
420.489 297.742 L
421.213 298.655 L
421.936 299.599 L
422.659 300.546 L
423.383 301.485 L
424.106 302.434 L
424.829 303.296 L
425.553 304.231 L
426.276 305.148 L
426.999 306.048 L
427.723 306.994 L
428.446 307.887 L
429.169 308.8 L
429.893 309.662 L
430.616 310.692 L
431.339 311.653 L
432.063 312.586 L
432.786 313.372 L
433.509 314.286 L
434.233 315.219 L
434.956 316.212 L
435.679 317.075 L
436.403 317.916 L
437.126 318.796 L
437.849 319.745 L
438.573 320.615 L
439.296 321.528 L
440.019 322.38 L
440.743 323.31 L
441.466 324.151 L
442.189 324.94 L
442.913 325.791 L
443.636 326.645 L
444.359 327.603 L
445.083 328.482 L
445.806 329.331 L
446.529 330.049 L
447.253 330.874 L
447.976 331.762 L
448.699 332.628 L
449.423 333.522 L
450.146 334.255 L
450.869 335.083 L
451.593 335.901 L
452.316 336.761 L
453.039 337.581 L
453.763 338.34 L
454.486 339.162 L
455.209 340.011 L
455.933 340.886 L
456.656 341.755 L
457.379 342.567 L
458.103 343.457 L
458.826 346.959 L
459.549 351.879 L
460.273 353.225 L
460.996 354.037 L
461.719 354.848 L
462.443 355.657 L
463.166 356.443 L
463.889 357.359 L
464.613 358.331 L
465.336 359.788 L
466.059 361.805 L
466.783 369.461 L
467.506 373.622 L
467.543 374.041 L
S
GR
GS
[0.75 0 0 0.75 0 0] CT
1 GC
N
496 78 M
496 42 L
369 42 L
369 78 L
cp
f
GR
GS
[0.75 0 0 0.75 312 38.89726] CT
/Helvetica 12 F
GS
[1 0 0 1 0 0] CT
0 5 moveto 
1 -1 scale
(PCD centered) t 
GR
GR
GS
[0.75 0 0 0.75 0 0] CT
0 1 1 RC
1 LJ
0.667 LW
N
373 51.863 M
413 51.863 L
S
GR
GS
[0.75 0 0 0.75 312 51.10274] CT
/Helvetica 12 F
GS
[1 0 0 1 0 0] CT
0 5 moveto 
1 -1 scale
(PRL centered) t 
GR
GR
GS
[0.75 0 0 0.75 0 0] CT
1 LJ
0.667 LW
N
373 68.137 M
413 68.137 L
S
GR
GS
[0.75 0 0 0.75 0 0] CT
0.149 GC
10.0 ML
0.667 LW
N
369 78 M
369 42 L
496 42 L
496 78 L
cp
S
GR
%%Trailer
%%Pages: 1
%%EOF
