53	135
53	140
53	145
53	152
53	162
53	168
53	196
53	203
53	218
53	232
53	242
53	255
53	293
53	308
53	323
53	339
53	357
53	374
53	379
53	387
53	405
53	415
53	428
53	445
53	471
53	476
53	491
53	504
53	518
53	523
53	532
53	539
53	545
53	554
53	585
53	598
53	604
53	619
53	624
53	638
53	643
55	176
55	188
55	212
55	228
55	239
55	249
55	305
55	313
55	317
55	333
55	368
55	383
55	412
55	441
55	485
55	499
55	512
55	558
55	563
55	609
55	647
55	653
56	150
56	156
56	172
56	194
56	223
56	258
56	450
56	463
57	134
57	254
57	323
57	387
57	404
57	417
57	430
57	492
57	505
57	524
57	531
57	539
57	553
57	586
57	600
57	639
58	199
58	205
58	282
58	469
58	567
59	139
59	145
59	219
59	286
59	302
59	426
59	457
59	594
59	615
59	619
60	75
60	84
60	92
60	99
60	109
60	121
60	132
60	172
60	182
60	230
60	256
60	276
60	321
60	325
60	330
60	336
60	346
60	350
60	372
60	377
60	410
60	449
60	474
60	489
60	527
60	544
60	551
60	558
60	563
60	578
60	625
60	634
61	128
61	150
61	164
61	269
61	310
61	316
61	355
61	363
61	406
61	436
61	442
61	501
61	513
61	571
61	583
61	643
61	658
62	105
62	189
62	212
62	225
62	294
62	385
62	395
62	416
62	536
62	592
62	609
62	648
63	42
63	46
63	56
63	69
63	86
63	200
63	241
63	250
63	301
63	375
63	430
63	480
63	530
63	602
64	36
64	75
64	119
64	135
64	142
64	159
64	172
64	256
64	277
64	289
64	337
64	342
64	366
64	462
64	474
65	61
65	83
65	96
65	262
65	348
65	437
65	524
65	581
65	629
65	638
66	177
66	220
66	378
66	432
66	552
66	568
66	596
66	643
67	39
67	54
67	65
67	73
67	194
67	211
67	287
67	385
67	395
67	421
67	451
67	458
67	489
67	543
67	587
67	634
68	47
68	77
68	107
68	121
68	140
68	154
68	173
68	187
68	223
68	236
68	248
68	273
68	324
68	337
68	353
68	364
68	371
68	416
68	495
68	505
68	578
68	609
68	618
68	672
69	91
69	115
69	128
69	160
69	204
69	215
69	256
69	284
69	293
69	301
69	307
69	315
69	330
69	358
69	381
69	407
69	435
69	444
69	470
69	479
69	519
69	556
69	638
69	649
69	657
69	663
69	677
69	686
69	695
69	703
70	82
70	102
70	145
70	165
70	181
70	242
70	265
70	277
70	343
70	392
70	401
70	512
70	565
70	574
70	667
71	536
71	601
72	197
72	682
72	690
73	50
73	134
73	186
73	192
73	219
73	227
73	445
73	452
73	500
73	530
73	576
73	644
73	675
74	71
74	127
74	152
74	172
74	181
74	204
74	214
74	240
74	250
74	285
74	293
74	299
74	331
74	356
74	366
74	389
74	407
74	414
74	423
74	438
74	459
74	467
74	474
74	484
74	522
74	546
74	583
74	588
74	611
74	625
74	662
75	39
75	61
75	98
75	159
75	232
75	266
75	276
75	313
75	322
75	337
75	375
75	595
75	617
75	629
75	635
75	649
76	345
76	443
76	492
76	569
76	620
77	78
77	398
77	654
77	679
78	88
78	112
78	128
78	146
78	184
78	202
78	213
78	220
78	227
78	240
78	249
78	253
78	259
78	331
78	404
78	410
78	455
78	473
78	498
78	506
78	518
78	540
78	548
78	578
78	591
78	599
78	612
78	643
78	670
78	687
79	69
79	123
79	154
79	273
79	284
79	290
79	298
79	313
79	337
79	356
79	367
79	384
79	421
79	428
79	439
79	468
79	484
79	527
79	555
79	563
79	571
79	604
79	618
79	696
80	43
80	53
80	61
80	305
80	666
81	100
81	119
81	167
81	621
81	684
81	693
82	84
82	93
82	138
82	176
82	237
82	329
82	404
82	437
82	449
82	457
82	561
82	629
82	638
82	660
82	674
83	35
83	45
83	73
83	145
83	200
83	220
83	242
83	251
83	258
83	270
83	289
83	300
83	311
83	320
83	374
83	390
83	397
83	466
83	502
83	513
83	520
83	534
83	542
83	573
83	584
83	648
83	701
84	69
84	109
84	121
84	155
84	188
84	207
84	263
84	277
84	492
84	593
84	611
84	644
85	347
85	413
85	482
86	232
86	340
86	353
86	362
86	527
86	668
86	677
86	686
87	34
87	43
87	60
87	170
87	220
87	251
87	259
87	269
87	292
87	307
87	316
87	387
87	396
87	406
87	426
87	438
87	469
87	514
87	539
87	558
87	582
87	602
87	625
87	639
88	68
88	111
88	274
88	300
88	329
88	380
88	496
88	504
88	553
88	563
88	573
88	590
88	615
88	693
89	54
89	72
89	91
89	121
89	140
89	153
89	241
89	368
89	432
89	653
90	133
90	162
90	176
90	204
90	212
90	226
90	447
90	454
90	544
91	30
91	36
91	46
91	63
91	102
91	115
91	145
91	288
91	305
91	326
91	359
91	374
91	387
91	395
91	470
91	486
91	521
91	622
91	635
91	649
92	184
92	319
92	407
92	425
92	462
92	535
92	582
92	595
92	604
92	614
92	641
92	675
93	78
93	87
93	97
93	168
93	190
93	264
93	402
93	417
93	440
93	496
93	511
93	587
93	631
93	657
93	666
93	683
93	702
94	67
94	109
94	176
94	214
94	235
94	256
94	270
94	278
94	312
94	335
94	343
94	479
94	503
94	557
94	568
95	31
95	46
95	125
95	206
95	242
95	249
95	296
95	349
95	525
95	551
95	576
95	623
95	645
95	692
96	36
96	57
96	139
96	223
96	327
97	103
97	148
97	159
97	183
97	200
97	355
97	382
97	448
97	471
97	517
97	541
97	654
98	50
98	72
98	132
98	376
98	391
98	409
98	421
98	456
98	487
98	604
98	686
98	697
99	29
99	40
99	82
99	116
99	167
99	173
99	231
99	261
99	267
99	306
99	342
99	348
99	360
99	369
99	398
99	427
99	462
99	532
99	637
99	661
100	155
100	191
100	206
100	220
100	253
100	274
100	301
100	320
100	441
100	479
100	556
100	563
100	597
100	621
101	238
101	245
101	283
101	290
101	315
101	413
101	502
101	525
101	588
101	611
101	671
101	679
101	690
102	109
102	143
102	226
102	336
102	434
102	570
102	579
102	631
102	649
103	29
103	64
103	123
103	199
103	213
103	328
103	381
103	389
103	493
103	642
104	41
104	55
104	86
104	101
104	137
104	159
104	168
104	176
104	184
104	257
104	405
104	450
104	458
104	473
104	515
104	539
104	547
104	693
105	48
105	94
105	150
105	309
105	342
105	356
105	364
105	372
105	426
105	465
105	485
105	647
105	700
106	79
106	233
106	264
106	270
106	277
106	315
106	348
106	507
106	562
106	682
107	130
107	192
107	207
107	220
107	249
107	286
107	294
107	303
107	322
107	334
107	397
107	418
107	442
107	499
107	530
107	591
107	604
107	624
107	634
107	665
107	674
108	27
108	31
108	71
108	241
108	411
108	478
108	522
108	552
108	570
108	585
108	655
108	702
109	86
109	109
109	122
109	143
109	227
109	327
109	432
109	614
109	642
110	44
110	60
110	172
110	180
110	200
110	213
110	376
110	384
110	392
110	454
110	546
110	693
111	51
111	157
111	186
111	256
111	308
111	369
111	403
111	423
111	471
111	491
111	513
111	598
111	630
111	651
111	678
112	115
112	135
112	164
112	234
112	281
112	339
112	346
112	354
112	361
112	446
112	507
112	537
112	577
112	658
112	668
113	101
113	150
113	193
113	249
113	265
113	273
113	297
113	416
113	461
113	484
113	560
113	621
113	686
113	699
114	36
114	93
114	168
114	220
114	291
114	314
114	438
114	520
114	530
114	591
114	605
115	27
115	59
115	66
115	75
115	129
115	173
115	206
115	322
115	330
115	410
115	477
115	497
115	568
115	636
115	692
116	51
116	121
116	143
116	241
116	303
116	374
116	380
116	466
116	596
116	675
116	682
116	704
117	108
117	177
117	228
117	257
117	285
117	387
117	395
117	430
117	452
117	471
117	511
117	546
117	553
117	583
117	613
117	647
117	695
118	44
118	84
118	100
118	135
118	156
118	183
118	214
118	277
118	309
118	338
118	402
118	643
118	661
119	114
119	169
119	234
119	270
119	344
119	351
119	359
119	421
119	490
119	536
119	678
119	688
120	26
120	56
120	149
120	162
120	190
120	199
120	296
120	317
120	367
120	444
120	503
120	559
120	575
120	629
120	653
121	37
121	47
121	62
121	91
121	221
121	250
121	263
121	325
121	414
121	482
122	53
122	128
122	143
122	207
122	289
122	376
122	382
122	436
122	475
122	515
122	527
122	604
122	620
122	683
123	78
123	84
123	155
123	176
123	228
123	242
123	281
123	303
123	331
123	390
123	407
123	459
123	465
123	495
123	590
123	637
123	672
124	69
124	98
124	105
124	111
124	120
124	186
124	256
124	311
124	399
124	428
124	450
124	521
124	567
125	20
125	41
125	169
125	193
125	274
125	340
125	354
125	363
125	541
125	551
125	582
125	646
125	663
125	700
126	29
126	45
126	62
126	148
126	214
126	268
126	295
126	320
126	347
126	369
126	419
126	509
126	598
126	613
126	695
127	54
127	96
127	135
127	201
127	235
127	249
127	441
127	487
127	558
127	628
128	35
128	160
128	221
128	262
128	327
128	377
128	433
128	574
128	654
128	682
129	13
129	19
129	26
129	40
129	90
129	116
129	141
129	181
129	242
129	287
129	334
129	386
129	394
129	401
129	461
129	478
129	500
129	518
129	535
129	589
129	659
130	76
130	83
130	124
130	131
130	173
130	210
130	280
130	306
130	342
130	409
130	455
130	470
130	495
130	525
130	583
130	604
130	620
130	667
131	58
131	101
131	109
131	153
131	189
131	228
131	315
131	350
131	358
131	425
131	544
131	635
132	49
132	166
132	267
132	274
132	298
132	365
132	448
132	552
133	197
133	203
133	215
133	235
133	321
133	440
133	505
133	567
133	691
133	706
134	9
134	14
134	18
134	24
134	33
134	94
134	146
134	373
134	405
134	417
134	513
134	580
134	596
134	628
134	645
134	662
134	678
135	137
135	141
135	158
135	178
135	240
135	249
135	283
135	291
135	330
135	381
135	390
135	475
135	521
135	560
135	613
135	700
136	72
136	87
136	121
136	129
136	222
136	262
136	303
136	338
136	345
136	397
136	411
136	430
136	466
136	484
136	530
136	537
136	672
136	708
137	63
137	80
137	104
137	113
137	171
137	185
137	208
137	256
137	271
137	353
137	360
137	452
137	490
137	498
137	589
137	683
138	18
138	39
138	54
138	151
138	229
138	277
138	309
138	317
138	460
138	546
138	573
138	619
138	638
138	657
139	7
139	193
139	297
139	369
139	422
139	444
139	508
139	553
139	603
140	99
140	163
140	201
140	216
140	236
140	325
140	376
140	405
140	437
140	471
140	611
140	651
140	691
140	698
141	91
141	126
141	134
141	142
141	244
141	340
141	383
141	414
141	479
141	516
141	557
141	565
141	595
141	628
141	677
141	682
141	705
142	30
142	66
142	176
142	251
142	285
142	331
142	391
142	486
142	525
142	532
142	581
142	662
143	11
143	24
143	44
143	61
143	84
143	110
143	117
143	156
143	181
143	223
143	258
143	265
143	303
143	349
143	429
143	494
143	541
143	645
143	700
143	708
144	189
144	209
144	272
144	312
144	355
144	450
144	457
144	502
144	586
144	653
145	17
145	36
145	52
145	77
145	149
145	169
145	196
145	231
145	291
145	363
145	370
145	400
145	421
145	442
145	464
145	549
145	572
145	602
145	634
146	22
146	94
146	103
146	280
146	320
146	619
146	671
146	684
146	694
147	137
147	239
147	336
147	377
147	406
147	413
147	435
147	472
147	510
147	518
147	558
148	25
148	130
148	202
148	217
148	227
148	234
148	246
148	286
148	297
148	327
148	342
148	385
148	528
148	594
148	611
149	121
149	143
149	154
149	162
149	176
149	209
149	253
149	274
149	305
149	350
149	393
149	399
149	446
149	480
149	489
149	535
149	626
149	647
149	677
149	702
150	65
150	88
150	116
150	184
150	190
150	260
150	427
150	454
150	460
150	497
150	566
150	579
150	640
150	663
151	28
151	56
151	73
151	81
151	267
151	293
151	313
151	358
151	416
151	505
151	545
151	602
151	696
152	12
152	19
152	36
152	100
152	170
152	233
152	332
152	366
152	440
152	587
153	41
153	108
153	198
153	215
153	240
153	321
153	338
153	372
153	408
153	421
153	466
153	473
153	552
153	618
153	654
154	23
154	33
154	49
154	93
154	134
154	149
154	188
154	279
154	345
154	387
154	401
154	433
154	514
154	522
154	632
154	670
155	125
155	142
155	203
155	221
155	248
155	272
155	299
155	308
155	327
155	352
155	486
155	530
155	571
155	594
155	687
156	6
156	15
156	70
156	78
156	116
156	157
156	177
156	287
156	380
156	414
156	449
156	561
156	609
156	664
156	697
157	30
157	85
157	165
157	184
157	229
157	256
157	361
157	393
157	427
157	454
157	462
157	478
157	492
157	539
157	579
157	647
157	677
158	61
158	191
158	209
158	263
158	315
158	333
158	404
158	441
158	501
158	508
158	625
159	53
159	100
159	198
159	222
159	236
159	304
159	341
159	368
159	516
159	548
159	587
159	601
159	640
160	28
160	42
160	130
160	216
160	243
160	253
160	282
160	294
160	469
160	616
160	655
160	669
161	93
161	108
161	152
161	269
161	276
161	309
161	321
161	347
161	374
161	386
161	399
161	420
161	433
161	524
161	556
162	122
162	146
162	158
162	172
162	224
162	259
162	355
162	411
162	485
162	535
162	594
162	631
162	683
162	692
163	5
163	15
163	21
163	35
163	58
163	65
163	74
163	137
163	179
163	204
163	289
163	328
163	378
163	426
163	446
163	495
163	565
163	573
163	651
164	49
164	82
164	115
164	165
164	186
164	192
164	264
164	301
164	364
164	455
164	477
164	543
164	581
164	607
164	623
164	645
164	702
165	100
165	211
165	231
165	307
165	316
165	335
165	392
165	503
165	511
165	587
165	600
165	661
165	675
166	129
166	219
166	247
166	276
166	343
166	370
166	404
166	438
166	463
166	638
167	30
167	91
167	107
167	146
167	153
167	238
167	254
167	270
167	283
167	294
167	416
167	470
167	519
167	550
167	698
168	11
168	24
168	42
168	175
168	199
168	322
168	349
168	385
168	398
168	431
168	449
168	497
168	527
168	559
168	615
168	652
169	62
169	69
169	77
169	122
169	161
169	168
169	182
169	226
169	260
169	312
169	357
169	423
169	483
169	490
169	592
169	606
169	677
169	690
170	86
170	141
170	190
170	206
170	234
170	289
170	301
170	329
170	337
170	377
170	411
170	458
170	535
170	569
170	631
170	666
170	683
171	98
171	114
171	136
171	148
171	214
171	242
171	267
171	273
171	364
171	392
171	442
171	477
171	500
171	515
171	584
172	20
172	49
172	278
172	316
172	506
172	545
172	576
172	659
173	12
173	36
173	176
173	221
173	249
173	284
173	308
173	325
173	334
173	344
173	371
173	403
173	434
173	465
173	487
173	599
173	622
173	643
174	27
174	128
174	155
174	194
174	228
174	236
174	255
174	295
174	351
174	384
174	419
174	522
174	566
174	672
175	58
175	66
175	75
175	82
175	91
175	142
175	164
175	180
175	186
175	202
175	397
175	427
175	454
175	494
175	530
175	552
175	638
175	652
175	696
176	42
176	107
176	121
176	171
176	209
176	263
176	281
176	314
176	358
176	446
176	473
176	500
176	607
176	615
176	689
177	51
177	134
177	217
177	242
177	302
177	329
177	377
177	410
177	509
177	538
177	581
177	591
177	628
177	666
177	706
178	21
178	99
178	113
178	150
178	224
178	269
178	276
178	287
178	338
178	365
178	388
178	439
178	459
178	480
178	559
178	675
179	14
179	31
179	231
179	308
179	321
179	403
179	430
179	517
179	546
179	658
179	679
180	7
180	39
180	87
180	154
180	159
180	227
180	251
180	344
180	423
180	466
180	573
180	600
180	643
180	688
181	71
181	79
181	127
181	175
181	183
181	190
181	198
181	204
181	213
181	238
181	293
181	352
181	371
181	384
181	488
181	525
182	62
182	107
182	139
182	167
182	257
182	281
182	315
182	396
182	417
182	450
182	474
182	497
182	566
182	587
182	608
182	622
182	635
182	672
183	26
183	116
183	122
183	209
183	335
183	359
183	409
183	445
183	533
183	650
183	694
183	700
184	14
184	47
184	54
184	93
184	146
184	219
184	245
184	264
184	273
184	303
184	339
184	378
184	503
184	553
184	593
185	100
185	131
185	226
185	310
185	327
185	365
185	389
185	436
185	462
185	511
185	540
185	581
185	614
185	665
186	113
186	153
186	161
186	194
186	201
186	251
186	287
186	346
186	402
186	428
186	469
186	483
186	561
186	629
187	19
187	34
187	76
187	82
187	180
187	232
187	258
187	297
187	321
187	454
187	519
187	548
187	687
188	89
188	127
188	172
188	187
188	236
188	280
188	383
188	414
188	421
188	491
188	567
188	601
188	646
188	657
189	7
189	41
189	60
189	66
189	97
189	107
189	140
189	209
189	215
189	268
189	291
189	315
189	334
189	353
189	372
189	395
189	441
189	448
189	499
189	527
189	573
189	587
189	677
190	165
190	220
190	240
190	264
190	309
190	340
190	360
190	474
190	535
190	609
190	621
190	635
191	26
191	50
191	101
191	119
191	246
191	274
191	366
191	408
191	434
191	506
191	542
191	671
191	698
192	134
192	147
192	177
192	195
192	228
192	301
192	377
192	389
192	426
192	514
192	615
192	649
192	663
193	14
193	78
193	112
193	142
193	159
193	185
193	202
193	234
193	252
193	286
193	327
193	348
193	453
193	461
193	480
193	553
193	581
193	595
193	691
193	706
194	4
194	125
194	210
194	258
194	269
194	295
194	319
194	401
194	419
194	468
194	494
194	522
194	628
195	23
195	33
195	42
195	48
195	64
195	71
195	84
195	91
195	152
195	171
195	280
195	312
195	371
195	394
195	487
195	501
195	560
195	603
195	642
195	655
195	684
196	56
196	105
196	118
196	190
196	217
196	241
196	335
196	351
196	383
196	412
196	446
196	568
196	589
197	8
197	98
197	132
197	164
197	197
197	223
197	292
197	306
197	342
197	356
197	364
197	475
197	509
197	530
197	547
197	575
197	619
197	703
198	230
198	248
198	263
198	299
198	405
198	431
198	439
198	538
198	609
198	633
198	676
199	27
199	77
199	146
199	157
199	178
199	205
199	274
199	324
199	423
199	465
199	518
199	598
199	647
199	667
199	698
200	16
200	92
200	112
200	122
200	138
200	237
200	285
200	317
200	330
200	349
200	417
200	483
200	490
200	555
200	662
201	85
201	170
201	185
201	255
201	376
201	390
201	398
201	458
201	469
201	497
201	525
201	562
201	583
201	605
202	44
202	52
202	62
202	69
202	104
202	212
202	243
202	268
202	310
202	336
202	355
202	368
202	384
202	450
202	627
202	689
203	134
203	152
203	163
203	192
203	219
203	279
203	343
203	361
203	410
203	443
203	475
203	504
203	533
203	570
203	639
203	655
203	705
204	23
204	128
204	146
204	196
204	225
204	262
204	296
204	303
204	429
204	435
204	541
204	591
204	613
204	621
205	9
205	78
205	98
205	116
205	141
205	176
205	200
205	231
205	250
205	285
205	290
205	320
205	326
205	402
205	512
205	521
205	549
205	577
205	673
205	680
206	123
206	156
206	182
206	238
206	314
206	349
206	394
206	421
206	462
206	602
206	634
206	696
207	30
207	91
207	137
207	169
207	207
207	275
207	332
207	359
207	373
207	379
207	486
207	493
207	557
207	585
207	598
207	664
208	15
208	54
208	65
208	110
208	162
208	188
208	214
208	256
208	307
208	366
208	387
208	414
208	455
208	471
208	480
208	500
208	647
209	3
209	40
209	47
209	72
209	85
209	147
209	153
209	220
209	227
209	246
209	268
209	301
209	339
209	441
209	447
209	535
209	564
209	608
210	103
210	128
210	196
210	294
210	345
210	352
210	408
210	434
210	508
210	544
210	572
210	578
210	624
210	639
210	687
211	22
211	95
211	120
211	140
211	164
211	177
211	203
211	233
211	252
211	261
211	280
211	288
211	321
211	328
211	399
211	426
212	8
212	184
212	191
212	240
212	273
212	392
212	516
212	528
212	551
212	594
212	617
212	655
212	672
212	678
212	701
213	29
213	35
213	80
213	90
213	115
213	209
213	312
213	335
213	385
213	416
213	420
213	459
213	473
213	482
213	522
213	631
214	17
214	59
214	134
214	145
214	158
214	169
214	216
214	363
214	369
214	377
214	466
214	488
214	495
214	602
215	6
215	50
215	65
215	107
215	203
215	222
215	305
215	342
215	398
215	403
215	411
215	432
215	438
215	446
215	452
215	503
215	540
215	559
215	586
215	646
215	662
215	691
216	191
216	197
216	229
216	246
216	258
216	265
216	291
216	298
216	317
216	323
216	349
216	567
216	580
216	623
217	24
217	75
217	85
217	100
217	125
217	151
217	162
217	174
217	236
217	278
217	283
217	330
217	354
217	389
217	424
217	511
217	610
218	119
218	139
218	181
218	252
218	311
218	381
218	519
218	533
218	597
218	637
218	653
218	684
219	11
219	30
219	54
219	80
219	186
219	204
219	243
219	270
219	307
219	367
219	374
219	395
219	406
219	417
219	484
219	525
219	575
219	669
219	706
220	17
220	94
220	131
220	157
220	301
220	337
220	361
220	463
220	470
220	477
220	498
220	546
220	554
220	590
220	616
221	39
221	145
221	194
221	211
221	224
221	228
221	263
221	295
221	319
221	343
221	400
221	412
221	436
221	442
221	449
221	456
221	491
221	582
221	630
221	676
221	696
222	47
222	60
222	69
222	105
222	112
222	124
222	170
222	199
222	218
222	232
222	247
222	257
222	283
222	288
222	325
222	423
222	429
222	505
222	562
222	604
222	644
222	662
223	25
223	90
223	97
223	136
223	176
223	239
223	307
223	333
223	349
223	537
223	691
224	84
224	206
224	251
224	275
224	369
224	373
224	378
224	384
224	392
224	514
224	522
224	623
225	14
225	77
225	141
225	151
225	164
225	182
225	188
225	268
225	301
225	313
225	338
225	356
225	484
225	529
225	570
225	639
226	10
226	71
226	118
226	130
226	210
226	221
226	227
226	293
226	406
226	468
226	475
226	492
226	500
226	542
226	549
226	579
226	596
226	608
226	652
226	669
226	683
227	19
227	42
227	55
227	171
227	195
227	201
227	235
227	261
227	297
227	330
227	351
227	362
227	398
227	412
227	419
227	439
227	446
227	453
227	460
227	508
227	587
228	65
228	110
228	124
228	146
228	157
228	191
228	214
228	242
228	256
228	279
228	286
228	319
228	345
228	425
228	432
228	558
228	617
228	630
228	698
229	27
229	80
229	95
229	103
229	135
229	305
229	312
229	325
229	370
229	374
229	381
229	388
229	565
230	47
230	88
230	178
230	183
230	224
230	249
230	333
230	357
230	394
230	472
230	519
230	527
230	601
230	644
230	659
230	689
231	13
231	128
231	150
231	164
231	208
231	231
231	272
231	298
231	401
231	479
231	512
231	534
231	574
231	672
232	19
232	107
232	140
232	189
232	265
232	283
232	292
232	316
232	322
232	367
232	428
232	436
232	450
232	458
232	487
232	495
232	503
232	623
232	637
233	35
233	54
233	68
233	118
233	156
233	171
233	218
233	239
233	278
233	340
233	408
233	415
233	421
233	443
233	465
233	543
233	583
233	651
233	666
233	683
233	706
234	43
234	61
234	99
234	146
234	183
234	194
234	201
234	246
234	252
234	259
234	310
234	344
234	350
234	361
234	551
234	559
234	593
234	609
234	630
234	698
235	91
235	112
235	123
235	130
235	213
235	229
235	234
235	275
235	286
235	304
235	329
235	372
235	378
235	473
236	21
236	28
236	49
236	77
236	84
236	135
236	167
236	175
236	516
236	522
236	531
236	567
236	616
236	678
237	152
237	162
237	188
237	206
237	223
237	269
237	296
237	317
237	335
237	343
237	355
237	385
237	391
237	405
237	484
237	491
237	498
237	538
237	672
238	70
238	107
238	126
238	139
238	217
238	240
238	256
238	280
238	309
238	366
238	397
238	411
238	425
238	446
238	507
238	580
238	602
238	643
238	658
238	687
238	706
239	16
239	56
239	117
239	170
239	199
239	210
239	263
239	291
239	325
239	361
239	418
239	439
239	453
239	478
239	546
240	39
240	63
240	100
240	157
240	182
240	229
240	250
240	274
240	349
240	431
240	461
240	469
240	587
240	625
241	32
241	88
241	94
241	120
241	145
241	193
241	214
241	244
241	286
241	302
241	331
241	373
241	380
241	394
241	553
241	561
241	596
241	610
241	634
241	665
241	678
242	22
242	45
242	81
242	111
242	133
242	175
242	218
242	258
242	269
242	313
242	321
242	339
242	356
242	387
242	400
242	502
242	518
242	649
243	29
243	74
243	208
243	296
243	408
243	495
243	510
243	526
243	533
243	569
243	693
243	697
244	52
244	140
244	152
244	164
244	187
244	204
244	223
244	235
244	254
244	280
244	327
244	344
244	361
244	368
244	414
244	422
244	428
244	449
244	455
244	486
244	541
244	576
244	618
245	36
245	67
245	105
245	116
245	198
245	240
245	291
245	307
245	333
245	442
245	461
245	473
245	481
245	583
245	643
245	657
245	669
245	673
246	59
246	98
246	128
246	134
246	169
246	181
246	217
246	228
246	247
246	263
246	273
246	350
246	374
246	379
246	435
246	466
246	548
246	627
247	19
247	85
247	92
247	157
247	211
247	317
247	339
247	356
247	556
247	600
247	608
247	701
248	24
248	123
248	146
248	192
248	204
248	236
248	284
248	302
248	323
248	383
248	391
248	397
248	404
248	492
248	499
248	515
248	522
248	529
248	592
248	636
249	31
249	48
249	79
249	110
249	151
249	174
249	223
249	259
249	296
249	312
249	335
249	409
249	417
249	424
249	431
249	453
249	460
249	506
249	563
249	649
249	663
249	678
250	64
250	72
250	164
250	186
250	252
250	268
250	279
250	307
250	328
250	357
250	364
250	438
250	544
250	572
250	578
250	616
250	691
251	37
251	56
251	103
251	117
251	140
251	198
251	217
251	240
251	345
251	371
251	377
251	445
251	477
251	484
251	537
251	695
252	88
252	96
252	209
252	229
252	272
252	333
252	340
252	470
252	586
252	623
252	642
252	671
253	44
253	127
253	134
253	169
253	179
253	262
253	301
253	318
253	326
253	351
253	393
253	400
253	596
253	602
253	629
253	656
254	27
254	82
254	158
254	192
254	235
254	246
254	256
254	290
254	312
254	387
254	406
254	415
254	464
254	497
254	517
254	525
254	550
254	558
254	686
255	21
255	76
255	113
255	122
255	145
255	204
255	219
255	283
255	360
255	421
255	426
255	434
255	457
255	503
255	510
255	532
255	566
255	574
255	609
256	33
256	69
256	108
256	138
256	185
256	223
256	267
256	279
256	294
256	306
256	331
256	356
256	366
256	374
256	380
256	440
256	446
256	451
256	481
256	490
256	539
256	636
256	661
256	702
257	61
257	101
257	131
257	153
257	162
257	173
257	199
257	209
257	214
257	317
257	322
257	326
257	335
257	342
257	475
257	546
257	616
257	647
257	676
258	38
258	93
258	148
258	230
258	240
258	251
258	262
258	272
258	289
258	313
258	350
258	390
258	469
258	581
258	605
258	625
259	54
259	87
259	125
259	179
259	220
259	244
259	396
259	403
259	590
259	688
259	695
260	45
260	80
260	156
260	168
260	189
260	301
260	345
260	385
260	409
260	417
260	447
260	461
260	498
260	507
260	520
260	527
260	554
260	562
260	656
261	23
261	74
261	120
261	142
261	194
261	215
261	257
261	267
261	284
261	294
261	311
261	352
261	358
261	364
261	371
261	378
261	423
261	429
261	485
261	513
261	534
261	569
261	633
261	670
261	684
262	66
262	104
262	112
262	128
262	137
262	149
262	183
262	198
262	205
262	210
262	225
262	234
262	307
262	332
262	338
262	454
262	480
262	542
262	577
262	598
262	611
263	98
263	162
263	239
263	251
263	278
263	320
263	327
263	437
263	442
263	493
263	641
263	649
263	676
263	703
264	33
264	60
264	131
264	173
264	273
264	297
264	314
264	399
264	405
264	413
264	472
264	489
264	549
264	585
264	619
264	661
264	690
265	41
265	48
265	91
265	189
265	222
265	261
265	289
265	380
265	387
265	393
265	420
265	467
265	502
265	519
265	686
266	27
266	85
266	116
266	140
266	166
266	178
266	215
266	228
266	283
266	304
266	342
266	361
266	373
266	425
266	447
266	458
266	537
266	566
266	593
266	629
266	697
267	71
267	78
267	108
267	125
267	134
267	147
267	154
267	160
267	195
267	203
267	208
267	235
267	245
267	256
267	293
267	329
267	334
267	356
267	366
267	432
267	484
267	497
267	509
267	529
267	557
267	605
267	635
268	21
268	102
268	185
268	240
268	252
268	266
268	277
268	299
268	309
268	323
268	339
268	348
268	396
268	453
268	477
268	579
268	641
268	656
268	670
269	33
269	56
269	96
269	319
269	388
269	408
269	439
269	544
269	572
269	612
269	682
270	89
270	120
270	169
270	174
270	261
270	272
270	314
270	361
270	400
270	404
270	416
270	464
270	470
270	514
270	521
270	586
270	598
271	47
271	61
271	83
271	113
271	158
271	164
271	289
271	337
271	342
271	365
271	370
271	377
271	384
271	421
271	491
271	552
271	622
271	674
271	708
272	39
272	76
272	137
272	151
272	179
272	192
272	199
272	205
272	212
272	224
272	230
272	235
272	240
272	256
272	283
272	304
272	332
272	428
272	446
272	458
272	504
272	533
272	564
272	649
272	689
272	703
273	29
273	130
273	144
273	186
273	219
273	246
273	266
273	318
273	322
273	326
273	353
273	434
273	484
273	578
273	629
273	663
274	54
274	100
274	107
274	276
274	293
274	309
274	348
274	394
274	400
274	406
274	477
274	508
274	528
274	539
274	592
274	605
274	637
275	33
275	92
275	118
275	124
275	251
275	299
275	381
275	387
275	440
275	451
275	464
275	495
275	558
275	656
275	683
276	21
276	163
276	169
276	175
276	183
276	221
276	257
276	261
276	271
276	329
276	362
276	368
276	418
276	424
276	489
276	519
276	546
276	572
276	615
276	677
276	696
277	111
277	138
277	148
277	155
277	189
277	195
277	201
277	208
277	215
277	227
277	233
277	240
277	281
277	305
277	315
277	334
277	340
277	374
277	411
277	430
277	471
277	502
277	533
277	585
277	643
278	74
278	80
278	87
278	288
278	322
278	356
278	445
278	458
278	513
278	551
278	599
278	624
278	632
278	650
278	669
278	702
279	27
279	40
279	65
279	104
279	129
279	143
279	245
279	265
279	310
279	351
279	398
279	403
279	435
279	483
279	563
279	689
280	52
280	97
280	134
280	254
280	276
280	298
280	345
280	384
280	391
280	495
280	526
280	538
280	661
281	116
281	123
281	153
281	165
281	171
281	189
281	224
281	230
281	261
281	314
281	327
281	332
281	338
281	368
281	372
281	378
281	414
281	452
281	465
281	476
281	507
281	576
281	611
282	22
282	32
282	44
282	85
282	91
282	178
282	193
282	204
282	210
282	218
282	236
282	240
282	271
282	282
282	293
282	355
282	359
282	364
282	420
282	426
282	440
282	488
282	591
282	605
282	696
283	109
283	139
283	146
283	158
283	185
283	199
283	249
283	304
283	321
283	350
283	501
283	518
283	544
283	557
283	618
283	640
283	679
284	37
284	69
284	77
284	102
284	265
284	309
284	401
284	406
284	459
284	512
284	532
284	570
284	584
284	647
284	654
284	672
285	27
285	57
285	63
285	95
285	126
285	131
285	169
285	244
285	255
285	276
285	288
285	376
285	389
285	396
285	430
285	434
285	446
285	469
285	482
285	627
285	666
286	297
286	331
286	336
286	343
286	358
286	363
286	370
286	418
286	425
286	494
286	525
286	538
286	551
286	597
287	121
287	156
287	162
287	175
287	181
287	202
287	221
287	226
287	233
287	261
287	270
287	315
287	352
287	382
287	411
287	453
287	564
287	632
287	685
287	703
288	22
288	74
288	80
288	88
288	116
288	143
288	149
288	188
288	196
288	208
288	213
288	238
288	282
288	293
288	310
288	324
288	441
288	464
288	476
288	577
288	612
289	34
289	42
289	67
289	109
289	136
289	244
289	251
289	256
289	304
289	319
289	346
289	366
289	398
289	405
289	488
289	501
289	506
289	545
289	557
289	623
290	29
290	102
290	129
290	166
290	266
290	374
290	388
290	393
290	428
290	458
290	470
290	518
290	530
290	570
290	591
290	604
290	650
290	659
290	694
291	60
291	120
291	125
291	173
291	240
291	276
291	288
291	298
291	329
291	340
291	361
291	370
291	382
291	422
291	435
291	447
291	482
291	582
291	643
291	670
292	54
292	85
292	92
292	97
292	178
292	185
292	191
292	207
292	211
292	217
292	223
292	229
292	263
292	281
292	325
292	334
292	513
292	539
292	677
292	688
293	47
293	115
293	140
293	147
293	152
293	160
293	198
293	235
293	247
293	259
293	271
293	294
293	303
293	313
293	350
293	355
293	402
293	409
293	415
293	441
293	464
293	494
293	506
293	523
293	550
293	577
293	597
293	633
293	692
294	29
294	39
294	80
294	242
294	251
294	365
294	396
294	453
294	563
294	617
295	22
295	34
295	72
295	133
295	164
295	170
295	266
295	288
295	308
295	320
295	344
295	378
295	384
295	391
295	431
295	476
295	488
295	530
295	662
295	684
295	700
296	65
296	120
296	126
296	176
296	332
296	339
296	348
296	370
296	374
296	425
296	446
296	458
296	470
296	500
296	519
296	544
296	556
296	588
296	610
296	624
296	647
297	58
297	102
297	109
297	182
297	189
297	195
297	202
297	208
297	213
297	220
297	226
297	254
297	262
297	276
297	297
297	326
297	360
297	414
297	419
297	436
297	512
297	569
297	603
298	138
298	143
298	149
298	156
298	232
298	238
298	244
298	280
298	292
298	314
298	354
298	382
298	406
298	482
298	639
298	677
299	45
299	82
299	89
299	95
299	114
299	130
299	257
299	271
299	286
299	307
299	344
299	394
299	400
299	493
299	537
299	582
299	617
299	671
300	27
300	70
300	76
300	161
300	250
300	265
300	300
300	318
300	330
300	365
300	440
300	453
300	464
300	476
300	505
300	550
300	596
300	631
300	653
300	660
300	690
301	125
301	168
301	186
301	260
301	275
301	295
301	322
301	389
301	417
301	427
301	433
301	487
301	523
301	562
301	575
302	38
302	64
302	107
302	135
302	173
302	192
302	198
302	204
302	211
302	217
302	228
302	235
302	241
302	335
302	349
302	360
302	370
302	375
302	382
302	498
302	517
302	531
302	610
302	686
302	700
303	22
303	55
303	119
303	140
303	146
303	152
303	180
303	223
303	247
303	289
303	311
303	315
303	340
303	410
303	423
303	447
303	457
303	469
303	481
303	511
303	556
303	589
303	624
304	86
304	94
304	100
304	157
304	254
304	270
304	280
304	300
304	305
304	326
304	344
304	391
304	403
304	435
304	542
304	581
304	602
304	644
304	677
305	29
305	47
305	73
305	129
305	164
305	320
305	330
305	354
305	365
305	379
305	385
305	397
305	440
305	492
305	535
305	567
306	37
306	68
306	80
306	113
306	170
306	176
306	221
306	264
306	286
306	294
306	429
306	452
306	464
306	505
306	594
306	617
306	692
307	107
307	182
307	189
307	195
307	202
307	214
307	231
307	244
307	259
307	275
307	308
307	333
307	339
307	350
307	414
307	419
307	475
307	487
307	521
307	528
307	548
307	575
307	638
307	671
307	707
308	60
308	124
308	207
308	226
308	237
308	250
308	254
308	313
308	361
308	371
308	408
308	425
308	499
308	561
308	650
309	52
309	90
309	119
309	135
309	144
309	148
309	152
309	290
309	303
309	318
309	401
309	435
309	447
309	458
309	510
309	515
309	543
309	588
309	609
309	630
309	678
310	21
310	46
310	139
310	156
310	160
310	262
310	270
310	280
310	323
310	330
310	335
310	346
310	355
310	365
310	376
310	383
310	388
310	395
310	469
310	481
310	554
310	567
310	663
310	685
310	699
311	33
311	95
311	101
311	166
311	173
311	210
311	286
311	298
311	493
311	533
311	601
311	623
311	643
312	27
312	71
312	77
312	83
312	112
312	129
312	179
312	186
312	191
312	199
312	215
312	222
312	228
312	234
312	239
312	244
312	258
312	265
312	310
312	360
312	405
312	410
312	417
312	441
312	453
312	463
312	488
312	525
312	581
313	65
313	89
313	205
313	252
313	293
313	304
313	315
313	341
313	351
313	371
313	399
313	423
313	475
313	504
313	560
313	636
313	655
313	670
313	708
314	40
314	59
314	107
314	123
314	133
314	268
314	275
314	327
314	380
314	429
314	457
314	519
314	546
314	616
314	693
315	51
315	146
315	151
315	156
315	169
315	217
315	282
315	288
315	320
315	331
315	347
315	355
315	365
315	375
315	386
315	392
315	447
315	468
315	510
315	574
315	594
315	648
316	96
316	139
316	164
316	188
316	202
316	209
316	221
316	225
316	247
316	262
316	337
316	436
316	481
316	498
316	538
316	567
316	608
316	629
316	661
316	684
317	35
317	43
317	83
317	118
317	128
317	182
317	195
317	231
317	237
317	243
317	256
317	299
317	305
317	311
317	316
317	351
317	400
317	407
317	414
317	426
317	431
317	492
317	554
318	22
318	29
318	69
318	76
318	101
318	111
318	175
318	342
318	360
318	383
318	419
318	443
318	452
318	464
318	505
318	531
318	586
318	597
318	622
318	642
318	676
318	700
319	61
319	90
319	154
319	160
319	216
319	251
319	266
319	273
319	278
319	295
319	322
319	327
319	371
319	376
319	395
319	475
319	488
319	523
319	655
320	54
320	106
320	123
320	133
320	149
320	220
320	333
320	347
320	356
320	389
320	498
320	516
320	543
320	549
320	560
320	580
320	592
320	635
320	707
321	48
321	143
321	185
321	203
321	209
321	260
321	284
321	289
321	308
321	337
321	366
321	405
321	410
321	437
321	447
321	458
321	572
321	613
321	669
321	692
322	40
322	79
322	94
322	163
322	169
322	180
322	192
322	198
322	228
322	247
322	302
322	313
322	399
322	417
322	469
322	481
322	509
322	536
322	683
323	73
323	85
323	112
323	118
323	138
323	233
323	240
323	256
323	269
323	276
323	296
323	319
323	324
323	352
323	374
323	380
323	385
323	421
323	427
323	465
323	492
323	528
323	553
323	565
323	628
324	25
324	145
324	173
324	217
324	281
324	287
324	343
324	361
324	371
324	394
324	443
324	453
324	605
324	647
324	662
325	21
325	59
325	65
325	90
325	99
325	129
325	158
325	212
325	224
325	244
325	250
325	273
325	291
325	306
325	330
325	367
325	486
325	503
325	584
325	590
325	597
325	620
325	640
325	705
326	43
326	52
326	105
326	125
326	135
326	151
326	167
326	195
326	200
326	207
326	259
326	310
326	316
326	334
326	389
326	398
326	402
326	407
326	474
326	522
326	546
326	558
326	676
327	83
327	113
327	188
327	233
327	266
327	277
327	300
327	320
327	340
327	348
327	356
327	384
327	413
327	447
327	466
327	480
327	497
327	515
327	539
327	576
327	654
327	699
328	37
328	70
328	78
328	140
328	162
328	177
328	183
328	239
328	254
328	326
328	353
328	362
328	377
328	418
328	424
328	431
328	437
328	459
328	508
328	532
328	571
328	615
329	29
329	41
329	96
329	215
329	219
329	230
329	269
329	283
329	289
329	295
329	372
329	491
329	527
329	551
329	634
329	647
329	668
329	690
330	23
330	57
330	130
330	145
330	156
330	171
330	203
330	225
330	235
330	249
330	272
330	305
330	331
330	344
330	367
330	392
330	442
330	452
330	566
330	601
330	609
330	703
331	51
331	92
331	102
331	109
331	120
331	192
331	198
331	208
331	243
331	263
331	311
331	335
331	347
331	357
331	387
331	398
331	404
331	447
331	477
331	484
331	501
331	520
331	594
331	627
331	660
331	682
332	126
332	135
332	151
332	181
332	186
332	258
332	278
332	318
332	381
332	410
332	429
332	436
332	533
332	641
333	42
333	75
333	113
333	166
333	254
333	268
333	282
333	297
333	323
333	328
333	342
333	351
333	363
333	371
333	377
333	418
333	423
333	495
333	513
333	526
333	545
333	572
333	580
333	588
333	620
333	674
333	706
334	68
334	82
334	87
334	97
334	141
334	159
334	174
334	217
334	234
334	238
334	272
334	292
334	303
334	457
334	463
334	471
334	559
334	652
334	697
335	22
335	55
335	62
335	120
335	147
335	155
335	196
335	206
335	211
335	222
335	228
335	247
335	262
335	286
335	333
335	338
335	390
335	397
335	488
335	505
335	614
335	632
335	688
336	132
336	137
336	170
336	191
336	309
336	314
336	356
336	366
336	385
336	401
336	445
336	453
336	540
336	551
336	666
337	39
337	92
337	200
337	241
337	251
337	257
337	321
337	326
337	347
337	380
337	407
337	413
337	424
337	428
337	433
337	439
337	481
337	500
337	517
337	598
337	606
337	646
338	48
338	79
338	103
338	108
338	126
338	163
338	179
338	184
338	237
338	269
338	278
338	283
338	295
338	330
338	335
338	340
338	375
338	393
338	468
338	475
338	523
338	527
338	566
338	585
338	592
338	625
338	639
339	139
339	157
339	194
339	215
339	219
339	228
339	233
339	274
339	291
339	299
339	305
339	351
339	361
339	418
339	456
339	463
339	492
339	511
339	533
339	546
339	576
339	633
339	659
339	680
339	703
340	26
340	33
340	73
340	86
340	130
340	144
340	152
340	173
340	203
340	210
340	224
340	248
340	260
340	310
340	323
340	370
340	383
340	388
340	398
340	403
340	450
340	560
340	581
340	618
340	673
341	66
341	98
341	114
341	188
341	199
341	266
341	317
341	329
341	346
341	355
341	365
341	409
341	486
341	570
341	694
342	60
342	121
342	168
342	183
342	243
342	255
342	287
342	379
342	415
342	423
342	428
342	432
342	438
342	443
342	495
342	505
342	528
342	540
342	603
342	610
342	651
342	665
343	21
343	45
343	54
343	82
343	105
343	135
343	161
343	177
343	230
343	239
343	251
343	271
343	276
343	282
343	292
343	297
343	308
343	338
343	360
343	473
343	479
343	516
343	552
343	596
343	707
344	37
344	76
344	126
344	150
344	194
344	303
344	314
344	334
344	342
344	370
344	390
344	395
344	466
344	564
344	589
344	626
344	644
345	29
345	132
345	141
345	156
345	207
345	213
345	224
345	233
345	259
345	264
345	355
345	374
345	384
345	400
345	406
345	460
345	546
345	576
345	638
345	678
345	686
346	64
346	71
346	87
346	97
346	115
346	172
346	188
346	202
346	218
346	247
346	293
346	318
346	324
346	329
346	364
346	412
346	418
346	422
346	448
346	453
346	491
346	511
346	535
346	558
346	583
346	615
346	657
346	672
346	696
346	701
347	25
347	47
347	121
347	145
347	166
347	198
347	229
347	253
347	278
347	283
347	299
347	311
347	346
347	351
347	380
347	429
347	436
347	440
347	484
347	500
347	522
347	631
348	81
348	102
348	137
348	150
348	160
348	182
348	238
348	273
348	288
348	335
348	477
348	494
348	540
348	570
348	608
349	36
349	42
349	51
349	57
349	91
349	108
349	126
349	177
349	211
349	221
349	243
349	257
349	268
349	305
349	316
349	360
349	386
349	392
349	396
349	464
349	470
349	506
349	517
349	529
349	551
349	602
349	621
349	691
350	76
350	142
350	193
350	206
350	249
350	263
350	321
350	340
350	353
350	368
350	374
350	399
350	403
350	409
350	445
350	456
350	566
350	593
350	650
350	663
351	69
351	115
351	132
351	154
351	281
351	293
351	297
351	308
351	329
351	451
351	577
351	585
352	97
352	164
352	170
352	188
352	201
352	215
352	226
352	230
352	235
352	240
352	277
352	287
352	313
352	334
352	345
352	364
352	415
352	426
352	432
352	439
352	487
352	512
352	523
352	535
352	545
352	557
352	627
352	643
352	677
352	697
352	703
353	37
353	49
353	86
353	105
353	121
353	148
353	158
353	174
353	181
353	196
353	252
353	261
353	271
353	303
353	350
353	358
353	383
353	391
353	420
353	468
353	475
353	480
353	499
353	613
354	30
354	80
354	135
354	192
354	220
354	243
354	266
354	318
354	325
354	339
354	371
354	378
354	387
354	396
354	400
354	406
354	445
354	541
354	570
354	607
354	655
354	669
354	685
355	25
355	43
355	55
355	92
355	101
355	111
355	126
355	141
355	206
355	211
355	257
355	275
355	283
355	290
355	300
355	353
355	455
355	462
355	494
355	506
355	518
355	550
355	635
356	75
356	117
356	132
356	152
356	168
356	186
356	214
356	225
356	248
356	279
356	295
356	306
356	330
356	411
356	416
356	451
356	529
356	589
356	598
356	649
356	703
357	107
357	161
357	172
357	231
357	239
357	316
357	321
357	334
357	348
357	362
357	367
357	376
357	386
357	391
357	424
357	429
357	435
357	486
357	523
357	563
357	620
357	690
358	30
358	50
358	60
358	97
358	147
358	180
358	190
358	200
358	270
358	286
358	338
358	343
358	382
358	440
358	472
358	478
358	491
358	511
358	535
358	574
358	584
358	663
359	36
359	87
359	122
359	138
359	156
359	195
359	259
359	265
359	274
359	290
359	326
359	352
359	356
359	397
359	403
359	466
359	499
359	556
359	605
359	642
359	675
360	165
360	176
360	209
360	220
360	225
360	244
360	253
360	278
360	282
360	294
360	306
360	313
360	361
360	371
360	408
360	444
360	451
360	460
360	544
360	567
360	613
360	627
360	696
361	24
361	41
361	55
361	79
361	100
361	111
361	128
361	151
361	192
361	205
361	215
361	300
361	347
361	366
361	413
361	420
361	551
361	592
361	655
361	684
361	705
362	74
362	92
362	118
362	169
362	234
362	249
362	317
362	378
362	383
362	388
362	393
362	425
362	518
362	526
362	532
362	636
362	670
363	37
363	66
363	133
363	146
363	160
363	181
363	186
363	240
363	261
363	268
363	284
363	325
363	331
363	342
363	352
363	356
363	399
363	430
363	437
363	476
363	482
363	488
363	511
363	538
363	599
363	620
364	47
364	85
364	107
364	123
364	156
364	175
364	195
364	223
364	228
364	245
364	255
364	273
364	278
364	306
364	311
364	337
364	369
364	452
364	469
364	494
364	560
364	572
364	579
364	648
364	692
365	29
365	60
365	96
365	140
365	203
365	218
365	288
365	296
365	321
365	349
365	365
365	404
365	410
365	416
365	421
365	442
365	458
365	463
365	501
365	545
365	586
365	606
366	79
366	114
366	129
366	189
366	213
366	292
366	301
366	315
366	360
366	375
366	380
366	392
366	566
366	642
366	662
367	41
367	54
367	150
367	165
367	185
367	199
367	208
367	232
367	237
367	241
367	250
367	264
367	329
367	335
367	346
367	355
367	384
367	397
367	427
367	434
367	508
367	554
367	614
367	628
367	678
367	696
367	702
368	73
368	91
368	101
368	134
368	170
368	180
368	193
368	258
368	281
368	342
368	368
368	439
368	479
368	485
368	491
368	514
368	521
368	527
368	534
368	594
368	634
368	655
369	23
369	35
369	108
369	145
369	155
369	161
369	222
369	245
369	254
369	268
369	274
369	305
369	324
369	332
369	388
369	407
369	413
369	472
369	496
369	540
369	574
369	600
369	670
369	686
369	705
370	65
370	84
370	122
370	189
370	203
370	211
370	215
370	227
370	286
370	292
370	296
370	319
370	351
370	365
370	402
370	418
370	444
370	450
370	457
370	461
370	466
370	561
370	621
371	47
371	77
371	98
371	130
371	138
371	240
371	301
371	344
371	361
371	376
371	380
371	397
371	423
371	440
371	548
371	570
371	580
371	608
371	681
372	28
372	60
372	115
372	176
372	182
372	198
372	233
372	257
372	262
372	309
372	313
372	328
372	334
372	340
372	372
372	386
372	405
372	429
372	503
372	588
372	616
372	641
372	648
372	663
372	690
373	40
373	53
373	125
373	145
373	150
373	165
373	171
373	208
373	250
373	278
373	282
373	348
373	354
373	391
373	410
373	482
373	489
373	494
373	509
373	517
373	524
373	554
373	628
373	677
374	34
374	70
374	94
374	104
374	134
374	160
374	217
374	222
374	237
374	266
374	274
374	288
374	299
374	368
374	434
374	446
374	470
374	476
374	530
374	567
374	595
374	655
374	697
375	24
375	88
375	155
375	202
375	212
375	228
375	245
375	294
375	306
375	317
375	324
375	337
375	358
375	364
375	377
375	415
375	440
375	452
375	461
375	465
375	537
375	603
376	82
376	111
376	120
376	130
376	140
376	181
376	196
376	240
376	253
376	261
376	313
376	344
376	383
376	395
376	400
376	420
376	542
376	561
376	574
376	635
376	672
376	683
377	59
377	65
377	75
377	99
377	165
377	176
377	186
377	191
377	224
377	267
377	278
377	283
377	332
377	387
377	427
377	431
377	458
377	493
377	499
377	513
377	583
377	707
378	160
378	171
378	231
378	236
378	249
378	291
378	296
378	321
378	326
378	340
378	356
378	361
378	373
378	380
378	406
378	486
378	505
378	519
378	528
378	550
378	609
378	622
378	652
378	690
379	30
379	53
379	125
379	135
379	151
379	216
379	244
379	263
379	275
379	301
379	316
379	352
379	367
379	391
379	411
379	437
379	442
379	461
379	472
379	479
379	554
379	590
379	597
379	644
379	660
380	36
380	70
380	87
380	93
380	103
380	109
380	144
380	156
380	180
380	198
380	207
380	287
380	309
380	335
380	397
380	417
380	422
380	449
380	466
380	616
380	630
381	24
381	116
381	129
381	188
381	193
381	203
381	212
381	226
381	258
381	271
381	278
381	282
381	344
381	357
381	402
381	534
381	546
381	564
381	570
382	42
382	81
382	120
382	165
382	176
382	222
382	230
382	240
382	253
382	295
382	321
382	332
382	339
382	348
382	374
382	384
382	428
382	433
382	502
382	509
382	540
382	578
382	605
382	637
382	668
382	676
382	684
382	699
383	31
383	56
383	63
383	75
383	140
383	159
383	170
383	234
383	249
383	262
383	304
383	313
383	327
383	353
383	361
383	387
383	408
383	412
383	484
383	489
383	496
383	559
383	585
383	612
384	98
384	149
384	183
384	216
384	245
384	267
384	299
384	308
384	366
384	394
384	419
384	439
384	445
384	452
384	458
384	470
384	515
384	523
384	593
384	648
385	48
385	91
385	179
385	192
385	201
385	211
385	258
385	273
385	285
385	290
385	344
385	381
385	425
385	464
385	476
385	529
385	551
385	626
385	692
386	70
386	84
386	102
386	107
386	119
386	126
386	134
386	144
386	188
386	235
386	240
386	279
386	320
386	326
386	332
386	337
386	371
386	389
386	401
386	429
386	544
386	618
387	25
387	37
387	78
387	111
387	164
387	195
387	205
387	219
387	226
387	253
387	302
387	356
387	362
387	377
387	409
387	563
387	573
387	599
387	632
387	642
387	662
388	51
388	60
388	98
388	153
388	159
388	168
388	173
388	182
388	265
388	294
388	310
388	316
388	340
388	414
388	435
388	442
388	448
388	486
388	492
388	498
388	506
388	512
388	535
388	580
388	606
388	672
388	679
389	44
389	94
389	128
389	138
389	148
389	231
389	249
389	273
389	278
389	283
389	298
389	305
389	323
389	349
389	368
389	381
389	385
389	395
389	455
389	467
389	474
389	479
389	518
389	526
389	556
389	588
389	652
389	700
390	65
390	72
390	89
390	192
390	198
390	203
390	209
390	237
390	243
390	268
390	327
390	344
390	373
390	400
390	420
390	461
390	549
390	614
390	686
391	104
391	116
391	141
391	214
391	222
391	227
391	254
391	260
391	286
391	358
391	363
391	405
391	425
391	430
391	532
391	568
391	575
391	594
391	622
392	83
392	109
392	123
392	154
392	161
392	177
392	293
392	347
392	354
392	391
392	409
392	490
392	542
392	561
392	628
392	658
392	666
392	693
393	39
393	46
393	54
393	78
393	99
393	133
393	167
393	171
393	182
393	187
393	207
393	217
393	277
393	298
393	303
393	308
393	318
393	339
393	397
393	416
393	438
393	445
393	450
393	483
393	496
393	503
393	509
393	522
393	637
393	674
394	28
394	94
394	128
394	143
394	150
394	202
394	212
394	235
394	241
394	313
394	322
394	330
394	334
394	368
394	381
394	402
394	465
394	470
394	514
394	528
394	582
394	601
394	644
394	706
395	61
395	88
395	137
395	192
395	197
395	229
395	249
395	267
395	271
395	285
395	289
395	326
395	360
395	373
395	422
395	432
395	457
395	477
395	536
395	553
395	609
396	34
396	68
396	110
396	115
396	121
396	162
396	220
396	224
396	255
396	259
396	263
396	281
396	293
396	306
396	345
396	378
396	391
396	406
396	427
396	487
396	520
396	547
396	571
396	589
396	616
396	681
396	700
397	23
397	74
397	82
397	104
397	157
397	178
397	244
397	297
397	301
397	350
397	386
397	410
397	441
397	448
397	453
397	493
397	504
397	624
397	653
398	40
398	48
398	171
398	188
398	213
398	275
398	310
398	320
398	334
398	338
398	342
398	365
398	397
398	480
398	499
398	511
398	557
398	579
398	596
398	632
398	685
398	689
399	28
399	56
399	98
399	126
399	148
399	152
399	166
399	182
399	204
399	238
399	251
399	270
399	285
399	329
399	356
399	375
399	382
399	402
399	436
399	462
399	468
399	474
399	531
399	541
399	550
399	566
399	602
399	669
400	64
400	92
400	108
400	134
400	140
400	174
400	194
400	199
400	228
400	247
400	280
400	290
400	314
400	368
400	418
400	430
400	518
400	524
400	639
400	676
401	24
401	34
401	85
401	114
401	120
401	209
401	219
401	234
401	242
401	261
401	265
401	304
401	309
401	346
401	361
401	393
401	408
401	457
401	490
401	584
401	610
401	646
401	661
401	704
402	69
402	102
402	161
402	170
402	185
402	189
402	214
402	224
402	256
402	295
402	299
402	318
402	326
402	335
402	339
402	379
402	384
402	413
402	450
402	505
402	534
402	545
402	561
402	573
402	591
403	39
403	46
403	76
403	155
403	204
403	273
403	283
403	321
403	352
403	366
403	371
403	398
403	435
403	445
403	477
403	483
403	495
403	597
403	618
403	654
404	124
404	139
404	145
404	179
404	198
404	237
404	245
404	253
404	269
404	277
404	311
404	375
404	389
404	403
404	423
404	429
404	441
404	460
404	472
404	579
404	626
404	694
405	52
405	59
405	134
405	150
405	173
405	191
405	240
405	249
405	260
405	265
405	286
405	329
405	341
405	346
405	393
405	409
405	417
405	454
405	466
405	500
405	509
405	515
405	522
405	527
405	555
405	634
405	670
406	29
406	82
406	87
406	94
406	111
406	116
406	159
406	187
406	216
406	233
406	282
406	291
406	296
406	317
406	357
406	369
406	380
406	448
406	491
406	539
406	568
406	604
406	612
406	687
407	65
407	99
407	105
407	163
407	169
407	183
407	202
407	207
407	212
407	224
407	228
407	301
407	306
407	322
407	334
407	353
407	384
407	399
407	413
407	437
407	442
407	586
407	641
407	680
408	35
408	72
408	196
408	219
408	254
408	268
408	273
408	277
408	533
408	550
408	562
408	574
408	702
409	25
409	40
409	48
409	55
409	123
409	148
409	156
409	178
409	243
409	248
409	259
409	263
409	310
409	327
409	344
409	363
409	372
409	390
409	404
409	422
409	426
409	432
409	464
409	469
409	474
409	481
409	486
409	497
409	593
409	649
409	656
409	693
410	78
410	137
410	144
410	173
410	192
410	209
410	238
410	294
410	298
410	349
410	367
410	376
410	396
410	418
410	451
410	457
410	512
410	518
410	544
410	599
411	31
411	84
411	131
411	188
411	201
411	215
411	221
411	228
411	233
411	285
411	289
411	313
411	318
411	354
411	408
411	555
411	581
411	607
411	620
411	629
411	664
412	68
412	90
412	97
412	103
412	109
412	116
412	152
412	266
412	280
412	302
412	324
412	330
412	340
412	359
412	382
412	399
412	443
412	446
412	501
412	506
412	525
412	567
412	636
412	674
412	684
413	37
413	127
413	148
413	159
413	167
413	183
413	205
413	218
413	242
413	251
413	259
413	271
413	307
413	336
413	345
413	372
413	386
413	390
413	413
413	435
413	491
413	538
413	587
414	44
414	75
414	175
414	195
414	199
414	225
414	238
414	247
414	255
414	275
414	320
414	368
414	404
414	426
414	430
414	473
414	515
414	532
414	550
414	652
415	50
415	80
415	119
415	136
415	141
415	190
415	212
415	283
415	291
415	311
415	327
415	333
415	354
415	363
415	378
415	419
415	455
415	461
415	467
415	478
415	486
415	496
415	561
415	574
415	595
415	659
415	677
415	699
415	707
416	26
416	58
416	63
416	161
416	170
416	185
416	230
416	287
416	315
416	340
416	396
416	448
416	544
416	556
416	603
416	645
417	32
417	71
417	87
417	92
417	123
417	130
417	150
417	156
417	180
417	204
417	208
417	216
417	222
417	243
417	263
417	278
417	296
417	301
417	349
417	359
417	384
417	408
417	442
417	508
417	520
417	527
417	580
417	632
417	680
418	47
418	98
418	105
418	111
418	146
418	165
418	200
418	226
418	235
418	258
418	268
418	273
418	322
418	330
418	336
418	373
418	438
418	502
418	567
418	609
418	616
418	624
418	637
419	249
419	326
419	342
419	379
419	388
419	404
419	413
419	428
419	434
419	464
419	484
419	537
419	551
419	666
419	692
419	703
420	39
420	78
420	118
420	125
420	135
420	160
420	176
420	194
420	239
420	308
420	314
420	352
420	364
420	418
420	424
420	458
420	469
420	476
420	514
420	589
421	53
421	60
421	101
421	189
421	212
421	217
421	230
421	252
421	266
421	272
421	276
421	280
421	284
421	303
421	332
421	369
421	384
421	394
421	399
421	441
421	452
421	495
421	598
421	657
422	26
422	83
422	95
422	142
422	155
422	170
422	180
422	184
422	198
422	208
422	223
422	244
422	262
422	291
422	299
422	322
422	327
422	338
422	347
422	356
422	360
422	374
422	409
422	448
422	507
422	532
422	560
422	648
422	685
422	707
423	34
423	129
423	138
423	149
423	204
423	235
423	258
423	312
423	316
423	365
423	437
423	490
423	518
423	525
423	543
423	553
423	573
423	628
423	677
424	46
424	70
424	89
424	106
424	165
424	213
424	227
424	286
424	294
424	306
424	342
424	351
424	379
424	415
424	426
424	431
424	500
424	606
424	612
424	620
424	635
424	641
425	100
425	123
425	174
425	190
425	250
425	264
425	269
425	275
425	280
425	385
425	390
425	405
425	422
425	456
425	460
425	466
425	479
425	485
425	535
425	565
425	580
425	670
425	689
425	697
426	23
426	116
426	185
426	199
426	219
426	223
426	232
426	240
426	255
426	302
426	325
426	329
426	338
426	347
426	359
426	370
426	395
426	401
426	473
426	495
426	586
426	662
427	39
427	52
427	77
427	82
427	92
427	111
427	135
427	141
427	147
427	152
427	157
427	169
427	179
427	195
427	237
427	245
427	289
427	297
427	319
427	334
427	352
427	376
427	411
427	439
427	444
427	450
427	513
427	548
427	558
427	594
427	682
428	28
428	59
428	98
428	104
428	208
428	214
428	229
428	310
428	315
428	364
428	382
428	506
428	529
428	601
428	654
429	34
429	86
429	250
429	261
429	266
429	272
429	284
429	302
429	306
429	343
429	357
429	406
429	417
429	423
429	456
429	488
429	524
429	540
429	573
429	607
429	647
430	23
430	70
430	125
430	164
430	175
430	187
430	202
430	219
430	224
430	242
430	255
430	278
430	294
430	336
430	348
430	386
430	428
430	434
430	468
430	474
430	515
430	582
430	615
430	623
430	631
430	639
430	675
431	47
431	81
431	113
431	119
431	131
431	181
431	232
431	246
431	298
431	318
431	329
431	340
431	362
431	372
431	377
431	392
431	399
431	410
431	443
431	462
431	480
431	501
431	553
431	564
431	697
432	92
432	101
432	137
432	144
432	154
432	169
432	195
432	212
432	264
432	270
432	288
432	312
432	324
432	369
432	402
432	415
432	420
432	448
432	453
432	494
432	512
432	534
432	589
432	668
432	688
433	40
433	65
433	107
433	148
433	208
433	274
433	302
433	346
433	353
433	382
433	431
433	488
433	521
433	660
434	28
434	58
434	76
434	158
434	217
434	222
434	228
434	237
434	358
434	425
434	457
434	465
434	471
434	505
434	546
434	559
434	578
434	596
434	680
435	45
435	96
435	122
435	128
435	165
435	173
435	179
435	202
435	242
435	251
435	279
435	292
435	297
435	331
435	364
435	389
435	400
435	436
435	476
435	516
435	527
435	611
435	651
435	705
436	34
436	70
436	86
436	111
436	117
436	139
436	146
436	183
436	189
436	193
436	213
436	232
436	255
436	260
436	265
436	305
436	309
436	327
436	336
436	349
436	395
436	404
436	411
436	443
436	540
436	570
436	584
436	604
436	618
436	627
436	644
436	693
437	102
437	133
437	160
437	199
437	209
437	247
437	271
437	284
437	314
437	318
437	341
437	354
437	373
437	380
437	384
437	417
437	454
437	483
437	635
437	673
438	82
438	151
438	156
438	237
438	289
438	300
438	323
438	346
438	423
438	428
438	450
438	493
438	510
438	532
438	553
438	564
439	24
439	53
439	65
439	91
439	170
439	176
439	204
439	214
439	219
439	224
439	251
439	275
439	360
439	368
439	391
439	433
439	461
439	488
439	521
439	591
439	597
439	685
439	697
440	76
440	109
440	193
440	231
440	242
440	281
440	303
440	329
440	349
440	386
440	397
440	438
440	444
440	467
440	473
440	503
440	546
440	578
440	655
440	668
441	29
441	40
441	120
441	125
441	135
441	165
441	180
441	188
441	197
441	210
441	256
441	262
441	267
441	296
441	309
441	314
441	321
441	336
441	365
441	401
441	409
441	413
441	479
441	516
441	557
441	614
441	648
441	689
442	97
442	140
442	148
442	153
442	228
442	237
442	248
442	272
442	287
442	292
442	341
442	380
442	419
442	526
442	539
442	605
442	631
443	47
443	71
443	86
443	115
443	144
443	172
443	284
443	326
443	330
443	355
443	373
443	394
443	424
443	430
443	451
443	484
443	500
443	571
443	622
443	639
443	679
444	34
444	81
444	102
444	156
444	194
444	200
444	214
444	277
444	295
444	359
444	368
444	436
444	442
444	457
444	462
444	491
444	509
444	551
444	584
444	673
444	702
445	53
445	64
445	179
445	189
445	205
445	217
445	242
445	259
445	300
445	306
445	312
445	378
445	389
445	399
445	404
445	469
445	521
445	662
445	694
446	23
446	41
446	91
446	121
446	127
446	132
446	162
446	167
446	185
446	223
446	232
446	263
446	269
446	317
446	321
446	337
446	350
446	364
446	447
446	474
446	505
446	533
446	545
446	564
446	578
446	593
446	601
447	58
447	109
447	139
447	144
447	148
447	152
447	210
447	237
447	248
447	253
447	282
447	288
447	374
447	384
447	410
447	415
447	426
447	453
447	480
447	609
447	618
447	646
447	653
447	685
448	76
448	87
448	97
448	104
448	113
448	174
448	198
448	228
448	292
448	327
448	332
448	345
448	355
448	394
448	420
448	437
448	458
448	487
448	498
448	514
448	526
448	681
449	70
449	117
449	155
449	186
449	192
449	215
449	243
449	261
449	277
449	303
449	309
449	313
449	341
449	369
449	380
449	401
449	407
449	431
449	465
449	538
449	550
449	556
449	571
449	626
449	676
450	23
450	36
450	47
450	92
450	124
450	136
450	170
450	220
450	234
450	267
450	272
450	284
450	297
450	323
450	336
450	350
450	388
450	442
450	450
450	470
450	492
450	584
450	633
450	706
451	52
451	81
451	100
451	165
451	178
451	201
451	318
451	329
451	393
451	412
451	476
451	508
451	520
451	531
451	639
451	669
451	698
452	63
452	106
452	113
452	129
452	144
452	153
452	159
452	183
452	239
452	248
452	255
452	280
452	294
452	300
452	364
452	374
452	383
452	398
452	422
452	455
452	563
452	598
452	605
452	649
452	690
453	41
453	76
453	148
453	173
453	195
453	206
453	225
453	231
453	244
453	260
453	289
453	305
453	311
453	345
453	356
453	402
453	428
453	432
453	482
453	500
453	543
453	576
453	613
453	660
454	21
454	30
454	58
454	86
454	119
454	188
454	211
454	265
454	270
454	276
454	316
454	332
454	352
454	359
454	378
454	438
454	461
454	489
454	513
454	557
454	590
454	621
454	681
455	49
455	90
455	140
455	217
455	321
455	326
455	337
455	369
455	390
455	407
455	444
455	466
455	524
455	537
455	654
455	674
456	36
456	69
456	96
456	108
456	125
456	135
456	166
456	184
456	199
456	222
456	235
456	252
456	284
456	303
456	411
456	417
456	423
456	451
456	472
456	506
456	569
456	583
456	627
456	702
457	26
457	32
457	53
457	79
457	151
457	157
457	161
457	180
457	191
457	227
457	241
457	247
457	256
457	293
457	297
457	308
457	342
457	355
457	374
457	383
457	429
457	456
457	479
457	518
457	550
457	594
457	635
457	641
458	113
458	129
458	144
458	170
458	174
458	202
458	261
458	266
458	273
458	278
458	288
458	313
458	317
458	323
458	329
458	335
458	347
458	378
458	403
458	434
458	531
458	562
458	575
458	600
459	75
459	232
459	366
459	394
459	408
459	463
459	485
459	492
459	500
459	543
459	667
459	694
460	87
460	101
460	139
460	149
460	166
460	195
460	207
460	217
460	237
460	283
460	303
460	351
460	360
460	388
460	398
460	440
460	446
460	470
460	512
460	556
460	607
460	616
460	687
461	31
461	45
461	93
461	118
461	212
461	223
461	243
461	293
461	311
461	413
461	419
461	452
461	523
461	536
461	589
461	623
461	649
461	660
461	679
462	21
462	37
462	108
462	134
462	155
462	160
462	176
462	182
462	187
462	228
462	249
462	253
462	258
462	287
462	315
462	326
462	345
462	356
462	364
462	374
462	380
462	385
462	425
462	475
462	496
462	506
462	631
463	81
463	114
463	127
463	144
463	199
463	219
463	233
463	264
463	269
463	274
463	298
463	308
463	320
463	336
463	393
463	404
463	431
463	437
463	458
463	481
463	517
463	569
463	584
463	639
463	671
463	691
463	707
464	62
464	74
464	170
464	302
464	330
464	341
464	443
464	465
464	530
464	548
464	596
464	653
464	700
465	27
465	44
465	122
465	203
465	208
465	213
465	239
465	244
465	279
465	283
465	292
465	350
465	359
465	369
465	389
465	398
465	411
465	489
465	541
465	563
465	577
465	603
466	99
466	139
466	153
466	159
466	164
466	184
466	191
466	196
466	260
466	269
466	312
466	318
466	324
466	354
466	415
466	421
466	448
466	455
466	471
466	501
466	511
466	646
466	666
467	69
467	87
467	94
467	104
467	133
467	148
467	174
467	265
467	287
467	335
467	365
467	374
467	380
467	385
467	394
467	523
467	554
467	611
467	618
468	32
468	38
468	81
468	117
468	144
468	179
468	222
468	230
468	250
468	344
468	428
468	433
468	461
468	494
468	626
468	634
468	659
468	683
469	22
469	110
469	125
469	168
469	200
469	235
469	240
469	255
469	274
469	298
469	304
469	309
469	340
469	406
469	439
469	476
469	483
469	505
469	537
469	590
469	676
470	54
470	76
470	99
470	162
470	209
470	225
470	284
470	315
470	329
470	351
470	369
470	389
470	397
470	402
470	417
470	445
470	466
470	529
470	546
470	566
470	573
470	582
470	597
470	640
470	652
471	28
471	65
471	104
471	120
471	158
471	188
471	193
471	216
471	246
471	260
471	269
471	294
471	319
471	323
471	336
471	360
471	379
471	411
471	423
471	451
471	517
471	669
471	704
472	45
472	84
472	89
472	130
472	146
472	152
472	197
472	203
472	279
472	302
472	346
472	355
472	364
472	374
472	384
472	429
472	473
472	490
472	606
472	613
473	95
473	140
473	177
473	183
473	231
473	237
473	265
473	289
473	436
473	458
473	497
473	510
473	523
473	551
473	559
473	620
473	690
474	39
474	59
474	71
474	112
474	133
474	171
474	213
474	219
474	242
474	255
474	282
474	311
474	342
474	395
474	404
474	441
474	463
474	479
474	541
474	699
475	22
475	78
475	248
475	297
475	306
475	316
475	321
475	327
475	361
475	379
475	389
475	400
475	414
475	418
475	447
475	504
475	535
475	570
475	577
475	628
475	682
476	27
476	49
476	101
476	119
476	149
476	160
476	166
476	192
476	208
476	226
476	261
476	268
476	277
476	333
476	338
476	347
476	351
476	453
476	467
476	485
476	586
476	592
476	658
477	107
477	125
477	143
477	154
477	179
477	185
477	203
477	235
477	238
477	292
477	355
477	369
477	409
477	425
477	458
477	491
477	516
477	528
477	601
477	635
477	643
477	651
477	666
478	34
478	54
478	65
478	90
478	130
478	137
478	197
478	212
478	253
478	287
478	303
478	313
478	343
478	365
478	374
478	384
478	431
478	474
478	547
478	555
478	563
478	609
479	221
479	230
479	244
479	249
479	257
479	265
479	272
479	282
479	308
479	318
479	323
479	400
479	437
479	444
479	480
479	498
479	510
479	616
479	675
479	694
480	21
480	40
480	83
480	113
480	122
480	164
480	175
480	188
480	330
480	350
480	379
480	415
480	523
480	542
481	73
481	97
481	158
481	169
481	184
481	194
481	200
481	218
481	260
481	275
481	285
481	290
481	299
481	335
481	340
481	355
481	361
481	373
481	390
481	405
481	421
481	449
481	455
481	463
481	469
481	534
481	573
481	589
481	624
481	687
482	48
482	61
482	77
482	127
482	153
482	178
482	206
482	213
482	227
482	237
482	248
482	345
482	369
482	394
482	487
482	504
482	582
482	631
482	648
482	655
482	679
483	101
483	105
483	133
483	140
483	145
483	252
483	266
483	270
483	295
483	305
483	310
483	365
483	384
483	410
483	429
483	434
483	476
483	493
483	561
483	568
483	596
483	639
483	662
483	671
484	21
484	27
484	87
484	93
484	208
484	243
484	281
484	315
484	321
484	326
484	332
484	376
484	440
484	447
484	461
484	516
484	529
484	552
484	603
485	35
485	117
485	155
485	166
485	174
485	193
485	197
485	203
485	222
485	257
485	290
485	302
485	337
485	342
485	350
485	400
485	417
485	454
485	545
485	704
486	55
486	162
486	180
486	187
486	232
486	247
486	276
486	307
486	360
486	369
486	379
486	389
486	403
486	407
486	424
486	465
486	482
486	499
486	509
486	536
486	557
486	577
486	611
486	619
486	699
487	43
487	74
487	81
487	109
487	124
487	131
487	143
487	149
487	227
487	238
487	262
487	286
487	312
487	355
487	365
487	430
487	503
487	524
487	626
487	691
488	24
488	49
488	97
488	102
488	138
488	170
488	217
488	266
488	294
488	318
488	324
488	383
488	395
488	436
488	446
488	471
488	487
488	585
488	643
488	651
488	682
489	30
489	90
489	212
489	223
489	242
489	252
489	280
489	299
489	329
489	333
489	339
489	345
489	350
489	373
489	411
489	442
489	450
489	477
489	564
489	572
489	591
489	634
489	659
489	666
489	675
490	69
490	114
490	165
490	177
490	194
490	200
490	206
490	233
490	258
490	270
490	304
490	314
490	360
490	390
490	415
490	420
490	455
490	520
490	530
490	550
491	20
491	36
491	56
491	85
491	152
491	159
491	183
491	189
491	228
491	238
491	247
491	310
491	369
491	379
491	400
491	463
491	465
491	494
491	514
491	556
491	599
491	606
492	79
492	121
492	128
492	139
492	146
492	171
492	262
492	276
492	285
492	426
492	482
492	508
492	536
492	543
492	687
492	704
493	26
493	43
493	99
493	104
493	111
493	215
493	268
493	291
493	325
493	331
493	337
493	342
493	354
493	395
493	432
493	439
493	500
493	579
493	613
493	622
493	696
494	62
494	74
494	198
494	204
494	209
494	219
494	225
494	243
494	252
494	299
494	319
494	348
494	364
494	375
494	384
494	405
494	446
494	471
494	526
494	642
494	681
495	51
495	93
495	186
495	192
495	234
495	257
495	272
495	281
495	358
495	411
495	452
495	488
495	554
495	568
495	647
495	689
496	68
496	117
496	124
496	130
496	156
496	175
496	228
496	239
496	306
496	312
496	368
496	389
496	399
496	417
496	458
496	465
496	477
496	519
496	547
496	562
496	587
496	594
496	601
496	656
496	672
497	21
497	29
497	36
497	82
497	88
497	105
497	137
497	144
497	150
497	163
497	168
497	182
497	248
497	262
497	288
497	317
497	334
497	379
497	424
497	429
497	495
497	510
497	530
497	574
497	634
497	663
498	72
498	76
498	212
498	221
498	254
498	268
498	284
498	293
498	322
498	328
498	340
498	345
498	353
498	364
498	435
498	442
498	484
498	539
498	608
498	701
499	44
499	58
499	195
499	201
499	207
499	236
499	278
499	298
499	373
499	384
499	394
499	404
499	408
499	447
499	581
499	616
499	623
500	26
500	92
500	173
500	178
500	189
500	232
500	242
500	259
500	274
500	303
500	454
500	471
500	501
500	524
500	588
500	693
501	50
501	86
501	99
501	111
501	134
501	147
501	159
501	165
501	183
501	228
501	249
501	290
501	308
501	320
501	358
501	414
501	461
501	489
501	516
501	630
501	643
501	652
501	686
502	33
502	64
502	79
502	107
502	122
502	141
502	153
502	215
502	222
502	315
502	325
502	331
502	335
502	342
502	348
502	353
502	369
502	378
502	389
502	400
502	420
502	478
502	531
502	559
502	567
502	676
503	39
503	68
503	73
503	102
503	117
503	129
503	209
503	237
503	264
503	279
503	295
503	426
503	432
503	438
503	507
503	544
503	660
503	691
504	21
504	58
504	96
504	176
504	204
504	232
504	254
504	269
504	285
504	300
504	363
504	383
504	406
504	445
504	495
504	536
504	552
504	575
504	595
504	602
504	638
504	668
504	706
505	46
505	109
505	181
505	193
505	198
505	246
505	259
505	291
505	305
505	358
505	374
505	395
505	410
505	450
505	483
505	610
505	697
506	28
506	89
506	125
506	137
506	155
506	162
506	168
506	219
506	274
506	315
506	321
506	368
506	389
506	417
506	462
506	472
506	502
506	523
506	531
506	582
506	617
506	646
506	688
507	52
507	143
507	150
507	213
507	226
507	241
507	249
507	309
507	327
507	333
507	338
507	344
507	350
507	379
507	401
507	422
507	434
507	457
507	490
507	556
507	624
508	75
508	84
508	98
508	131
508	188
508	256
508	265
508	281
508	364
508	515
508	562
508	569
508	590
508	653
508	674
509	33
509	64
509	107
509	114
509	119
509	173
509	201
509	208
509	236
509	286
509	296
509	301
509	407
509	429
509	440
509	468
509	478
509	549
509	631
509	661
509	680
510	25
510	40
510	58
510	69
510	183
510	196
510	243
510	261
510	270
510	307
510	313
510	348
510	359
510	372
510	385
510	392
510	414
510	447
510	496
510	509
510	535
510	542
510	597
510	605
511	93
511	101
511	129
511	155
511	161
511	177
511	215
511	224
511	229
511	276
511	292
511	318
511	324
511	341
511	376
511	418
511	453
511	484
511	575
511	612
511	636
511	690
511	702
512	46
512	139
512	148
512	330
512	337
512	353
512	366
512	396
512	435
512	459
512	473
512	521
512	529
512	621
512	668
512	707
513	53
513	79
513	134
513	167
513	204
513	210
513	239
513	251
513	256
513	266
513	282
513	380
513	403
513	425
513	502
513	582
513	647
514	24
514	30
514	110
514	122
514	172
514	186
514	199
514	218
514	234
514	298
514	303
514	362
514	408
514	438
514	444
514	490
514	515
514	551
514	560
514	625
514	680
515	63
515	85
515	96
515	104
515	130
515	181
515	193
515	227
515	248
515	262
515	287
515	309
515	315
515	321
515	356
515	388
515	394
515	479
515	539
515	567
515	633
515	654
515	705
516	36
516	91
516	164
516	221
516	242
516	273
516	278
516	327
516	332
516	338
516	349
516	370
516	415
516	430
516	448
516	467
516	527
516	546
516	592
516	608
516	661
516	675
516	684
517	20
517	56
517	75
517	139
517	158
517	209
517	215
517	252
517	293
517	343
517	376
517	398
517	421
517	496
517	507
517	600
517	691
518	43
518	69
518	144
518	151
518	168
518	175
518	202
518	236
518	268
518	282
518	365
518	383
518	437
518	454
518	484
518	520
518	534
518	576
518	641
519	25
519	113
519	120
519	132
519	226
519	231
519	258
519	263
519	274
519	298
519	404
519	474
519	614
519	698
520	89
520	107
520	125
520	186
520	190
520	196
520	246
520	305
520	312
520	318
520	324
520	331
520	358
520	389
520	410
520	426
520	443
520	460
520	502
520	554
520	562
520	583
520	620
520	628
520	649
520	670
520	705
521	32
521	61
521	81
521	161
521	165
521	218
521	241
521	250
521	254
521	291
521	336
521	347
521	353
521	380
521	395
521	417
521	451
521	480
521	490
521	513
521	539
521	688
522	22
522	38
522	100
522	179
522	206
522	212
522	233
522	279
522	342
522	375
522	431
523	143
523	155
523	172
523	201
523	271
523	285
523	294
523	300
523	363
523	370
523	400
523	422
523	468
523	527
523	549
523	569
523	599
523	608
523	635
524	53
524	124
524	136
524	150
524	194
524	228
524	260
524	266
524	316
524	321
524	385
524	437
524	456
524	498
524	520
524	534
524	578
524	591
524	656
524	681
524	693
525	27
525	45
525	75
525	94
525	105
525	113
525	129
525	165
525	187
525	304
525	309
525	327
525	333
525	356
525	406
525	485
525	507
525	642
525	663
525	688
525	700
526	118
526	182
526	223
526	245
526	251
526	277
526	297
526	344
526	351
526	377
526	391
526	427
526	444
526	474
526	512
526	585
526	615
526	708
527	31
527	65
527	71
527	99
527	139
527	159
527	209
527	216
527	239
527	257
527	264
527	288
527	339
527	371
527	396
527	412
527	418
527	462
527	494
527	540
527	622
527	631
527	677
528	40
528	58
528	88
528	153
528	176
528	233
528	270
528	381
528	433
528	450
528	480
528	556
528	563
529	170
529	200
529	205
529	253
529	292
529	301
529	312
529	319
529	360
529	366
529	402
529	468
529	524
529	548
529	572
529	593
529	602
529	648
529	671
530	23
530	120
530	145
530	164
530	192
530	262
530	277
530	306
530	325
530	336
530	355
530	376
530	385
530	497
530	505
530	518
530	532
530	636
531	52
531	83
531	128
531	134
531	185
531	220
531	243
531	248
531	283
531	330
531	349
531	391
531	408
531	423
531	439
531	457
531	486
531	579
531	610
531	656
531	686
532	30
532	44
532	65
532	94
532	103
532	109
532	116
532	140
532	156
532	180
532	209
532	214
532	225
532	229
532	258
532	266
532	297
532	342
532	431
532	445
532	474
532	537
532	618
532	690
532	698
533	237
533	288
533	397
533	413
533	417
533	462
533	513
533	567
533	642
533	665
533	680
534	21
534	37
534	77
534	151
534	174
534	196
534	203
534	272
534	302
534	316
534	370
534	381
534	435
534	492
534	520
534	545
534	599
534	628
534	703
535	58
535	88
535	143
535	167
535	190
535	232
535	252
535	262
535	292
535	322
535	328
535	333
535	358
535	364
535	403
535	452
535	481
535	500
535	526
535	552
535	560
535	573
535	586
535	651
536	98
536	125
536	131
536	247
536	340
536	346
536	351
536	387
536	393
536	426
536	468
536	534
536	636
536	671
537	42
537	71
537	118
537	162
537	184
537	212
537	216
537	221
537	243
537	278
537	283
537	307
537	374
537	408
537	440
537	458
537	506
537	592
538	34
538	63
538	83
538	104
538	207
538	227
538	257
538	288
538	299
538	313
538	317
538	421
538	431
538	446
538	475
538	486
538	581
538	605
538	615
538	657
538	686
539	27
539	93
539	112
539	136
539	147
539	157
539	178
539	201
539	237
539	267
539	324
539	381
539	398
539	415
539	515
539	540
539	622
539	696
540	57
540	75
540	120
540	172
540	195
540	246
540	262
540	304
540	356
540	369
540	462
540	494
540	567
540	643
540	675
540	702
541	21
541	132
541	272
541	293
541	331
541	341
541	352
541	362
541	375
541	386
541	404
541	437
541	490
541	501
541	548
542	69
542	87
542	99
542	127
542	144
542	166
542	188
542	211
542	218
542	257
542	278
542	284
542	392
542	427
542	451
542	469
542	520
542	527
542	554
542	598
542	629
542	666
543	39
543	115
543	159
543	183
543	225
543	231
543	240
543	288
543	310
543	320
543	347
543	410
543	420
543	443
543	480
543	507
543	575
543	591
543	650
544	32
544	81
544	93
544	108
544	153
544	176
544	199
544	205
544	234
544	251
544	268
544	299
544	315
544	354
544	365
544	381
544	398
544	431
544	458
544	535
544	562
544	609
545	103
545	137
545	191
545	262
545	273
545	304
545	326
545	359
545	416
545	465
545	474
545	491
545	516
545	542
545	603
545	622
545	637
545	688
545	706
546	46
546	52
546	62
546	170
546	215
546	279
546	331
546	337
546	371
546	486
546	496
546	522
546	583
546	658
547	24
547	75
547	117
547	121
547	148
547	187
547	228
547	244
547	294
547	310
547	344
547	374
547	385
547	405
547	426
547	437
547	549
547	570
547	697
548	37
548	99
548	111
548	129
548	164
548	222
548	256
548	285
548	299
548	322
548	349
548	393
548	422
548	448
548	502
548	595
548	616
548	645
548	667
548	680
549	88
549	94
549	142
549	172
549	180
549	205
549	211
549	239
549	356
549	410
549	454
549	511
549	529
549	557
549	590
549	600
549	631
550	154
550	158
550	197
550	234
550	265
550	270
550	290
550	315
550	326
550	337
550	364
550	381
550	399
550	431
550	442
550	468
550	481
550	577
551	19
551	80
551	105
551	133
551	250
551	260
551	276
551	306
551	461
551	491
551	538
551	564
551	609
551	652
551	674
552	29
552	70
552	115
552	166
552	176
552	191
552	219
552	224
552	281
552	341
552	370
552	388
552	417
552	518
553	45
553	53
553	109
553	184
553	206
553	213
553	254
553	286
553	295
553	310
553	321
553	331
553	347
553	352
553	405
553	473
553	486
553	498
553	544
553	585
553	601
553	638
553	684
553	702
554	23
554	86
554	118
554	124
554	146
554	202
554	230
554	246
554	360
554	376
554	396
554	425
554	438
554	449
554	505
554	524
554	551
554	659
555	93
555	156
555	171
555	195
555	236
555	240
555	259
555	266
555	300
555	411
555	468
555	573
555	625
555	645
555	668
555	692
555	708
556	36
556	79
556	104
556	139
556	163
556	178
556	273
556	316
556	325
556	366
556	382
556	401
556	458
556	479
556	559
556	593
556	615
556	675
557	59
557	112
557	120
557	128
557	133
557	150
557	209
557	222
557	250
557	278
557	291
557	306
557	337
557	419
557	431
557	443
557	492
557	511
557	530
557	580
557	633
558	28
558	41
558	88
558	144
558	173
558	190
558	283
558	296
558	321
558	331
558	343
558	349
558	389
558	461
558	473
558	519
558	546
558	585
558	653
559	48
559	55
559	67
559	116
559	160
559	167
559	215
559	227
559	255
559	267
559	310
559	355
559	372
559	377
559	425
559	486
559	499
559	538
559	567
559	607
559	684
560	182
560	232
560	237
560	244
560	260
560	300
560	362
560	395
560	406
560	437
560	449
560	620
560	639
560	661
561	19
561	72
561	83
561	108
561	199
561	290
561	316
561	327
561	413
561	455
561	504
561	526
561	669
561	707
562	25
562	32
562	99
562	124
562	138
562	155
562	177
562	206
562	274
562	306
562	333
562	339
562	352
562	384
562	468
562	553
562	587
562	600
562	690
563	131
563	193
563	218
563	224
563	345
563	357
563	368
563	402
563	419
563	431
563	444
563	462
563	479
563	494
563	533
563	561
563	573
563	593
563	612
563	626
563	677
564	93
564	118
564	148
564	163
564	211
564	229
564	243
564	257
564	295
564	321
564	373
564	389
564	410
564	514
564	633
564	647
564	699
565	50
565	105
565	111
565	171
565	187
565	235
565	249
565	263
565	268
565	280
565	311
565	379
565	540
565	569
565	581
565	605
565	655
566	30
566	61
566	69
566	142
566	166
566	201
566	276
566	286
566	301
566	317
566	328
566	364
566	396
566	427
566	437
566	449
566	463
566	475
566	501
566	526
567	36
567	77
567	135
567	158
567	182
567	239
567	384
567	413
567	487
567	519
567	547
567	641
567	663
567	688
567	695
568	19
568	84
568	152
568	191
568	208
568	214
568	220
568	226
568	292
568	305
568	338
568	342
568	348
568	353
568	369
568	456
568	508
568	588
568	619
568	680
569	50
569	56
569	129
569	145
569	176
569	247
569	253
569	283
569	322
569	334
569	359
569	403
569	421
569	432
569	443
569	468
569	556
569	563
569	575
569	598
570	92
570	100
570	121
570	259
570	265
570	271
570	297
570	311
570	391
570	481
570	494
570	515
570	535
570	629
570	674
570	707
571	24
571	64
571	114
571	163
571	171
571	196
571	233
571	239
571	380
571	407
571	606
571	613
571	647
572	33
572	71
572	140
572	187
572	204
572	286
572	301
572	317
572	364
572	373
572	462
572	501
572	583
572	656
573	106
573	132
573	181
573	209
573	222
573	278
573	292
573	305
573	329
573	338
573	346
573	396
573	427
573	438
573	450
573	475
573	487
573	521
573	542
573	549
573	569
573	681
573	689
574	40
574	79
574	86
574	127
574	156
574	216
574	244
574	250
574	255
574	353
574	357
574	385
574	402
574	414
574	510
574	529
574	590
574	621
574	639
574	666
574	696
575	20
575	53
575	150
575	192
575	229
575	261
575	266
575	281
575	296
575	322
575	369
576	144
576	168
576	174
576	198
576	236
576	312
576	333
576	378
576	421
576	432
576	444
576	457
576	469
576	483
576	495
576	516
576	537
576	556
576	562
576	575
577	66
577	95
577	101
577	161
577	205
577	272
577	290
577	329
577	350
577	390
577	409
577	544
577	598
577	613
577	629
577	657
577	704
578	27
578	47
578	111
578	138
578	187
578	285
578	302
578	317
578	361
578	503
578	523
578	643
578	673
579	33
579	73
579	106
579	130
579	180
579	222
579	240
579	247
579	278
579	307
579	337
579	344
579	356
579	374
579	384
579	397
579	415
579	438
579	450
579	463
579	475
579	489
579	583
580	123
580	173
580	209
580	231
580	254
580	265
580	426
580	510
580	606
580	637
580	651
580	659
580	688
581	37
581	148
581	155
581	166
581	201
581	216
581	260
581	295
581	322
581	367
581	480
581	530
581	551
581	569
581	592
581	621
582	21
582	62
582	81
582	89
582	185
582	193
582	226
582	236
582	289
582	312
582	331
582	404
582	420
582	538
582	561
582	680
582	695
583	53
583	85
583	100
583	116
583	208
583	271
583	302
583	327
583	349
583	379
583	391
583	432
583	444
583	456
583	468
583	484
583	496
583	517
583	575
583	600
583	628
584	30
584	141
584	160
584	169
584	221
584	283
584	308
584	343
584	361
584	409
584	615
584	643
584	668
585	45
585	77
585	94
585	179
585	213
585	244
585	250
585	258
585	318
585	336
585	373
585	474
585	504
585	525
585	546
585	584
585	688
585	703
586	128
586	136
586	154
586	196
586	202
586	231
586	264
586	355
586	386
586	398
586	416
586	450
586	462
586	635
586	659
587	82
587	108
587	121
587	147
587	163
587	174
587	191
587	238
587	277
587	294
587	312
587	366
587	424
587	438
587	511
587	555
587	606
587	650
588	18
588	36
588	50
588	111
588	225
588	288
588	330
588	348
588	404
588	490
588	532
588	567
588	621
589	23
589	29
589	40
589	64
589	89
589	99
589	183
589	208
589	270
589	299
589	305
589	359
589	378
589	392
589	411
589	431
589	467
589	480
589	498
589	519
589	592
589	683
589	697
590	56
590	159
590	220
590	247
590	260
590	324
590	339
590	344
590	444
590	457
590	575
591	45
591	70
591	132
591	253
591	265
591	282
591	317
591	335
591	385
591	418
591	486
591	539
591	644
591	674
592	93
592	126
592	143
592	149
592	167
592	178
592	186
592	202
592	230
592	235
592	242
592	276
592	292
592	312
592	353
592	365
592	373
592	399
592	473
592	506
592	552
592	599
592	614
592	629
592	666
593	79
593	118
593	136
593	195
593	213
593	328
593	347
593	425
593	438
593	450
593	465
593	526
593	548
593	585
593	691
594	106
594	247
594	287
594	304
594	405
594	493
594	513
594	534
594	571
594	636
594	659
594	699
595	38
595	51
595	86
595	111
595	207
595	223
595	269
595	379
595	392
595	481
595	556
595	607
595	619
596	57
596	66
596	153
596	162
596	173
596	181
596	189
596	218
596	263
596	298
596	321
596	339
596	357
596	361
596	413
596	432
596	445
596	457
596	500
596	563
596	592
596	684
597	98
597	123
597	130
597	228
597	256
597	281
597	315
597	368
597	469
597	519
597	541
597	579
597	650
597	672
598	73
598	89
598	147
598	185
598	200
598	251
598	291
598	334
598	351
598	386
598	419
598	488
598	506
598	697
599	116
599	170
599	178
599	195
599	232
599	239
599	244
599	273
599	309
599	375
599	399
599	426
599	463
599	474
599	550
599	600
599	612
599	626
599	644
599	676
600	43
600	80
600	102
600	141
600	213
600	224
600	326
600	344
600	438
600	450
600	514
600	526
600	586
600	665
601	109
601	134
601	158
601	188
601	206
601	286
601	302
601	338
601	356
601	391
601	407
601	481
601	571
601	633
601	658
602	52
602	150
602	181
602	219
602	261
602	267
602	362
602	380
602	412
602	495
602	534
602	556
603	66
603	96
603	120
603	164
603	199
603	235
603	248
603	255
603	280
603	295
603	314
603	331
603	397
603	433
603	444
603	456
603	520
603	607
603	620
603	671
603	686
604	59
604	176
604	351
604	369
604	385
604	421
604	468
604	502
604	542
604	578
604	592
604	692
605	38
605	47
605	114
605	138
605	274
605	291
605	308
605	343
605	402
605	509
605	564
605	650
606	74
606	144
606	185
606	194
606	212
606	266
606	326
606	358
606	375
606	426
606	451
606	463
606	476
606	528
606	599
606	615
606	627
606	642
606	664
606	678
607	55
607	84
607	108
607	132
607	157
607	170
607	205
607	224
607	259
607	285
607	301
607	319
607	409
607	437
607	550
607	673
608	101
608	125
608	245
608	253
608	313
608	337
608	365
608	416
608	515
608	536
608	571
608	586
608	636
608	669
609	41
609	92
609	150
609	218
609	234
609	239
609	280
609	391
609	455
609	470
609	484
609	497
609	558
609	655
610	49
610	163
610	182
610	199
610	289
610	297
610	331
610	398
610	444
610	522
610	593
610	608
610	686
611	78
611	120
611	144
611	274
611	341
611	347
611	371
611	386
611	423
611	431
611	502
611	507
611	544
611	578
612	86
612	95
612	137
612	176
612	189
612	229
612	269
612	284
612	324
612	354
612	378
612	405
612	491
612	565
612	649
612	659
613	38
613	154
613	194
613	257
613	262
613	279
613	300
613	306
613	318
613	411
613	477
613	529
613	551
613	631
613	679
614	65
614	131
614	167
614	186
614	249
614	311
614	335
614	362
614	393
614	437
614	451
614	464
614	586
614	600
614	683
615	83
615	108
615	124
615	205
615	217
615	237
615	242
615	418
615	485
615	497
615	515
615	537
615	616
615	673
616	57
616	72
616	161
616	329
616	343
616	399
616	425
616	572
616	640
616	655
617	38
617	44
617	120
617	148
617	181
617	199
617	223
617	295
617	368
617	374
617	381
617	445
617	457
617	470
617	503
617	523
617	558
617	626
617	667
617	681
618	102
618	173
618	192
618	211
618	260
618	290
618	322
618	351
618	357
618	387
618	407
618	413
618	431
618	491
618	544
618	593
618	609
618	620
619	136
619	229
619	267
619	276
619	283
619	314
619	478
619	511
619	578
620	69
620	77
620	86
620	123
620	186
620	253
620	308
620	437
620	499
620	531
620	648
621	130
621	155
621	166
621	218
621	247
621	300
621	394
621	419
621	451
621	464
621	553
621	633
622	62
622	148
622	205
622	234
622	333
622	346
622	375
622	401
622	444
622	518
622	599
622	614
622	665
623	108
623	116
623	224
623	241
623	327
623	369
623	471
623	502
623	538
623	572
623	585
623	659
624	97
624	163
624	264
624	272
624	287
624	319
624	383
624	408
624	427
624	558
624	641
625	173
625	190
625	258
625	312
625	358
625	389
625	458
625	524
625	608
626	65
626	73
626	134
626	153
626	199
626	212
626	229
626	415
626	492
626	546
626	591
626	619
626	628
627	51
627	113
627	297
627	302
627	337
627	344
627	350
627	477
627	511
627	565
627	636
628	119
628	218
628	244
628	275
628	283
628	322
628	330
628	363
628	397
628	438
628	453
628	464
628	496
628	530
629	69
629	77
629	129
629	138
629	146
629	178
629	194
629	237
629	290
629	383
629	424
629	445
629	549
629	598
630	183
630	206
630	254
630	315
630	408
630	484
630	519
631	63
631	85
631	98
631	124
631	159
631	469
631	570
631	612
632	152
632	230
632	241
632	309
632	502
632	511
632	622
632	632
633	108
633	172
633	192
633	199
633	218
633	260
633	280
633	326
633	334
633	358
633	367
633	374
633	456
633	489
633	522
633	542
633	556
633	582
633	589
633	604
634	50
634	57
634	74
634	93
634	100
634	104
634	115
634	288
634	319
634	394
634	531
634	598
635	133
635	142
635	177
635	344
635	352
635	382
635	402
635	418
635	482
635	514
635	537
635	575
635	639
636	118
636	205
636	211
636	222
636	235
636	251
636	265
636	273
636	304
636	390
636	425
636	444
636	452
636	460
636	477
636	549
636	561
636	609
636	618
637	147
637	154
637	161
637	170
637	182
637	186
637	192
637	199
637	230
637	244
637	282
637	298
637	308
637	315
637	323
637	331
637	337
637	370
637	378
637	397
637	408
637	433
637	470
637	488
637	494
637	508
637	518
637	543
637	571
637	584
637	627
637	635
