98	132
99	117
99	149
100	253
100	260
100	268
100	273
101	156
101	245
101	284
101	290
102	109
102	143
102	226
102	240
102	434
102	570
102	579
103	122
103	199
103	213
103	328
103	381
103	473
103	494
103	642
104	86
104	137
104	168
104	176
104	185
104	257
104	309
104	405
104	450
104	458
104	515
104	539
104	548
105	101
105	150
105	162
105	342
105	356
105	364
105	372
105	426
105	465
105	485
106	78
106	95
106	117
106	130
106	233
106	264
106	270
106	277
106	315
106	348
106	418
106	507
106	562
107	192
107	207
107	220
107	249
107	286
107	294
107	303
107	322
107	334
107	397
107	442
107	499
107	530
107	591
107	604
107	624
107	634
108	241
108	411
108	478
108	522
108	554
108	570
108	585
109	109
109	122
109	143
109	199
109	227
109	327
109	432
109	614
109	642
110	172
110	180
110	213
110	377
110	384
110	392
110	454
110	491
110	546
111	85
111	157
111	186
111	256
111	307
111	369
111	403
111	423
111	471
111	538
111	598
111	630
112	116
112	135
112	164
112	234
112	281
112	339
112	346
112	354
112	361
112	446
112	507
112	513
112	560
112	577
113	101
113	150
113	193
113	249
113	265
113	273
113	297
113	417
113	461
113	484
113	620
114	93
114	220
114	290
114	314
114	438
114	530
114	591
114	605
115	129
115	205
115	322
115	330
115	410
115	497
115	568
115	636
116	75
116	121
116	143
116	241
116	285
116	303
116	374
116	380
116	476
116	598
117	108
117	156
117	177
117	228
117	257
117	387
117	395
117	430
117	452
117	470
117	511
117	517
117	553
117	583
117	613
117	647
118	84
118	100
118	135
118	169
118	183
118	214
118	277
118	309
118	336
118	402
118	461
118	643
119	114
119	234
119	270
119	344
119	351
119	359
119	421
119	490
119	536
120	149
120	190
120	199
120	296
120	317
120	367
120	443
120	482
120	503
120	560
120	575
120	629
121	91
121	162
121	221
121	250
121	263
121	325
121	414
122	143
122	207
122	289
122	375
122	382
122	436
122	473
122	515
122	527
122	604
122	620
123	71
123	78
123	128
123	155
123	176
123	228
123	242
123	281
123	302
123	331
123	407
123	458
123	466
123	495
123	590
123	638
124	85
124	105
124	111
124	120
124	186
124	256
124	311
124	390
124	399
124	428
124	521
124	567
124	582
125	169
125	193
125	274
125	340
125	354
125	362
125	449
125	541
125	550
125	646
126	96
126	148
126	214
126	268
126	295
126	320
126	347
126	369
126	419
126	509
126	598
126	613
127	135
127	201
127	235
127	249
127	441
127	487
127	558
127	628
128	160
128	221
128	261
128	327
128	377
128	433
128	518
128	574
129	90
129	115
129	141
129	181
129	242
129	288
129	306
129	335
129	386
129	394
129	401
129	461
129	478
129	500
129	535
129	589
130	76
130	83
130	124
130	131
130	174
130	208
130	257
130	280
130	342
130	409
130	455
130	470
130	495
130	526
130	584
130	604
130	620
131	101
131	109
131	153
131	189
131	228
131	315
131	350
131	358
131	425
131	544
131	635
132	166
132	267
132	274
132	298
132	365
132	448
132	552
133	197
133	203
133	215
133	235
133	322
133	440
133	505
133	567
134	94
134	145
134	373
134	405
134	417
134	513
134	580
134	596
134	628
134	645
135	137
135	158
135	178
135	240
135	249
135	283
135	291
135	330
135	381
135	390
135	475
135	521
135	560
135	613
136	87
136	121
136	222
136	262
136	303
136	338
136	345
136	397
136	411
136	430
136	466
136	484
136	530
136	537
137	71
137	80
137	104
137	113
137	171
137	185
137	208
137	256
137	270
137	353
137	360
137	452
137	490
137	498
137	589
138	151
138	229
138	277
138	309
138	317
138	460
138	546
138	573
138	603
138	619
138	638
139	193
139	297
139	369
139	422
139	444
139	508
140	99
140	163
140	201
140	215
140	236
140	325
140	376
140	405
140	437
140	471
140	611
141	91
141	126
141	134
141	142
141	244
141	340
141	383
141	414
141	479
141	516
141	565
141	627
142	176
142	251
142	285
142	331
142	391
142	525
142	532
142	556
142	581
142	596
142	662
143	84
143	110
143	117
143	156
143	181
143	189
143	223
143	258
143	265
143	303
143	349
143	429
143	450
143	486
143	494
143	541
143	645
144	209
144	272
144	312
144	355
144	457
144	502
144	586
144	603
144	653
145	59
145	77
145	149
145	169
145	196
145	231
145	291
145	363
145	370
145	400
145	421
145	441
145	464
145	549
145	572
145	634
146	38
146	43
146	95
146	103
146	280
146	320
146	619
146	671
146	684
147	50
147	137
147	217
147	239
147	336
147	377
147	406
147	413
147	435
147	472
147	510
147	518
147	528
147	558
148	130
148	202
148	227
148	246
148	286
148	298
148	327
148	342
148	385
148	594
148	611
149	121
149	143
149	175
149	209
149	253
149	274
149	305
149	350
149	393
149	446
149	480
149	489
149	535
149	626
149	640
149	647
149	677
150	88
150	116
150	154
150	162
150	184
150	260
150	427
150	454
150	459
150	497
150	566
150	579
150	663
151	65
151	74
151	81
151	190
151	267
151	293
151	313
151	358
151	505
151	545
151	602
152	57
152	100
152	170
152	233
152	331
152	366
152	440
152	587
153	27
153	41
153	108
153	198
153	215
153	240
153	321
153	338
153	372
153	400
153	408
153	421
153	466
153	473
153	552
153	618
153	654
154	93
154	134
154	149
154	279
154	345
154	387
154	434
154	514
154	522
154	594
154	632
154	670
155	47
155	125
155	142
155	193
155	203
155	221
155	248
155	272
155	299
155	308
155	327
155	352
155	486
155	530
155	571
155	687
156	34
156	78
156	116
156	157
156	177
156	287
156	380
156	414
156	450
156	561
156	610
156	665
157	69
157	85
157	165
157	184
157	229
157	256
157	361
157	393
157	427
157	454
157	462
157	492
157	579
157	647
157	677
158	190
158	209
158	263
158	315
158	333
158	404
158	441
158	478
158	500
158	508
158	539
158	601
158	625
159	60
159	100
159	137
159	198
159	236
159	277
159	304
159	341
159	368
159	516
159	548
159	587
159	640
160	130
160	216
160	243
160	253
160	282
160	294
160	399
160	469
160	616
161	42
161	93
161	108
161	152
161	269
161	309
161	321
161	347
161	374
161	386
161	420
161	433
161	524
161	556
161	655
162	28
162	122
162	146
162	158
162	172
162	224
162	258
162	355
162	411
162	486
162	534
162	594
162	631
162	683
163	73
163	137
163	179
163	204
163	266
163	289
163	328
163	378
163	426
163	446
163	495
163	565
163	573
164	64
164	82
164	115
164	165
164	186
164	192
164	301
164	364
164	455
164	477
164	543
164	581
164	607
164	645
165	38
165	50
165	100
165	211
165	231
165	307
165	316
165	335
165	392
165	504
165	511
165	587
165	599
165	623
165	661
165	675
166	129
166	219
166	247
166	276
166	343
166	370
166	404
166	438
166	463
166	638
167	58
167	91
167	107
167	153
167	238
167	254
167	270
167	283
167	294
167	416
167	470
167	519
167	550
168	43
168	144
168	175
168	199
168	322
168	349
168	385
168	398
168	431
168	449
168	490
168	527
168	559
168	615
169	70
169	77
169	122
169	161
169	168
169	182
169	190
169	226
169	260
169	312
169	357
169	423
169	483
169	592
169	606
169	690
170	29
170	85
170	206
170	232
170	289
170	301
170	317
170	329
170	337
170	377
170	411
170	458
170	500
170	535
170	569
170	631
170	666
170	678
171	51
171	98
171	114
171	136
171	148
171	214
171	242
171	267
171	364
171	392
171	442
171	477
171	515
171	576
171	584
171	659
172	49
172	272
172	308
172	344
172	506
172	545
172	683
173	221
173	249
173	284
173	371
173	384
173	403
173	434
173	465
173	487
173	599
173	622
173	643
174	75
174	128
174	156
174	194
174	236
174	255
174	280
174	295
174	322
174	351
174	419
174	522
174	674
175	37
175	82
175	91
175	107
175	142
175	164
175	180
175	186
175	202
175	228
175	397
175	427
175	454
175	494
175	530
175	552
175	566
175	638
176	58
176	65
176	121
176	171
176	209
176	243
176	263
176	314
176	358
176	446
176	473
176	501
176	607
176	688
177	52
177	218
177	302
177	329
177	377
177	410
177	509
177	538
177	581
177	591
177	615
177	628
177	666
178	99
178	113
178	134
178	224
178	269
178	276
178	287
178	338
178	365
178	388
178	403
178	439
178	459
178	481
178	559
178	675
179	150
179	231
179	309
179	321
179	430
179	517
179	546
179	658
179	679
180	87
180	127
180	158
180	198
180	204
180	251
180	344
180	423
180	466
180	573
180	600
180	643
181	39
181	79
181	175
181	183
181	190
181	213
181	238
181	293
181	353
181	371
181	384
181	525
182	62
182	108
182	139
182	167
182	257
182	281
182	315
182	396
182	416
182	450
182	474
182	488
182	497
182	566
182	587
182	608
182	622
182	634
182	672
183	53
183	70
183	94
183	122
183	264
183	334
183	359
183	409
183	533
183	700
184	27
184	146
184	218
184	246
184	273
184	303
184	339
184	378
184	503
184	553
184	593
185	100
185	113
185	153
185	210
185	226
185	310
185	327
185	365
185	389
185	436
185	442
185	462
185	511
185	540
185	581
185	614
185	665
185	705
186	76
186	134
186	161
186	194
186	201
186	287
186	346
186	402
186	428
186	469
186	483
186	561
186	629
187	82
187	180
187	232
187	258
187	296
187	321
187	454
187	519
187	687
188	20
188	32
188	89
188	127
188	172
188	187
188	280
188	383
188	414
188	421
188	491
188	548
188	567
188	601
188	646
188	656
189	40
189	96
189	107
189	140
189	215
189	240
189	268
189	315
189	334
189	353
189	372
189	395
189	448
189	499
189	527
189	587
189	677
190	49
190	165
190	220
190	264
190	308
190	340
190	360
190	441
190	474
190	535
190	573
190	609
190	621
190	635
191	60
191	66
191	100
191	119
191	147
191	155
191	208
191	246
191	274
191	366
191	408
191	433
191	506
191	671
191	699
192	25
192	179
192	195
192	228
192	301
192	377
192	389
192	426
192	514
192	615
192	649
192	663
192	693
193	78
193	112
193	134
193	159
193	185
193	202
193	234
193	252
193	286
193	327
193	348
193	401
193	453
193	461
193	480
193	553
193	581
193	595
193	691
193	706
194	71
194	125
194	210
194	258
194	269
194	295
194	319
194	419
194	468
194	494
194	522
194	628
195	22
195	33
195	48
195	56
195	84
195	91
195	140
195	152
195	171
195	280
195	312
195	371
195	394
195	446
195	501
195	560
195	603
195	642
195	655
195	684
196	105
196	118
196	164
196	190
196	217
196	241
196	335
196	383
196	412
196	568
196	589
197	98
197	132
197	197
197	223
197	292
197	306
197	342
197	356
197	364
197	475
197	509
197	530
197	547
197	575
197	619
197	703
198	230
198	248
198	263
198	405
198	431
198	439
198	538
198	609
198	633
198	676
199	27
199	77
199	146
199	157
199	178
199	205
199	274
199	299
199	324
199	349
199	423
199	463
199	518
199	598
199	647
199	667
199	698
200	16
200	92
200	112
200	122
200	138
200	237
200	285
200	317
200	330
200	376
200	417
200	483
200	490
200	555
200	583
200	662
201	85
201	170
201	185
201	255
201	390
201	398
201	458
201	497
201	525
201	562
202	39
202	44
202	52
202	104
202	212
202	243
202	268
202	310
202	336
202	355
202	368
202	383
202	443
202	450
202	620
202	627
202	689
203	152
203	163
203	192
203	219
203	279
203	343
203	361
203	410
203	475
203	504
203	533
203	570
203	613
203	639
203	655
203	705
204	23
204	63
204	68
204	129
204	225
204	262
204	296
204	302
204	429
204	435
204	541
204	591
205	78
205	97
205	116
205	141
205	176
205	200
205	231
205	250
205	285
205	290
205	320
205	326
205	402
205	512
205	521
205	549
205	577
205	605
205	673
205	680
206	137
206	156
206	182
206	238
206	314
206	348
206	394
206	421
206	462
206	634
206	696
207	30
207	91
207	169
207	207
207	275
207	332
207	359
207	373
207	379
207	486
207	493
207	557
207	585
207	599
207	664
208	15
208	55
208	73
208	110
208	188
208	214
208	256
208	268
208	307
208	365
208	387
208	414
208	455
208	471
208	500
208	647
209	40
209	47
209	85
209	147
209	152
209	220
209	227
209	246
209	339
209	435
209	441
209	447
209	535
209	564
209	608
210	103
210	128
210	162
210	196
210	294
210	301
210	321
210	345
210	352
210	408
210	508
210	545
210	572
210	624
210	639
210	687
211	22
211	95
211	140
211	177
211	203
211	233
211	252
211	262
211	280
211	288
211	328
211	399
211	426
211	656
212	80
212	120
212	184
212	240
212	273
212	392
212	516
212	528
212	551
212	594
212	617
212	672
212	678
212	701
213	29
213	58
213	90
213	114
213	209
213	312
213	335
213	385
213	419
213	459
213	473
213	482
213	522
213	632
214	17
214	36
214	65
214	134
214	145
214	158
214	169
214	192
214	216
214	363
214	369
214	377
214	466
214	488
214	495
214	602
215	50
215	107
215	222
215	258
215	291
215	305
215	342
215	403
215	411
215	431
215	438
215	446
215	452
215	503
215	540
215	559
215	580
215	586
215	647
215	662
216	43
216	100
216	174
216	197
216	229
216	246
216	265
216	298
216	317
216	323
216	349
216	623
217	24
217	85
217	126
217	151
217	162
217	278
217	283
217	330
217	354
217	395
217	423
217	511
217	567
217	610
217	637
218	77
218	119
218	139
218	181
218	235
218	242
218	252
218	311
218	389
218	519
218	533
218	654
218	684
219	30
219	80
219	186
219	204
219	270
219	374
219	382
219	406
219	417
219	525
219	575
219	597
219	669
219	694
219	706
220	17
220	39
220	57
220	94
220	130
220	157
220	247
220	301
220	337
220	368
220	463
220	470
220	477
220	486
220	498
220	546
220	554
220	590
220	616
221	70
221	112
221	145
221	193
221	211
221	224
221	232
221	263
221	295
221	319
221	343
221	361
221	400
221	412
221	434
221	442
221	449
221	456
221	491
221	582
221	630
221	676
222	47
222	104
222	170
222	199
222	218
222	229
222	257
222	280
222	288
222	325
222	429
222	505
222	562
222	604
222	643
222	662
223	25
223	97
223	176
223	239
223	307
223	333
223	349
223	537
223	680
223	691
223	700
224	84
224	136
224	251
224	275
224	378
224	384
224	392
224	514
224	522
224	623
225	77
225	140
225	151
225	164
225	188
225	206
225	268
225	301
225	313
225	338
225	356
225	484
225	529
225	570
225	638
225	652
226	19
226	118
226	129
226	182
226	221
226	227
226	235
226	293
226	406
226	468
226	492
226	500
226	541
226	549
226	579
226	595
226	608
226	669
226	683
227	42
227	102
227	171
227	194
227	261
227	362
227	398
227	412
227	419
227	439
227	446
227	453
227	460
227	587
228	55
228	110
228	146
228	157
228	201
228	214
228	242
228	279
228	286
228	319
228	345
228	350
228	425
228	432
228	558
228	617
228	630
228	666
228	697
229	27
229	63
229	95
229	232
229	255
229	305
229	312
229	325
229	334
229	373
229	381
229	388
229	565
230	47
230	81
230	88
230	178
230	224
230	248
230	357
230	394
230	472
230	519
230	527
230	601
230	644
230	659
230	689
231	164
231	183
231	207
231	272
231	283
231	298
231	401
231	479
231	512
231	534
231	574
231	673
232	106
232	139
232	189
232	265
232	316
232	340
232	367
232	428
232	436
232	449
232	458
232	487
232	495
232	503
232	623
232	637
232	655
233	35
233	56
233	70
233	118
233	156
233	171
233	201
233	218
233	239
233	259
233	292
233	322
233	408
233	415
233	421
233	443
233	465
233	543
233	583
233	666
233	683
233	695
233	706
234	20
234	43
234	99
234	146
234	212
234	252
234	275
234	310
234	350
234	361
234	384
234	551
234	559
234	592
234	609
234	630
234	653
234	699
235	60
235	84
235	92
235	112
235	124
235	129
235	183
235	194
235	229
235	245
235	287
235	304
235	329
235	378
235	387
235	404
235	473
235	662
236	28
236	49
236	77
236	135
236	177
236	206
236	391
236	516
236	522
236	531
236	567
236	616
236	678
237	152
237	162
237	188
237	223
237	233
237	269
237	317
237	335
237	343
237	355
237	484
237	491
237	498
237	507
237	538
237	672
238	107
238	139
238	255
238	280
238	296
238	366
238	397
238	411
238	423
238	446
238	580
238	602
238	643
238	658
238	687
238	698
239	16
239	117
239	127
239	169
239	199
239	218
239	263
239	291
239	308
239	325
239	418
239	439
239	453
239	469
239	478
239	546
240	39
240	70
240	100
240	121
240	157
240	182
240	228
240	240
240	250
240	274
240	349
240	431
240	461
240	588
240	625
241	32
241	56
241	88
241	94
241	145
241	193
241	210
241	214
241	286
241	302
241	373
241	380
241	394
241	553
241	561
241	596
241	611
241	634
241	665
241	678
242	22
242	45
242	63
242	81
242	111
242	175
242	269
242	313
242	321
242	355
242	387
242	401
242	502
242	518
242	649
243	204
243	296
243	408
243	495
243	510
243	526
243	533
243	569
243	695
244	52
244	140
244	152
244	164
244	187
244	223
244	235
244	255
244	280
244	327
244	344
244	361
244	368
244	414
244	422
244	428
244	449
244	455
244	486
244	541
244	576
244	618
244	685
245	36
245	105
245	116
245	240
245	291
245	307
245	333
245	442
245	473
245	481
245	583
245	643
245	657
245	669
245	673
246	60
246	68
246	98
246	128
246	134
246	169
246	181
246	198
246	218
246	228
246	263
246	273
246	350
246	374
246	435
246	466
246	548
246	627
247	19
247	41
247	92
247	122
247	157
247	211
247	247
247	317
247	339
247	555
247	600
247	608
247	701
248	24
248	59
248	146
248	192
248	204
248	383
248	391
248	397
248	492
248	499
248	515
248	522
248	529
248	592
249	31
249	48
249	79
249	86
249	110
249	151
249	163
249	175
249	223
249	236
249	258
249	285
249	296
249	312
249	403
249	409
249	417
249	424
249	431
249	453
249	460
249	506
249	563
249	636
249	649
249	663
249	677
250	186
250	252
250	268
250	279
250	307
250	328
250	357
250	364
250	438
250	544
250	572
250	616
250	691
251	37
251	65
251	103
251	117
251	140
251	198
251	241
251	345
251	371
251	378
251	445
251	477
251	484
251	537
251	578
251	695
252	96
252	210
252	217
252	325
252	333
252	470
252	623
252	642
252	671
253	44
253	90
253	127
253	132
253	169
253	179
253	229
253	263
253	290
253	318
253	351
253	393
253	400
253	413
253	586
253	596
253	602
253	629
253	656
253	685
254	27
254	82
254	146
254	159
254	193
254	204
254	235
254	246
254	273
254	301
254	312
254	387
254	406
254	464
254	497
254	517
254	525
254	550
254	558
255	21
255	70
255	76
255	113
255	122
255	257
255	283
255	360
255	421
255	426
255	434
255	457
255	503
255	510
255	532
255	566
255	575
255	609
255	636
255	701
256	33
256	49
256	108
256	138
256	162
256	173
256	185
256	223
256	279
256	294
256	306
256	332
256	366
256	374
256	380
256	440
256	451
256	481
256	490
256	661
256	693
257	61
257	101
257	131
257	153
257	198
257	209
257	214
257	228
257	322
257	335
257	342
257	475
257	546
257	582
257	616
257	647
257	676
258	38
258	93
258	234
258	240
258	251
258	262
258	289
258	390
258	469
258	625
259	25
259	87
259	148
259	179
259	220
259	272
259	396
259	403
259	590
259	606
259	689
259	697
260	45
260	56
260	80
260	125
260	156
260	168
260	189
260	301
260	315
260	345
260	385
260	409
260	417
260	447
260	461
260	498
260	507
260	520
260	527
260	554
260	562
260	656
261	120
261	142
261	194
261	244
261	257
261	267
261	283
261	358
261	364
261	371
261	423
261	429
261	453
261	485
261	513
261	534
261	569
261	633
261	670
261	684
262	75
262	104
262	112
262	136
262	183
262	198
262	205
262	225
262	234
262	279
262	293
262	307
262	332
262	338
262	352
262	542
262	577
262	598
262	611
263	65
263	98
263	163
263	211
263	251
263	320
263	326
263	437
263	640
263	649
263	676
263	702
264	22
264	33
264	129
264	173
264	222
264	238
264	262
264	297
264	314
264	392
264	399
264	405
264	413
264	420
264	472
264	489
264	504
264	585
264	619
264	661
265	41
265	48
265	91
265	190
265	288
265	342
265	375
265	380
265	386
265	521
265	686
266	110
266	166
266	178
266	209
266	273
266	432
266	447
266	549
266	593
266	629
266	694
267	27
267	117
267	141
267	156
267	160
267	204
267	214
267	234
267	245
267	255
267	303
267	329
267	334
267	357
267	361
267	368
267	424
267	458
267	536
267	567
267	606
267	635
268	71
268	79
268	104
268	148
268	196
268	228
268	268
268	278
268	322
268	350
268	391
268	395
268	455
268	483
268	498
268	510
268	531
268	559
268	643
268	656
268	670
268	698
269	21
269	33
269	98
269	132
269	169
269	311
269	388
269	438
269	546
269	580
269	682
270	55
270	124
270	174
270	234
270	261
270	272
270	314
270	401
270	408
270	416
270	464
270	470
270	479
270	521
270	534
270	572
270	586
270	599
271	47
271	61
271	83
271	113
271	158
271	240
271	289
271	337
271	342
271	362
271	370
271	376
271	383
271	421
271	491
271	514
271	552
271	614
271	621
271	623
271	674
271	703
272	39
272	76
272	90
272	137
272	151
272	165
272	179
272	188
272	205
272	212
272	224
272	230
272	256
272	304
272	333
272	378
272	428
272	446
272	458
272	565
272	625
272	689
273	29
273	131
273	144
273	193
273	199
273	219
273	266
273	320
273	326
273	353
273	394
273	434
273	484
273	502
273	578
273	592
273	629
273	651
273	663
274	100
274	107
274	276
274	285
274	288
274	293
274	309
274	348
274	406
274	477
274	508
274	527
274	539
274	605
274	637
275	33
275	92
275	118
275	125
275	184
275	251
275	299
275	381
275	387
275	440
275	452
275	464
275	495
275	558
275	638
275	656
275	683
276	21
276	52
276	163
276	169
276	175
276	221
276	261
276	271
276	362
276	418
276	423
276	489
276	519
276	546
276	572
276	615
276	696
277	111
277	148
277	155
277	189
277	195
277	201
277	208
277	215
277	227
277	233
277	240
277	305
277	315
277	327
277	334
277	340
277	356
277	369
277	374
277	411
277	429
277	471
277	502
277	533
277	585
277	676
278	45
278	74
278	80
278	87
278	140
278	143
278	288
278	322
278	398
278	445
278	458
278	513
278	551
278	599
278	624
278	632
278	669
278	702
279	27
279	40
279	60
279	65
279	129
279	245
279	265
279	280
279	309
279	351
279	403
279	435
279	483
279	563
279	644
279	651
279	689
280	52
280	104
280	122
280	254
280	276
280	345
280	384
280	391
280	496
280	526
280	538
280	661
281	116
281	135
281	165
281	173
281	218
281	224
281	230
281	261
281	314
281	332
281	338
281	367
281	372
281	378
281	414
281	452
281	464
281	476
281	507
281	576
281	611
282	22
282	32
282	44
282	85
282	91
282	178
282	193
282	211
282	236
282	271
282	298
282	359
282	420
282	440
282	488
282	591
282	605
282	696
283	139
283	146
283	159
283	184
283	199
283	204
283	253
283	283
283	294
283	304
283	321
283	326
283	354
283	363
283	431
283	501
283	518
283	544
283	557
283	618
283	640
283	679
284	37
284	70
284	77
284	102
284	109
284	241
284	309
284	401
284	406
284	424
284	459
284	512
284	532
284	570
284	584
284	654
284	672
285	27
285	63
285	96
285	121
285	126
285	133
285	169
285	246
285	265
285	276
285	288
285	348
285	376
285	389
285	396
285	434
285	446
285	469
285	482
285	627
285	646
285	666
286	57
286	261
286	297
286	331
286	343
286	358
286	371
286	418
286	494
286	525
286	538
286	551
286	597
287	156
287	162
287	175
287	181
287	221
287	226
287	233
287	270
287	315
287	324
287	336
287	351
287	365
287	382
287	411
287	453
287	464
287	632
287	685
287	703
288	22
288	74
288	81
288	87
288	116
288	143
288	149
288	188
288	196
288	208
288	213
288	244
288	293
288	476
288	507
288	577
288	612
289	34
289	42
289	50
289	67
289	102
289	109
289	136
289	202
289	238
289	251
289	256
289	284
289	304
289	346
289	398
289	406
289	442
289	488
289	501
289	545
289	557
289	623
289	653
290	129
290	166
290	264
290	319
290	341
290	374
290	393
290	428
290	458
290	470
290	520
290	530
290	570
290	590
290	604
290	659
290	694
291	30
291	55
291	60
291	92
291	122
291	174
291	276
291	288
291	298
291	329
291	360
291	381
291	422
291	435
291	447
291	482
291	582
291	643
291	670
292	47
292	85
292	97
292	185
292	223
292	229
292	314
292	324
292	334
292	513
292	538
292	677
292	688
293	39
293	78
293	115
293	140
293	146
293	152
293	160
293	198
293	206
293	218
293	235
293	242
293	258
293	270
293	355
293	409
293	415
293	441
293	464
293	494
293	506
293	523
293	550
293	577
293	597
293	633
294	29
294	213
294	247
294	282
294	303
294	308
294	365
294	396
294	404
294	453
294	476
294	518
294	563
294	617
295	34
295	72
295	133
295	168
295	252
295	266
295	319
295	344
295	384
295	391
295	488
295	529
295	662
295	684
295	700
296	22
296	65
296	108
296	176
296	182
296	297
296	332
296	359
296	374
296	425
296	458
296	500
296	544
296	556
296	588
296	610
296	624
297	59
297	102
297	120
297	189
297	194
297	202
297	208
297	213
297	219
297	226
297	262
297	326
297	339
297	380
297	414
297	419
297	436
297	446
297	569
297	603
297	646
297	667
298	49
298	143
298	156
298	232
298	238
298	280
298	291
298	314
298	348
298	354
298	406
298	482
298	638
298	677
299	45
299	89
299	95
299	114
299	130
299	149
299	271
299	286
299	307
299	322
299	364
299	371
299	394
299	400
299	472
299	493
299	505
299	513
299	537
299	582
299	617
299	659
299	671
299	709
300	27
300	76
300	83
300	161
300	250
300	301
300	317
300	330
300	427
300	440
300	453
300	464
300	476
300	550
300	596
300	631
300	690
300	695
301	38
301	167
301	260
301	275
301	295
301	334
301	380
301	389
301	417
301	487
301	523
301	562
301	575
302	64
302	173
302	185
302	192
302	198
302	204
302	211
302	228
302	235
302	241
302	349
302	360
302	375
302	498
302	517
302	531
302	610
302	686
302	700
303	22
303	94
303	108
303	119
303	140
303	146
303	152
303	180
303	216
303	223
303	254
303	315
303	339
303	364
303	369
303	410
303	447
303	458
303	469
303	481
303	511
303	556
303	589
303	624
303	653
304	31
304	68
304	86
304	100
304	157
304	270
304	280
304	290
304	311
304	344
304	384
304	391
304	403
304	436
304	542
304	581
304	602
304	643
304	677
305	47
305	54
305	129
305	164
305	220
305	304
305	320
305	326
305	354
305	379
305	440
305	492
305	567
306	37
306	72
306	80
306	176
306	264
306	294
306	299
306	331
306	430
306	452
306	463
306	505
306	535
306	617
306	693
307	27
307	41
307	107
307	114
307	170
307	182
307	189
307	195
307	202
307	214
307	231
307	244
307	261
307	339
307	360
307	414
307	419
307	476
307	487
307	521
307	528
307	548
307	575
307	666
307	671
308	60
308	208
308	237
308	249
308	254
308	274
308	285
308	313
308	350
308	370
308	407
308	425
308	499
308	561
308	650
308	707
309	52
309	90
309	119
309	135
309	143
309	148
309	154
309	225
309	290
309	303
309	318
309	355
309	365
309	435
309	447
309	458
309	510
309	515
309	588
309	609
309	630
309	678
310	21
310	45
310	160
310	185
310	215
310	270
310	280
310	323
310	330
310	345
310	376
310	383
310	388
310	395
310	469
310	481
310	541
310	554
310	568
310	596
310	663
310	685
310	699
311	33
311	101
311	127
311	166
311	173
311	191
311	265
311	298
311	335
311	493
311	533
311	601
311	623
311	643
312	71
312	77
312	83
312	179
312	199
312	222
312	228
312	234
312	239
312	258
312	309
312	313
312	360
312	404
312	410
312	417
312	424
312	440
312	463
312	525
312	581
313	28
313	39
313	59
313	65
313	252
313	293
313	303
313	341
313	371
313	486
313	504
313	560
313	636
313	655
313	670
314	107
314	123
314	133
314	156
314	275
314	319
314	346
314	380
314	429
314	457
314	519
314	546
314	616
314	693
314	708
315	51
315	139
315	146
315	151
315	164
315	169
315	217
315	247
315	269
315	288
315	325
315	331
315	355
315	365
315	386
315	392
315	435
315	447
315	468
315	475
315	573
315	594
316	83
316	95
316	188
316	202
316	208
316	225
316	262
316	310
316	315
316	481
316	498
316	511
316	538
316	608
316	629
316	648
316	661
316	684
317	35
317	43
317	128
317	182
317	195
317	232
317	237
317	243
317	256
317	283
317	299
317	335
317	401
317	414
317	430
317	492
317	554
318	22
318	29
318	76
318	101
318	118
318	160
318	175
318	294
318	306
318	341
318	360
318	383
318	407
318	419
318	425
318	452
318	486
318	505
318	531
318	586
318	602
318	622
318	642
318	676
318	700
319	55
319	69
319	90
319	155
319	216
319	252
319	266
319	272
319	285
319	322
319	327
319	371
319	376
319	395
319	441
319	475
319	523
319	544
319	569
319	580
319	655
320	61
320	107
320	133
320	148
320	204
320	220
320	261
320	278
320	289
320	332
320	347
320	356
320	389
320	498
320	516
320	549
320	560
320	635
321	48
321	139
321	198
321	337
321	410
321	437
321	447
321	458
321	572
321	613
321	669
322	40
322	85
322	95
322	163
322	169
322	185
322	191
322	227
322	302
322	307
322	313
322	318
322	365
322	399
322	417
322	469
322	480
322	510
322	536
322	683
323	72
323	79
323	112
323	118
323	236
323	240
323	276
323	296
323	324
323	352
323	374
323	380
323	385
323	421
323	427
323	493
323	528
323	553
323	565
323	628
323	648
324	25
324	99
324	145
324	174
324	179
324	217
324	283
324	287
324	329
324	343
324	361
324	443
324	453
324	605
324	662
325	21
325	59
325	65
325	90
325	158
325	200
325	207
325	213
325	244
325	249
325	291
325	310
325	319
325	348
325	357
325	395
325	485
325	490
325	503
325	584
325	597
325	620
325	640
326	43
326	52
326	125
326	135
326	151
326	167
326	195
326	224
326	259
326	266
326	334
326	371
326	389
326	402
326	407
326	522
326	546
326	558
326	590
326	676
327	83
327	106
327	188
327	300
327	314
327	339
327	367
327	383
327	413
327	437
327	447
327	466
327	474
327	497
327	515
327	532
327	654
327	699
328	37
328	70
328	78
328	96
328	140
328	162
328	219
328	253
328	270
328	296
328	326
328	352
328	362
328	377
328	418
328	431
328	458
328	480
328	508
328	540
328	571
328	576
328	615
328	668
329	29
329	41
329	177
329	235
329	491
329	526
329	552
329	634
329	647
329	690
330	23
330	129
330	145
330	156
330	171
330	199
330	203
330	209
330	229
330	249
330	273
330	288
330	292
330	305
330	331
330	343
330	392
330	442
330	452
330	566
330	601
330	609
330	627
330	703
331	51
331	92
331	101
331	109
331	152
331	192
331	243
331	264
331	311
331	335
331	347
331	357
331	367
331	387
331	398
331	404
331	477
331	484
331	501
331	520
331	594
331	660
331	682
332	126
332	181
332	186
332	258
332	278
332	318
332	376
332	381
332	410
332	436
332	447
332	533
332	548
332	588
332	641
333	42
333	113
333	159
333	166
333	238
333	268
333	297
333	323
333	342
333	351
333	363
333	371
333	418
333	423
333	495
333	513
333	572
333	580
333	620
333	674
333	705
334	68
334	77
334	82
334	87
334	98
334	141
334	217
334	234
334	292
334	332
334	338
334	457
334	463
334	471
334	559
334	633
334	653
334	697
335	22
335	56
335	62
335	133
335	148
335	175
335	196
335	206
335	222
335	228
335	247
335	262
335	272
335	286
335	303
335	307
335	345
335	356
335	488
335	505
335	544
335	551
335	613
335	688
336	120
336	155
336	170
336	212
336	314
336	366
336	385
336	401
336	407
336	445
336	517
336	540
336	666
337	39
337	92
337	163
337	184
337	200
337	251
337	257
337	351
337	413
337	424
337	428
337	433
337	453
337	481
337	500
337	528
337	598
337	606
338	48
338	108
338	126
338	179
338	190
338	279
338	295
338	329
338	335
338	340
338	375
338	393
338	468
338	474
338	563
338	576
338	581
338	585
338	593
338	625
338	639
338	646
339	79
339	157
339	215
339	233
339	269
339	274
339	299
339	305
339	360
339	370
339	418
339	456
339	463
339	492
339	511
339	523
339	533
339	546
339	560
339	633
339	659
339	680
339	703
340	26
340	33
340	73
340	86
340	99
340	173
340	203
340	224
340	241
340	310
340	323
340	383
340	387
340	398
340	450
340	618
341	66
341	115
341	136
341	145
341	151
341	168
341	209
341	260
341	317
341	346
341	355
341	365
341	403
341	409
341	486
341	570
341	672
341	694
342	52
342	60
342	121
342	183
342	193
342	197
342	249
342	255
342	414
342	432
342	438
342	443
342	495
342	505
342	528
342	540
342	610
342	665
343	21
343	45
343	82
343	105
343	156
343	161
343	218
343	243
343	282
343	286
343	305
343	332
343	336
343	360
343	426
343	472
343	479
343	516
343	552
343	597
343	603
343	706
344	37
344	76
344	270
344	292
344	296
344	341
344	369
344	377
344	395
344	466
344	564
344	589
344	626
344	646
344	653
345	31
345	132
345	225
345	233
345	264
345	355
345	374
345	384
345	390
345	400
345	406
345	460
345	576
345	638
345	678
345	686
346	88
346	97
346	115
346	172
346	188
346	202
346	213
346	238
346	246
346	318
346	323
346	329
346	365
346	417
346	448
346	453
346	511
346	522
346	558
346	583
346	615
346	657
346	672
346	696
346	701
347	72
347	121
347	145
347	166
347	229
347	253
347	284
347	299
347	334
347	345
347	351
347	423
347	429
347	436
347	440
347	484
347	500
347	536
348	24
348	47
348	65
348	81
348	160
348	182
348	194
348	221
348	273
348	305
348	310
348	380
348	477
348	494
348	540
348	570
348	608
348	631
349	36
349	42
349	57
349	91
349	108
349	126
349	138
349	177
349	268
349	278
349	315
349	359
349	386
349	464
349	506
349	517
349	551
349	602
349	621
349	691
350	142
350	154
350	206
350	258
350	321
350	339
350	348
350	353
350	368
350	392
350	403
350	409
350	456
350	470
350	565
350	593
350	663
351	69
351	115
351	187
351	203
351	328
351	426
351	444
351	451
351	512
351	529
351	577
351	585
351	650
351	677
352	97
352	132
352	147
352	164
352	171
352	215
352	226
352	281
352	293
352	297
352	307
352	334
352	345
352	364
352	432
352	439
352	487
352	523
352	545
352	557
352	626
352	643
352	697
352	703
353	37
353	49
353	64
353	85
353	196
353	234
353	243
353	271
353	358
353	377
353	383
353	395
353	420
353	468
353	475
353	482
353	499
353	613
354	30
354	80
354	112
354	220
354	255
354	265
354	300
354	324
354	339
354	399
354	461
354	534
354	541
354	570
354	607
354	655
354	670
354	685
355	25
355	43
355	92
355	104
355	126
355	192
355	211
355	284
355	288
355	368
355	406
355	445
355	455
355	494
355	506
355	517
355	550
355	630
355	635
356	67
356	75
356	117
356	132
356	145
356	168
356	186
356	225
356	248
356	274
356	348
356	375
356	412
356	416
356	440
356	451
356	589
356	598
356	703
357	161
357	173
357	181
357	205
357	231
357	239
357	316
357	335
357	352
357	362
357	385
357	391
357	429
357	435
357	486
357	563
357	620
357	690
358	30
358	50
358	60
358	97
358	107
358	258
358	329
358	339
358	343
358	356
358	478
358	491
358	511
358	523
358	531
358	535
358	574
358	584
358	651
358	662
359	36
359	87
359	138
359	195
359	292
359	397
359	403
359	466
359	472
359	499
359	556
359	605
359	613
359	642
359	675
360	128
360	209
360	216
360	222
360	253
360	265
360	282
360	307
360	371
360	408
360	454
360	460
360	545
360	627
360	696
361	24
361	41
361	80
361	111
361	151
361	190
361	234
361	276
361	299
361	335
361	347
361	361
361	367
361	377
361	420
361	441
361	447
361	505
361	592
361	655
361	684
361	705
362	74
362	92
362	102
362	119
362	162
362	169
362	180
362	200
362	260
362	267
362	382
362	388
362	425
362	472
362	488
362	518
362	526
362	532
362	600
362	636
362	670
363	37
363	66
363	133
363	146
363	205
363	319
363	325
363	330
363	399
363	430
363	437
363	476
363	482
363	494
363	538
363	551
363	568
363	620
364	47
364	85
364	123
364	156
364	175
364	218
364	228
364	245
364	255
364	284
364	311
364	341
364	356
364	452
364	469
364	560
364	572
364	579
365	30
365	60
365	96
365	140
365	185
365	213
365	224
365	272
365	293
365	300
365	306
365	366
365	373
365	404
365	410
365	416
365	441
365	457
365	463
365	501
365	545
365	586
365	647
365	662
366	55
366	79
366	113
366	129
366	194
366	379
366	392
366	422
366	566
366	606
366	677
366	702
367	41
367	102
367	118
367	150
367	199
367	208
367	232
367	241
367	250
367	264
367	334
367	347
367	384
367	397
367	434
367	446
367	508
367	554
367	614
367	628
367	641
367	696
368	24
368	73
368	91
368	161
368	170
368	178
368	237
368	258
368	313
368	341
368	354
368	368
368	479
368	485
368	491
368	514
368	521
368	527
368	535
368	594
368	634
368	655
369	35
369	145
369	155
369	245
369	273
369	280
369	324
369	331
369	388
369	407
369	413
369	450
369	496
369	541
369	600
369	670
369	686
369	705
370	65
370	84
370	98
370	189
370	203
370	211
370	226
370	286
370	294
370	300
370	319
370	364
370	400
370	418
370	437
370	443
370	461
370	466
370	472
370	561
370	571
370	574
370	621
371	77
371	130
371	221
371	268
371	360
371	380
371	456
371	503
371	548
371	580
371	608
371	681
372	28
372	115
372	136
372	198
372	250
372	309
372	312
372	328
372	340
372	372
372	423
372	429
372	588
372	616
372	641
372	690
373	40
373	125
373	150
373	173
373	208
373	241
373	347
373	353
373	391
373	405
373	410
373	482
373	489
373	509
373	524
373	554
373	628
373	663
373	677
374	34
374	52
374	61
374	71
374	94
374	104
374	144
374	217
374	274
374	299
374	303
374	337
374	434
374	446
374	470
374	497
374	517
374	530
374	567
374	595
374	647
374	655
374	697
375	24
375	88
375	160
375	166
375	202
375	211
375	236
375	245
375	254
375	260
375	294
375	317
375	364
375	415
375	440
375	452
375	466
375	477
375	537
375	671
376	82
376	130
376	181
376	188
376	231
376	266
376	283
376	289
376	331
376	343
376	383
376	395
376	400
376	420
376	458
376	543
376	561
376	574
376	604
376	635
376	683
377	65
377	75
377	99
377	120
377	142
377	176
377	196
377	225
377	326
377	358
377	387
377	426
377	431
377	493
377	499
377	513
377	582
378	70
378	172
378	209
378	249
378	361
378	367
378	372
378	379
378	406
378	457
378	486
378	505
378	519
378	528
378	550
378	609
378	622
378	661
378	690
379	30
379	125
379	135
379	151
379	192
379	258
379	275
379	301
379	308
379	316
379	351
379	392
379	411
379	416
379	437
379	443
379	461
379	479
379	554
379	590
379	597
380	36
380	56
380	87
380	93
380	104
380	156
380	199
380	335
380	383
380	398
380	422
380	449
380	466
380	616
380	630
380	645
380	649
381	24
381	50
381	110
381	116
381	141
381	203
381	212
381	218
381	282
381	292
381	356
381	402
381	429
381	534
381	564
381	570
381	656
382	42
382	81
382	129
382	165
382	187
382	230
382	240
382	339
382	348
382	375
382	473
382	502
382	540
382	578
382	605
382	637
382	667
382	676
382	684
382	699
383	31
383	63
383	75
383	170
383	222
383	249
383	261
383	266
383	304
383	313
383	321
383	328
383	387
383	408
383	413
383	420
383	434
383	484
383	489
383	496
383	510
383	559
383	585
383	611
384	98
384	148
384	182
384	299
384	366
384	383
384	393
384	401
384	439
384	445
384	452
384	470
384	515
384	523
384	551
384	593
385	48
385	125
385	193
385	211
385	257
385	273
385	285
385	310
385	378
385	425
385	459
385	464
385	529
385	618
385	626
385	648
386	57
386	70
386	86
386	92
386	107
386	121
386	134
386	144
386	178
386	200
386	235
386	290
386	351
386	356
386	371
386	389
386	429
386	544
386	573
386	693
387	24
387	37
387	78
387	164
387	205
387	218
387	226
387	240
387	332
387	346
387	362
387	564
387	599
387	632
387	641
387	655
387	662
388	51
388	59
388	102
388	127
388	153
388	159
388	188
388	316
388	341
388	409
388	414
388	435
388	442
388	448
388	474
388	486
388	493
388	498
388	506
388	535
388	580
388	606
388	672
388	700
389	44
389	138
389	147
389	249
389	278
389	301
389	305
389	323
389	381
389	385
389	454
389	479
389	518
389	526
389	556
389	588
389	679
390	65
390	72
390	89
390	112
390	198
390	202
390	210
390	243
390	268
390	327
390	392
390	400
390	420
390	461
390	549
390	614
390	652
390	686
391	106
391	116
391	222
391	260
391	293
391	309
391	350
391	358
391	406
391	425
391	430
391	568
391	575
391	594
391	622
392	83
392	122
392	172
392	187
392	231
392	303
392	354
392	363
392	411
392	465
392	490
392	523
392	541
392	561
392	628
392	658
392	666
392	693
393	39
393	46
393	99
393	160
393	167
393	180
393	217
393	287
393	298
393	345
393	373
393	398
393	438
393	445
393	450
393	478
393	483
393	509
393	602
393	637
393	674
393	706
394	27
394	78
394	94
394	128
394	144
394	150
394	212
394	235
394	313
394	327
394	333
394	339
394	368
394	381
394	416
394	470
394	514
394	528
394	582
394	609
395	61
395	88
395	122
395	137
395	196
395	249
395	267
395	271
395	281
395	320
395	386
395	422
395	434
395	457
395	536
395	553
396	34
396	51
396	68
396	115
396	224
396	244
396	255
396	306
396	359
396	378
396	391
396	406
396	427
396	547
396	589
396	616
396	645
396	700
397	23
397	74
397	82
397	104
397	157
397	171
397	296
397	301
397	350
397	369
397	410
397	441
397	448
397	453
397	504
397	573
397	624
397	653
398	41
398	49
398	109
398	164
398	177
398	233
398	275
398	329
398	333
398	356
398	397
398	477
398	480
398	486
398	499
398	511
398	566
398	579
398	596
398	632
398	682
398	689
399	28
399	147
399	186
399	204
399	339
399	402
399	436
399	462
399	468
399	541
399	550
399	557
399	602
399	669
400	56
400	64
400	92
400	96
400	129
400	134
400	141
400	194
400	199
400	228
400	252
400	290
400	314
400	346
400	362
400	368
400	373
400	382
400	420
400	430
400	518
400	524
400	639
400	676
400	698
401	24
401	34
401	114
401	120
401	209
401	219
401	242
401	261
401	304
401	342
401	408
401	457
401	490
401	533
401	584
401	610
401	660
401	704
402	69
402	101
402	161
402	170
402	189
402	279
402	299
402	325
402	413
402	450
402	495
402	505
402	545
402	561
402	573
402	591
403	39
403	46
403	76
403	86
403	165
403	234
403	265
403	270
403	333
403	366
403	404
403	436
403	445
403	472
403	478
403	483
403	597
403	618
403	647
403	654
404	124
404	145
404	152
404	179
404	250
404	286
404	296
404	307
404	311
404	347
404	352
404	356
404	373
404	389
404	423
404	430
404	460
404	579
404	626
404	694
405	52
405	59
405	111
405	134
405	201
405	240
405	259
405	291
405	339
405	363
405	393
405	409
405	417
405	466
405	500
405	509
405	515
405	521
405	527
405	555
405	567
405	634
405	670
406	29
406	66
406	82
406	94
406	159
406	216
406	222
406	233
406	301
406	317
406	380
406	448
406	455
406	491
406	539
406	604
406	612
406	687
407	105
407	117
407	128
407	169
407	183
407	207
407	322
407	327
407	334
407	343
407	384
407	399
407	437
407	442
407	550
407	586
407	641
407	680
408	35
408	72
408	164
408	196
408	244
408	253
408	280
408	305
408	414
408	432
408	533
408	562
408	574
408	702
409	25
409	40
409	48
409	123
409	148
409	268
409	276
409	310
409	351
409	357
409	363
409	371
409	404
409	417
409	422
409	426
409	464
409	469
409	476
409	481
409	486
409	497
409	507
409	592
409	648
409	657
410	56
410	78
410	137
410	144
410	178
410	190
410	210
410	238
410	290
410	294
410	299
410	457
410	512
410	518
410	544
410	599
411	31
411	84
411	131
411	152
411	173
411	204
411	233
411	285
411	315
411	331
411	339
411	408
411	452
411	555
411	581
411	607
411	620
411	629
411	664
412	68
412	90
412	97
412	103
412	108
412	116
412	186
412	220
412	252
412	302
412	306
412	322
412	344
412	353
412	359
412	399
412	442
412	446
412	501
412	525
412	538
412	567
412	636
412	674
412	684
413	126
413	158
413	167
413	201
413	260
413	266
413	369
413	390
413	413
413	435
413	491
413	506
413	587
414	37
414	44
414	195
414	225
414	311
414	326
414	363
414	377
414	404
414	425
414	430
414	466
414	475
414	514
414	532
414	550
414	651
415	50
415	58
415	121
415	136
415	144
415	190
415	216
415	238
415	244
415	296
415	307
415	333
415	346
415	383
415	419
415	449
415	455
415	461
415	478
415	496
415	561
415	574
415	595
415	659
415	677
415	699
416	26
416	63
416	74
416	156
416	175
416	230
416	274
416	280
416	288
416	314
416	319
416	399
416	408
416	441
416	544
416	603
417	32
417	71
417	82
417	87
417	130
417	150
417	180
417	203
417	210
417	222
417	263
417	301
417	359
417	414
417	508
417	520
417	624
417	632
417	644
417	680
418	47
418	98
418	105
418	111
418	235
418	258
418	373
418	434
418	502
418	567
418	580
418	609
418	616
418	637
419	125
419	140
419	242
419	249
419	324
419	343
419	351
419	382
419	388
419	404
419	424
419	428
419	484
419	537
419	666
419	703
420	39
420	55
420	78
420	118
420	160
420	280
420	307
420	418
420	458
420	469
420	514
420	584
420	589
421	60
421	184
421	197
421	217
421	230
421	266
421	286
421	304
421	320
421	332
421	369
421	394
421	408
421	441
421	452
421	495
421	598
421	650
421	657
422	26
422	64
422	95
422	113
422	155
422	170
422	179
422	189
422	208
422	223
422	244
422	290
422	299
422	338
422	361
422	507
422	525
422	531
422	551
422	557
422	573
422	685
423	34
423	89
423	130
423	138
423	237
423	258
423	275
423	312
423	316
423	348
423	356
423	490
423	518
423	543
423	628
423	677
424	45
424	49
424	83
424	101
424	165
424	249
424	329
424	342
424	379
424	415
424	426
424	431
424	473
424	500
424	580
424	606
424	612
424	620
424	635
424	642
425	71
425	123
425	151
425	174
425	280
425	298
425	301
425	307
425	385
425	421
425	460
425	466
425	479
425	484
425	535
425	565
425	670
425	690
425	697
426	23
426	105
426	116
426	208
426	232
426	253
426	264
426	269
426	324
426	334
426	370
426	395
426	401
426	406
426	495
426	587
426	662
427	28
427	39
427	77
427	92
427	111
427	147
427	169
427	178
427	194
427	200
427	237
427	289
427	352
427	375
427	411
427	439
427	444
427	450
427	513
427	548
427	558
427	594
427	682
428	35
428	98
428	214
428	227
428	245
428	294
428	309
428	315
428	364
428	382
428	417
428	506
428	524
428	529
428	601
428	654
429	60
429	86
429	260
429	284
429	305
429	356
429	423
429	430
429	456
429	488
429	540
429	573
429	607
429	705
430	23
430	53
430	70
430	125
430	157
430	164
430	175
430	186
430	202
430	219
430	255
430	277
430	298
430	336
430	348
430	392
430	434
430	468
430	515
430	582
430	615
430	623
430	631
430	639
430	675
431	33
431	47
431	113
431	120
431	131
431	137
431	149
431	196
431	233
431	266
431	319
431	325
431	329
431	340
431	362
431	372
431	387
431	409
431	415
431	475
431	553
431	564
431	648
431	697
432	82
432	92
432	102
432	180
432	207
432	246
432	272
432	288
432	312
432	345
432	353
432	367
432	377
432	402
432	420
432	453
432	494
432	534
432	589
432	668
432	688
433	40
433	65
433	107
433	159
433	212
433	293
433	302
433	382
433	426
433	431
433	448
433	488
433	660
434	28
434	76
434	228
434	237
434	359
434	400
434	457
434	465
434	505
434	521
434	546
434	559
434	578
434	596
434	680
435	45
435	97
435	123
435	165
435	172
435	279
435	297
435	335
435	350
435	364
435	389
435	436
435	472
435	477
435	516
435	527
435	611
436	59
436	86
436	112
436	117
436	140
436	146
436	151
436	189
436	194
436	202
436	218
436	248
436	255
436	265
436	284
436	309
436	322
436	328
436	341
436	369
436	404
436	411
436	443
436	501
436	541
436	570
436	584
436	604
436	618
436	651
436	693
437	34
437	70
437	156
437	260
437	271
437	318
437	373
437	384
437	450
437	454
437	483
437	627
437	635
438	82
438	102
438	232
438	289
438	294
438	346
438	354
438	379
438	415
438	428
438	462
438	493
438	510
438	532
438	553
438	564
438	674
439	24
439	52
439	64
439	91
439	224
439	242
439	275
439	360
439	370
439	394
439	422
439	433
439	467
439	488
439	521
439	591
439	597
439	644
439	697
440	76
440	121
440	136
440	180
440	188
440	204
440	209
440	214
440	220
440	251
440	303
440	309
440	326
440	336
440	349
440	365
440	386
440	396
440	403
440	444
440	473
440	503
440	546
440	557
440	578
440	655
440	668
440	687
441	29
441	40
441	59
441	109
441	125
441	165
441	197
441	231
441	256
441	262
441	267
441	298
441	314
441	320
441	438
441	479
441	516
441	614
441	648
442	97
442	131
442	153
442	237
442	247
442	272
442	281
442	287
442	333
442	341
442	380
442	408
442	411
442	419
442	451
442	526
442	539
442	605
442	631
443	47
443	71
443	86
443	115
443	221
443	227
443	329
443	373
443	424
443	442
443	459
443	484
443	571
443	622
443	639
443	679
444	34
444	81
444	102
444	173
444	189
444	208
444	242
444	277
444	295
444	300
444	359
444	368
444	389
444	436
444	462
444	491
444	509
444	551
444	584
444	671
444	702
445	64
445	177
445	183
445	203
445	259
445	306
445	312
445	365
445	404
445	468
445	533
445	662
445	684
445	694
446	23
446	53
446	91
446	107
446	121
446	132
446	156
446	167
446	217
446	232
446	263
446	269
446	317
446	321
446	326
446	350
446	384
446	447
446	475
446	505
446	545
446	564
446	578
446	593
446	601
447	42
447	59
447	145
447	240
447	247
447	253
447	286
447	332
447	355
447	379
447	397
447	415
447	426
447	441
447	452
447	480
447	609
447	618
447	646
447	653
448	76
448	87
448	97
448	111
448	198
448	222
448	228
448	277
448	281
448	291
448	345
448	374
448	437
448	458
448	487
448	498
448	514
448	526
448	556
448	681
448	686
449	70
449	117
449	138
449	186
449	192
449	295
449	303
449	308
449	313
449	341
449	369
449	401
449	431
449	465
449	538
449	626
449	676
450	23
450	36
450	47
450	92
450	124
450	169
450	210
450	234
450	267
450	273
450	284
450	299
450	323
450	336
450	388
450	392
450	406
450	446
450	450
450	470
450	492
450	570
450	584
450	633
450	706
451	81
451	107
451	145
451	178
451	201
451	220
451	263
451	319
451	329
451	411
451	476
451	508
451	520
451	531
451	552
451	639
451	647
451	668
451	698
452	54
452	63
452	100
452	153
452	159
452	183
452	255
452	280
452	289
452	294
452	350
452	354
452	364
452	373
452	383
452	422
452	455
452	482
452	563
452	598
452	605
452	690
453	30
453	41
453	59
453	76
453	113
453	130
453	165
453	173
453	195
453	206
453	260
453	305
453	311
453	345
453	397
453	428
453	543
453	576
453	613
453	660
454	21
454	86
454	119
454	188
454	229
454	240
454	244
454	270
454	316
454	332
454	378
454	438
454	461
454	489
454	499
454	513
454	557
454	590
454	621
454	681
455	49
455	90
455	105
455	125
455	140
455	210
455	217
455	301
455	337
455	359
455	369
455	407
455	413
455	444
455	466
455	473
455	524
455	537
455	654
456	69
456	97
456	108
456	146
456	222
456	274
456	326
456	354
456	388
456	417
456	423
456	451
456	507
456	569
456	583
456	627
456	674
456	702
457	26
457	32
457	79
457	157
457	186
457	191
457	198
457	247
457	257
457	297
457	308
457	322
457	334
457	346
457	374
457	383
457	429
457	456
457	479
457	518
457	550
457	594
457	635
457	641
458	53
458	63
458	129
458	180
458	202
458	231
458	266
458	278
458	287
458	313
458	317
458	342
458	365
458	395
458	403
458	434
458	500
458	530
458	543
458	577
458	600
459	236
459	261
459	303
459	331
459	369
459	408
459	463
459	485
459	493
459	556
459	607
459	649
459	667
460	102
460	123
460	139
460	166
460	218
460	252
460	351
460	379
460	388
460	440
460	446
460	512
460	564
460	616
460	623
461	31
461	45
461	87
461	93
461	149
461	212
461	223
461	243
461	293
461	308
461	358
461	413
461	419
461	453
461	468
461	475
461	523
461	536
461	589
461	660
461	679
461	686
462	21
462	37
462	69
462	108
462	116
462	134
462	160
462	176
462	189
462	194
462	228
462	249
462	258
462	287
462	298
462	315
462	326
462	341
462	345
462	364
462	374
462	425
462	460
462	506
462	584
462	631
463	81
463	144
463	199
463	233
463	264
463	274
463	320
463	331
463	336
463	404
463	431
463	437
463	481
463	517
463	569
463	639
463	653
463	671
463	699
464	62
464	74
464	127
464	170
464	184
464	203
464	302
464	355
464	443
464	465
464	498
464	529
464	548
464	596
465	27
465	44
465	97
465	213
465	239
465	255
465	292
465	350
465	369
465	389
465	398
465	448
465	489
465	541
465	563
465	577
465	603
466	153
466	158
466	164
466	191
466	196
466	208
466	244
466	269
466	279
466	307
466	312
466	324
466	344
466	415
466	421
466	455
466	471
466	501
466	511
466	666
466	691
467	32
467	69
467	87
467	104
467	110
467	135
467	221
467	265
467	287
467	318
467	328
467	339
467	365
467	374
467	394
467	523
467	554
467	611
467	618
467	646
468	38
468	56
468	81
468	91
468	125
468	142
468	148
468	174
468	230
468	333
468	433
468	461
468	478
468	494
468	626
468	634
468	659
468	684
469	21
469	116
469	180
469	235
469	251
469	256
469	274
469	298
469	304
469	309
469	406
469	483
469	505
469	537
469	590
469	676
470	62
470	76
470	99
470	162
470	168
470	294
470	315
470	329
470	361
470	370
470	378
470	388
470	397
470	417
470	445
470	466
470	516
470	529
470	546
470	566
470	574
470	585
470	597
470	640
471	28
471	52
471	105
471	120
471	158
471	188
471	210
471	216
471	241
471	246
471	260
471	319
471	325
471	336
471	411
471	423
471	451
471	474
471	581
471	653
471	669
471	704
472	33
472	45
472	65
472	84
472	130
472	195
472	202
472	288
472	342
472	346
472	351
472	355
472	429
472	490
472	606
472	613
473	95
473	140
473	222
473	265
473	364
473	436
473	458
473	497
473	510
473	523
473	551
473	559
473	620
473	689
474	39
474	59
474	71
474	111
474	147
474	171
474	230
474	271
474	282
474	306
474	311
474	375
474	384
474	404
474	440
474	479
474	541
474	647
474	699
475	22
475	208
475	213
475	236
475	248
475	256
475	297
475	316
475	322
475	326
475	332
475	360
475	389
475	400
475	414
475	419
475	485
475	504
475	533
475	570
475	578
475	628
475	682
476	27
476	49
476	79
476	155
476	180
476	192
476	226
476	268
476	292
476	338
476	347
476	369
476	380
476	424
476	453
476	467
476	586
476	592
476	653
476	658
477	101
477	108
477	120
477	125
477	149
477	161
477	203
477	240
477	277
477	286
477	343
477	352
477	355
477	394
477	409
477	458
477	491
477	516
477	528
477	601
477	635
477	643
477	666
477	675
478	34
478	65
478	90
478	132
478	137
478	186
478	253
478	260
478	303
478	313
478	365
478	431
478	474
478	547
478	554
478	563
478	609
479	55
479	211
479	217
479	221
479	265
479	308
479	318
479	323
479	374
479	437
479	444
479	480
479	498
479	510
479	616
479	695
480	21
480	40
480	83
480	164
480	170
480	230
480	329
480	335
480	340
480	350
480	361
480	379
480	401
480	415
480	523
480	542
481	72
481	97
481	115
481	158
481	176
481	195
481	200
481	247
481	260
481	275
481	281
481	290
481	299
481	345
481	355
481	405
481	421
481	449
481	455
481	463
481	469
481	534
481	573
481	589
481	624
481	687
482	48
482	61
482	77
482	102
482	127
482	190
482	237
482	270
482	369
482	390
482	394
482	428
482	486
482	504
482	582
482	631
482	655
482	679
482	706
483	106
483	134
483	140
483	145
483	154
483	225
483	252
483	296
483	305
483	310
483	332
483	365
483	384
483	410
483	434
483	493
483	567
483	596
483	639
483	662
483	671
484	21
484	29
484	87
484	93
484	185
484	197
484	208
484	217
484	242
484	315
484	321
484	375
484	401
484	440
484	447
484	516
484	552
484	559
484	603
484	649
485	35
485	54
485	80
485	117
485	167
485	180
485	193
485	203
485	232
485	257
485	290
485	302
485	328
485	337
485	342
485	346
485	350
485	369
485	417
485	460
485	476
485	545
485	704
486	99
486	162
486	247
486	266
486	276
486	307
486	361
486	379
486	389
486	424
486	464
486	482
486	499
486	509
486	536
486	577
486	611
486	619
486	699
487	42
487	62
487	74
487	108
487	124
487	137
487	149
487	173
487	223
487	227
487	262
487	285
487	318
487	355
487	364
487	430
487	503
487	524
487	626
487	643
487	691
488	25
488	49
488	102
488	131
488	217
488	240
488	252
488	294
488	298
488	323
488	374
488	383
488	394
488	405
488	436
488	471
488	487
488	585
488	682
489	30
489	83
489	90
489	115
489	212
489	233
489	268
489	280
489	333
489	350
489	442
489	450
489	564
489	572
489	591
489	634
489	652
489	659
489	666
489	675
490	56
490	69
490	80
490	95
490	165
490	177
490	194
490	200
490	206
490	304
490	314
490	339
490	345
490	369
490	390
490	410
490	415
490	420
490	455
490	461
490	476
490	520
490	530
490	550
491	20
491	36
491	159
491	183
491	189
491	228
491	247
491	360
491	379
491	400
491	465
491	493
491	514
491	556
491	600
491	606
492	87
492	107
492	121
492	128
492	139
492	146
492	153
492	238
492	262
492	276
492	285
492	310
492	320
492	426
492	482
492	508
492	536
492	543
492	687
493	26
493	43
493	99
493	111
493	133
493	171
493	253
493	291
493	325
493	331
493	342
493	354
493	395
493	405
493	433
493	439
493	499
493	579
493	613
493	622
493	696
494	62
494	197
494	204
494	209
494	215
494	219
494	225
494	243
494	299
494	348
494	364
494	384
494	446
494	471
494	526
494	628
494	681
495	51
495	72
495	94
495	186
495	271
495	337
495	358
495	411
495	452
495	488
495	554
495	568
495	689
496	68
496	82
496	117
496	130
496	156
496	175
496	235
496	306
496	312
496	374
496	389
496	400
496	417
496	458
496	477
496	519
496	562
496	587
496	594
496	641
496	648
496	656
496	671
497	21
497	29
497	36
497	77
497	88
497	105
497	143
497	164
497	168
497	180
497	228
497	248
497	262
497	317
497	352
497	379
497	424
497	428
497	465
497	493
497	530
497	547
497	573
497	601
497	634
497	663
498	57
498	111
498	123
498	137
498	212
498	252
498	268
498	284
498	293
498	322
498	328
498	333
498	339
498	345
498	435
498	442
498	484
498	509
498	539
498	608
498	701
499	44
499	71
499	189
499	195
499	201
499	207
499	298
499	363
499	373
499	384
499	394
499	404
499	447
499	581
499	623
500	26
500	149
500	178
500	232
500	242
500	258
500	274
500	303
500	409
500	454
500	471
500	501
500	524
500	588
500	616
500	686
500	693
501	50
501	86
501	92
501	99
501	134
501	147
501	172
501	185
501	228
501	249
501	308
501	320
501	359
501	414
501	460
501	489
501	516
501	531
501	643
502	33
502	63
502	79
502	128
502	141
502	161
502	167
502	215
502	222
502	314
502	325
502	335
502	342
502	348
502	353
502	369
502	378
502	400
502	420
502	466
502	478
502	559
502	567
502	630
503	39
503	102
503	108
503	117
503	154
503	237
503	279
503	289
503	298
503	391
503	426
503	432
503	438
503	507
503	544
503	575
503	660
503	676
503	691
504	21
504	59
504	66
504	96
504	210
504	232
504	254
504	269
504	284
504	293
504	331
504	363
504	383
504	406
504	445
504	495
504	535
504	552
504	595
504	602
504	637
504	668
504	706
505	46
505	174
505	181
505	198
505	204
505	259
505	305
505	358
505	373
505	395
505	410
505	450
505	483
505	610
505	697
506	28
506	125
506	137
506	143
506	157
506	168
506	192
506	219
506	274
506	311
506	315
506	321
506	367
506	389
506	417
506	502
506	523
506	582
506	617
506	688
507	52
507	89
507	150
507	229
507	249
507	327
507	333
507	338
507	344
507	351
507	379
507	401
507	422
507	457
507	463
507	489
507	530
507	556
507	623
508	75
508	84
508	132
508	188
508	214
508	235
508	291
508	434
508	473
508	515
508	562
508	569
508	590
508	646
508	653
509	33
509	64
509	101
509	107
509	114
509	119
509	201
509	208
509	261
509	286
509	298
509	301
509	407
509	429
509	440
509	468
509	478
509	549
509	631
509	661
509	674
509	680
510	20
510	25
510	40
510	56
510	183
510	195
510	241
510	256
510	270
510	282
510	307
510	312
510	348
510	371
510	385
510	447
510	496
510	509
510	535
510	542
510	605
510	639
511	70
511	94
511	127
511	161
511	166
511	177
511	224
511	229
511	276
511	292
511	317
511	322
511	341
511	376
511	392
511	413
511	453
511	484
511	575
511	597
511	612
511	702
512	46
512	81
512	148
512	154
512	330
512	359
512	366
512	397
512	418
512	435
512	459
512	521
512	529
512	620
512	668
513	54
513	134
513	142
513	172
513	204
513	266
513	326
513	335
513	352
513	380
513	425
513	474
513	502
513	582
514	24
514	30
514	110
514	186
514	218
514	234
514	256
514	298
514	303
514	404
514	408
514	440
514	490
514	515
514	551
514	560
514	625
514	681
515	63
515	96
515	104
515	117
515	122
515	181
515	193
515	199
515	248
515	287
515	308
515	315
515	321
515	388
515	448
515	479
515	539
515	567
515	633
515	647
515	654
515	705
516	36
516	58
516	75
516	85
516	91
516	128
516	163
516	221
516	227
516	238
516	278
516	332
516	338
516	349
516	355
516	370
516	415
516	430
516	467
516	527
516	592
516	608
516	675
516	684
517	20
517	54
517	209
517	214
517	242
517	252
517	284
517	293
517	329
517	343
517	377
517	398
517	421
517	496
517	507
517	600
517	661
517	691
518	43
518	49
518	69
518	139
518	145
518	151
518	157
518	168
518	175
518	202
518	258
518	263
518	268
518	365
518	383
518	437
518	454
518	484
518	520
518	534
518	576
518	641
519	25
519	113
519	132
519	196
519	274
519	298
519	404
519	475
519	614
519	682
519	698
520	89
520	107
520	125
520	190
520	223
520	233
520	305
520	312
520	318
520	324
520	358
520	389
520	410
520	426
520	443
520	460
520	502
520	554
520	561
520	583
520	620
520	627
520	670
520	705
521	32
521	81
521	120
521	160
521	218
521	236
521	241
521	254
521	330
521	336
521	342
521	347
521	395
521	417
521	480
521	490
521	513
521	539
521	648
521	688
522	22
522	38
522	61
522	100
522	179
522	206
522	212
522	281
522	353
522	369
522	374
522	431
523	53
523	136
523	142
523	156
523	172
523	265
523	285
523	300
523	363
523	382
523	400
523	422
523	450
523	468
523	527
523	549
523	569
523	599
523	608
523	635
523	656
523	694
524	194
524	202
524	228
524	260
524	295
524	315
524	385
524	437
524	456
524	498
524	520
524	534
524	578
524	591
524	649
524	661
524	681
525	27
525	45
525	94
525	105
525	113
525	129
525	149
525	165
525	187
525	250
525	271
525	304
525	309
525	327
525	333
525	356
525	370
525	376
525	406
525	485
525	504
525	642
525	688
525	700
526	76
526	124
526	182
526	223
526	245
526	322
526	344
526	390
526	427
526	444
526	512
526	585
526	615
526	665
527	33
527	53
527	65
527	99
527	118
527	159
527	209
527	216
527	239
527	350
527	396
527	412
527	419
527	462
527	475
527	492
527	540
527	563
527	622
527	631
527	677
528	40
528	70
528	88
528	153
528	176
528	233
528	339
528	381
528	450
528	480
528	556
529	170
529	200
529	253
529	292
529	301
529	312
529	319
529	360
529	402
529	433
529	468
529	524
529	548
529	572
529	593
529	602
529	671
530	22
530	58
530	82
530	137
530	145
530	163
530	192
530	228
530	277
530	306
530	368
530	385
530	497
530	505
530	518
530	532
530	636
530	649
531	120
531	128
531	134
531	185
531	220
531	243
531	265
531	330
531	336
531	349
531	391
531	407
531	423
531	439
531	457
531	486
531	579
531	585
531	610
531	656
531	686
531	693
532	30
532	44
532	51
532	64
532	94
532	104
532	109
532	116
532	156
532	180
532	209
532	216
532	258
532	284
532	297
532	325
532	376
532	430
532	445
532	537
532	618
532	690
532	698
533	238
533	287
533	342
533	398
533	417
533	462
533	513
533	567
533	642
533	665
533	680
534	21
534	37
534	77
534	99
534	174
534	196
534	204
534	272
534	302
534	316
534	370
534	381
534	413
534	435
534	474
534	492
534	520
534	545
534	628
534	704
535	57
535	88
535	141
535	151
535	167
535	190
535	232
535	252
535	262
535	292
535	321
535	328
535	333
535	352
535	358
535	403
535	452
535	481
535	500
535	526
535	552
535	560
535	573
535	586
535	599
535	671
536	70
536	81
536	125
536	145
536	247
536	311
536	339
536	346
536	365
536	387
536	392
536	426
536	468
536	534
536	636
537	42
537	161
537	184
537	220
537	276
537	283
537	307
537	374
537	408
537	440
537	458
537	506
537	592
537	651
538	34
538	63
538	104
538	119
538	201
538	207
538	227
538	288
538	299
538	313
538	317
538	383
538	431
538	446
538	476
538	486
538	581
538	605
538	615
538	657
538	686
539	27
539	47
539	57
539	93
539	157
539	178
539	237
539	267
539	324
539	398
539	415
539	422
539	515
539	540
539	622
539	677
540	112
540	130
540	136
540	172
540	195
540	246
540	304
540	351
540	356
540	363
540	369
540	437
540	462
540	567
540	643
540	695
540	702
541	20
541	76
541	280
541	293
541	331
541	336
541	341
541	386
541	404
541	426
541	494
541	501
541	548
541	651
542	69
542	87
542	144
542	166
542	188
542	211
542	218
542	257
542	267
542	288
542	299
542	309
542	374
542	392
542	451
542	469
542	520
542	527
542	554
542	598
542	629
542	666
542	673
543	39
543	100
543	126
543	200
543	225
543	241
543	283
543	320
543	410
543	420
543	443
543	480
543	507
543	575
543	591
544	32
544	81
544	93
544	153
544	160
544	182
544	205
544	233
544	251
544	315
544	326
544	346
544	365
544	381
544	398
544	431
544	458
544	535
544	562
544	609
544	678
545	106
545	118
545	138
545	169
545	176
545	262
545	273
545	304
545	359
545	476
545	516
545	543
545	602
545	622
545	637
545	688
546	46
546	52
546	62
546	121
546	279
546	331
546	337
546	354
546	416
546	465
546	486
546	496
546	522
546	583
546	658
546	706
547	24
547	75
547	148
547	187
547	217
547	245
547	310
547	344
547	370
547	386
547	405
547	426
547	437
547	549
547	570
547	645
547	697
548	37
548	99
548	111
548	128
548	164
548	211
548	222
548	228
548	256
548	285
548	295
548	299
548	349
548	375
548	393
548	448
548	502
548	595
548	616
548	667
548	680
549	88
549	142
549	158
549	172
549	180
549	203
549	239
549	268
549	322
549	356
549	410
549	454
549	511
549	529
549	557
549	590
549	631
550	197
550	261
550	290
550	315
550	326
550	337
550	364
550	381
550	399
550	431
550	443
550	468
550	481
550	577
551	19
551	69
551	79
551	105
551	133
551	250
551	276
551	281
551	306
551	461
551	491
551	537
551	564
551	609
551	674
552	29
552	191
552	219
552	295
552	341
552	370
552	388
552	417
552	476
552	518
552	544
553	45
553	72
553	94
553	118
553	168
553	184
553	206
553	213
553	254
553	286
553	311
553	321
553	331
553	347
553	352
553	405
553	425
553	486
553	498
553	585
553	601
553	638
553	653
553	684
553	702
554	23
554	53
554	59
554	124
554	146
554	225
554	230
554	246
554	261
554	359
554	376
554	394
554	438
554	449
554	505
554	524
554	551
554	659
555	156
555	178
555	194
555	202
555	240
555	266
555	301
555	411
555	468
555	573
555	625
555	646
555	668
555	693
556	36
556	79
556	85
556	141
556	325
556	366
556	382
556	401
556	458
556	479
556	558
556	593
556	615
556	675
557	104
557	112
557	120
557	150
557	164
557	209
557	273
557	278
557	285
557	306
557	317
557	337
557	419
557	431
557	443
557	492
557	511
557	530
557	580
557	632
558	27
558	88
558	135
558	144
558	173
558	189
558	216
558	291
558	296
558	321
558	331
558	343
558	349
558	389
558	461
558	474
558	519
558	538
558	546
559	41
559	48
559	67
559	128
559	167
559	223
559	227
559	255
559	355
559	372
559	377
559	425
559	499
559	567
559	607
559	653
559	684
560	56
560	95
560	234
560	237
560	244
560	261
560	268
560	300
560	311
560	362
560	395
560	406
560	437
560	449
560	485
560	587
560	620
560	639
560	661
561	19
561	33
561	64
561	72
561	83
561	115
561	183
561	199
561	290
561	316
561	413
561	504
561	526
561	669
561	690
562	25
562	99
562	108
562	155
562	177
562	206
562	274
562	306
562	333
562	339
562	368
562	384
562	456
562	467
562	494
562	553
562	573
562	600
563	193
563	218
563	224
563	328
563	345
563	402
563	419
563	431
563	444
563	479
563	513
563	533
563	561
563	593
563	612
563	626
563	646
563	677
564	93
564	123
564	130
564	148
564	161
564	171
564	229
564	242
564	256
564	279
564	296
564	320
564	353
564	357
564	389
564	409
564	633
564	699
565	50
565	89
565	110
565	187
565	249
565	263
565	287
565	311
565	373
565	379
565	540
565	581
565	605
565	655
566	61
566	69
566	118
566	142
566	166
566	181
566	201
566	270
566	276
566	300
566	328
566	364
566	396
566	427
566	437
566	449
566	463
566	476
566	487
566	501
566	519
566	526
567	30
567	36
567	78
567	135
567	158
567	317
567	384
567	413
567	547
567	568
567	641
567	663
567	695
568	19
568	152
568	208
568	214
568	281
568	306
568	338
568	342
568	348
568	353
568	508
568	588
568	619
568	680
569	50
569	84
569	129
569	145
569	176
569	220
569	247
569	253
569	297
569	322
569	369
569	403
569	421
569	432
569	443
569	456
569	468
569	556
569	563
569	575
569	598
570	56
570	92
570	100
570	121
570	265
570	271
570	311
570	333
570	360
570	391
570	407
570	481
570	494
570	515
570	535
570	629
570	674
571	24
571	64
571	114
571	163
571	171
571	196
571	233
571	239
571	261
571	380
571	606
571	613
571	647
571	656
572	33
572	71
572	140
572	203
572	287
572	301
572	317
572	364
572	462
572	476
572	501
572	542
572	583
572	633
573	107
573	181
573	187
573	209
573	222
573	292
573	305
573	329
573	338
573	374
573	396
573	426
573	438
573	450
573	487
573	521
573	549
573	569
573	681
573	689
574	40
574	79
574	86
574	156
574	229
574	244
574	279
574	345
574	352
574	357
574	385
574	402
574	414
574	510
574	529
574	621
574	638
574	666
575	20
575	119
575	127
575	150
575	193
575	249
575	255
575	261
575	266
575	283
575	296
575	322
575	369
575	590
576	168
576	217
576	312
576	334
576	378
576	422
576	432
576	443
576	457
576	469
576	483
576	495
576	516
576	537
576	556
576	563
576	575
576	598
577	60
577	66
577	95
577	101
577	115
577	272
577	329
577	350
577	390
577	409
577	544
577	613
577	629
577	644
577	657
578	27
578	47
578	53
578	111
578	205
578	285
578	317
578	361
578	374
578	404
578	415
578	503
578	523
578	673
579	33
579	73
579	106
579	130
579	139
579	180
579	187
579	222
579	240
579	247
579	278
579	302
579	307
579	337
579	344
579	355
579	384
579	397
579	438
579	450
579	463
579	476
579	489
579	583
580	80
580	123
580	173
580	254
580	426
580	510
580	606
580	637
580	659
580	688
581	148
581	156
581	166
581	201
581	216
581	231
581	260
581	295
581	322
581	367
581	530
581	551
581	569
581	592
581	621
581	652
582	52
582	89
582	183
582	193
582	226
582	289
582	312
582	331
582	404
582	420
582	538
582	561
582	680
583	116
583	208
583	271
583	349
583	378
583	391
583	432
583	444
583	456
583	468
583	485
583	496
583	517
583	575
583	600
583	628
584	61
584	102
584	132
584	140
584	307
584	326
584	343
584	361
584	409
584	615
584	643
584	668
585	93
585	128
585	245
585	258
585	301
585	318
585	336
585	373
585	504
585	525
585	546
585	584
585	659
585	673
585	688
586	45
586	77
586	180
586	191
586	283
586	294
586	355
586	386
586	398
586	415
586	450
586	462
586	476
587	72
587	120
587	154
587	164
587	198
587	240
587	277
587	311
587	366
587	424
587	438
587	490
587	511
587	532
587	555
587	606
587	635
588	57
588	88
588	136
588	148
588	234
588	251
588	271
588	406
588	567
588	621
589	50
589	173
589	226
589	324
589	331
589	338
589	348
589	360
589	379
589	432
589	480
589	498
589	519
589	592
589	652
589	683
590	45
590	63
590	100
590	111
590	184
590	246
590	301
590	306
590	395
590	411
590	444
590	458
590	468
590	562
590	575
591	132
591	179
591	202
591	255
591	260
591	265
591	276
591	345
591	355
591	487
591	539
591	665
592	93
592	117
592	127
592	142
592	168
592	209
592	222
592	283
592	292
592	316
592	365
592	373
592	387
592	399
592	418
592	474
592	506
592	599
592	614
592	629
592	645
592	675
593	79
593	156
593	195
593	216
593	241
593	335
593	439
593	465
593	526
593	548
593	585
593	668
593	690
594	248
594	287
594	328
594	347
594	405
594	426
594	451
594	493
594	513
594	534
594	546
594	571
594	636
594	659
595	86
595	111
595	176
595	188
595	207
595	232
595	269
595	312
595	379
595	392
595	481
595	532
595	556
595	606
595	619
596	59
596	130
596	163
596	257
596	263
596	298
596	321
596	334
596	339
596	357
596	361
596	413
596	432
596	444
596	457
596	468
596	500
596	561
596	563
596	592
596	617
596	621
596	636
597	98
597	123
597	154
597	281
597	315
597	368
597	470
597	519
597	541
597	579
597	595
597	652
598	55
598	90
598	146
598	185
598	200
598	251
598	291
598	351
598	386
598	419
598	488
598	505
599	73
599	80
599	116
599	170
599	178
599	195
599	232
599	244
599	273
599	309
599	375
599	399
599	426
599	463
599	473
599	512
599	550
599	600
599	626
600	102
600	141
600	224
600	237
600	326
600	344
600	438
600	450
600	526
600	586
601	109
601	134
601	188
601	206
601	261
601	267
601	285
601	302
601	338
601	356
601	391
601	407
601	481
601	507
601	514
601	571
601	633
601	644
602	150
602	181
602	219
602	362
602	380
602	413
602	495
602	534
602	556
603	67
603	96
603	120
603	164
603	199
603	248
603	255
603	280
603	295
603	314
603	331
603	397
603	433
603	444
603	456
603	468
603	520
603	607
603	620
604	175
604	236
604	351
604	369
604	385
604	421
604	501
604	542
604	578
604	592
605	114
605	194
605	274
605	291
605	308
605	343
605	403
605	564
606	60
606	74
606	185
606	266
606	326
606	358
606	375
606	409
606	426
606	451
606	463
606	476
606	509
606	528
606	599
606	615
606	627
606	650
607	84
607	108
607	132
607	157
607	170
607	205
607	212
607	224
607	259
607	285
607	301
607	319
607	437
607	489
607	550
608	69
608	101
608	125
608	245
608	253
608	337
608	365
608	416
608	516
608	536
608	571
608	586
608	636
608	641
609	150
609	218
609	239
609	313
609	391
609	470
609	483
609	500
609	558
609	608
610	92
610	162
610	181
610	199
610	233
610	280
610	331
610	398
610	444
610	458
610	507
610	522
610	593
611	78
611	120
611	144
611	274
611	341
611	347
611	371
611	386
611	423
611	430
611	513
611	544
611	578
612	87
612	95
612	137
612	176
612	229
612	269
612	284
612	324
612	354
612	378
612	405
612	490
612	565
613	194
613	257
613	263
613	300
613	318
613	411
613	464
613	477
613	529
613	551
613	631
614	131
614	167
614	186
614	249
614	278
614	307
614	311
614	335
614	362
614	393
614	437
614	451
614	586
614	600
615	65
615	72
615	83
615	108
615	125
615	205
615	217
615	237
615	242
615	418
615	485
615	497
615	509
615	515
615	537
615	616
616	57
616	161
616	329
616	344
616	351
616	399
616	425
616	503
616	559
616	572
617	181
617	199
617	223
617	295
617	368
617	373
617	381
617	457
617	470
617	523
617	609
617	626
618	102
618	173
618	192
618	211
618	260
618	266
618	283
618	289
618	322
618	357
618	387
618	407
618	414
618	431
618	445
618	491
618	544
618	620
619	143
619	315
620	68
620	86
620	123
620	130
620	137
620	156
620	187
620	275
620	477
620	485
620	511
620	530
620	568
620	580
620	593
621	204
621	246
621	253
621	310
621	394
621	438
621	508
621	517
622	80
622	97
622	108
622	230
622	300
622	376
622	452
622	466
622	553
623	117
623	148
623	164
623	197
623	216
623	318
623	347
623	420
623	427
623	485
623	499
623	539
623	548
623	587
623	600
623	615
624	242
624	271
624	289
624	296
624	312
624	328
624	334
624	369
624	383
624	446
624	558
624	572
625	134
625	173
625	265
625	409
625	459
625	470
625	526
626	153
626	193
626	224
626	260
626	278
626	390
626	505
626	609
626	629
627	201
627	303
627	492
627	619
628	113
628	140
628	181
628	229
628	275
628	283
628	297
628	436
628	511
628	565
629	385
629	466
630	159
630	381
631	205