     x      y
81.3	122.8
88.8	120.5
90.0	128.0
111.8	108.4
113.5	117.0
113.5	130.0
115.5	123.0
121.5	118.5
122.0	126.0
128.0	114.5
128.0	129.5
131.5	124.0
135.0	118.0
142.0	115.5
145.5	130.5
149.5	118.0
157.5	116.0
163.7	127.7
164.7	113.0
164.5	120.5
171.5	116.0
178.5	120.0
179.3	127.7
189.0	130.0
194.0	125.0
203.5	114.5
211.0	126.0
212.0	115.5
215.7	109.3
219.0	126.5
220.0	115.0
224.0	109.0
224.3	121.3
227.0	127.0
235.5	127.5
241.5	107.0
242.0	126.5
245.0	114.0
250.0	108.0
253.0	114.5
256.5	121.5
257.5	109.0
261.5	115.5
261.0	127.5
266.0	110.0
269.3	116.3
269.5	126.5
276.5	129.0
277.5	116.0
281.0	109.0
284.0	114.5
284.5	122.0
289.6	108.8
290.0	118.0
292.0	124.0
292.0	130.5
297.7	120.7
299.7	126.7
304.5	123.0
306.0	129.5
312.5	124.5
319.3	120.7
325.5	119.0
331.5	108.5
334.5	121.0
334.5	128.0
338.3	106.3
341.5	119.0
341.0	126.5
346.0	106.5
347.7	122.7
348.3	114.3
351.0	128.5
356.0	125.0
360.7	108.7
364.0	115.0
367.7	108.7
371.7	115.3
371.5	126.0
376.5	121.0
379.0	115.0
384.5	120.5
386.0	113.5
388.5	107.0
390.5	124.0
395.0	129.5
398.0	123.0
401.0	117.0
402.0	128.5
405.5	123.0
409.0	116.5
410.0	128.0
413.5	122.0
414.0	111.0
417.0	115.5
417.0	127.5
420.0	121.5
421.0	110.5
424.3	115.7
424.5	127.0
427.5	122.0
433.0	125.0
441.0	126.0
445.7	114.7
446.0	122.5
451.5	119.0
454.0	125.5
459.0	122.5
461.0	129.0
466.5	125.0
478.7	114.7
483.5	109.5
493.7	118.7
501.5	127.0
505.7	109.3
507.0	123.0
510.0	129.0
528.0	123.5
540.0	129.0
554.0	112.5
558.0	119.0
562.0	125.0
566.0	119.0
570.5	124.5
573.5	106.5
585.7	130.3
586.5	123.5
588.3	106.3
593.3	109.7
599.5	124.5
604.0	130.0
607.3	122.7
608.5	115.5
610.0	108.5
614.8	112.6
614.5	126.0
615.0	119.0
620.3	129.7
79.5	158.0
81.0	179.0
79.0	198.5
79.0	226.5
80.0	165.0
80.7	191.3
80.0	210.0
81.5	172.5
82.7	132.3
83.5	139.0
83.0	185.5
83.3	204.7
84.5	146.5
84.5	216.0
84.5	223.0
84.0	231.0
84.7	238.3
85.3	153.3
86.0	198.0
87.0	161.0
88.0	190.5
89.5	135.0
89.5	168.0
89.3	175.7
89.5	209.0
90.5	234.0
91.0	142.0
91.0	202.5
91.7	214.3
91.0	220.5
92.3	148.7
94.0	196.0
94.5	228.0
94.0	240.5
95.3	163.7
96.5	131.0
96.5	175.0
96.0	190.0
98.0	182.0
98.7	224.3
99.0	206.0
99.0	234.5
100.5	170.0
101.5	187.0
101.5	200.0
103.0	193.0
103.5	229.0
103.5	240.0
105.0	166.5
104.5	176.0
104.0	217.5
106.0	211.0
107.5	148.0
108.0	204.5
107.5	223.0
107.5	235.0
109.5	190.5
109.0	197.5
110.3	155.7
110.5	171.0
111.0	163.0
111.0	216.0
112.0	229.0
112.0	240.0
113.5	178.5
115.9	151.6
115.5	186.5
115.0	210.0
115.5	222.0
115.5	235.0
116.3	201.3
117.0	159.0
118.0	166.5
117.5	193.5
119.3	173.7
119.0	216.5
119.0	227.5
119.7	240.7
121.0	181.0
121.5	133.0
121.0	140.5
122.5	148.0
122.0	208.5
123.5	155.0
123.0	189.0
123.0	221.5
123.0	235.0
124.7	162.3
125.5	195.0
126.0	169.0
126.0	202.5
127.0	136.5
127.0	176.0
127.0	216.0
128.0	183.5
128.0	240.5
129.0	143.5
130.5	190.0
130.0	209.5
131.0	151.0
131.0	158.0
132.0	197.5
132.0	221.0
132.0	235.0
133.5	165.0
134.5	172.5
134.0	203.5
134.5	214.0
135.0	134.5
135.0	140.5
135.5	228.0
136.7	147.3
137.7	179.3
137.5	186.0
137.0	239.5
138.5	154.0
138.5	219.0
139.5	161.0
140.5	168.0
140.0	193.0
140.5	226.0
140.5	233.0
141.3	201.7
141.0	207.5
142.5	135.5
142.0	174.5
143.5	143.0
143.3	181.7
143.3	213.7
144.5	150.0
144.7	239.7
145.5	157.0
145.5	221.0
146.5	196.5
147.5	164.0
147.3	187.7
147.0	228.5
148.0	177.0
148.5	203.0
149.5	171.0
149.5	209.5
150.3	138.3
150.5	216.5
150.5	234.5
151.7	145.7
152.5	152.5
152.7	183.3
152.0	224.0
153.0	159.5
153.0	240.5
154.5	191.0
154.5	198.0
154.7	230.3
156.0	168.3
155.5	175.5
155.5	205.5
156.3	130.7
156.5	212.5
157.5	139.5
157.0	236.0
159.5	147.0
159.0	162.0
160.0	200.5
159.0	219.0
160.5	155.0
160.5	187.5
160.0	226.0
160.0	241.0
161.0	180.0
161.5	194.0
161.5	231.5
162.0	173.0
162.3	207.7
163.5	135.5
163.5	215.0
164.5	166.0
164.5	236.0
165.0	142.5
166.0	159.0
166.0	221.5
167.0	151.5
167.0	241.0
168.5	185.5
168.0	199.0
168.0	228.5
169.8	170.6
169.7	177.3
169.0	211.0
170.0	131.5
170.0	139.0
171.0	163.5
171.0	193.0
171.0	235.5
172.5	145.0
172.5	157.0
172.0	217.5
172.5	224.0
173.0	205.5
174.0	151.5
174.3	241.3
175.0	188.0
175.0	229.5
176.5	135.0
176.5	181.5
176.5	199.0
176.5	212.5
178.0	168.5
177.5	175.0
177.5	236.0
179.7	161.3
179.5	219.0
180.3	141.3
180.0	148.5
181.0	154.5
180.5	193.0
180.7	225.7
181.5	205.0
182.7	186.3
182.5	232.0
183.3	240.3
184.5	179.5
184.5	199.0
184.7	213.7
185.0	136.0
185.5	173.0
186.0	166.0
186.3	220.7
187.5	143.5
187.5	151.0
187.3	158.3
188.0	228.0
189.5	183.5
189.0	190.5
189.5	234.5
190.7	202.7
191.5	197.0
191.5	209.0
191.0	241.0
192.5	136.0
192.0	216.0
193.5	163.0
193.5	170.5
193.0	178.0
193.5	223.0
194.5	148.0
194.5	155.5
195.7	141.7
195.0	186.0
195.5	230.0
197.5	130.5
197.5	192.0
197.0	236.0
198.0	199.0
198.0	205.5
199.0	212.0
200.7	137.3
200.3	159.3
200.0	167.5
200.0	174.5
200.5	181.5
200.5	218.5
201.7	151.7
201.5	225.5
202.3	144.3
202.5	232.0
203.5	188.0
204.0	195.0
204.5	202.0
204.5	238.0
205.0	208.5
206.0	131.5
206.3	163.3
206.5	215.0
206.7	221.3
207.0	156.5
207.5	171.0
208.5	149.0
208.5	178.0
208.0	228.0
209.0	138.5
209.0	234.5
210.5	184.0
210.7	197.7
211.0	191.0
211.5	205.0
211.0	240.5
212.0	211.0
214.0	132.5
213.0	144.0
213.0	154.0
213.3	159.7
213.0	218.5
213.8	224.6
214.5	166.0
214.0	174.0
214.5	230.5
216.0	179.5
216.0	236.5
217.7	138.7
217.0	149.5
217.5	186.5
217.5	201.0
218.0	194.0
218.0	208.0
218.5	214.0
219.7	155.7
219.5	220.5
219.5	226.5
220.5	144.0
221.0	162.0
221.0	233.0
222.5	132.5
222.5	168.0
222.0	175.5
222.5	182.0
223.5	238.0
224.5	150.5
224.5	188.0
224.7	199.3
224.0	205.0
224.7	211.3
225.5	217.0
226.0	139.0
226.5	157.5
226.0	193.0
226.0	230.5
227.0	223.5
228.5	164.0
228.7	177.7
229.5	145.0
229.5	171.0
229.0	235.5
230.3	133.7
230.7	183.7
231.0	202.5
231.5	209.0
231.0	241.0
232.0	190.0
232.0	196.0
232.0	214.5
232.0	232.0
233.0	153.0
233.0	221.0
233.6	226.2
234.3	140.3
234.0	160.0
236.0	166.5
237.0	180.0
236.5	237.0
237.5	147.0
237.0	173.0
237.7	205.7
238.0	186.5
238.5	193.0
238.7	199.3
238.5	212.0
238.5	218.0
239.3	224.3
239.0	231.0
240.0	134.0
240.0	155.0
241.7	161.7
242.5	142.5
243.5	168.5
243.5	240.0
244.0	175.5
244.5	183.0
244.5	209.0
244.5	215.0
244.5	234.0
245.0	149.0
245.0	190.0
245.0	196.0
245.0	203.0
245.7	221.7
245.5	228.0
247.3	131.3
249.0	157.5
249.5	137.5
250.7	144.7
250.5	165.0
250.5	172.0
250.5	237.0
251.7	151.3
251.0	179.0
251.5	186.0
251.5	199.0
251.7	205.3
251.7	211.7
251.5	231.0
252.0	193.0
252.0	218.5
252.0	224.5
256.0	133.0
256.5	140.0
257.0	154.0
256.5	240.5
257.5	147.0
257.0	161.0
257.5	168.0
257.0	175.0
257.5	182.0
257.7	189.3
257.7	228.3
257.0	234.5
258.3	196.3
258.5	202.5
258.0	214.5
258.0	221.5
259.0	209.0
263.0	135.5
263.7	172.7
263.5	180.0
263.0	231.5
263.0	237.5
264.3	142.7
264.5	157.5
264.0	164.5
264.0	186.0
264.5	193.0
264.5	206.0
264.0	212.5
264.0	219.0
264.0	225.5
265.0	150.5
266.0	199.5
267.0	170.0
268.5	177.0
268.7	240.3
269.0	216.0
269.7	228.7
269.0	234.5
270.5	132.5
270.0	184.0
270.5	190.0
270.7	210.3
271.0	139.5
271.0	146.0
271.0	154.0
271.0	161.0
271.5	203.0
271.0	222.0
272.5	167.0
272.5	196.5
274.0	173.0
275.0	216.5
275.5	232.0
275.0	238.0
276.0	180.0
276.3	186.3
276.5	206.0
276.7	225.7
277.6	135.2
277.5	150.0
278.0	143.0
278.0	156.0
278.0	163.0
278.0	193.5
278.5	200.0
278.5	211.0
279.0	169.0
279.0	221.5
280.5	176.0
281.0	236.0
282.5	206.0
282.0	230.0
283.5	182.0
283.0	189.0
283.5	218.5
284.0	130.5
284.5	146.5
284.0	153.0
284.5	160.0
284.5	166.5
284.3	172.3
284.0	225.0
285.0	139.0
285.0	196.0
285.0	212.5
286.3	201.3
287.5	234.5
287.0	240.0
288.5	178.0
288.5	229.0
289.5	157.0
289.5	184.5
289.0	208.5
290.3	163.3
290.5	191.0
290.0	222.5
291.5	137.0
291.5	145.0
291.0	151.0
291.0	215.5
291.7	239.7
292.0	171.5
292.0	197.5
292.5	204.0
294.0	226.5
294.0	234.0
295.5	180.0
295.0	210.5
296.0	157.0
296.0	186.5
296.3	220.7
297.5	166.0
297.5	193.5
297.7	240.3
299.2	133.6
298.5	215.5
298.5	230.5
299.5	140.0
299.8	147.3
299.5	172.5
299.0	200.0
300.0	205.0
301.5	154.0
301.0	176.0
301.0	183.0
301.7	210.7
301.0	225.0
301.0	236.0
303.5	161.0
303.0	189.5
303.5	220.0
304.0	241.0
305.0	167.5
305.5	215.0
305.0	230.5
306.3	136.3
306.5	143.0
306.3	173.3
306.5	195.0
306.5	208.0
307.5	149.5
307.5	179.0
307.0	201.5
307.5	236.0
308.7	156.7
308.0	185.0
308.0	225.0
310.5	163.0
310.0	190.0
310.0	219.5
310.0	241.0
311.0	213.0
311.0	230.5
312.5	132.0
312.0	169.0
312.7	199.3
312.3	205.3
313.0	139.0
313.3	145.7
313.0	176.0
314.5	152.0
314.0	182.0
314.7	193.7
314.0	225.0
314.0	236.0
315.5	216.0
316.0	159.0
316.5	188.0
316.5	209.5
317.0	166.0
317.0	231.0
317.0	241.0
318.3	172.7
318.5	220.0
319.0	135.0
319.7	141.7
319.0	179.0
319.0	204.0
320.0	197.0
320.5	214.0
320.5	226.0
320.3	236.3
321.0	148.0
321.0	155.0
321.5	191.0
322.7	161.7
323.5	169.0
323.0	184.5
323.0	208.0
323.5	232.0
323.0	241.5
324.0	131.5
324.5	177.0
324.0	222.0
325.5	138.0
325.0	201.5
326.5	144.0
326.5	195.0
326.0	217.0
326.7	236.7
327.5	150.5
327.5	212.0
327.0	227.0
328.3	157.7
329.3	189.3
329.7	164.7
330.0	171.5
329.7	231.7
329.5	241.5
330.5	133.0
330.0	183.5
330.3	206.7
330.0	221.5
331.0	177.5
332.0	139.5
332.5	236.0
333.0	146.0
333.0	200.5
333.0	216.5
333.0	227.0
334.7	153.3
335.0	194.0
335.0	211.0
335.5	241.0
336.0	160.5
336.7	180.7
336.5	222.0
336.3	231.3
338.0	134.0
337.0	167.5
337.0	174.0
337.0	188.0
337.5	206.0
338.0	141.0
339.5	147.0
339.3	199.7
339.5	216.0
339.0	236.0
340.0	226.5
341.5	157.0
341.7	183.7
341.5	194.0
341.5	210.5
341.0	241.0
342.5	231.5
343.0	171.0
343.5	177.5
343.5	220.5
344.5	139.0
344.0	151.0
344.0	164.0
344.0	205.0
344.5	236.0
345.5	133.0
345.0	189.0
346.0	146.0
346.5	199.5
346.5	215.0
346.3	225.3
347.7	209.3
347.0	241.0
348.0	156.0
348.5	182.0
348.5	194.0
348.0	231.0
349.7	168.3
349.0	175.5
350.5	221.0
351.0	136.0
351.0	150.0
351.5	162.0
351.5	189.0
351.0	205.0
351.0	237.0
352.5	143.0
352.5	227.0
353.0	199.0
353.0	215.0
353.5	232.0
354.0	156.0
354.3	241.3
355.5	178.5
355.0	184.0
355.5	193.5
356.0	172.5
356.0	209.0
357.7	131.7
357.0	138.5
357.0	150.5
357.5	167.0
357.7	203.3
357.5	218.5
357.3	224.7
357.3	236.3
358.5	160.5
359.0	189.0
359.3	230.3
360.0	144.5
360.5	183.0
360.0	198.0
360.0	213.0
360.5	241.0
362.0	156.5
362.5	171.0
362.5	177.0
362.5	208.0
362.5	222.5
363.0	137.5
363.0	193.0
363.5	236.0
364.5	149.5
364.0	165.0
364.5	202.5
364.0	217.5
365.7	187.7
365.5	231.0
366.5	213.0
367.0	131.5
367.0	144.0
367.7	181.3
367.0	198.0
367.5	226.0
367.5	240.5
368.5	207.5
369.0	155.5
369.5	175.0
369.0	221.0
369.5	235.5
370.0	138.0
370.3	168.3
370.0	192.0
371.5	149.5
371.5	202.5
371.0	217.0
372.5	185.5
372.0	230.5
373.0	162.0
373.5	213.0
373.5	240.5
374.0	132.0
374.5	180.0
374.0	197.0
374.0	225.0
375.0	144.0
375.5	235.0
376.0	155.5
376.0	174.0
376.5	190.5
376.0	208.0
376.5	219.0
377.5	138.0
377.5	167.0
378.5	202.0
378.0	230.0
379.3	149.3
379.3	184.7
379.0	240.5
380.5	213.0
380.5	224.0
381.5	132.5
381.0	160.5
381.0	179.0
381.0	195.5
382.7	172.7
382.0	235.0
383.0	143.0
383.0	155.0
383.0	190.0
383.0	207.0
383.5	218.0
384.5	166.5
384.5	201.0
384.0	229.0
385.5	183.5
385.0	240.0
386.0	137.5
386.5	149.0
387.7	130.7
387.0	160.0
387.5	195.0
387.0	212.5
387.0	224.0
388.0	234.0
389.0	172.0
389.0	178.0
389.0	189.0
389.5	206.0
389.5	219.0
390.0	143.0
390.0	154.0
390.5	229.0
391.2	239.4
391.5	166.0
391.5	200.0
392.3	183.3
392.5	214.5
393.0	136.0
393.7	148.7
393.3	158.7
393.0	224.0
394.3	171.3
394.0	194.5
394.7	209.3
394.0	234.0
395.5	177.0
395.5	188.5
396.5	142.0
396.5	203.5
396.0	219.0
397.7	153.7
397.0	229.5
398.3	160.3
398.0	183.0
398.0	239.0
399.5	135.5
399.0	198.0
399.0	214.5
399.5	224.0
400.0	166.0
401.0	147.5
401.0	173.0
401.0	193.0
401.0	209.0
401.0	234.0
402.7	179.3
402.3	188.3
402.5	218.5
403.5	141.0
403.0	158.0
403.0	203.5
403.5	229.0
404.5	183.5
404.5	239.0
405.5	153.0
405.5	198.5
405.0	213.5
406.0	163.0
406.5	169.5
406.0	223.5
407.0	134.0
408.0	175.5
407.0	192.5
407.5	208.0
407.0	233.5
408.5	147.0
409.5	181.5
409.0	218.0
410.5	158.5
410.0	187.0
410.3	202.7
410.0	228.0
410.5	238.0
411.0	140.5
411.3	165.7
411.0	213.0
412.0	196.5
412.5	222.5
412.5	233.0
413.7	133.7
413.0	152.0
414.7	172.3
414.5	179.0
414.5	191.0
414.0	207.5
415.0	145.5
415.5	217.0
415.0	227.0
416.0	162.5
416.5	185.0
416.0	237.0
417.7	156.7
417.0	202.0
417.5	212.0
418.0	139.0
418.5	195.0
418.5	222.5
418.0	232.0
419.0	168.5
420.5	150.0
420.3	207.3
420.0	241.0
421.0	132.5
421.5	163.0
421.5	174.5
421.0	180.0
421.7	190.3
421.5	217.5
421.0	236.5
422.0	227.0
423.0	144.0
423.0	201.5
423.7	212.7
424.0	185.0
425.5	138.5
425.0	157.0
425.5	169.0
425.3	194.3
425.0	232.5
426.5	179.0
426.5	206.0
426.0	222.0
426.3	238.3
428.0	150.0
428.0	189.0
428.0	217.0
429.3	132.3
429.0	162.5
429.5	173.5
429.0	200.5
429.5	211.0
429.0	228.0
430.5	144.0
431.0	184.0
431.3	233.3
432.5	156.0
432.0	195.0
432.5	205.0
432.0	223.0
433.5	138.0
433.0	168.0
433.0	238.5
434.0	177.5
434.7	188.7
434.0	216.5
436.0	150.5
435.5	162.5
435.5	200.0
435.0	229.0
436.5	132.0
436.7	143.7
436.5	210.0
436.5	235.0
437.0	172.0
437.5	183.0
438.5	157.5
438.0	194.5
438.3	220.3
438.0	241.0
439.3	204.3
440.5	166.0
440.5	215.0
440.0	225.5
441.5	147.0
441.0	177.0
441.5	189.0
441.0	231.0
441.7	237.7
442.0	199.5
443.5	133.0
443.0	140.0
443.5	153.0
443.0	210.0
444.0	172.0
444.0	182.0
444.0	221.0
445.0	194.0
446.5	159.0
446.0	204.0
446.5	215.0
446.3	226.3
447.7	176.3
447.5	232.0
448.0	147.0
448.5	166.0
448.5	188.0
448.0	237.0
449.0	136.0
449.0	199.0
449.5	209.5
451.0	182.3
450.7	223.3
451.7	141.7
451.5	153.5
452.0	171.5
451.0	219.0
452.0	194.0
452.5	204.0
452.3	228.7
453.0	159.5
453.7	215.3
453.0	234.5
454.7	131.7
454.5	177.0
455.0	147.0
455.7	188.3
455.5	239.0
456.0	137.0
456.0	165.5
456.3	198.3
456.0	209.5
456.5	221.0
457.0	232.5
458.5	153.5
458.0	226.5
459.0	142.0
459.0	171.0
459.5	182.5
459.7	203.0
460.0	160.0
460.0	194.0
462.0	135.5
461.0	177.0
461.0	214.5
462.0	147.5
462.7	188.3
462.5	209.0
462.0	230.0
462.3	235.3
462.0	241.5
463.0	166.5
463.5	224.0
464.7	154.7
464.3	176.7
464.5	219.0
466.0	172.0
465.0	203.5
466.7	183.7
466.3	195.3
467.0	141.0
467.0	160.5
467.0	213.5
467.5	228.0
467.3	233.3
467.0	238.5
468.0	132.0
469.7	148.7
469.5	190.0
469.7	201.7
469.0	208.0
469.5	222.5
470.0	167.0
470.7	177.7
471.7	154.7
471.5	232.0
472.5	137.0
472.0	217.5
473.5	160.5
473.0	184.5
473.5	227.0
473.0	237.5
474.0	143.5
474.0	195.5
474.5	206.0
474.0	212.0
475.7	166.7
475.5	172.5
476.5	132.0
476.5	149.0
476.5	222.0
477.0	179.0
477.5	190.0
477.5	201.0
477.5	233.0
478.0	156.0
478.5	217.0
479.5	139.0
479.5	162.0
479.5	238.5
480.0	211.0
480.0	227.0
481.5	145.0
481.5	168.0
481.5	174.0
481.0	184.0
481.0	195.5
481.3	204.7
483.0	152.0
483.0	221.0
483.5	233.0
484.5	134.0
484.5	189.5
485.0	158.0
485.0	179.0
485.0	199.5
485.0	210.0
486.3	216.3
486.5	227.5
486.0	238.5
487.0	140.5
487.5	147.0
487.0	165.0
488.0	171.5
488.0	184.0
488.0	204.5
489.0	194.5
489.0	222.0
489.5	233.0
490.3	153.3
491.5	136.0
491.0	178.0
491.5	189.0
491.0	211.0
491.7	237.7
492.0	159.5
492.5	200.0
492.5	218.0
492.7	227.7
493.0	167.0
494.0	143.0
494.5	183.0
494.5	206.0
495.0	173.0
496.0	148.5
496.3	195.7
496.0	223.0
496.0	233.5
497.0	132.0
497.3	155.7
497.3	189.3
497.0	213.0
497.0	239.0
498.5	138.0
498.3	162.7
499.0	201.5
499.0	229.0
500.7	169.3
500.7	176.7
500.0	218.5
501.5	144.0
501.0	184.5
501.0	207.5
502.3	150.3
502.8	157.4
502.7	191.7
502.0	235.0
503.5	197.5
503.5	224.0
505.0	133.5
504.0	214.0
504.3	240.3
506.5	140.0
506.5	163.0
506.8	169.8
506.0	180.0
506.0	203.5
506.0	230.0
507.0	219.0
508.3	146.3
508.5	186.0
508.0	193.0
508.3	208.7
508.0	236.0
509.5	174.5
510.5	152.0
510.7	198.7
510.0	225.0
510.0	241.5
511.3	158.3
511.3	214.3
512.0	135.5
512.5	231.0
514.3	141.3
514.5	163.5
514.0	170.0
514.7	180.7
514.5	193.5
514.5	237.0
515.5	187.5
515.0	203.5
515.5	209.5
515.5	218.5
516.0	148.5
516.0	226.0
517.5	131.0
517.5	175.0
518.0	155.5
518.7	197.7
519.7	168.3
519.0	232.0
520.3	137.3
520.3	161.3
520.5	191.0
520.3	213.3
520.5	221.5
521.0	183.5
521.0	238.0
522.0	178.5
523.0	151.0
523.0	206.5
524.2	227.6
524.0	172.0
524.5	200.0
525.7	156.7
525.5	166.0
525.0	217.0
525.0	234.5
526.5	194.5
527.0	131.0
527.5	138.5
527.0	240.0
528.0	188.5
528.0	211.5
528.0	222.5
529.3	181.7
529.5	205.0
529.0	230.0
530.5	170.0
530.0	175.5
531.3	150.7
531.0	163.0
531.5	199.0
532.0	216.0
533.5	134.0
533.0	157.5
533.5	193.0
533.0	226.0
533.3	235.3
534.0	187.0
534.7	210.3
534.5	241.0
535.5	140.5
535.7	180.3
536.5	167.0
536.7	173.7
536.7	203.7
536.0	220.5
537.5	230.5
538.0	147.5
538.5	197.0
539.0	215.0
539.5	237.0
540.0	153.5
540.0	160.5
540.0	191.0
540.5	209.0
540.0	225.0
541.0	136.0
541.3	184.7
542.5	142.0
542.0	178.5
542.3	220.3
543.0	171.5
543.0	202.5
543.5	232.0
544.3	165.3
545.5	148.0
545.0	195.5
545.5	213.5
546.0	131.5
546.5	189.0
546.0	226.0
546.3	237.3
547.0	155.5
547.7	207.7
548.5	137.0
548.0	183.0
548.3	219.3
549.3	170.7
549.0	177.0
549.3	201.3
549.5	231.0
550.0	161.5
551.5	194.5
552.0	132.5
552.5	143.0
552.5	150.0
552.0	213.5
552.7	224.7
552.5	234.5
553.0	188.0
553.0	238.5
554.5	155.0
554.0	207.0
556.0	181.7
556.3	137.7
556.0	174.5
556.0	200.5
556.3	218.7
556.5	229.0
558.5	194.0
558.0	234.0
559.0	131.5
559.5	213.0
559.5	224.5
559.3	240.3
560.5	144.0
560.0	150.5
560.5	170.0
560.5	188.0
560.0	206.0
562.5	176.0
562.0	183.0
562.5	230.0
563.5	200.5
563.0	219.5
564.0	136.5
564.5	236.0
565.5	163.0
565.0	209.5
566.0	194.5
566.5	225.0
567.0	130.5
567.5	148.5
567.5	155.5
567.0	169.5
567.3	214.7
567.0	241.5
568.5	181.5
568.0	204.5
569.0	142.5
569.0	187.5
569.5	231.0
570.5	220.0
571.0	135.5
571.0	175.0
571.5	199.0
572.0	210.5
572.0	237.0
573.0	168.0
573.5	192.5
573.3	225.3
574.3	153.7
574.5	215.5
576.5	231.0
578.0	239.5
579.0	134.0
579.5	164.5
582.3	185.7
583.0	178.5
584.5	170.0
585.0	197.0
587.0	163.5
589.3	147.7
589.0	191.5
593.0	232.0
596.3	174.7
596.3	193.3
597.7	236.3
602.0	152.5
602.5	199.0
603.0	216.0
604.7	145.3
604.0	192.0
605.0	137.5
606.0	222.0
607.3	159.3
608.7	173.7
609.5	181.0
609.5	189.0
610.0	195.5
610.0	202.5
610.5	215.5
611.0	142.0
612.5	133.0
612.3	222.3
614.3	176.3
615.6	185.2
616.5	199.0
616.5	205.0
616.7	218.7
617.0	192.0
617.0	225.0
617.5	232.0
621.0	151.5
622.0	159.5
622.3	167.3
622.5	221.5
623.0	188.0
623.5	194.5
623.0	202.0
623.0	208.5
623.0	228.5
623.0	235.5
78.5	283.0
78.5	307.0
79.5	344.0
80.5	245.0
80.5	277.0
80.0	301.0
81.7	269.3
81.5	313.0
81.7	319.7
81.5	326.5
82.0	257.5
82.0	294.5
82.5	333.5
82.0	350.5
84.0	288.0
84.5	340.0
86.0	251.5
85.5	281.0
85.5	306.5
86.0	264.0
86.7	299.7
87.5	329.5
87.0	346.0
87.7	352.7
88.0	275.5
88.5	317.0
89.5	245.5
89.5	324.0
90.5	258.0
90.0	293.0
90.5	310.5
91.5	335.0
92.5	270.0
92.0	303.5
93.0	280.0
93.0	287.0
93.0	342.0
93.7	348.7
94.5	251.0
94.7	329.3
95.3	263.3
95.5	297.5
95.0	315.0
95.7	322.3
96.0	275.0
97.3	308.3
98.3	257.7
98.3	291.7
99.0	245.5
99.7	302.3
100.0	269.0
100.8	285.3
100.0	336.0
100.5	343.0
101.0	279.0
101.5	320.0
101.5	350.0
102.5	252.0
102.7	296.3
102.0	313.0
102.0	327.0
104.0	263.0
104.7	275.3
105.7	289.3
105.0	306.5
106.5	334.0
107.5	246.0
107.5	257.0
107.0	346.5
108.0	270.0
108.0	282.0
108.0	301.0
108.7	352.7
109.5	295.0
110.0	311.5
111.0	252.0
112.0	263.5
112.5	276.0
112.0	306.0
113.0	287.5
114.0	343.0
115.0	246.5
115.0	299.5
115.5	323.5
115.0	331.5
116.0	257.0
116.0	270.0
117.0	281.0
117.0	311.0
118.5	293.5
119.5	251.5
119.5	262.5
120.5	275.5
120.0	305.0
120.5	318.0
120.0	340.5
121.0	287.0
121.0	326.5
121.5	334.0
123.7	245.3
123.0	256.5
123.5	269.5
123.0	299.0
124.0	311.0
125.0	281.5
127.0	251.0
126.0	293.0
126.5	323.0
127.0	263.0
127.5	304.5
127.0	337.0
127.3	343.7
128.0	275.0
128.7	316.3
129.0	287.0
130.0	257.0
130.7	298.3
131.0	268.0
131.5	310.0
132.0	245.0
133.0	281.5
133.7	292.7
133.0	321.5
134.0	334.0
134.3	340.7
134.5	347.5
135.3	262.7
135.3	272.7
135.0	304.0
135.5	327.0
136.0	251.0
136.0	315.5
137.5	287.0
137.7	298.3
139.5	257.0
139.7	267.3
139.5	278.0
139.0	309.5
140.5	245.0
140.5	321.0
140.5	332.0
140.5	344.0
141.0	283.5
141.0	293.0
141.0	338.0
141.0	351.0
142.0	304.0
143.7	250.7
143.7	272.3
143.5	315.0
144.3	262.3
145.5	288.0
145.5	298.0
145.0	327.0
146.7	277.7
146.5	334.0
147.6	255.8
147.0	309.5
147.3	340.3
147.5	347.0
148.5	245.5
148.0	267.5
148.0	320.5
149.7	283.3
149.5	293.0
149.5	303.0
151.0	273.0
151.0	314.5
151.7	324.3
152.5	262.0
152.0	330.5
153.5	251.0
153.0	278.0
153.0	287.0
153.0	298.0
153.3	336.7
153.0	343.5
153.7	349.7
154.0	308.0
155.0	319.5
156.5	246.0
156.5	257.0
156.0	268.5
156.7	291.7
157.5	282.0
157.0	302.5
158.0	313.5
158.7	339.3
159.5	274.5
159.0	325.5
159.0	333.0
160.3	251.7
160.0	263.0
160.5	297.0
160.0	346.0
160.0	352.5
161.5	286.0
161.5	308.0
162.0	318.5
163.0	269.5
164.0	246.0
164.0	258.0
164.0	280.0
164.5	292.0
164.5	302.0
164.5	313.0
164.0	330.0
165.5	323.0
165.0	336.5
165.5	343.5
166.0	349.5
167.5	252.0
167.5	264.0
167.0	275.0
168.0	286.0
168.0	297.0
168.0	308.0
170.6	313.8
170.0	269.5
170.0	328.0
170.0	333.5
171.5	247.0
171.5	257.5
171.7	280.3
171.5	291.5
171.0	339.5
172.0	301.5
172.0	321.0
172.0	346.0
173.0	352.0
174.5	263.5
174.0	275.0
175.0	252.0
175.5	286.0
175.5	296.5
175.3	307.7
176.5	316.0
176.5	326.0
176.5	332.0
177.5	269.0
177.7	336.7
177.0	342.5
178.5	291.0
179.2	312.6
178.0	348.5
179.0	246.0
179.0	258.0
179.7	280.3
179.0	302.0
179.5	321.5
180.0	274.5
182.5	264.0
182.5	286.0
182.5	297.0
182.7	317.3
182.0	328.0
183.0	252.0
183.5	308.0
183.7	333.7
183.5	340.0
183.3	345.3
184.5	270.0
185.5	276.5
185.0	291.5
185.7	350.7
186.7	246.7
186.5	259.0
186.0	302.0
186.7	313.7
186.0	323.0
187.0	282.0
188.5	329.0
189.5	253.0
189.5	265.5
189.0	287.5
189.7	297.3
189.0	308.0
189.5	319.0
189.0	335.5
189.5	340.5
191.5	272.0
191.0	346.5
192.5	277.5
192.3	292.3
192.5	303.0
192.5	313.0
193.5	247.0
193.0	324.5
194.3	283.3
194.0	332.5
195.5	251.0
195.0	257.0
195.5	263.0
196.5	269.0
196.0	289.5
196.5	297.0
196.0	308.0
196.0	318.5
196.0	337.5
196.0	342.5
196.5	349.5
197.3	328.3
198.0	242.0
198.7	274.7
199.0	303.0
199.5	313.0
200.0	247.5
200.0	280.0
200.5	286.0
200.0	323.0
200.7	333.7
201.0	254.0
201.0	260.0
201.5	292.0
201.7	345.7
202.0	351.0
203.0	264.5
203.0	298.5
203.0	308.0
203.5	318.0
204.2	338.6
204.5	244.0
204.0	270.5
205.5	277.0
205.0	329.0
206.5	250.0
206.0	257.0
206.0	282.5
206.5	289.0
206.0	303.0
206.5	313.0
207.5	323.0
207.5	342.0
207.5	347.5
208.0	295.0
208.0	334.0
209.0	262.5
209.7	307.7
210.0	268.0
210.0	318.5
211.7	273.3
211.0	301.0
211.5	328.5
212.5	246.0
212.3	279.3
212.8	285.4
212.7	313.7
212.0	338.0
212.5	345.0
213.3	251.3
213.5	291.0
213.3	296.3
214.7	308.3
214.3	257.3
214.0	323.5
214.0	350.5
215.7	263.7
215.0	333.0
216.5	269.5
216.0	318.5
216.7	341.3
217.5	305.5
218.0	242.0
218.0	275.0
218.0	300.0
218.0	327.5
219.3	282.7
219.0	289.5
219.0	313.0
219.0	337.0
219.0	346.5
220.0	248.0
220.0	254.5
220.0	295.0
220.0	352.0
221.0	260.0
221.0	323.0
222.5	265.5
222.5	309.0
222.0	317.0
222.0	331.5
223.7	271.7
223.5	303.5
223.0	341.5
224.0	277.0
224.7	298.7
225.3	244.7
225.5	288.0
225.0	293.0
225.5	326.0
225.0	336.5
225.5	348.0
226.0	250.5
226.7	256.7
226.0	282.0
227.5	262.5
227.0	313.5
227.0	320.0
228.7	308.3
228.0	332.0
229.0	268.0
229.0	341.0
230.0	274.0
230.0	296.5
230.0	302.5
230.5	335.5
231.5	247.0
231.5	280.0
231.5	291.0
231.5	323.5
231.3	345.7
232.0	253.0
232.5	259.0
232.0	285.5
232.0	351.0
233.0	317.5
233.0	331.0
234.0	264.0
234.0	312.5
235.0	270.0
235.3	300.7
235.0	306.5
235.0	341.0
236.5	276.0
236.0	295.0
237.5	243.0
237.5	290.0
237.0	327.0
237.5	336.0
237.0	347.0
238.0	249.5
238.0	256.0
238.5	321.5
239.0	315.5
240.0	261.5
240.5	267.0
240.0	310.0
240.7	331.3
240.5	341.0
241.5	299.5
241.7	304.3
241.5	273.0
242.5	278.5
242.5	351.0
243.0	294.0
243.5	325.5
243.5	346.0
244.0	246.0
244.5	252.0
244.5	282.5
244.0	288.5
244.0	319.5
244.0	337.0
245.0	259.0
245.5	264.0
245.0	313.5
245.5	331.5
246.3	269.3
246.5	308.5
246.5	349.5
247.5	275.5
248.0	297.0
247.7	302.3
247.0	341.0
249.0	281.0
249.5	286.5
249.0	323.0
249.7	328.7
249.0	345.0
250.3	242.7
250.0	249.0
250.3	255.3
250.0	291.5
250.0	317.0
250.0	335.5
251.0	261.5
251.5	267.0
252.2	279.2
251.0	312.0
252.5	272.5
252.5	306.0
252.5	341.0
252.0	350.0
253.5	300.0
254.5	284.0
254.0	325.5
254.0	331.5
256.0	252.0
255.5	289.5
255.5	295.0
255.0	320.5
255.0	346.0
256.5	258.0
256.0	315.0
256.0	337.0
257.0	246.0
257.5	264.0
257.5	269.5
257.0	309.0
257.5	351.0
258.0	275.0
258.0	304.0
259.0	280.0
259.5	298.5
259.0	342.0
260.5	292.0
260.0	322.5
260.7	327.7
261.0	286.5
261.5	312.5
261.0	318.0
261.0	333.0
261.3	346.3
262.5	243.5
262.0	249.5
262.7	255.3
262.0	338.5
263.0	261.0
263.0	267.5
263.5	272.5
263.0	307.0
263.5	351.5
264.7	281.7
264.3	296.3
264.0	302.0
264.5	324.5
265.5	320.0
265.3	329.7
265.0	342.5
266.5	291.0
266.0	316.0
266.0	335.5
267.5	264.5
267.0	311.0
267.5	347.0
268.0	246.0
268.0	252.0
268.5	286.0
268.0	306.0
269.0	259.0
269.5	270.0
269.5	300.0
269.0	327.0
269.7	352.7
270.5	295.0
270.5	333.0
270.0	339.0
271.3	315.3
271.0	321.0
271.7	343.7
272.5	290.0
273.0	255.5
273.0	265.0
273.3	348.7
274.0	249.5
274.0	275.0
274.0	304.5
275.0	244.0
275.5	259.5
275.0	284.0
275.0	299.0
275.7	324.7
275.0	330.0
275.5	336.0
276.0	319.0
276.0	341.0
277.0	269.5
277.0	279.5
277.0	293.5
277.3	313.7
277.0	344.5
278.5	308.5
279.0	254.5
279.5	264.5
279.0	289.0
279.5	303.0
280.5	248.0
280.5	274.0
280.3	327.7
280.0	338.5
281.5	242.0
281.3	283.7
281.0	298.0
281.0	348.0
282.0	260.0
282.3	317.3
282.0	323.0
282.0	332.5
282.3	342.7
283.0	269.0
283.0	293.5
283.5	307.0
283.0	312.5
283.5	352.0
284.0	278.5
285.0	254.5
285.5	288.0
285.7	327.7
285.5	337.5
285.7	347.3
286.7	245.7
286.0	264.5
286.5	273.0
286.0	302.5
286.5	321.0
287.5	297.0
287.0	311.0
288.0	282.5
288.0	316.0
288.0	333.0
288.5	343.0
289.0	259.5
289.5	292.0
290.5	254.0
290.0	268.5
290.5	277.0
290.0	307.0
290.0	324.5
291.0	249.0
291.7	286.7
291.5	338.0
292.7	263.3
292.0	301.5
292.5	312.0
292.5	319.5
292.0	329.5
292.0	348.0
293.0	295.5
294.0	272.5
294.0	281.5
294.5	334.0
294.5	343.0
295.0	246.0
296.0	258.5
295.5	291.0
295.0	307.0
295.5	325.0
296.0	267.5
296.0	316.0
297.0	252.0
297.0	298.5
297.5	338.5
297.5	348.0
298.0	285.5
298.5	311.5
298.5	320.5
298.0	330.0
300.0	280.5
299.5	294.0
299.0	303.0
300.5	246.0
300.0	272.0
300.5	325.0
300.5	334.0
300.0	343.5
301.7	257.3
301.5	289.5
301.0	316.0
302.0	266.5
302.0	299.0
302.0	307.0
303.0	276.0
303.0	329.5
303.0	338.5
303.0	348.5
304.0	251.5
304.0	261.0
304.0	284.5
304.5	294.0
304.0	312.0
304.0	321.0
305.5	271.5
305.7	334.3
305.3	343.7
306.5	280.0
306.5	325.5
307.0	246.5
307.0	256.5
307.5	289.5
307.0	308.5
307.0	316.5
308.0	266.5
308.5	330.5
308.5	339.0
308.0	348.0
309.5	276.0
309.5	304.0
309.5	312.0
309.5	321.5
310.0	251.0
310.0	284.5
311.0	261.5
311.5	271.0
311.0	293.5
311.0	335.0
311.0	343.5
312.5	280.0
312.5	307.5
312.5	317.0
312.0	326.5
313.0	246.0
313.5	256.5
313.5	266.0
313.5	289.0
313.5	299.5
313.5	348.0
314.5	330.0
314.5	339.0
315.0	275.5
315.5	312.5
316.5	251.0
316.5	261.0
316.0	284.0
316.0	294.5
316.0	304.0
317.0	334.0
316.5	344.0
316.7	351.7
317.7	270.3
318.5	279.5
318.0	308.5
318.0	317.5
319.5	256.0
319.7	265.3
320.0	299.0
319.0	328.5
319.5	338.5
319.5	347.5
320.0	246.0
320.0	289.5
321.0	275.0
321.3	284.3
321.0	303.5
321.7	334.3
321.5	343.5
321.3	351.7
322.7	250.7
322.7	260.7
323.7	293.3
322.3	313.7
322.3	324.7
323.4	318.8
324.0	270.0
324.5	279.0
324.0	299.5
324.0	309.0
324.3	330.3
324.5	348.5
325.0	288.0
325.0	339.0
326.0	246.5
326.0	256.0
326.5	265.0
327.5	274.0
327.5	283.0
327.0	344.0
327.0	352.5
328.7	251.0
328.0	296.5
328.0	326.0
328.3	334.3
329.3	260.7
329.5	292.0
329.5	348.5
330.0	269.0
330.5	278.5
330.0	310.0
330.0	339.0
331.0	287.5
332.5	246.0
332.7	264.7
332.8	297.8
332.5	343.5
333.0	255.0
333.0	274.0
333.5	283.0
333.0	305.0
334.5	310.0
335.5	259.5
335.5	292.0
335.5	323.0
336.0	251.0
336.0	269.0
336.5	278.5
336.0	314.0
337.5	263.5
337.0	288.0
337.0	300.5
337.5	305.0
337.5	345.0
338.7	245.7
338.7	273.7
338.0	296.0
338.5	328.5
338.0	336.0
339.0	256.0
339.0	319.5
339.7	349.7
340.0	282.5
340.0	310.0
341.5	292.0
341.5	315.0
341.7	324.3
341.5	333.0
342.0	250.5
342.5	260.5
342.5	266.5
342.5	287.0
342.5	297.5
342.3	301.7
343.0	270.5
343.0	277.5
343.5	337.0
345.0	320.8
344.5	329.0
345.0	246.0
345.0	255.5
346.3	289.3
347.0	264.0
347.5	274.0
347.0	284.0
347.5	294.0
347.5	299.0
348.2	341.6
348.5	251.0
348.0	279.0
348.0	304.0
348.0	309.0
348.7	351.7
349.0	259.5
349.5	269.0
350.0	312.5
350.2	346.4
350.0	320.5
350.0	331.0
351.0	246.0
352.0	255.0
352.5	264.0
352.5	271.5
352.0	287.0
352.0	291.5
352.0	296.5
352.5	301.5
353.0	277.0
353.0	282.0
353.0	307.5
353.5	316.0
353.5	351.0
355.0	250.5
355.5	260.0
355.5	267.5
355.0	320.5
355.5	333.5
356.7	288.7
356.0	293.0
356.3	346.7
357.3	273.7
357.0	283.5
357.3	298.7
357.5	304.0
357.7	308.7
357.0	312.5
357.0	338.0
358.0	245.5
358.0	255.0
358.0	278.0
358.0	328.0
359.0	264.0
359.0	317.0
360.0	323.0
360.0	333.0
360.5	351.0
361.0	250.0
361.5	259.5
361.0	269.0
361.7	286.3
361.3	291.3
361.5	338.0
362.0	296.0
362.5	305.0
362.5	314.0
362.5	345.0
363.0	274.0
363.5	310.0
363.0	329.5
364.0	245.0
364.0	255.0
364.5	278.5
364.0	319.0
365.0	265.0
365.7	283.7
365.3	334.7
366.5	289.0
366.7	349.7
367.0	250.5
367.3	270.7
367.0	293.5
367.0	305.0
369.3	245.3
369.7	321.7
369.0	331.0
370.5	285.0
370.5	335.5
370.3	346.7
371.0	254.5
371.7	266.7
371.5	308.5
372.5	249.0
372.0	291.0
372.5	327.0
372.7	340.3
373.0	272.5
373.5	296.0
373.5	314.0
374.0	259.0
374.0	277.5
374.2	333.8
375.0	282.0
375.3	301.7
375.4	322.6
376.0	245.0
376.0	287.0
376.5	307.0
377.0	251.0
377.5	268.5
377.0	292.5
377.0	329.0
378.5	256.0
378.0	297.0
379.0	274.5
379.5	320.5
380.0	261.0
380.0	279.0
380.3	302.7
380.3	325.7
380.0	334.0
381.0	284.5
381.5	289.5
382.0	246.0
382.3	265.7
382.0	294.0
382.0	347.0
383.0	252.0
383.5	271.0
383.0	330.0
383.3	341.3
384.0	258.0
384.0	299.0
384.5	322.5
385.0	276.0
385.5	281.0
385.5	335.5
386.5	262.5
386.5	327.0
387.0	249.0
387.0	286.5
387.0	295.0
387.0	313.0
387.0	344.5
388.5	254.0
388.0	267.5
388.0	318.5
388.0	349.5
389.3	244.3
389.0	272.5
389.3	323.3
389.7	340.7
390.3	259.3
390.0	278.0
390.5	306.0
391.0	283.0
391.5	288.5
391.0	310.5
391.0	336.5
392.0	264.5
392.7	314.7
393.0	249.5
393.5	269.5
393.5	302.0
393.0	320.0
394.5	255.5
394.5	274.5
394.7	307.3
394.5	324.0
395.5	244.0
395.5	261.0
396.0	280.0
396.0	286.0
396.0	311.0
396.7	317.3
396.0	329.0
396.5	334.0
397.5	266.0
397.5	292.5
398.5	271.0
398.3	303.3
398.5	339.0
399.5	248.5
399.0	258.0
399.0	322.5
399.5	351.5
400.0	276.5
400.0	313.5
401.5	307.5
402.0	243.5
402.5	253.5
402.0	263.0
402.5	318.0
403.0	267.0
403.0	273.0
403.5	301.5
404.5	287.0
404.7	323.3
404.3	342.7
404.5	348.5
405.5	248.5
405.3	258.3
405.0	278.0
407.7	253.7
407.5	269.0
407.0	283.0
407.5	334.0
407.5	339.0
408.5	243.5
408.0	263.5
408.0	319.5
409.5	275.0
409.5	325.0
409.7	349.3
410.5	258.0
411.5	280.0
411.5	316.0
412.0	248.5
412.5	296.0
412.5	307.5
413.0	254.0
413.0	266.5
413.0	271.0
413.3	321.3
413.7	326.3
413.0	331.5
414.0	242.0
414.5	261.0
414.0	290.5
414.5	312.0
416.0	275.5
417.0	281.0
417.5	294.5
417.0	335.0
418.5	246.5
418.0	251.5
418.3	256.3
418.3	270.3
418.0	329.5
419.0	265.0
419.0	299.5
419.0	343.5
420.0	312.0
420.0	349.5
421.0	260.0
421.0	278.0
421.0	334.0
421.0	339.0
422.5	273.5
423.7	250.7
423.0	282.5
423.5	288.0
424.2	324.6
423.5	345.0
424.3	244.3
424.5	269.0
424.0	302.5
425.0	264.0
425.5	314.5
426.0	258.5
426.0	277.5
426.5	310.0
426.0	331.5
426.0	335.5
428.0	254.0
428.5	285.5
428.7	291.3
428.5	296.5
428.5	300.0
428.0	306.0
429.3	248.3
429.7	262.7
429.0	273.0
429.0	344.5
430.0	243.5
430.0	267.5
430.7	280.3
430.0	317.0
431.3	312.7
431.5	335.0
432.7	258.3
432.7	308.3
433.3	252.3
433.0	276.5
433.0	303.5
434.3	245.3
434.5	271.0
434.0	283.0
434.0	288.5
434.0	298.0
434.5	324.0
434.0	342.0
435.0	265.0
435.3	315.3
436.0	329.3
435.5	334.0
437.3	306.8
437.3	337.3
438.3	256.3
438.0	280.0
439.0	251.0
439.3	268.7
439.5	275.0
439.5	285.5
439.0	319.5
440.3	245.3
440.3	263.3
440.5	351.0
441.5	329.0
441.0	333.0
442.0	294.0
442.5	304.3
442.5	309.5
442.7	323.7
442.5	340.5
442.5	346.5
444.0	254.0
444.0	259.5
444.7	277.7
444.5	314.5
444.5	318.5
445.5	242.0
445.5	273.0
445.5	296.0
445.0	352.0
446.0	267.5
446.0	337.5
446.7	343.7
447.0	247.0
447.0	291.5
447.5	306.0
447.3	327.3
448.0	262.5
448.5	287.0
448.5	321.5
449.0	252.0
449.5	257.5
449.3	281.3
449.0	300.5
449.3	311.7
450.5	276.0
450.0	316.5
451.0	242.5
451.5	271.0
451.0	295.0
451.5	337.0
451.3	341.0
452.0	266.0
452.0	309.5
452.5	325.5
453.0	248.0
453.0	260.5
453.3	290.3
453.0	304.5
454.0	254.0
454.0	320.0
454.0	334.0
455.0	285.0
455.0	299.5
455.0	314.5
455.7	329.7
455.0	346.0
456.5	270.0
456.0	274.5
456.0	279.5
456.5	295.0
457.0	244.0
457.0	265.5
457.0	308.0
457.7	336.7
458.0	250.5
458.0	255.0
458.5	260.5
458.0	324.0
459.5	289.5
459.0	303.5
459.5	319.5
460.5	283.0
460.7	313.3
460.0	333.0
461.3	277.7
461.5	327.5
462.5	247.0
462.0	268.5
463.0	252.0
463.0	263.5
463.0	308.0
464.0	258.0
464.5	318.0
464.3	345.7
464.5	350.5
465.0	287.0
465.0	292.0
465.5	303.0
465.0	331.5
466.7	276.3
466.5	282.0
466.0	313.0
466.5	341.0
467.0	271.0
467.5	326.0
468.5	244.0
468.5	249.0
468.0	266.0
469.0	255.0
469.0	260.5
469.7	299.7
469.7	317.3
469.0	336.0
470.0	290.0
470.0	295.5
470.7	330.3
471.0	284.5
471.5	312.5
472.3	273.7
472.5	279.0
472.5	303.5
472.0	341.0
473.0	268.5
473.5	307.5
473.5	325.5
474.0	246.0
474.0	257.5
474.0	263.0
474.5	295.0
474.3	335.7
475.0	252.5
475.0	289.0
475.5	299.5
475.0	316.5
477.2	330.6
477.5	311.0
477.0	339.0
477.8	351.6
478.0	242.5
478.0	271.0
478.0	276.0
478.0	305.0
478.3	321.3
479.5	249.0
479.5	259.0
479.0	265.5
479.7	297.3
479.0	325.5
480.5	254.5
480.0	292.5
480.5	316.0
480.5	335.0
481.7	341.3
482.5	273.5
482.0	287.5
482.5	302.0
483.3	243.7
483.7	277.7
483.0	283.0
483.7	311.3
484.0	263.0
484.0	269.0
484.3	306.3
484.0	322.0
484.5	328.0
484.0	345.0
485.3	250.3
485.0	296.0
485.0	317.5
485.0	333.0
485.5	338.0
486.0	257.0
487.0	291.0
487.0	352.0
488.3	272.8
488.5	280.5
488.0	286.0
488.0	301.5
488.5	309.5
488.5	315.0
489.5	247.5
489.5	267.0
489.0	324.5
489.7	330.7
490.0	243.5
490.0	261.5
490.0	336.5
490.0	342.0
491.0	253.0
491.0	295.0
492.5	300.0
492.0	306.5
493.0	257.5
493.0	276.5
493.0	283.5
493.5	289.0
493.5	312.5
494.5	243.0
494.5	265.0
494.3	270.7
494.0	327.5
494.3	333.7
495.7	248.7
496.2	294.7
496.5	347.0
497.5	254.5
498.0	260.5
497.3	279.7
497.0	303.0
497.5	309.0
498.5	274.0
498.5	285.0
498.0	315.5
498.5	320.5
498.0	324.5
498.7	330.3
498.5	336.0
498.5	352.0
499.0	267.0
500.7	243.7
500.5	289.5
500.5	339.5
500.5	344.5
501.5	296.5
502.0	249.5
503.4	276.8
502.0	301.0
502.5	306.0
502.5	312.0
502.5	348.5
503.0	256.0
503.0	270.5
503.0	283.5
503.0	316.5
503.0	328.0
503.7	333.3
504.5	324.0
504.8	337.6
505.3	260.7
505.7	287.7
505.0	343.0
506.7	245.3
506.5	266.5
507.0	293.5
507.0	297.5
507.0	303.0
507.7	308.7
507.7	319.3
507.5	348.0
508.0	251.5
508.3	271.3
508.0	280.0
508.0	313.5
508.5	325.0
508.5	330.0
509.7	256.7
510.0	335.5
511.0	284.0
512.0	247.0
512.3	261.3
513.0	267.8
512.0	275.5
512.0	290.0
512.5	296.0
512.7	301.3
512.5	345.5
513.0	316.0
513.0	322.0
513.7	327.3
513.0	350.5
514.3	252.7
514.0	332.0
514.3	339.0
515.5	280.0
516.0	243.0
516.0	257.5
516.7	263.7
517.0	286.0
517.7	292.3
518.0	248.0
518.5	298.0
518.5	313.5
518.5	319.0
519.0	324.0
519.0	329.0
519.0	335.0
519.3	340.3
520.0	253.0
520.0	268.0
520.5	274.0
521.5	260.0
522.5	244.0
522.0	283.5
522.7	289.3
523.7	278.7
523.5	295.0
523.0	301.0
523.0	306.0
523.5	316.0
523.5	351.5
524.5	249.0
524.5	265.0
524.0	327.0
524.5	332.0
524.3	337.3
525.0	321.5
526.7	254.7
526.0	270.0
527.5	287.0
528.5	261.0
528.0	281.5
528.3	292.3
528.5	298.0
528.0	303.5
528.5	309.5
528.0	314.5
528.5	349.5
529.0	245.0
529.0	275.0
529.5	318.5
529.5	333.5
530.0	324.0
530.5	340.0
531.0	250.5
532.0	265.5
532.0	269.0
533.0	257.0
533.5	279.0
533.0	284.5
533.5	290.0
533.0	295.5
533.7	300.7
533.0	313.0
534.0	307.0
534.0	330.0
534.0	336.0
534.0	348.0
535.5	246.5
535.3	273.7
535.0	319.0
535.5	342.5
536.0	262.5
536.5	268.0
536.0	325.0
538.0	252.0
538.5	281.5
538.5	287.5
538.0	294.0
538.5	310.0
539.5	299.0
539.0	304.0
539.0	316.0
539.0	331.5
539.5	338.0
539.7	346.7
540.5	258.0
540.5	321.5
541.5	242.5
541.5	271.0
541.0	277.0
542.3	264.3
542.5	342.5
543.0	284.0
543.0	291.0
543.5	312.5
544.0	247.5
544.0	296.0
544.5	302.5
544.0	307.0
544.0	350.5
545.5	253.0
545.5	280.0
546.7	275.7
546.0	345.0
547.0	259.0
547.0	288.0
548.0	243.5
548.0	270.0
548.7	298.3
548.5	316.0
548.0	321.5
548.5	340.0
549.5	283.5
549.5	293.5
549.7	303.7
549.0	309.5
550.0	249.0
550.0	264.5
550.0	334.5
550.3	348.3
551.5	280.0
552.0	254.5
552.0	330.5
552.7	343.3
553.0	274.5
553.7	289.3
553.3	319.7
553.0	325.0
554.8	244.4
554.0	260.0
554.0	313.5
554.0	338.5
554.0	351.5
555.0	268.0
555.0	296.5
555.0	302.0
555.0	308.0
556.5	249.5
556.0	284.0
556.0	334.0
556.5	347.0
557.5	328.5
558.0	263.0
558.5	279.0
558.5	322.5
560.0	257.5
559.5	273.0
559.5	301.0
559.0	316.5
559.0	342.0
560.0	288.0
560.0	306.0
560.5	312.0
560.3	337.3
560.0	352.0
561.0	295.5
562.0	246.0
562.0	267.5
562.0	283.0
562.0	332.0
563.0	251.0
563.5	320.5
563.0	326.5
563.0	346.5
564.3	261.7
564.5	277.5
565.0	254.5
565.7	299.7
565.0	303.5
565.0	309.5
565.0	315.0
565.0	341.0
566.0	287.0
566.0	335.5
566.0	351.0
567.7	247.3
567.0	270.5
568.0	324.0
568.7	330.3
569.5	282.0
569.0	345.5
570.0	259.5
570.5	291.0
570.0	312.0
570.5	318.5
571.5	275.0
571.5	297.0
571.5	339.0
572.0	303.0
572.0	350.0
573.0	244.0
573.0	326.0
574.5	308.5
575.0	288.0
576.7	321.3
577.0	261.5
579.7	246.3
582.0	290.0
583.0	264.0
586.3	327.7
591.5	281.5
591.7	324.3
593.7	242.3
593.7	257.3
593.0	307.0
595.0	268.0
596.5	319.5
599.0	273.0
601.0	346.5
602.0	321.5
603.7	251.3
603.7	279.7
604.0	327.0
605.5	333.0
606.0	272.5
606.5	310.5
606.0	352.5
607.3	317.3
608.5	323.0
608.0	345.0
609.5	281.0
610.5	299.5
610.5	329.0
611.5	268.5
611.5	275.5
612.0	287.0
612.7	312.7
612.5	340.0
614.5	319.0
614.5	333.5
615.3	345.3
616.3	280.3
616.7	298.3
617.5	244.0
617.0	250.5
617.5	273.0
619.0	329.0
619.0	338.5
620.5	322.0
622.0	294.0
622.0	345.0
623.0	301.5
624.5	271.0
624.0	351.5
78.5	447.5
79.5	388.0
79.5	395.0
80.0	419.5
80.7	435.7
81.5	401.5
82.3	426.8
82.0	357.0
82.5	364.0
83.0	408.0
83.5	370.5
84.0	377.5
85.0	415.0
84.5	440.0
85.3	383.7
85.0	452.0
85.5	459.5
86.5	391.0
87.5	446.0
88.3	397.3
88.0	422.0
89.0	359.0
89.0	366.0
89.0	404.0
89.5	429.0
90.5	373.0
90.5	410.5
90.3	435.3
91.5	380.0
91.5	456.0
92.5	387.0
93.0	417.5
92.5	442.0
94.0	450.0
94.0	462.0
95.5	355.5
95.5	393.5
95.5	400.0
95.0	424.5
96.3	362.3
96.5	369.0
96.0	431.0
97.5	375.0
97.5	412.5
97.0	437.5
98.0	382.0
98.5	456.0
99.7	406.3
100.7	419.7
100.0	443.5
100.8	462.4
101.0	389.0
102.7	364.7
102.7	425.7
102.0	450.5
103.5	371.0
103.0	431.0
103.5	437.5
104.5	378.0
105.5	384.5
106.5	446.0
106.3	456.3
107.5	415.0
108.0	391.0
108.5	421.5
109.0	367.0
109.0	428.0
109.5	440.5
110.0	360.0
110.0	373.5
110.7	461.7
111.0	451.5
112.0	380.0
112.0	434.0
113.0	386.5
113.5	409.0
114.7	416.7
114.5	446.0
114.5	457.5
115.0	393.0
115.3	423.3
116.5	357.0
116.5	375.0
117.0	363.5
117.0	440.0
119.0	451.5
118.5	462.0
120.5	387.5
120.5	406.0
120.5	433.0
121.0	413.5
122.0	353.0
122.0	394.0
122.0	426.5
122.0	445.0
123.0	359.0
123.0	456.5
125.0	399.5
125.0	438.5
126.0	450.5
127.0	411.0
127.0	462.0
128.0	423.5
129.0	356.5
129.5	363.0
129.5	444.0
130.3	378.3
130.3	394.7
130.3	455.3
132.0	437.5
133.0	384.0
133.5	401.0
133.7	408.3
133.0	414.5
133.0	420.5
134.3	426.3
134.0	449.5
135.5	353.5
135.5	360.0
135.3	389.3
135.0	432.0
136.5	366.0
137.5	372.0
137.5	395.0
138.0	456.0
139.7	417.7
139.0	437.0
139.0	443.5
140.0	405.0
140.3	411.7
140.5	423.5
140.0	449.5
141.0	399.5
141.0	429.5
141.3	462.3
142.7	363.3
142.5	391.5
143.0	357.0
144.5	369.5
145.0	433.5
145.5	452.0
145.5	457.5
146.0	374.5
146.5	381.0
146.3	395.7
146.0	409.0
146.3	438.3
146.0	446.0
147.5	353.5
147.0	385.5
147.0	402.5
147.0	414.5
147.0	420.5
147.0	427.0
149.0	360.0
150.0	365.5
150.5	390.0
151.9	430.7
150.3	462.3
151.0	372.0
152.3	377.7
152.5	398.5
152.5	437.0
152.5	443.0
152.5	449.0
152.5	456.0
153.5	411.0
153.0	417.5
153.0	424.0
154.5	356.0
154.3	404.3
155.5	362.5
155.7	394.7
156.3	368.3
157.3	388.7
158.0	375.0
158.3	440.3
158.0	453.5
158.5	461.0
159.5	382.0
159.5	401.0
159.5	414.5
159.0	421.5
159.5	428.0
159.5	434.0
159.0	446.5
160.0	408.0
161.5	359.0
162.7	370.7
162.5	388.0
162.0	394.5
163.0	364.5
164.5	377.0
164.5	456.0
165.0	436.5
165.0	443.5
165.5	449.5
165.0	461.5
166.0	383.0
166.5	405.5
166.0	411.5
166.5	418.0
166.0	424.5
166.3	430.7
167.5	355.5
167.0	399.5
168.5	393.0
169.0	361.5
169.5	368.0
169.0	373.5
170.0	387.0
171.0	379.5
171.0	440.5
171.5	459.0
172.5	403.0
172.5	409.0
172.5	415.0
172.5	422.0
172.0	428.0
172.0	434.0
172.0	446.5
172.0	452.5
174.5	358.0
174.0	397.5
175.3	364.3
175.7	369.3
175.7	375.3
175.7	389.7
176.5	383.0
177.5	456.0
177.5	462.0
178.5	406.5
178.7	412.3
178.0	419.0
178.5	425.0
178.5	431.0
178.0	436.5
178.0	443.0
178.0	449.5
180.0	354.0
180.5	360.5
180.7	394.7
180.0	400.0
181.0	372.0
181.7	377.7
181.5	387.5
182.0	366.5
185.0	416.0
184.0	422.0
184.5	428.0
184.5	434.0
184.0	439.5
184.0	446.0
184.0	452.0
184.0	458.5
185.0	383.0
185.0	392.0
185.0	409.5
186.0	356.5
186.5	397.5
186.0	403.5
187.5	363.0
187.0	373.0
188.5	378.0
188.7	388.7
189.0	368.0
189.5	450.0
190.3	424.7
190.0	431.0
190.5	437.0
191.0	443.8
190.3	455.7
190.0	461.5
191.5	353.0
191.3	382.7
191.3	412.7
191.0	419.0
192.0	359.0
192.5	394.0
192.0	400.5
192.0	406.5
193.8	373.8
195.5	458.0
196.0	380.5
196.5	386.0
196.5	422.0
196.5	433.5
196.3	437.7
197.0	447.0
196.5	453.0
197.5	415.5
197.0	428.0
198.0	355.0
198.5	398.5
198.0	404.5
198.0	410.0
199.7	360.3
199.5	392.5
200.0	376.5
202.0	382.5
202.5	388.0
202.5	425.0
202.5	431.0
202.7	436.3
202.5	443.0
202.0	455.0
203.0	460.5
203.7	407.3
203.0	419.5
203.5	449.5
204.0	356.0
204.0	401.5
204.0	414.0
205.0	363.0
205.5	368.0
205.5	395.0
206.0	374.5
207.0	379.5
208.5	353.0
208.5	385.0
208.5	390.0
208.5	422.0
208.5	428.0
208.5	434.0
208.5	440.0
209.3	358.3
209.0	410.5
209.0	446.0
209.0	452.5
209.0	458.0
210.5	364.5
210.3	399.3
210.0	405.0
210.0	416.0
210.7	463.7
211.0	394.0
212.0	370.0
212.0	375.5
213.5	381.0
214.7	419.3
214.0	425.0
214.7	437.3
214.5	443.0
215.0	356.0
215.3	386.3
215.7	402.7
215.5	409.0
215.0	431.0
215.7	448.7
215.5	455.0
215.7	460.7
216.0	361.5
216.5	367.0
216.7	392.3
216.7	397.3
216.0	413.5
218.0	372.5
219.0	378.0
219.5	383.5
220.5	417.0
221.0	422.3
220.5	428.0
220.5	434.0
221.5	358.0
221.0	389.0
221.7	411.3
221.0	440.0
221.0	446.0
221.0	451.5
221.0	457.5
222.0	364.0
222.0	400.5
222.3	405.3
222.0	463.5
223.0	369.5
223.0	394.0
224.5	374.5
224.5	380.0
225.0	385.5
226.5	354.5
226.0	425.5
226.3	431.7
226.5	438.0
226.0	444.5
227.0	360.5
227.5	409.0
227.5	414.0
227.0	419.0
227.3	448.7
227.5	454.0
227.5	459.5
228.0	366.0
228.0	391.5
228.0	397.5
228.0	403.0
229.0	370.5
230.0	376.0
230.0	381.5
231.0	387.0
232.0	422.5
232.0	428.5
232.3	434.7
232.5	440.5
232.5	445.5
232.3	451.3
233.0	357.5
233.5	363.0
233.0	406.5
233.0	411.5
233.0	417.0
233.7	457.3
233.0	462.5
234.0	368.0
234.0	395.0
234.0	401.0
235.0	373.0
235.5	390.0
237.0	354.0
236.0	379.0
236.0	384.0
237.0	431.0
237.5	448.0
238.5	360.0
238.5	409.5
238.7	414.7
238.0	420.5
238.0	426.0
238.0	438.0
238.5	453.5
239.7	404.7
239.5	443.5
239.0	459.5
240.0	365.0
240.7	370.3
240.0	375.5
240.5	393.0
240.0	398.5
241.0	381.0
241.0	387.0
243.5	356.5
243.5	418.0
243.3	423.3
243.0	429.0
243.5	434.0
244.0	412.0
244.5	439.0
244.0	450.5
244.5	456.5
245.0	362.0
245.3	395.7
245.0	401.0
245.0	407.0
245.5	445.5
245.0	462.0
246.0	367.5
246.0	373.5
246.5	379.0
246.7	384.3
246.0	390.0
248.7	354.3
248.5	420.5
248.0	426.5
248.0	431.0
249.0	415.0
249.5	458.5
250.0	360.0
250.5	393.0
250.0	404.0
250.0	410.0
250.0	436.0
250.0	441.5
251.0	447.3
250.0	453.0
251.5	364.5
251.0	370.0
251.5	376.0
251.5	387.0
251.0	399.0
252.0	381.0
253.0	424.0
253.0	431.0
254.5	356.5
254.5	418.0
255.3	407.3
255.0	413.0
255.5	438.0
255.0	458.5
256.0	367.5
256.0	390.0
256.0	396.0
256.0	403.0
256.0	444.0
256.0	451.0
257.0	362.5
257.5	373.0
257.0	378.5
257.5	428.0
257.5	433.0
258.0	384.0
259.0	422.0
260.0	357.0
260.0	400.0
260.0	410.0
260.5	416.0
261.0	389.0
261.0	393.5
261.7	405.7
261.5	442.0
261.0	447.5
261.0	453.0
261.0	459.0
262.5	365.5
262.0	369.5
262.5	431.0
262.0	436.5
263.7	361.7
263.0	375.5
263.0	380.0
263.5	426.5
264.3	385.3
265.0	357.5
265.0	396.5
265.0	412.0
265.0	421.0
266.0	402.0
266.7	438.7
266.0	444.5
266.5	450.0
267.0	455.3
267.0	370.5
267.0	391.0
267.0	407.5
267.0	416.5
267.0	433.0
268.0	365.0
268.5	381.0
268.0	426.5
268.0	460.5
269.0	376.0
270.5	359.0
270.0	386.0
270.7	411.7
270.5	421.5
271.0	403.0
271.3	442.3
272.6	371.0
272.0	437.0
272.0	447.0
272.0	452.5
272.5	458.0
273.0	364.0
273.3	390.3
273.7	407.3
273.3	416.3
273.0	430.5
273.5	463.5
274.7	354.3
274.0	379.5
275.7	359.7
275.0	384.5
275.0	398.0
275.0	425.0
276.5	402.5
276.3	411.7
277.5	375.0
277.3	420.3
277.0	434.5
277.0	440.0
277.0	444.0
277.5	449.5
277.5	455.0
278.3	364.7
278.5	370.0
278.0	393.0
278.5	460.0
279.7	355.3
279.0	380.0
279.7	387.7
279.0	428.5
280.0	398.5
280.0	407.5
280.0	416.0
281.5	360.0
281.7	423.7
282.5	372.5
282.5	393.0
282.7	402.7
282.5	437.5
283.0	447.5
283.8	377.8
283.0	432.5
283.3	442.3
283.3	452.7
283.5	457.0
284.3	364.3
284.5	412.5
284.0	419.0
284.5	462.0
285.5	357.0
285.3	368.7
285.0	383.0
285.5	397.0
285.5	407.0
285.0	428.0
286.0	388.5
287.7	392.3
287.5	435.0
288.0	361.0
288.0	375.0
288.5	401.5
288.0	439.5
288.5	445.0
288.5	450.5
289.0	353.0
289.0	380.0
289.0	416.5
289.7	425.3
289.0	431.0
289.0	457.0
290.0	365.0
290.5	385.0
290.3	411.3
290.5	463.5
291.7	370.7
291.7	395.7
291.5	406.0
292.0	358.0
292.0	390.0
293.0	377.0
293.0	435.0
293.0	441.0
293.7	452.3
294.0	400.5
294.0	429.0
294.0	447.0
295.0	353.0
295.0	362.0
295.0	382.0
295.0	415.0
295.0	424.0
295.0	457.0
295.7	462.3
296.0	367.5
296.5	387.0
296.0	409.5
297.0	373.0
297.0	392.0
297.0	404.0
298.0	357.5
298.5	397.0
298.3	432.3
298.0	438.0
298.5	443.5
298.7	448.7
299.3	421.7
299.5	427.0
299.5	454.0
300.5	353.0
300.5	362.0
300.5	383.5
300.0	412.5
300.0	416.5
300.5	459.0
301.0	369.0
301.0	401.5
302.3	388.7
302.5	392.5
302.0	408.0
303.0	375.0
303.0	435.0
303.0	441.0
303.0	446.0
304.0	357.0
304.7	420.7
304.0	430.0
304.0	451.0
305.3	384.3
305.0	398.0
305.0	414.0
305.7	425.7
305.0	456.0
306.3	352.7
306.0	370.5
306.5	404.5
306.3	461.7
307.3	361.7
307.3	389.7
308.3	375.3
308.0	437.5
308.0	442.5
308.3	447.7
309.5	400.0
309.5	418.5
309.5	453.0
310.7	352.7
310.0	357.5
310.5	424.0
310.0	429.0
310.5	458.0
311.0	372.0
311.0	385.5
313.4	406.4
312.5	434.0
312.0	463.5
313.0	391.0
313.0	439.5
314.0	356.5
314.3	380.7
314.5	400.5
314.0	449.5
315.0	416.0
315.0	421.5
315.3	426.3
315.0	455.0
316.7	372.7
316.5	385.0
316.0	430.5
316.3	459.7
317.7	435.7
318.5	378.0
318.5	390.0
319.5	356.0
319.0	397.0
319.5	403.0
319.3	408.3
319.5	413.5
319.0	450.5
320.5	382.0
320.0	419.0
320.0	424.0
320.5	455.5
321.5	361.0
321.0	369.0
321.3	428.3
322.7	386.3
322.5	438.0
322.0	461.5
323.0	374.0
323.0	392.0
323.7	396.3
323.5	416.0
323.5	446.5
324.3	356.7
324.5	379.0
324.0	400.5
324.0	405.5
324.5	451.5
325.0	421.0
326.7	361.3
327.0	426.0
326.0	457.0
327.0	383.5
327.0	431.0
327.0	441.5
327.5	462.0
328.5	374.5
328.3	378.3
328.3	388.3
328.0	394.0
328.5	399.0
328.5	404.0
328.5	409.0
328.0	436.0
329.0	414.5
329.0	448.0
330.0	356.5
330.0	453.0
331.0	426.5
332.7	381.7
332.7	386.7
332.5	391.5
332.8	396.4
332.0	431.5
332.7	457.7
333.0	353.0
333.5	401.5
333.0	407.0
333.0	412.0
333.7	462.3
334.0	418.0
334.0	437.0
335.5	362.0
335.0	423.5
335.5	449.0
335.5	453.5
337.7	384.7
337.0	395.0
337.5	409.0
337.0	428.5
339.0	359.5
338.0	375.5
338.0	381.0
338.0	390.0
338.0	399.5
338.5	404.5
338.5	414.0
338.0	432.5
338.7	458.3
339.0	370.5
339.5	419.5
339.5	438.0
339.0	463.5
340.3	452.3
341.0	424.5
342.7	353.7
343.0	363.0
342.5	388.0
342.0	394.0
342.3	400.3
342.5	410.0
343.0	429.5
342.5	449.0
343.0	373.5
343.0	457.0
343.7	462.7
344.5	358.5
344.0	415.5
344.0	434.0
344.7	439.3
345.5	420.5
346.0	426.0
346.0	453.0
347.5	377.0
347.0	385.0
347.0	390.0
347.5	396.0
348.0	371.5
348.0	401.0
348.0	412.5
348.3	448.7
349.0	356.0
349.0	361.5
349.0	418.0
349.5	436.0
349.0	458.0
350.5	423.0
350.0	441.0
351.0	405.0
351.4	427.8
352.5	369.5
352.0	379.0
352.5	410.0
352.3	446.7
352.0	453.0
352.3	365.3
353.5	399.0
353.0	415.0
353.5	432.0
354.3	355.3
355.0	435.7
354.0	440.5
354.0	462.0
355.0	425.5
355.7	457.7
356.0	382.0
356.3	406.3
357.0	362.0
357.5	368.0
357.0	452.5
358.0	411.5
358.7	416.3
358.0	430.5
359.0	421.5
359.7	439.3
360.5	357.0
360.3	381.3
360.0	460.5
361.0	390.5
362.0	402.0
361.0	426.5
361.0	449.5
361.3	456.3
362.7	365.3
362.0	396.0
362.0	407.5
363.5	412.5
363.5	419.0
364.7	440.3
365.5	398.5
365.3	424.7
365.5	453.5
366.0	383.0
366.0	394.0
366.5	448.0
367.0	368.5
367.0	415.5
368.5	363.0
368.0	437.0
370.0	379.3
369.5	420.5
369.0	443.0
370.7	451.7
370.5	457.5
370.5	462.5
371.7	366.7
371.0	399.5
371.5	409.5
371.5	414.0
372.5	404.5
372.0	434.0
373.7	359.7
373.3	439.7
374.0	375.5
374.3	417.3
374.5	421.5
374.0	427.0
376.0	355.0
375.0	392.5
375.0	444.0
375.0	454.0
375.5	460.0
376.5	398.0
376.7	408.7
376.0	413.0
376.0	431.0
377.3	368.3
377.0	436.0
378.0	363.0
378.5	418.0
379.0	373.5
379.3	378.3
379.0	403.5
379.0	424.0
381.3	398.8
380.5	428.5
380.7	439.7
380.0	446.5
380.5	451.5
380.0	456.5
380.5	462.0
381.0	394.0
381.0	434.0
382.5	421.0
384.7	353.3
384.0	376.0
384.0	389.0
384.5	402.5
384.5	416.0
384.0	426.0
384.0	444.0
385.7	431.7
385.5	448.5
385.0	453.0
385.5	458.0
386.0	436.5
386.0	463.5
387.0	392.0
387.0	440.5
388.5	371.5
388.0	386.0
388.0	406.5
388.3	411.7
388.5	424.5
389.5	381.0
390.3	449.7
390.3	453.7
391.0	364.5
391.5	417.0
391.5	437.0
391.0	444.0
391.0	459.0
392.5	390.0
393.5	385.0
393.5	403.0
393.7	425.7
394.7	360.3
394.5	447.0
395.0	451.5
395.5	456.0
396.0	420.5
396.0	440.5
396.0	461.0
397.7	405.3
397.0	416.0
398.0	390.0
398.0	397.0
399.0	447.5
400.5	402.5
400.5	453.0
400.5	458.0
401.0	361.0
401.0	367.0
401.7	412.3
401.5	422.5
402.5	371.5
402.0	384.0
402.0	393.5
402.0	418.0
404.2	406.6
403.7	429.3
404.0	445.5
404.0	450.5
405.5	401.0
405.5	426.0
405.5	441.5
405.5	455.5
406.5	354.0
408.0	359.3
406.3	364.3
406.7	386.7
406.3	420.7
406.3	433.3
406.0	460.5
407.3	410.3
408.3	369.0
408.5	396.5
409.0	438.0
409.0	447.0
409.5	452.5
410.3	458.3
410.7	462.3
411.0	364.0
411.7	374.3
411.0	389.0
411.5	393.0
411.5	419.5
411.0	424.5
412.5	443.0
413.0	354.5
413.7	408.3
415.3	430.0
414.0	449.5
414.5	455.0
415.0	397.0
415.5	403.5
415.0	421.5
415.5	460.0
416.0	363.5
416.0	415.5
417.0	374.0
418.5	355.0
418.5	369.0
418.5	379.5
418.5	419.5
418.0	441.0
418.5	447.0
419.0	385.0
419.0	424.0
419.7	429.3
419.0	452.0
420.0	360.0
420.0	395.0
420.0	406.5
420.5	413.5
420.0	457.0
421.5	462.5
422.5	418.0
422.0	434.0
423.0	371.5
423.3	376.7
423.5	390.5
423.0	439.5
423.7	444.7
423.7	449.3
424.5	408.5
424.5	422.0
424.0	427.0
424.7	454.3
425.0	397.0
425.0	403.0
425.5	458.5
426.0	414.0
426.0	463.5
427.5	432.5
428.0	372.5
428.0	437.5
429.0	377.0
429.0	399.0
429.0	419.0
429.5	425.0
429.3	456.3
430.8	362.0
430.0	461.5
431.0	404.0
432.5	430.0
432.7	439.3
434.0	391.5
433.5	421.0
433.0	434.5
433.0	452.5
434.3	457.3
435.0	400.5
435.0	425.5
436.5	353.5
436.7	395.7
436.5	404.5
436.5	416.5
436.0	462.5
437.5	378.0
437.7	433.7
438.0	408.0
438.7	421.3
438.0	429.0
438.0	449.0
440.7	391.3
440.7	459.3
441.4	415.2
442.0	425.5
442.5	437.5
443.5	396.0
443.0	408.0
443.5	420.0
443.0	431.5
444.5	450.0
445.0	391.0
445.0	400.5
445.5	413.0
446.5	365.0
446.5	374.5
446.5	443.0
446.5	459.0
447.0	358.0
448.5	409.0
449.0	448.0
449.3	453.7
450.7	403.3
452.0	398.0
452.7	442.3
453.5	355.0
453.5	360.0
453.0	432.5
455.0	385.0
454.5	408.0
454.0	447.0
454.5	451.0
455.7	402.3
456.0	426.0
456.0	438.0
457.0	367.5
457.0	380.0
457.5	388.0
457.0	397.0
457.5	420.0
458.0	432.5
459.0	353.5
459.0	374.0
459.5	446.5
460.5	384.5
460.0	392.5
460.5	401.0
460.5	441.0
461.5	365.5
461.0	424.0
462.5	370.5
463.0	405.0
465.2	376.8
465.7	362.3
465.5	382.5
465.0	410.0
465.0	428.0
465.0	457.5
466.7	401.3
466.0	439.0
468.0	366.5
468.0	372.5
468.3	389.3
468.5	397.0
468.7	431.7
469.7	385.3
469.5	406.5
471.3	426.3
470.0	452.0
470.5	457.5
471.0	362.0
471.0	375.5
471.5	380.0
471.5	392.5
471.7	401.3
471.0	421.0
472.0	355.5
472.3	416.3
473.5	371.0
473.7	411.3
473.5	462.0
474.3	388.7
474.5	397.0
475.0	366.0
475.0	406.0
475.5	439.0
475.4	444.8
475.5	449.5
475.5	456.5
476.0	360.0
476.5	378.0
476.0	383.5
476.0	420.5
477.0	392.5
477.5	400.5
478.0	415.5
479.3	387.3
479.0	410.0
479.0	431.5
479.0	436.5
479.5	453.0
479.0	462.0
480.5	423.5
481.0	377.5
481.0	382.5
481.7	403.7
481.0	419.0
481.0	447.5
482.7	372.7
482.0	393.0
482.0	457.5
483.0	414.0
483.5	428.0
484.5	461.5
485.7	358.3
485.0	408.5
485.0	422.0
485.0	443.5
485.0	450.0
485.3	454.7
486.5	376.0
486.7	417.7
487.3	371.3
487.0	403.5
488.3	366.3
488.0	393.0
488.5	413.0
488.5	426.5
488.7	458.3
489.5	441.0
490.7	378.7
490.7	408.3
490.7	421.7
490.0	435.5
490.3	447.3
491.0	453.0
492.5	402.5
492.0	416.5
492.5	463.0
493.3	354.7
493.5	365.0
493.3	390.7
494.0	412.0
494.0	426.0
494.3	438.7
494.5	457.5
495.5	407.0
495.5	444.0
496.0	449.0
497.5	390.5
497.3	421.7
498.0	368.0
499.7	373.7
498.0	416.0
498.5	429.5
498.7	435.3
498.7	461.3
499.0	357.0
499.0	362.5
501.2	409.0
500.0	381.0
500.0	385.0
500.5	399.0
500.0	441.0
500.7	445.7
500.0	456.0
501.5	394.5
501.3	451.3
502.5	370.5
502.5	420.0
503.5	360.5
503.0	366.0
503.0	389.5
503.5	414.0
504.0	354.0
504.7	383.7
504.3	402.3
504.0	461.5
505.3	378.3
505.0	448.5
506.0	373.5
506.0	397.0
506.7	455.3
507.5	363.0
507.3	368.3
507.0	392.0
507.0	406.5
507.5	411.0
507.0	439.5
508.0	353.0
508.0	358.0
508.3	416.3
508.3	422.7
508.7	428.7
509.0	387.0
510.5	377.0
510.0	382.0
510.0	401.5
510.0	444.5
511.0	450.5
510.3	460.7
511.0	396.0
512.3	360.3
512.5	366.0
512.0	372.0
512.5	391.0
512.0	410.5
512.0	414.0
512.0	420.0
513.0	426.0
513.0	435.0
514.5	385.5
514.0	405.5
514.0	440.0
515.7	445.7
516.0	376.0
516.5	395.0
517.5	364.5
517.0	418.0
518.0	389.0
518.0	412.0
518.0	423.0
518.7	427.7
518.7	433.7
519.7	382.7
520.0	378.5
520.0	400.0
521.7	367.3
522.3	357.3
522.0	361.5
522.0	393.0
522.0	446.5
522.0	461.0
523.5	387.5
523.8	404.0
523.0	416.5
523.5	421.0
523.5	436.5
524.0	424.5
524.0	430.5
524.7	456.7
525.5	398.0
525.5	441.0
526.0	365.0
526.0	370.5
527.0	360.0
528.5	354.5
528.0	415.5
528.7	426.7
529.0	405.5
529.5	421.5
530.0	373.5
531.0	379.0
531.0	383.5
531.0	394.0
533.0	358.0
533.0	409.0
533.7	414.3
534.0	353.0
534.6	436.2
535.0	371.0
535.5	376.5
535.5	387.0
536.3	382.3
536.0	393.0
536.3	453.0
536.7	456.7
537.7	361.7
537.7	461.7
538.0	356.5
538.5	401.0
538.0	406.0
538.3	421.7
538.7	432.3
538.5	443.0
539.0	411.0
539.7	449.3
540.0	368.0
540.3	373.7
541.0	379.3
540.5	390.0
540.5	396.0
540.0	416.0
540.5	427.0
540.0	437.5
541.0	384.0
542.5	452.5
543.3	360.3
543.0	458.5
544.0	365.0
544.0	401.5
544.3	408.7
544.0	420.0
544.5	434.5
544.0	440.5
544.0	446.0
545.3	381.7
545.5	387.5
545.5	393.5
545.0	414.5
545.0	424.0
545.5	429.5
546.0	375.0
548.5	353.5
548.0	369.0
548.7	398.3
548.7	449.7
548.3	455.7
548.0	462.5
549.0	363.5
549.5	391.0
549.0	405.5
549.5	411.0
549.0	443.0
550.5	378.0
550.3	384.7
550.0	416.5
550.5	421.5
550.3	426.3
550.5	432.5
550.0	437.5
551.5	373.0
553.5	366.5
553.3	396.7
553.0	402.0
554.5	362.5
554.5	407.0
554.3	412.0
554.0	447.0
554.0	453.0
554.0	459.0
555.3	381.3
555.0	390.5
555.0	440.5
556.5	370.5
556.5	376.0
556.0	386.0
556.0	417.5
556.5	423.5
556.0	429.5
556.5	435.0
557.7	400.3
558.0	357.5
559.0	395.5
559.0	404.5
559.5	410.5
559.0	444.5
559.7	449.3
559.6	461.6
560.0	437.0
560.0	455.5
561.5	379.0
561.3	384.7
561.5	390.5
561.5	415.5
561.0	426.5
561.7	431.7
562.0	372.5
562.5	420.5
563.7	356.7
563.5	363.0
563.5	400.0
564.7	434.7
564.8	440.6
565.7	405.7
565.3	412.3
565.5	447.0
565.7	456.7
565.0	463.0
566.7	376.3
566.5	388.0
566.5	427.5
566.5	452.5
567.0	382.0
567.5	423.5
568.5	360.5
569.0	417.5
570.0	355.5
570.3	390.7
570.0	401.5
570.0	411.5
570.5	431.5
571.5	385.0
571.0	438.0
571.5	445.0
571.0	460.0
572.5	369.0
572.0	374.0
572.0	379.5
572.0	406.0
572.5	450.0
572.3	454.7
573.0	363.5
573.4	421.8
573.0	426.5
574.8	400.8
583.7	408.3
583.0	463.0
585.0	402.0
586.0	416.5
589.5	361.5
592.5	456.5
593.5	423.5
594.0	358.0
594.0	383.0
597.0	364.5
598.5	378.5
599.0	353.0
601.5	359.0
602.0	372.5
604.0	364.0
605.0	460.0
608.0	358.5
608.5	375.0
608.0	444.5
610.0	450.0
611.0	365.5
611.0	380.5
612.5	408.5
613.5	372.5
613.5	387.0
615.3	360.7
616.0	397.5
617.7	413.3
618.0	366.5
620.0	356.0
621.5	377.0
621.0	401.5
622.7	361.3
622.0	418.0
622.0	448.0
623.5	395.0
623.0	460.5
624.3	366.3
624.0	411.5
78.5	519.0
78.5	536.5
79.0	491.5
79.5	556.5
80.5	479.0
80.5	512.5
81.3	530.7
82.0	550.5
82.5	569.5
83.5	468.0
83.5	499.0
84.0	486.0
84.0	524.5
84.0	542.0
84.0	562.5
86.0	475.0
86.0	516.5
87.5	493.0
87.0	536.0
87.5	555.0
89.5	480.5
89.5	510.0
89.5	529.0
89.0	548.0
89.5	569.0
90.5	468.0
91.3	522.3
92.5	540.5
93.5	474.5
93.0	486.5
93.0	503.5
94.5	515.5
96.0	493.0
97.5	480.5
97.7	508.7
97.7	528.7
97.0	553.5
98.0	469.0
99.0	567.5
100.5	522.0
101.0	487.0
101.0	500.0
102.5	473.5
102.5	514.0
102.0	540.0
102.7	558.7
103.3	533.3
105.7	493.3
105.0	551.0
106.0	467.0
106.0	481.0
106.0	506.5
106.3	526.3
107.7	544.7
108.0	564.5
109.5	487.5
109.5	500.0
109.0	519.0
109.7	538.3
110.0	474.5
110.5	512.0
110.0	557.5
111.0	532.5
112.7	550.3
113.3	505.7
114.3	468.7
114.0	480.5
114.5	493.0
114.0	525.0
115.7	543.3
117.0	517.5
118.0	536.5
118.5	486.0
119.3	574.7
120.0	530.5
122.0	479.5
122.5	522.5
122.5	567.5
123.0	491.5
126.7	473.3
127.0	484.0
127.0	504.0
128.0	497.0
129.5	566.0
131.0	467.5
131.7	477.7
131.0	490.0
132.7	560.3
133.0	502.5
133.0	509.0
133.5	539.0
134.5	473.5
135.7	483.7
135.5	496.0
135.0	553.0
136.0	532.5
136.5	571.0
137.7	525.3
137.5	546.5
138.3	468.3
139.5	478.0
139.5	489.0
139.5	519.0
139.5	558.0
139.0	565.0
140.0	501.0
141.0	506.5
142.0	513.0
141.5	539.5
142.5	494.0
143.3	532.3
143.3	551.3
144.0	473.0
145.0	484.5
144.0	570.5
145.0	524.5
146.7	467.3
146.5	557.5
148.0	478.7
147.5	517.5
147.7	543.7
148.5	497.0
148.0	504.0
148.0	510.5
148.5	535.5
148.3	564.7
149.0	490.5
151.3	473.7
151.3	551.3
152.5	521.0
152.0	528.5
152.5	571.0
153.7	485.3
153.7	507.7
154.5	468.0
154.5	492.0
154.0	500.0
154.0	514.0
154.7	539.3
155.3	558.3
156.7	565.4
156.0	479.0
157.7	520.3
157.0	546.0
158.5	473.0
158.0	503.5
159.7	496.3
159.5	509.5
159.5	552.0
160.7	483.7
162.0	490.2
160.5	517.0
160.0	524.5
160.5	531.5
160.5	572.0
161.5	467.0
163.0	539.7
162.3	558.3
163.5	478.0
165.0	512.5
165.5	520.0
165.0	546.0
165.3	565.7
166.0	472.0
166.5	498.0
166.0	505.0
167.5	485.0
167.0	527.0
167.5	534.0
167.0	552.5
168.3	572.3
170.0	477.5
170.3	540.7
170.0	560.0
171.0	465.5
171.5	493.5
173.5	509.3
171.5	516.0
172.7	470.7
172.5	524.0
172.5	546.0
173.0	502.0
173.5	530.0
173.5	537.0
174.0	487.0
174.5	554.0
174.0	567.5
175.5	481.0
175.0	574.0
177.0	475.0
178.0	468.0
178.0	491.5
178.0	498.0
178.0	542.0
178.0	561.5
179.5	504.5
179.0	518.0
179.7	525.7
180.5	485.0
180.3	532.3
180.0	548.5
181.7	479.7
182.7	472.3
182.0	512.0
182.7	538.3
182.0	566.5
182.0	573.5
183.0	465.0
183.7	555.7
185.5	489.5
185.5	498.5
185.7	527.3
185.7	543.7
186.0	477.5
186.5	507.0
186.0	518.5
186.5	562.0
187.5	483.0
188.0	533.0
188.7	550.3
188.7	569.7
189.3	466.7
189.5	513.0
190.5	473.0
191.0	494.0
191.7	501.7
191.0	523.0
191.5	539.0
191.7	556.7
193.3	480.7
193.7	488.3
193.3	528.7
193.0	545.5
193.7	563.7
195.0	507.8
194.5	518.0
195.0	465.0
196.7	471.3
196.0	534.5
196.3	551.3
197.5	477.5
197.5	495.5
197.7	569.3
199.0	484.5
198.0	513.0
198.0	524.5
198.5	541.0
198.7	557.7
200.0	502.0
201.0	467.0
201.0	530.0
201.0	546.5
202.5	518.5
202.0	564.0
203.0	474.0
203.0	508.0
203.5	536.0
204.5	479.0
204.5	497.0
204.5	552.0
205.0	465.5
205.0	525.0
205.5	570.5
206.0	485.5
206.0	513.5
206.5	541.5
207.3	501.7
207.5	558.0
208.7	491.7
208.5	531.0
209.0	475.0
210.0	519.5
210.0	547.5
210.5	564.5
211.0	481.5
211.0	508.5
211.5	537.0
212.5	554.0
213.0	497.0
213.0	525.5
214.0	486.5
214.0	514.0
214.5	559.0
214.0	570.5
215.0	477.0
215.5	503.0
215.0	542.5
216.0	466.5
216.0	472.0
216.5	531.0
217.5	492.0
217.0	520.0
217.5	549.0
219.0	481.5
219.0	509.0
219.5	537.0
219.0	563.5
220.5	498.0
220.5	526.0
220.5	555.5
221.0	487.0
221.5	515.0
222.0	469.5
222.5	476.0
222.5	543.0
222.5	571.0
223.0	503.5
224.0	520.0
224.5	531.0
224.5	560.0
225.0	482.0
225.0	492.5
225.3	549.3
226.3	509.7
226.0	566.0
227.0	537.5
228.0	466.0
228.0	472.0
228.0	497.5
228.5	525.5
229.0	478.0
229.0	487.0
229.0	516.0
229.5	543.0
229.0	555.5
230.7	504.3
230.5	571.5
231.5	520.5
231.5	531.5
231.5	563.0
232.0	492.5
232.3	549.3
233.5	511.0
234.0	468.5
234.0	475.0
234.7	481.7
234.0	537.5
235.0	498.5
235.5	555.0
236.5	488.0
236.7	517.3
236.5	525.0
236.3	543.3
237.0	505.0
238.3	574.6
239.0	465.0
239.7	471.7
239.5	494.0
239.0	532.0
239.5	549.0
239.0	561.0
239.0	568.5
240.0	511.5
240.5	538.0
241.0	477.0
241.0	484.0
242.5	500.0
242.0	521.5
243.0	505.5
243.5	544.0
243.3	555.7
244.0	527.0
245.5	467.0
245.0	488.0
245.0	516.5
245.3	569.3
246.3	473.7
246.0	495.0
246.5	533.0
246.3	550.7
246.5	562.5
247.0	481.0
247.0	510.5
247.0	539.0
248.5	504.0
249.7	521.7
250.5	528.5
251.2	543.4
250.5	557.0
251.0	464.0
251.5	492.5
251.5	499.0
252.0	470.0
252.0	476.0
252.0	487.0
252.0	515.0
252.5	569.0
253.3	481.3
254.0	508.5
254.0	538.5
254.5	562.5
255.5	525.0
255.5	532.0
256.0	502.5
257.0	465.0
257.6	472.4
257.5	490.5
257.5	496.0
257.0	519.0
257.5	556.5
258.0	478.5
258.0	484.5
259.0	513.0
259.0	543.5
259.7	567.3
259.5	573.5
260.3	506.7
260.0	536.5
261.5	561.0
262.0	500.5
262.5	524.0
262.0	530.0
263.0	464.0
263.0	469.5
263.0	475.0
263.0	481.0
263.0	488.0
264.0	494.5
264.5	517.5
264.0	554.0
265.0	511.0
265.3	541.3
265.3	547.7
266.3	570.3
267.0	505.5
267.0	534.5
267.0	564.0
268.5	467.5
268.5	473.0
268.5	499.5
268.0	528.0
269.0	478.5
269.5	483.0
269.0	488.5
269.5	522.0
269.0	557.5
270.3	494.7
271.0	515.5
271.5	545.0
271.0	551.0
272.0	509.5
272.0	538.5
272.0	567.5
272.0	574.0
273.7	469.7
273.0	503.0
273.0	532.0
274.5	475.0
274.5	491.5
274.0	562.0
275.5	480.0
275.5	486.0
275.0	497.5
275.7	519.3
275.0	526.0
276.5	555.5
277.3	492.7
277.0	506.5
277.5	513.0
277.5	549.0
278.0	543.0
278.0	571.0
279.7	465.7
279.5	530.0
279.5	536.0
280.0	471.5
280.5	477.0
280.0	501.0
281.0	483.0
281.0	489.0
281.5	524.0
281.3	559.3
281.0	565.5
282.7	517.7
283.5	495.0
283.5	511.0
283.7	546.7
283.5	553.0
284.5	505.5
284.5	540.0
285.5	467.5
285.5	534.0
285.3	559.3
285.0	571.0
286.0	473.5
286.5	479.5
286.7	485.7
287.0	499.0
287.0	528.0
288.0	491.5
288.0	521.5
288.0	564.5
289.0	515.0
289.7	543.7
289.0	551.0
290.3	504.3
290.7	558.3
291.0	470.0
291.5	476.0
291.0	510.0
291.5	574.5
292.0	482.0
292.5	531.5
292.0	537.5
292.5	569.0
293.0	488.5
293.0	494.0
293.5	526.0
294.0	499.0
294.5	554.0
295.5	514.0
295.0	520.0
295.3	547.7
295.5	564.0
296.3	467.7
297.0	473.0
297.7	478.7
297.0	541.0
298.0	484.5
298.0	507.5
298.5	535.0
298.0	571.0
299.0	491.0
299.5	523.5
299.0	529.0
299.5	559.0
300.0	496.0
300.5	502.0
300.5	551.0
301.5	465.0
302.5	470.5
302.0	518.0
302.0	545.0
303.0	476.0
303.0	512.0
303.0	569.0
304.0	481.0
304.0	500.0
304.5	505.5
304.5	533.0
304.5	539.0
304.5	556.0
304.8	562.5
305.0	488.0
305.3	493.7
305.0	527.0
306.5	550.0
307.7	467.3
308.5	472.0
308.5	477.5
308.0	516.0
308.0	522.0
309.5	484.0
309.0	496.5
309.5	503.0
309.0	509.0
309.0	543.0
309.0	568.5
310.3	529.7
311.0	490.0
311.0	556.5
312.0	536.5
313.0	563.0
312.0	574.0
313.5	468.5
313.0	525.0
313.0	548.0
314.0	481.0
314.5	495.0
314.0	513.0
314.0	519.0
315.0	474.0
315.7	485.7
315.0	500.5
315.0	506.5
316.5	530.0
316.0	542.0
316.5	552.5
316.0	568.5
317.5	464.5
317.3	491.3
318.5	478.5
318.3	558.3
319.0	469.5
319.3	510.3
319.7	524.3
319.3	536.3
319.5	547.0
320.5	483.0
320.0	498.0
320.0	517.0
320.7	563.7
321.5	474.0
321.5	488.0
322.3	504.7
322.5	552.5
323.7	466.3
323.5	530.5
323.5	542.0
324.5	478.5
324.0	569.0
325.7	470.7
325.0	493.5
325.5	510.5
325.0	521.0
325.0	559.0
326.0	484.5
326.0	499.5
326.5	536.0
326.5	548.0
327.5	526.0
328.5	516.0
328.0	564.5
329.5	467.0
329.0	475.5
329.5	488.5
329.0	505.0
330.5	531.0
330.0	542.0
330.0	553.5
330.3	570.3
331.5	472.0
331.0	480.5
331.0	495.5
331.5	521.5
332.0	511.5
332.0	559.5
333.0	500.5
333.7	536.7
333.0	547.5
334.7	467.7
334.0	476.0
334.0	485.0
334.5	526.0
335.7	490.7
335.3	506.3
335.0	516.0
335.5	565.0
336.5	542.0
336.0	553.5
337.5	472.0
337.5	481.0
337.3	496.7
337.3	531.3
337.3	570.3
338.0	511.5
338.0	522.0
339.5	486.0
339.5	502.0
339.0	559.5
340.0	467.5
340.5	476.5
340.0	536.0
340.0	548.0
341.0	492.0
341.0	507.0
341.0	517.5
341.0	527.5
342.0	565.0
343.0	471.5
343.0	481.5
343.5	497.0
343.0	542.0
343.0	554.0
344.0	512.0
344.5	532.0
344.0	571.0
345.0	487.0
345.0	503.0
345.0	522.5
346.0	467.0
346.0	476.0
346.5	517.0
346.7	549.3
346.0	559.5
347.0	492.0
347.5	538.0
348.5	507.5
348.3	565.3
349.0	464.0
349.0	471.0
349.5	481.0
349.0	498.0
349.0	544.5
349.5	554.5
350.0	513.0
350.0	527.0
350.0	532.5
351.0	488.5
351.5	503.0
351.0	521.0
351.0	570.5
352.5	467.0
352.5	475.5
352.5	494.0
352.3	560.3
353.5	549.0
354.0	484.5
354.5	508.0
354.5	537.0
354.0	543.5
355.3	498.3
355.7	565.7
356.0	470.5
356.0	479.0
356.3	489.7
356.0	514.0
356.7	525.3
356.0	531.0
357.5	553.5
357.7	571.7
358.0	503.5
358.0	519.5
358.5	560.0
360.0	475.5
359.0	484.0
359.0	494.0
359.0	547.5
361.5	465.0
360.6	509.2
360.3	535.3
360.0	542.0
361.3	479.3
361.0	499.0
362.3	470.7
362.0	488.5
362.0	523.0
362.0	529.0
362.0	567.0
363.0	517.0
363.0	557.0
364.5	494.0
364.0	503.0
364.0	551.0
365.0	483.5
365.0	545.5
365.0	572.5
366.5	478.0
366.0	512.0
366.0	539.0
366.7	561.7
367.0	473.0
367.0	499.0
367.5	507.0
367.0	533.0
368.3	467.3
368.0	488.0
368.0	520.5
368.0	527.0
369.7	515.7
369.7	556.3
369.0	567.0
370.5	482.0
370.0	493.5
370.5	549.0
371.0	475.0
371.7	510.3
371.0	542.5
371.7	572.7
372.0	503.5
372.3	536.3
373.7	487.7
373.5	498.0
373.7	530.7
373.0	561.5
374.5	519.5
374.0	524.5
375.0	465.0
375.0	479.0
375.5	493.5
375.5	514.0
375.3	553.3
376.5	547.0
377.0	566.5
377.3	474.3
377.0	483.5
377.5	501.5
377.0	508.0
377.5	572.5
378.5	535.0
378.0	541.0
379.3	529.3
379.0	559.0
380.7	466.7
380.0	489.0
380.5	494.5
380.5	517.5
380.0	523.0
381.5	512.0
381.0	551.5
382.0	472.0
382.5	484.5
382.5	498.5
382.0	505.5
383.0	538.0
383.0	546.0
383.0	572.0
384.7	492.3
384.3	532.7
384.0	565.5
385.7	521.3
385.0	527.0
385.0	556.0
386.5	468.0
386.0	483.5
387.0	473.5
387.0	488.0
387.5	497.0
387.5	504.0
387.0	510.0
387.0	515.0
388.5	479.0
388.3	542.7
388.5	550.0
388.5	560.5
389.7	536.3
390.5	569.0
391.3	464.7
391.7	469.7
391.5	484.0
391.0	493.0
391.0	519.5
391.0	530.0
392.0	488.5
392.5	555.5
393.5	475.0
393.0	498.0
393.5	502.5
393.0	508.0
393.0	514.0
393.5	524.5
393.0	546.5
394.7	540.3
394.5	562.0
395.5	480.0
396.5	466.5
396.5	485.0
396.5	493.5
396.0	535.0
396.7	550.7
397.7	471.3
397.5	511.0
397.0	518.5
398.0	529.5
397.0	567.5
398.0	505.5
398.5	546.0
398.0	557.0
399.8	476.0
399.0	499.5
400.0	524.0
400.3	539.7
401.0	463.5
401.0	483.0
401.0	562.0
402.5	468.5
402.0	493.5
402.7	508.3
402.0	534.5
402.5	553.0
402.3	573.3
403.7	473.3
403.0	519.0
403.0	545.0
404.5	478.0
404.5	499.0
404.0	503.5
404.5	529.0
404.0	557.0
404.3	567.3
405.0	514.0
406.5	465.0
406.0	483.5
406.0	490.0
406.5	524.5
406.0	539.0
406.0	549.0
407.5	470.0
407.5	561.5
408.5	503.0
408.5	509.0
408.5	519.0
408.5	554.0
408.3	572.3
409.0	475.5
409.7	480.3
409.0	495.5
409.0	533.0
409.7	543.7
410.5	486.5
410.5	514.0
412.0	528.3
411.5	567.0
412.5	466.5
412.5	472.0
412.0	492.5
412.5	538.5
412.0	549.0
412.5	557.0
413.3	501.3
413.0	523.5
414.0	477.5
414.0	497.0
414.0	506.5
415.5	483.0
415.0	518.0
415.0	533.0
415.5	572.5
416.0	487.5
416.0	512.0
416.0	543.0
416.0	553.0
416.0	562.5
417.0	464.5
417.3	469.3
417.5	492.5
418.5	474.0
418.5	503.5
418.0	528.0
418.5	538.0
419.0	479.0
419.0	498.0
420.0	522.5
419.0	548.0
419.5	558.0
419.3	567.7
420.7	484.7
420.0	508.0
420.0	517.0
421.5	533.0
422.0	468.0
422.7	472.7
422.0	490.0
422.3	496.3
422.3	542.7
423.0	512.5
423.0	553.0
423.0	563.0
423.0	573.0
424.0	477.0
424.0	502.0
424.0	527.0
424.5	538.0
425.5	482.0
425.7	507.7
425.5	517.5
425.5	548.0
426.0	486.5
426.7	492.3
426.5	558.0
426.7	568.3
427.3	467.7
427.5	522.5
427.0	532.0
428.0	473.0
428.0	498.0
428.3	542.7
429.5	478.0
429.5	513.0
429.7	553.3
430.0	503.5
430.3	527.7
430.0	563.5
430.0	574.5
431.5	483.5
431.0	489.0
431.5	494.5
431.0	537.5
432.5	466.5
432.0	508.5
432.0	518.5
432.0	548.0
432.5	559.0
433.0	472.5
433.5	500.0
433.5	532.5
433.0	569.0
434.5	523.0
434.7	543.3
435.0	479.5
435.5	505.0
435.5	513.0
435.5	553.5
436.0	486.0
436.5	563.5
437.0	469.0
437.0	492.0
437.0	496.5
437.0	528.0
437.3	537.7
438.0	518.0
438.5	548.0
439.0	473.0
439.0	501.5
439.0	509.0
439.0	558.5
439.5	569.0
440.0	482.0
440.5	523.0
441.0	465.0
441.0	488.5
441.5	514.0
441.0	532.5
441.0	543.0
442.5	494.0
442.5	505.0
442.0	553.5
443.0	563.5
444.0	473.0
444.5	498.5
444.0	518.0
444.0	528.0
444.0	537.5
444.0	574.0
445.0	478.0
445.0	484.0
445.0	510.0
445.0	548.0
445.7	558.3
446.7	489.7
446.5	568.0
447.3	465.3
447.3	523.7
447.0	532.5
447.5	543.0
448.7	494.7
448.5	505.0
448.0	514.0
448.5	553.0
449.0	471.0
450.0	481.5
450.7	528.3
450.3	537.3
450.0	562.5
450.5	573.0
451.0	476.0
451.0	486.0
451.0	500.5
451.0	510.0
451.0	519.0
451.5	548.0
452.5	490.5
453.5	467.5
453.8	481.4
453.5	524.0
453.5	533.0
453.5	542.0
453.0	558.0
454.7	472.3
454.3	495.7
454.0	505.0
454.0	515.0
454.0	568.0
455.5	552.5
456.3	486.3
457.5	465.0
457.5	476.5
457.5	501.0
457.3	509.7
457.0	519.5
457.0	528.0
457.0	537.0
457.5	547.0
457.7	563.3
457.5	574.0
458.5	491.5
459.5	469.5
459.7	496.3
459.7	514.3
459.5	533.0
460.0	483.5
460.7	523.7
460.0	542.0
460.0	557.0
461.7	474.3
461.0	505.0
461.5	569.0
462.3	488.7
463.0	479.0
463.5	510.0
463.0	519.0
463.5	529.0
463.0	537.5
463.0	551.0
464.0	494.0
464.5	500.0
464.5	562.0
465.3	469.3
465.0	545.0
466.0	484.0
466.7	505.3
466.0	515.0
466.7	523.7
466.7	533.7
467.0	474.5
467.0	556.5
467.0	573.5
468.7	464.3
468.0	489.5
468.5	567.0
469.0	496.0
469.0	511.5
469.3	529.3
469.0	539.5
469.7	550.3
470.0	479.5
470.5	502.0
470.5	519.5
471.5	470.0
471.0	561.0
472.0	485.0
472.7	507.3
472.0	534.5
472.0	545.0
473.7	475.3
473.5	525.5
473.5	555.5
473.0	572.0
474.0	491.5
474.5	498.0
474.0	514.0
474.7	565.7
475.0	466.0
475.0	539.5
476.0	481.0
476.3	503.7
476.5	520.0
476.0	549.5
477.0	471.0
477.0	531.5
478.0	487.5
478.5	509.0
478.7	559.3
479.0	494.0
479.5	526.0
479.0	544.0
479.0	570.5
480.0	476.0
480.5	500.0
480.5	515.0
480.5	537.0
480.7	553.7
481.5	467.0
481.5	564.0
482.0	481.0
482.0	505.5
483.5	472.0
483.0	490.0
483.0	520.5
483.5	531.5
483.3	548.3
484.0	511.0
485.7	476.3
485.0	496.0
486.0	526.8
485.5	543.0
485.5	558.0
486.0	485.5
486.0	501.5
486.0	568.5
487.3	465.7
487.0	516.0
488.5	491.0
488.0	507.0
488.0	522.5
488.5	537.0
488.5	552.5
489.0	472.0
489.0	481.0
490.0	563.5
490.5	511.5
490.3	531.3
491.0	547.0
491.3	571.3
492.0	486.0
492.5	496.0
492.5	502.0
492.8	517.8
492.5	526.0
493.7	507.3
493.0	541.5
493.0	557.5
494.0	491.5
495.5	467.0
495.0	536.0
495.3	551.7
496.5	513.0
496.5	530.0
497.0	562.5
497.5	568.0
497.0	574.0
498.0	499.0
498.3	524.7
498.0	546.0
499.0	493.5
499.7	540.3
500.0	465.5
500.3	486.7
500.3	508.7
500.0	518.5
501.3	534.7
501.3	557.7
502.5	551.0
503.0	529.0
503.0	564.5
503.5	571.0
504.0	496.5
504.0	503.0
504.0	513.0
504.0	523.5
504.5	545.0
505.0	491.0
506.0	539.0
507.0	518.5
507.7	554.3
507.5	561.0
508.0	466.5
508.0	507.5
508.0	533.5
508.5	568.0
509.0	473.0
509.5	494.5
509.0	500.0
509.0	514.0
509.0	527.5
509.5	548.5
511.0	489.0
511.5	522.0
511.0	542.5
512.0	483.5
513.0	478.0
513.5	517.0
513.7	532.3
513.0	537.5
513.7	558.3
514.5	493.0
514.7	498.3
514.0	504.0
514.5	510.5
514.5	552.5
515.0	473.0
515.5	526.5
515.0	565.5
515.0	571.5
516.7	487.3
516.0	547.0
518.0	481.5
518.0	521.0
518.0	540.5
519.5	465.5
519.0	470.5
519.0	476.0
519.0	515.0
519.5	535.0
520.4	553.3
520.5	491.0
520.0	502.5
520.0	508.5
520.0	560.5
521.0	529.0
521.0	568.5
521.3	574.7
522.0	545.0
523.5	524.0
524.0	480.0
524.0	486.0
524.5	518.5
525.0	473.5
525.0	500.5
525.5	506.5
525.5	512.5
525.5	540.0
526.0	533.0
526.3	558.3
527.0	565.5
527.0	570.5
528.7	489.3
528.0	528.0
528.0	546.5
528.5	552.0
529.7	477.3
529.0	483.0
529.3	521.7
530.0	471.0
530.3	497.7
531.5	465.0
531.0	504.0
532.0	509.5
531.0	515.5
532.0	536.5
532.0	562.5
533.0	531.0
533.5	542.5
533.5	556.5
533.7	568.3
534.5	487.0
534.6	492.8
535.5	468.0
535.0	474.5
535.0	480.0
535.7	501.3
535.0	525.0
535.0	550.0
536.0	519.0
537.5	507.0
538.0	513.0
538.0	533.5
539.0	539.5
539.5	490.5
539.0	497.0
539.5	563.5
540.7	484.3
540.0	545.0
540.0	556.5
541.0	471.5
541.0	477.5
541.5	523.0
541.5	529.5
541.3	551.3
541.0	570.0
542.0	465.5
542.0	502.5
543.0	516.0
544.0	509.5
544.0	535.0
544.5	541.5
545.5	487.0
545.5	493.0
545.3	560.7
546.5	475.0
546.0	480.5
546.5	554.0
547.5	573.5
547.5	469.0
547.0	499.0
547.5	520.0
547.3	547.3
547.0	566.5
548.5	504.5
548.0	526.5
549.0	513.5
549.0	532.0
550.5	490.5
551.0	538.0
551.5	478.5
551.0	543.5
552.5	465.5
552.0	472.0
552.0	485.0
552.5	495.5
552.5	508.5
553.0	550.5
554.0	501.5
554.0	517.5
554.0	524.0
555.0	530.0
556.5	490.0
557.8	468.3
557.0	476.5
557.0	482.5
557.5	512.0
557.0	535.5
557.3	540.7
558.0	497.0
559.0	504.8
558.7	545.3
559.0	559.0
559.0	566.5
560.0	520.0
560.5	526.0
561.5	532.0
562.0	473.0
562.5	479.5
563.0	468.0
563.7	485.7
563.5	493.0
563.5	504.0
563.5	508.5
563.0	538.0
564.7	551.3
565.3	498.7
565.4	520.8
565.0	544.5
565.0	564.0
566.5	558.0
567.7	471.3
567.7	528.3
568.0	477.5
568.5	489.0
569.0	504.0
569.0	533.5
570.5	466.0
570.5	482.0
570.5	541.0
570.0	573.5
571.0	547.5
571.5	554.0
571.0	567.5
572.0	509.0
572.3	561.3
573.5	476.0
573.7	529.3
574.0	470.0
574.7	486.3
574.3	514.7
577.0	464.0
577.0	481.5
581.5	469.0
593.7	529.7
594.0	562.5
597.5	512.5
597.0	524.0
600.5	566.0
601.0	487.5
601.0	531.0
603.5	480.5
603.5	525.0
605.0	513.5
608.0	491.0
609.0	553.0
610.0	474.5
610.7	480.3
611.0	516.0
613.0	496.0
613.0	522.5
614.0	469.0
615.3	510.3
615.5	550.0
616.0	529.0
617.5	516.5
619.5	500.0
619.5	523.0
620.7	486.7
620.0	494.0
620.7	506.3
621.7	546.3
622.5	529.5
622.0	568.0
623.0	512.0
81.5	594.0
82.7	588.3
82.7	611.3
83.5	605.0
84.5	581.5
85.3	599.7
87.5	593.5
90.7	587.3
91.3	604.7
93.0	581.0
93.5	598.0
95.7	591.7
100.5	610.0
104.5	591.5
107.7	583.7
109.0	601.0
109.0	608.5
110.5	595.0
113.0	588.5
114.5	613.0
116.5	606.0
117.0	582.0
118.5	593.5
122.3	612.7
125.5	598.0
128.3	617.3
129.7	583.7
130.0	610.0
134.5	605.0
141.0	600.5
146.7	595.3
150.8	617.8
155.0	596.5
155.5	604.0
163.0	578.0
163.5	613.0
169.0	592.0
174.0	587.0
190.0	601.5
196.5	581.0
201.0	575.5
204.0	581.5
209.0	576.5
212.0	581.5
213.7	615.7
214.0	588.5
216.5	576.0
219.3	582.7
220.5	601.5
221.0	609.5
222.3	616.3
225.0	577.0
227.3	583.3
228.5	591.0
228.0	599.0
235.0	584.0
241.5	586.0
242.5	593.0
242.5	600.0
247.7	582.3
247.0	617.0
249.0	596.0
249.5	603.0
253.0	577.5
253.5	613.0
254.5	585.0
255.5	592.0
255.5	599.0
261.0	587.0
269.5	603.5
280.0	595.0
285.5	578.0
285.7	590.3
286.0	584.0
286.5	597.5
292.5	580.0
292.0	587.0
292.0	593.0
294.5	599.0
294.0	616.0
296.0	606.5
297.3	589.7
299.0	583.5
300.0	601.5
301.0	594.5
303.5	607.0
304.0	588.0
306.0	581.5
306.0	600.0
307.0	612.0
308.5	593.5
310.5	605.5
311.0	587.0
312.0	598.5
313.5	581.0
316.5	594.0
317.5	603.0
318.5	575.0
318.0	587.5
320.5	610.5
323.2	592.4
324.0	604.5
326.0	576.0
336.0	593.0
338.5	604.0
339.3	611.3
343.3	582.7
347.0	576.5
348.7	596.3
350.5	583.5
352.5	590.5
352.5	612.0
354.0	577.5
355.3	596.3
360.0	590.5
361.5	577.5
363.3	584.3
366.5	601.5
367.5	578.5
367.0	589.0
368.5	595.0
370.5	584.5
373.5	589.5
374.0	578.5
375.5	596.0
377.5	584.0
379.5	601.0
380.5	578.0
380.3	590.3
383.5	584.0
383.5	595.5
386.5	601.0
387.7	577.3
387.5	589.0
390.5	611.5
391.0	595.0
394.0	617.0
399.0	596.0
403.5	601.0
404.0	610.5
405.5	594.5
407.5	616.0
408.0	605.0
410.3	599.3
411.5	610.0
415.0	604.0
415.5	615.0
418.5	610.0
420.0	589.0
421.5	604.0
422.5	616.5
427.0	588.5
428.0	595.5
428.5	604.5
431.0	582.5
432.5	610.0
433.0	600.0
436.5	606.0
437.5	582.5
439.3	589.7
440.0	600.5
443.5	585.0
443.5	606.0
443.7	617.7
445.5	612.0
446.7	590.7
447.7	578.7
448.0	600.5
450.5	584.0
450.5	595.5
452.5	616.5
453.5	591.0
454.5	579.0
455.0	600.0
459.5	607.0
461.0	576.7
461.5	590.0
462.0	600.5
465.7	593.7
465.5	617.0
466.5	580.0
466.0	606.0
472.0	584.0
478.0	577.0
484.5	575.0
490.0	590.0
491.5	578.0
494.5	605.5
496.5	589.0
498.0	581.5
499.7	601.7
502.0	608.0
503.5	577.0
504.5	591.0
506.7	603.3
509.3	574.7
510.3	594.3
512.0	599.5
514.0	578.0
518.5	600.0
522.3	581.3
523.7	588.3
525.0	600.0
526.3	617.7
528.0	577.0
529.0	584.0
529.3	591.3
532.0	603.0
534.0	617.3
534.5	574.5
536.0	587.0
537.0	594.0
538.0	600.5
541.0	577.0
544.0	596.5
544.5	603.5
547.0	579.5
551.0	598.0
551.5	605.0
553.7	614.3
554.7	577.3
555.5	594.0
558.0	587.5
558.7	599.7
560.2	615.2
564.5	586.0
567.5	579.5
567.0	597.5
570.0	591.0
578.5	590.0
579.5	617.0
580.5	601.0
581.0	583.5
584.0	595.5
592.0	594.5
601.0	605.5
604.5	578.0
607.0	590.0
611.3	576.7
614.0	587.5
617.3	604.3
619.0	615.5
137.9	128.4
140.7	122.5
148.7	125.3
156.4	123.2
150.5	111.3
158.5	108.9
150.8	102.9
143.8	99.4
142.8	107.5
135.1	109.9
128.1	100.8
136.2	101.9
134.8	95.6
127.1	92.8
119.7	95.9
119.0	102.9
126.0	107.8
118.7	110.6
105.4	113.8
97.7	111.3
87.5	105.7
88.9	113.4
81.6	116.6
97.7	117.6
98.0	124.6
106.4	121.4
106.4	127.7
106.1	134.7
113.8	136.5
114.1	144.2
106.4	141.4
98.0	137.2
98.7	144.2
92.8	156.4
100.1	151.5
103.3	158.9
90.3	183.3
107.8	182.6
127.8	227.8
104.7	105.7
102.9	98.0
96.6	104.0
95.2	95.6
87.9	97.0
103.3	90.3
111.3	94.2
111.7	101.9
118.3	88.2
126.7	85.1
134.8	87.9
109.9	85.4
142.1	91.7
151.5	95.9
150.1	87.9
143.2	85.1
158.9	100.5
166.2	105.7
173.2	108.9
179.9	113.4
171.8	124.2
185.5	123.2
189.0	117.6
186.9	110.3
196.0	112.7
197.4	119.0
201.9	125.3
206.8	120.1
215.9	120.7
114.1	316.9
128.5	329.9
106.8	340.0
113.8	336.9
114.8	350.2
121.1	346.7
128.5	349.5
109.2	326.4
108.2	317.6
231.3	121.1
236.9	112.4
239.7	119.4
247.7	120.7
251.6	126.3
229.2	114.5
233.0	105.7
226.0	102.6
213.4	102.9
208.2	108.2
204.0	101.2
181.3	105.0
173.6	101.5
166.9	98.0
160.3	93.1
187.6	100.5
200.2	107.1
192.5	105.4
196.0	99.4
200.9	93.8
209.6	95.2
219.0	97.7
190.7	93.5
180.6	97.0
173.6	93.1
182.7	90.3
216.6	90.3
227.1	94.9
236.5	100.5
246.3	101.2
241.4	95.2
234.1	90.7
255.4	102.2
249.8	95.2
263.1	102.9
263.4	94.5
256.5	95.2
270.4	104.3
273.6	109.9
277.4	103.3
278.1	97.0
270.1	97.0
272.5	91.4
286.2	102.2
284.4	94.2
295.6	114.8
304.4	116.6
310.0	113.1
311.7	119.0
318.7	112.7
326.0	112.7
332.3	115.2
340.7	112.4
279.2	124.6
272.5	121.1
264.1	121.4
296.4	108.2
293.3	102.6
291.9	95.9
299.2	97.7
290.8	88.6
280.7	88.2
300.3	90.3
301.7	105.0
302.4	110.6
310.0	107.8
308.6	101.9
306.2	95.9
312.5	95.9
316.3	106.1
319.1	100.1
324.4	94.9
323.7	106.4
328.6	101.5
336.3	101.2
332.4	95.2
319.5	90.7
309.3	89.6
318.4	128.1
327.2	125.6
363.2	126.3
367.7	120.7
352.7	119.0
357.3	113.8
359.7	120.4
353.1	107.8
358.7	102.9
349.6	101.5
342.9	100.8
339.8	94.9
347.5	94.9
354.5	97.7
363.2	95.9
366.3	101.9
372.6	96.6
373.3	107.1
375.8	101.2
381.0	106.4
384.9	100.5
392.9	99.4
380.3	94.5
395.7	106.1
393.6	112.0
391.9	118.3
400.6	110.6
404.1	105.0
399.6	99.8
411.1	105.7
406.9	112.0
380.7	126.3
366.0	159.9
396.1	93.8
387.7	93.8
418.1	104.7
427.2	105.7
430.3	111.7
432.1	118.3
439.4	119.4
438.7	112.4
435.2	106.8
445.0	107.5
452.4	110.6
457.3	114.8
465.3	118.0
473.4	119.7
473.0	126.0
479.3	120.7
481.1	127.7
486.6	116.2
487.7	123.2
489.8	128.8
495.4	123.9
502.0	119.7
499.9	113.1
492.2	112.0
491.5	104.3
498.9	106.1
485.2	102.2
477.9	104.7
474.8	109.9
470.6	114.5
463.6	111.3
459.7	105.7
468.8	106.4
472.7	101.2
465.7	99.1
456.6	99.1
452.4	104.0
447.5	98.4
440.8	102.2
433.8	99.8
424.1	100.1
414.3	99.8
407.6	99.8
403.1	94.5
410.4	94.5
419.5	95.2
429.3	94.9
440.5	95.2
452.4	93.5
462.2	93.8
470.2	93.8
479.3	98.7
485.6	95.6
491.9	98.7
448.9	128.8
553.0	125.6
548.8	118.7
546.7	111.7
541.1	117.3
514.9	124.9
521.5	126.0
522.9	117.6
514.9	118.3
506.1	115.5
513.5	111.7
512.1	105.0
505.8	103.3
498.8	100.1
492.8	92.1
504.0	95.9
510.7	98.4
517.7	100.5
519.1	108.2
525.4	111.7
531.0	116.9
533.4	127.0
536.9	120.7
544.6	123.5
537.6	113.1
532.7	108.2
526.8	104.7
524.7	98.4
532.0	99.4
539.4	104.7
548.4	106.1
545.3	99.8
538.7	96.3
553.0	99.8
557.5	106.1
562.1	112.7
569.8	111.3
566.3	105.4
561.4	100.5
572.6	99.4
566.6	94.5
581.0	99.4
589.0	97.7
596.7	94.9
582.4	92.4
592.5	88.6
574.0	90.7
559.3	94.2
548.4	93.1
533.1	91.4
518.0	93.1
509.6	90.3
594.3	101.2
581.3	106.4
577.8	111.0
574.0	117.6
578.9	123.9
574.0	129.8
581.3	118.0
586.2	112.7
592.9	116.6
592.9	126.3
598.8	131.9
591.5	134.7
575.4	139.6
584.5	137.5
582.7	145.6
575.7	146.6
590.4	141.4
597.4	139.6
596.7	146.3
583.1	151.2
580.6	158.2
578.2	173.6
573.3	161.0
557.9	162.0
553.7	166.9
529.6	144.9
521.5	144.5
576.8	180.5
576.8	187.2
581.0	192.4
588.7	183.0
589.0	175.7
587.6	156.1
593.6	152.6
592.9	160.3
609.3	150.1
618.7	138.2
620.5	145.2
622.2	123.2
621.9	116.2
601.6	117.6
601.3	109.2
604.1	102.6
605.4	95.2
611.7	100.8
617.3	104.7
622.2	108.9
630.6	112.7
629.2	105.7
622.9	100.1
616.3	95.2
629.2	96.3
639.0	107.8
635.5	100.8
646.7	108.2
599.9	158.5
591.8	168.7
598.1	165.5
594.6	180.2
595.3	187.2
603.0	185.8
603.0	177.8
603.0	169.0
609.3	164.8
614.2	155.4
614.9	148.0
615.2	163.4
614.9	170.4
622.2	173.9
620.5	180.5
592.2	198.7
578.2	198.0
574.7	204.7
581.7	203.6
597.8	202.6
602.7	206.8
610.7	209.6
618.0	212.4
623.3	214.5
628.5	199.1
631.3	191.4
630.6	176.4
629.2	168.0
629.2	161.3
629.2	155.0
628.2	147.7
627.8	141.4
628.5	133.3
627.8	126.0
629.2	118.7
638.3	115.2
635.2	123.2
634.1	129.5
634.1	137.5
634.8	145.2
636.2	152.9
636.2	161.0
640.8	133.7
642.2	124.9
646.0	116.6
636.9	168.7
626.8	181.9
634.8	184.4
638.7	176.7
638.0	193.5
635.9	200.8
629.9	206.1
589.4	204.7
579.2	210.3
595.7	209.2
596.0	216.6
583.1	215.5
576.8	220.8
581.3	224.6
588.7	226.4
591.1	220.8
586.2	209.6
589.7	214.5
600.2	221.5
596.0	226.0
600.2	230.9
605.4	229.5
612.4	227.8
583.8	230.6
588.7	235.8
575.0	250.5
570.5	253.3
585.9	242.8
582.4	236.5
604.4	235.1
610.7	233.7
607.2	240.0
615.9	237.2
635.5	209.6
628.9	231.6
634.8	223.6
637.6	216.6
642.5	206.8
642.5	155.7
643.6	163.4
641.5	148.7
643.9	170.8
645.0	177.8
641.5	185.1
646.4	190.7
645.0	198.7
645.0	214.5
641.8	222.2
636.6	230.2
628.5	240.0
635.2	238.3
642.5	233.4
631.3	245.6
638.3	244.2
635.2	250.1
627.5	252.9
611.7	245.2
601.3	242.1
570.1	265.1
574.3	269.3
578.2	274.2
585.2	283.3
579.9	269.0
584.1	275.3
591.1	274.9
586.6	269.0
590.1	264.1
575.0	256.7
580.3	252.5
586.2	248.4
582.4	257.8
588.3	258.5
585.9	253.9
591.5	250.1
597.4	247.3
564.9	292.4
576.8	294.2
589.7	288.6
582.7	297.0
578.2	300.5
579.9	306.4
575.7	315.1
581.7	312.3
583.4	318.6
590.1	318.3
585.2	302.9
587.6	310.9
594.3	313.7
601.3	315.1
599.9	307.8
607.9	304.7
614.2	305.7
617.7	310.3
619.4	315.8
622.9	307.8
613.8	292.8
618.0	286.8
622.6	276.7
597.8	280.2
596.7	287.5
588.7	295.6
607.2	294.2
602.7	300.1
597.1	294.2
593.2	300.5
597.1	253.6
598.1	262.7
610.0	251.8
604.1	258.1
602.7	266.5
621.5	257.4
614.5	255.7
610.0	261.3
626.4	263.7
629.6	258.8
636.6	256.4
630.6	269.0
628.9	278.1
629.2	286.1
634.5	283.0
634.5	263.0
582.0	323.8
578.9	329.4
573.6	333.3
597.4	325.9
592.5	331.2
599.9	330.8
606.8	338.9
599.2	337.5
584.8	333.6
578.5	337.5
592.9	337.1
586.2	340.3
575.4	345.2
582.7	344.8
579.2	350.4
596.0	342.4
589.4	344.8
586.2	349.4
589.0	368.2
612.8	352.2
618.4	349.4
614.2	325.2
625.7	330.1
625.7	338.2
628.2	345.9
631.0	351.5
627.5	322.8
625.4	315.1
631.7	314.7
624.7	289.9
624.0	282.9
602.0	290.3
604.7	285.4
574.3	281.2
579.9	280.8
443.9	282.6
397.7	298.7
402.3	296.2
408.9	288.5
386.2	291.0
574.0	394.8
581.0	392.4
576.1	389.6
577.5	383.3
583.1	382.2
577.5	378.0
577.5	371.7
584.5	370.3
582.4	375.9
588.0	375.2
575.0	358.8
575.4	354.3
581.3	355.3
586.9	353.9
579.6	361.2
578.2	366.1
584.5	365.1
584.8	358.5
593.2	352.2
594.3	347.3
621.5	333.6
606.5	370.0
620.8	371.0
626.8	371.7
617.0	379.4
620.1	386.4
615.9	391.7
608.6	390.6
600.2	385.4
576.4	441.3
575.4	434.7
575.0	415.8
576.8	410.9
578.5	404.6
579.9	398.7
582.4	387.1
588.3	380.8
587.3	386.1
576.8	429.8
582.0	427.7
581.0	433.3
579.9	419.6
581.3	414.1
578.2	424.9
585.2	422.4
590.4	418.6
592.5	414.1
588.7	411.6
588.7	405.7
585.9	396.6
587.3	391.7
592.9	388.5
597.1	390.6
603.7	378.4
606.5	383.6
602.3	389.9
603.4	394.8
608.9	397.6
613.1	402.2
618.4	406.7
626.1	405.7
627.1	399.0
630.3	394.5
627.1	389.6
624.7	381.9
629.9	383.3
628.5	376.6
635.2	377.7
626.4	357.4
628.9	362.6
631.3	369.3
595.0	370.3
593.2	376.3
592.2	393.1
596.0	396.9
602.3	400.1
607.2	402.9
590.8	399.0
595.7	402.5
594.3	408.5
601.6	405.3
605.8	409.5
599.9	411.3
597.4	418.3
604.1	415.1
610.3	413.7
603.4	421.0
600.2	426.3
595.0	430.8
589.4	427.3
586.6	432.2
581.3	438.9
591.5	435.0
587.6	438.5
583.8	444.1
578.2	446.9
579.2	459.5
578.5	453.2
583.1	450.4
584.8	456.4
589.4	450.1
589.4	444.1
598.5	436.1
600.9	442.0
602.0	447.6
604.7	453.9
594.3	439.6
595.3	445.5
596.7	451.1
599.2	457.4
597.1	462.0
589.4	462.0
587.6	467.2
578.2	509.5
573.6	499.4
576.1	504.6
592.5	466.5
593.2	471.4
598.5	475.6
604.4	473.2
607.5	468.3
598.8	469.0
602.3	465.1
610.3	463.0
617.7	463.7
611.7	456.0
618.4	457.1
616.6	451.1
615.9	444.5
612.4	438.9
602.3	432.2
605.1	437.8
606.8	427.7
611.0	421.7
609.3	433.6
613.5	428.4
617.3	422.1
620.8	428.4
629.2	295.2
634.5	291.0
629.6	301.1
629.6	308.1
636.9	302.8
635.9	297.3
638.0	278.4
635.9	273.1
639.7	287.8
642.5	281.2
638.3	266.8
642.2	293.4
641.8	299.7
637.6	309.5
633.4	321.7
638.0	317.2
632.4	328.0
629.2	332.9
635.2	333.3
631.7	339.6
638.0	325.9
643.9	319.6
645.3	327.0
641.8	332.9
638.7	339.6
634.1	345.9
640.4	347.3
633.1	357.1
636.9	352.5
635.2	363.7
638.7	368.9
640.1	358.1
643.6	363.3
645.3	354.6
647.4	347.6
645.0	341.0
640.4	381.9
640.8	374.2
646.0	370.3
646.0	377.7
647.1	382.9
633.4	386.1
641.1	387.5
636.9	393.1
634.8	399.7
641.1	398.3
646.0	390.3
631.3	405.3
629.9	410.9
637.6	403.9
645.7	403.9
647.8	397.6
539.4	351.5
543.9	355.3
530.3	344.5
586.2	509.9
592.9	510.2
596.0	505.3
582.4	504.6
589.7	504.3
579.9	498.3
586.9	499.0
597.1	494.8
603.7	506.0
609.3	507.4
614.5	502.9
604.4	495.5
599.9	500.4
607.5	500.4
593.2	500.1
591.1	493.8
584.1	494.5
570.5	494.8
576.8	493.1
581.0	488.5
583.1	483.6
579.9	474.9
586.9	473.1
591.5	477.0
584.5	477.7
589.7	482.2
587.6	488.2
594.6	488.5
596.7	481.9
607.2	484.7
613.8	488.5
615.9	474.2
616.6	481.5
621.5	468.9
623.6	478.0
626.1	497.3
627.1	490.6
627.5	482.9
632.0	477.3
628.2	472.1
625.7	465.1
631.0	466.1
635.9	471.4
640.1	465.8
634.8	460.9
623.3	453.6
628.5	458.1
628.5	450.8
633.4	453.6
640.4	456.7
634.1	446.2
628.2	442.7
621.5	441.7
617.7	434.7
624.3	435.4
625.4	424.2
627.5	416.8
629.2	430.8
632.4	422.4
635.5	415.8
635.9	410.2
643.9	407.7
641.5	414.4
639.7	421.0
636.2	426.6
632.7	436.8
639.0	442.4
638.7	432.9
644.3	425.9
643.6	436.8
647.1	418.6
640.8	449.4
634.5	485.0
638.3	478.7
644.6	472.8
634.5	492.4
633.1	500.4
627.5	505.3
639.7	496.9
641.1	488.5
643.6	481.2
630.6	510.2
625.7	516.1
634.8	506.4
640.8	503.9
646.7	493.8
646.0	501.1
638.7	510.9
632.7	516.1
627.5	522.4
645.0	509.2
581.7	514.4
561.4	514.7
567.3	512.0
568.4	516.8
571.9	523.1
576.8	519.3
579.6	525.2
580.3	531.5
574.7	536.8
587.6	531.9
582.7	537.1
586.6	525.2
591.5	522.1
584.1	520.0
589.4	515.8
595.7	517.9
602.0	518.9
607.9	521.0
554.4	569.3
558.2	553.2
551.9	556.4
552.3	562.7
578.2	542.7
610.3	527.0
608.9	532.9
615.9	535.4
623.3	536.8
617.3	541.3
576.8	549.4
577.8	558.1
583.4	552.5
583.8	545.5
589.4	540.3
603.0	537.5
610.3	539.9
604.4	544.8
611.4	545.5
594.3	535.7
596.7	541.3
590.4	546.6
597.8	548.7
578.9	563.4
585.5	560.2
590.4	554.6
577.8	570.0
586.2	567.2
582.7	575.2
575.7	577.0
572.6	584.0
561.7	592.0
596.7	554.6
604.1	551.8
602.0	559.9
615.2	556.7
607.9	562.7
621.2	555.0
627.5	552.2
628.9	544.1
629.2	532.2
634.1	524.5
641.1	517.5
641.1	525.6
637.6	531.5
632.4	538.5
635.2	548.0
629.2	559.9
636.2	555.7
620.1	561.3
614.5	564.8
614.5	572.1
604.4	571.8
592.9	569.0
598.1	573.8
589.4	575.6
597.1	579.8
588.0	581.5
585.9	589.6
593.2	587.1
601.3	585.7
608.6	583.3
617.7	580.8
621.9	575.6
534.1	580.5
540.4	583.3
542.5	589.2
549.5	589.9
551.2	583.3
559.6	580.5
560.7	574.5
564.5	570.0
628.2	566.2
635.5	561.3
638.0	568.3
628.5	573.2
635.9	575.2
625.7	580.1
633.8	581.5
608.2	598.0
599.2	591.7
598.1	599.0
609.3	605.3
613.8	595.5
621.2	596.2
627.5	594.5
631.7	587.5
642.2	550.8
641.5	579.4
639.7	586.4
635.5	594.1
624.3	602.5
631.3	600.8
638.7	601.8
642.9	594.1
640.1	542.4
644.3	535.0
629.6	609.2
621.9	610.9
613.5	611.3
605.1	612.3
588.7	600.4
593.2	605.0
598.1	612.0
575.0	595.5
572.2	602.5
585.9	606.3
590.4	610.9
556.8	608.8
576.4	608.1
582.7	612.3
588.3	617.9
596.4	619.3
609.3	617.5
564.2	603.9
565.9	609.5
571.9	613.0
622.9	587.8
508.9	581.2
503.3	585.0
516.6	583.3
510.0	587.4
515.6	591.3
521.5	594.4
504.7	597.6
498.1	595.1
492.1	598.3
483.4	587.1
485.2	580.8
490.7	584.0
478.2	583.3
472.2	577.3
456.5	585.7
461.0	582.6
465.9	587.1
472.2	590.9
478.9	589.9
485.2	593.0
485.2	598.6
477.5	596.5
458.6	595.5
432.7	588.5
435.1	594.1
442.5	595.8
469.8	598.3
479.2	602.1
473.3	605.3
487.9	603.5
479.6	609.1
470.5	612.3
462.1	612.3
514.2	605.6
521.9	605.6
529.9	609.5
538.3	608.1
547.0	609.8
541.8	615.8
418.4	577.7
426.1	578.0
422.9	583.3
413.5	588.8
413.5	594.8
407.9	589.2
400.9	589.2
394.9	589.9
394.6	574.9
390.0	583.3
404.4	584.3
397.7	583.3
399.8	578.0
406.5	578.7
412.1	578.7
410.0	584.3
416.3	584.0
421.2	593.4
418.4	598.6
424.7	600.0
425.0	610.2
429.5	616.5
439.3	611.9
436.5	618.2
451.6	606.3
454.4	611.6
531.7	597.2
523.6	612.3
516.6	612.6
510.0	610.5
488.3	610.2
476.8	615.4
484.5	616.8
495.3	612.6
504.4	614.4
511.7	618.6
519.1	618.6
498.4	619.3
490.7	618.2
471.9	621.4
479.9	623.5
505.4	623.1
548.4	619.6
567.3	618.6
574.3	622.8
584.1	623.1
592.5	625.6
603.7	622.8
614.2	623.1
626.8	616.5
622.2	622.8
631.0	623.5
634.1	617.5
635.5	608.1
557.5	620.7
565.2	625.2
551.2	626.6
540.1	623.5
529.6	623.5
514.9	623.8
493.2	624.2
393.6	600.7
399.2	604.6
392.6	606.7
397.1	610.5
400.3	616.8
396.1	622.4
403.8	622.1
412.2	620.3
419.2	621.7
427.5	622.8
440.8	623.5
449.2	622.4
459.0	617.5
456.2	624.2
463.6	623.1
384.9	607.4
372.6	601.8
363.6	606.7
370.9	607.7
377.9	607.0
381.0	612.3
386.3	618.2
372.6	614.0
364.3	613.7
362.9	595.5
357.3	584.0
346.4	588.5
339.1	587.8
337.0	581.9
340.1	576.6
333.5	576.6
320.5	581.5
328.2	581.9
324.7	586.7
332.8	586.4
328.6	590.9
323.7	598.6
330.3	596.9
337.3	599.0
342.6	593.7
344.0	601.1
351.3	601.4
358.7	602.1
346.8	606.7
355.2	607.4
358.7	614.4
345.0	613.3
333.5	614.7
329.3	602.1
332.1	607.7
326.8	611.9
321.6	617.2
306.2	574.9
300.3	577.0
377.5	618.9
368.1	618.6
361.1	620.0
348.9	618.9
340.5	618.6
328.2	618.9
334.2	623.1
344.0	624.5
353.8	623.1
373.0	623.5
382.1	624.5
390.1	624.9
409.7	625.6
364.3	625.2
314.5	609.5
314.5	615.8
307.8	618.2
315.2	623.8
323.2	622.8
328.5	627.3
305.7	623.8
319.4	629.4
309.9	629.8
299.4	611.9
300.1	618.9
297.0	624.9
302.2	630.5
290.0	603.9
282.0	602.8
278.8	588.5
279.2	582.2
279.5	576.6
273.2	580.5
264.8	577.0
259.6	580.5
267.3	583.6
271.8	587.1
266.9	589.9
273.2	593.0
275.3	599.3
261.3	593.7
267.6	596.9
262.7	600.7
248.4	588.8
247.0	574.5
241.0	579.8
232.0	578.4
277.1	606.0
286.2	607.7
291.1	611.2
285.1	615.1
278.8	612.3
271.5	610.2
263.8	607.4
256.1	606.3
259.2	613.0
265.5	614.4
273.6	616.8
280.9	619.6
289.7	621.4
170.1	579.4
178.1	581.2
186.5	577.7
193.5	574.5
182.3	586.7
190.3	583.3
197.7	588.1
205.4	588.1
209.2	593.7
216.6	594.8
221.1	589.2
222.9	594.8
228.5	606.0
235.5	609.1
235.8	601.1
235.8	593.0
242.4	606.7
249.4	609.8
241.4	614.4
227.4	612.6
234.4	616.8
227.8	621.4
239.6	622.4
254.7	619.6
261.3	620.0
269.0	622.1
275.3	626.3
284.8	625.6
248.7	624.9
257.5	625.9
265.9	627.0
232.7	627.0
218.7	621.7
214.5	607.4
212.4	600.4
204.0	599.7
202.6	593.4
190.3	589.5
193.8	594.4
197.0	602.5
205.7	605.6
206.8	612.6
193.1	607.0
199.1	612.6
209.6	620.0
201.2	618.6
196.6	623.8
192.4	619.6
188.2	613.0
185.4	593.4
182.3	598.6
183.3	606.7
177.1	592.7
170.1	599.3
162.0	597.9
164.5	604.6
171.1	606.0
177.1	602.1
176.0	610.2
169.0	617.5
185.1	619.6
177.1	617.5
158.5	608.1
149.1	601.4
150.1	610.2
143.8	608.1
138.2	614.0
144.2	618.6
135.4	620.7
142.4	625.9
149.4	625.2
155.4	614.4
161.0	620.0
157.8	627.0
166.2	625.2
174.3	624.2
181.6	627.7
190.0	626.6
213.4	627.3
203.6	627.0
222.5	628.0
105.4	616.5
96.3	617.2
90.7	612.3
87.9	618.6
79.8	618.9
80.2	625.2
86.5	625.9
96.3	623.8
91.0	630.5
106.1	624.5
112.4	622.1
119.4	620.0
126.7	624.5
117.6	628.0
100.5	630.8
136.1	628.4
126.3	632.9
110.6	635.0
147.3	633.6
164.1	633.6
173.6	631.2
117.6	600.0
125.6	604.6
134.0	598.6
127.4	592.0
121.1	586.7
124.2	580.5
127.7	572.4
131.9	576.6
136.1	585.7
138.2	593.0
144.2	587.4
151.9	589.9
160.6	590.6
165.5	585.4
158.9	584.3
155.7	575.9
150.1	582.9
147.7	575.9
141.4	579.1
200.8	490.6
100.8	600.7
99.4	585.7
102.6	578.0
95.2	574.2
88.2	575.6
79.1	576.3
92.4	562.3
98.0	545.8
95.2	534.6
84.0	505.6
90.0	498.6
105.7	570.0
112.0	574.5
114.5	567.2
117.3	561.2
118.3	554.6
124.6	560.9
126.3	554.2
129.5	546.5
121.8	548.6
123.9	540.9
127.7	533.9
131.9	517.5
129.1	526.3
125.3	514.4
120.7	508.4
119.4	500.0
117.3	474.1
122.1	467.8
127.7	431.4
110.3	399.6
117.6	399.6
119.4	381.7
119.7	369.8
123.5	365.3
129.1	371.6
140.3	385.2
138.6	378.6
128.1	404.8
124.2	375.4
128.1	388.7
125.6	382.4
101.9	396.4
104.7	401.6
107.5	407.9
327.1	312.9
352.7	359.4
478.2	373.4
477.9	369.2
482.8	367.8
517.7	359.4
513.5	355.5
518.4	354.8
518.1	350.3
517.4	344.7
526.1	342.6
521.9	345.4
526.1	384.2
514.2	380.4
484.5	389.1
489.8	387.7
495.0	386.0
494.0	381.1
484.2	384.6
490.5	383.5
486.3	380.7
271.9	310.4
296.7	276.5
298.8	262.9
269.1	398.9
270.8	394.3
308.3	394.3
313.9	395.7
304.8	365.3
313.2	376.5
298.5	377.9
303.7	379.7
308.6	380.4
334.1	348.5
337.6	353.8
334.8	357.3
331.0	360.8
431.4	348.9
433.1	356.6
436.9	359.7
446.7	404.8
440.1	398.9
441.1	403.4
514.9	399.6
519.8	406.2
515.6	271.6
523.3	310.4
378.5	337.7
378.5	342.2
375.8	346.4
340.1	340.1
347.4	335.9
351.6	337.3
333.4	326.9
332.7	335.6
334.8	331.4
329.9	330.3
343.6	306.9
344.3	311.8
347.4	316.0
371.9	300.3
371.2	304.5
367.7	297.8
360.7	300.6
365.6	301.3
432.1	293.6
436.9	293.6
443.9	288.4
439.4	289.8
412.1	284.9
418.1	285.6
418.8	290.5
407.9	293.3
407.6	298.2
410.0	302.7
414.6	301.3
419.1	304.1
422.6	307.3
417.0	308.3
406.5	305.9
405.5	314.6
408.3	310.4
416.3	316.0
421.2	317.4
425.4	319.9
422.6	328.3
428.9	322.0
438.7	325.5
434.2	319.9
430.7	330.7
427.2	327.6
431.4	326.9
440.1	315.0
437.3	311.1
443.9	299.9
439.4	297.5
437.6	302.0
468.8	308.0
462.5	299.6
461.8	295.0
385.2	303.4
386.2	308.0
381.0	308.3
375.1	318.1
383.4	318.1
382.0	313.2
378.5	316.4
376.8	311.5
367.7	310.8
368.1	316.0
400.6	327.9
405.5	328.3
409.3	330.7
411.4	336.3
402.7	338.4
402.0	333.5
391.8	331.7
386.9	331.0
391.1	327.2
418.8	325.5
419.5	321.3
438.7	342.9
436.3	347.5
425.1	341.2
430.0	339.4
450.6	330.7
446.0	332.1
456.5	341.9
468.8	344.3
477.2	343.6
494.3	338.4
495.4	342.2
491.9	349.9
488.4	346.4
459.3	428.6
441.1	356.2
442.5	360.8
413.5	359.4
391.5	345.7
394.6	342.9
346.7	325.5
352.0	325.8
463.2	354.5
466.7	358.0
469.1	349.2
468.1	353.4
473.0	346.1
473.3	351.0
479.6	347.1
460.0	349.2
461.4	340.8
463.9	336.6
460.0	344.7
462.8	322.7
467.4	321.6
472.6	320.6
493.3	322.0
493.3	317.1
488.7	319.5
502.3	320.6
528.6	328.6
544.7	337.7
547.1	327.2
544.3	331.4
568.1	365.7
548.5	359.0
553.4	356.9
566.7	370.9
562.5	367.8
558.6	364.6
530.7	368.1
516.7	369.9
520.2	373.0
410.4	384.9
410.4	380.0
413.9	382.8
414.2	377.6
406.5	373.4
402.3	376.2
397.8	384.6
400.2	380.0
395.0	380.7
392.2	377.9
397.1	376.5
430.7	353.1
428.2	356.6
425.4	360.8
426.8	348.5
425.8	353.1
423.0	356.6
395.0	355.9
389.7	354.5
382.0	366.0
387.6	367.1
382.7	370.9
372.6	371.3
367.4	374.1
365.6	388.4
364.6	377.9
361.1	386.3
352.0	394.3
352.0	383.5
352.0	388.7
357.9	396.8
356.5	391.5
356.5	386.7
356.5	377.6
356.9	373.0
351.6	374.4
362.5	370.2
361.4	375.1
370.9	384.2
375.4	379.7
375.8	384.6
379.9	382.5
383.8	384.9
384.1	380.7
388.3	376.5
392.2	373.7
397.1	364.3
392.9	368.5
397.8	371.3
353.4	341.9
359.7	341.9
271.2	280.7
269.4	275.1
263.8	276.8
534.1	445.9
527.5	446.2
530.7	450.4
524.0	451.1
524.4	467.6
526.8	463.4
531.0	459.9
530.3	455.3
518.1	450.1
518.8	455.7
512.5	455.7
516.0	460.6
513.2	467.2
513.9	430.5
507.9	434.0
503.0	437.2
502.7	431.2
503.0	426.0
504.4	443.4
518.8	438.6
520.2	442.4
531.4	441.7
528.6	432.3
528.9	437.5
534.1	419.7
534.1	430.9
534.1	425.6
508.6	479.1
507.2	485.1
502.3	481.6
504.1	476.3
504.8	471.4
500.2	470.0
496.7	481.9
498.1	476.0
491.8	476.7
495.0	472.5
490.8	468.6
463.5	465.5
462.5	460.9
456.5	460.9
450.6	461.3
453.7	456.7
460.4	456.4
459.7	451.1
464.6	452.2
464.6	443.4
463.9	448.0
469.8	447.3
470.5	442.1
436.2	368.6
432.7	371.8
433.4	376.0
446.0	370.0
450.9	368.6
450.6	373.9
454.8	371.4
451.6	363.7
454.8	351.1
450.6	346.2
449.5	350.1
449.5	354.3
456.9	362.3
457.9	358.5
462.1	360.2
478.9	364.1
484.1	363.4
495.0	360.2
489.4	360.9
489.0	356.4
477.8	356.0
480.3	359.2
482.7	354.6
482.7	349.7
492.5	369.7
497.1	377.4
491.5	374.6
495.3	372.5
461.1	379.5
454.8	376.7
448.5	395.5
463.2	397.3
464.9	393.1
463.5	389.2
434.1	364.4
439.0	364.4
441.5	369.3
438.0	372.8
441.8	376.3
428.5	382.3
433.4	381.2
429.6	388.2
435.2	386.1
509.3	341.0
461.4	273.1
361.0	281.5
369.8	280.5
368.4	275.6
423.6	292.7
423.6	297.3
319.4	321.4
307.9	297.6
304.4	302.5
334.8	339.9
364.9	353.9
369.1	356.4
370.8	389.6
371.2	395.2
378.5	388.5
438.3	454.3
443.9	454.6
432.0	415.8
428.9	410.6
401.6	487.5
397.4	489.6
433.4	448.3
432.0	443.8
427.5	442.1
442.9	469.0
439.0	477.0
459.3	415.5
459.3	407.1
460.4	411.3
462.3	419.6
463.3	415.1
468.6	412.6
465.8	423.1
467.2	417.9
453.9	422.4
449.3	422.1
446.5	417.5
452.5	418.6
450.7	414.4
454.9	412.6
437.5	438.2
437.1	443.1
441.7	442.4
441.7	446.5
451.1	437.8
447.2	436.8
447.6	431.2
446.5	426.3
451.4	427.7
435.7	411.9
432.2	407.7
480.5	441.7
470.0	436.8
474.2	434.7
474.2	429.4
477.0	426.3
484.7	438.2
484.3	433.3
489.6	430.8
494.1	432.9
532.9	398.6
533.6	403.5
564.7	394.8
569.3	396.2
544.1	370.7
535.4	365.8
531.2	363.0
526.3	379.8
524.9	375.2
523.1	410.9
528.4	410.2
528.4	401.1
530.8	388.5
526.3	391.3
495.5	394.8
495.9	400.0
499.7	403.9
287.1	421.4
292.7	420.0
308.1	408.8
309.8	413.0
314.4	411.2
323.8	410.9
329.8	420.0
322.1	433.3
321.0	442.0
347.6	430.8
360.5	434.7
364.4	431.2
354.2	420.0
343.4	405.0
347.6	407.8
356.3	402.2
342.7	343.8
344.8	348.7
326.6	305.6
330.5	301.4
376.3	263.3
367.2	258.8
369.6	262.6
393.4	296.9
392.0	292.3
389.6	300.0
400.1	282.6
388.2	428.7
391.3	431.9
395.5	435.0
428.4	451.1
428.4	446.6
413.3	437.5
417.9	435.4
409.2	428.4
411.2	433.3
402.2	388.5
406.7	391.7
403.2	397.3
385.4	396.6
388.5	401.1
395.2	393.8
389.6	395.5
392.7	398.7
419.3	400.4
427.3	392.4
431.5	395.9
418.9	391.0
415.1	387.8
423.5	381.5
424.2	386.1
438.2	381.9
439.6	386.4
444.8	386.1
443.1	380.8
447.6	379.8
451.8	381.5
450.1	386.1
450.4	390.3
454.6	392.4
480.8	398.0
486.4	398.3
491.3	396.6
541.3	326.6
543.4	318.6
403.2	292.0
400.1	288.5
326.6	316.5
331.2	314.7
333.6	317.9
326.6	321.0
330.8	322.4
314.0	321.0
316.1	324.9
237.4	280.8
239.5	285.0
422.4	254.9
370.7	352.5
374.9	350.7
379.8	351.1
364.7	323.5
367.2	326.6
399.7	442.7
394.8	430.1
399.7	431.5
399.7	436.8
404.6	437.1
362.6	444.5
356.7	445.9
371.0	446.6
374.9	449.4
365.8	458.5
365.4	463.4
371.4	470.3
376.6	469.6
379.8	480.1
383.3	476.6
465.5	433.6
460.9	436.1
526.0	493.8
519.7	496.6
497.6	503.9
346.2	444.3
388.5	420.2
398.7	426.5
418.6	410.1
406.0	415.6
411.2	413.6
411.6	400.3
409.8	405.2
407.8	377.5
405.3	381.4
380.8	355.2
378.7	359.0
389.6	360.7
385.0	357.9
383.6	362.1
398.7	356.5
403.6	357.6
431.5	367.4
422.1	364.2
425.2	366.7
413.0	368.8
512.7	310.4
512.3	306.2
516.9	303.0
517.6	307.9
309.1	366.3
316.5	361.1
311.6	362.5
313.7	368.1
317.5	365.3
323.1	365.3
367.5	339.1
366.8	343.3
392.4	350.6
396.2	347.5
400.1	345.0
394.5	412.5
392.7	408.3
398.0	410.1
369.3	430.3
369.6	425.8
318.6	446.1
316.5	440.8
313.0	444.7
307.7	432.8
342.0	383.5
342.0	378.6
346.2	381.0
334.0	377.2
334.7	372.3
331.5	364.6
330.5	369.8
325.2	370.2
327.3	366.3
339.2	365.3
335.0	367.4
343.4	368.4
347.3	366.0
361.6	361.1
365.4	359.3
382.2	407.6
381.2	412.5
366.5	403.1
366.5	409.0
277.7	350.6
476.3	284.9
478.0	280.7
102.0	357.4
209.2	469.9
134.6	461.7
193.5	365.0
199.9	370.8
198.7	365.5
152.1	383.6
120.6	420.9
126.5	416.8
253.5	550.3
259.3	549.7
561.3	156.9
585.7	220.4
605.0	246.1
620.1	265.9
616.0	262.4
621.9	250.1
623.6	243.1
630.0	212.2
630.0	218.1
628.9	225.1
75.7	232.1
75.7	239.6
97.3	211.7
97.3	218.7
435.4	575.4
440.0	578.9
333.2	444.7
340.5	444.7
337.3	441.7
331.2	440.6
408.1	344.7
411.3	341.8
415.4	339.8
413.9	345.6
415.1	350.6
