     x      y
104.3	130.4
106.0	112.0
117.8	122.0
123.7	116.7
123.0	125.5
128.5	122.0
129.5	115.0
129.5	129.0
141.0	112.8
151.5	128.0
175.5	112.0
185.5	121.0
270.0	112.0
64.5	200.0
64.0	224.5
64.7	240.7
65.3	157.3
65.0	212.0
67.2	193.4
67.5	230.0
68.0	206.0
68.3	218.3
69.0	187.0
70.5	236.0
71.0	153.0
71.0	179.0
71.5	213.0
72.3	225.7
74.0	198.5
75.0	157.0
75.3	191.3
75.3	206.3
76.5	220.0
76.0	232.0
77.3	184.7
78.3	238.3
79.5	153.0
79.0	178.0
80.0	226.5
81.0	203.5
81.5	210.0
81.0	216.0
82.0	169.5
82.0	195.5
83.3	189.3
83.5	241.0
84.5	183.0
84.0	234.0
85.0	221.5
86.5	163.0
86.5	228.0
87.0	214.0
88.5	200.0
88.0	207.0
89.5	194.0
90.0	157.5
90.5	169.0
90.5	187.5
90.0	238.0
91.5	232.0
92.7	175.7
92.0	182.0
92.5	225.0
93.3	218.3
94.5	212.0
96.0	198.0
95.5	205.0
97.5	191.0
97.5	236.0
98.5	185.0
99.7	178.7
100.5	138.5
100.8	149.2
100.5	216.0
100.0	222.0
102.0	209.0
103.3	195.3
103.5	202.0
104.5	188.5
104.0	240.0
105.0	143.5
105.0	166.0
105.5	233.0
106.0	174.0
106.0	182.0
106.3	226.7
107.5	213.0
107.7	219.7
108.0	137.0
109.5	192.0
110.0	199.0
110.0	206.5
110.5	237.0
112.0	131.3
112.5	177.0
112.5	232.0
113.0	142.0
113.0	168.5
113.0	186.5
113.3	225.7
114.5	213.0
115.5	194.0
115.3	219.3
116.0	136.0
117.5	201.0
117.5	207.0
117.3	237.3
118.3	145.3
118.5	231.0
119.0	174.5
119.0	182.0
120.0	224.5
121.5	139.5
121.0	189.5
121.0	217.5
122.5	133.0
122.3	211.7
123.0	197.0
124.5	204.5
125.5	178.5
125.7	228.7
125.0	234.5
126.5	185.5
126.3	221.3
126.5	241.0
128.5	136.5
128.3	192.3
129.0	209.5
129.0	215.5
130.5	200.0
130.3	164.3
130.7	173.3
131.0	225.0
132.8	156.4
132.0	181.0
132.3	231.3
132.5	237.5
133.3	147.7
134.5	187.5
134.0	207.0
134.0	219.5
135.0	140.5
135.5	194.0
137.5	134.0
137.5	175.5
137.0	213.0
138.3	167.3
138.5	226.5
139.5	160.0
139.0	183.0
139.0	201.0
139.0	234.0
139.5	240.0
140.5	152.0
141.5	189.0
141.0	219.5
142.0	145.5
142.0	207.0
143.5	138.0
144.5	131.0
144.0	178.0
144.0	195.0
144.5	224.0
145.5	164.5
145.3	171.3
145.5	213.5
145.5	230.0
145.3	236.3
146.5	152.0
147.7	157.7
147.0	183.5
147.0	202.0
149.5	189.0
149.0	219.5
150.0	142.0
150.0	208.0
151.0	135.5
151.5	177.5
151.0	226.0
152.7	169.7
152.0	195.5
152.5	232.0
152.5	238.0
153.0	214.0
154.5	155.0
154.0	162.5
154.5	184.0
155.0	202.5
156.7	146.7
156.0	221.5
157.5	140.0
157.7	189.7
158.7	133.7
158.0	173.5
158.3	208.3
158.5	228.0
159.3	179.3
159.8	196.4
159.0	234.0
160.7	213.7
160.0	240.5
161.3	152.3
161.0	159.0
161.5	167.0
162.5	185.5
162.7	202.7
163.0	219.0
164.0	143.5
164.7	225.3
165.3	136.3
165.5	173.5
165.0	191.0
165.7	208.7
165.5	231.0
166.5	237.0
167.7	180.7
167.5	197.5
168.0	153.5
168.0	161.5
169.0	215.0
170.7	147.3
170.0	167.5
170.0	186.5
170.5	204.0
171.5	140.0
171.0	221.0
171.5	227.0
172.3	133.7
172.0	193.0
172.5	233.0
173.5	174.5
173.7	210.3
173.0	239.0
175.0	153.5
175.3	161.3
175.5	181.0
175.0	199.0
177.2	187.6
176.0	216.5
177.5	130.5
178.5	138.5
178.0	146.0
178.3	169.3
178.0	205.5
178.5	222.0
179.0	228.5
179.5	235.0
180.0	194.5
180.0	241.0
181.5	176.0
181.0	212.0
182.7	156.7
182.5	201.0
183.0	182.0
183.5	218.0
184.5	163.5
185.0	189.0
185.0	224.5
186.0	135.0
186.0	141.5
186.0	207.0
186.0	230.5
186.0	237.0
187.0	149.5
187.0	171.5
187.0	196.0
188.3	178.3
189.0	213.5
190.3	184.7
190.5	203.0
191.5	158.0
191.0	219.5
191.7	226.7
192.3	166.3
192.3	191.7
193.3	131.3
193.7	137.7
193.5	198.0
193.0	208.5
193.0	233.0
193.0	240.5
194.7	143.7
194.5	150.0
194.0	174.0
195.3	180.7
196.5	215.0
197.0	187.5
197.5	221.5
198.5	168.0
198.0	202.5
199.0	161.0
199.0	194.5
199.3	208.3
199.0	228.5
200.7	134.7
200.0	235.5
201.7	147.7
202.3	141.3
202.5	179.0
202.3	184.7
204.0	172.0
204.5	205.0
204.5	212.0
204.0	218.0
204.5	224.5
205.0	131.0
205.5	166.0
205.7	190.7
205.0	197.5
205.0	231.0
206.3	158.3
206.3	237.7
208.0	137.5
208.3	149.7
208.5	184.0
209.5	177.0
210.0	143.0
211.5	170.5
211.5	194.5
211.0	201.5
211.0	208.0
211.3	214.3
211.0	220.5
211.0	227.0
212.0	132.0
212.7	163.7
212.0	233.0
213.5	156.5
213.0	240.0
214.5	147.5
214.0	188.0
215.3	137.3
215.5	182.0
217.5	175.0
217.0	198.0
217.0	204.5
217.0	210.5
217.3	216.7
217.5	223.0
217.5	229.0
218.7	142.7
218.3	168.3
218.0	236.0
219.5	161.5
219.0	193.0
220.0	131.5
220.0	154.5
221.7	147.3
221.0	187.0
222.5	138.5
222.7	179.7
223.5	213.0
223.5	219.0
224.5	199.0
224.0	206.0
224.0	225.5
224.5	231.5
225.0	172.5
225.0	237.0
226.8	152.5
226.0	165.5
226.0	191.5
227.3	131.0
227.3	143.7
227.0	159.0
228.0	185.0
228.5	241.0
230.7	136.7
230.3	202.3
230.0	209.0
230.0	215.5
230.0	222.0
230.5	229.0
231.0	177.5
231.5	196.0
232.0	169.5
232.0	235.5
233.3	156.3
233.0	162.5
233.0	190.0
234.5	130.5
234.0	142.0
234.0	148.0
234.5	183.5
234.0	240.5
236.0	218.0
236.7	224.7
237.5	199.5
237.3	205.3
237.0	212.0
238.3	136.3
238.5	174.0
238.5	193.0
239.5	160.0
239.3	167.3
239.0	230.0
239.0	236.0
240.0	180.0
240.0	187.0
241.5	144.0
242.5	220.5
244.5	197.0
244.5	210.0
244.3	226.3
245.0	130.5
245.5	138.0
245.7	190.7
245.0	203.5
245.0	216.0
246.0	163.5
246.0	170.5
246.0	177.0
246.5	184.0
246.0	232.0
246.3	237.3
247.5	157.0
248.0	148.5
250.5	220.5
251.3	134.3
251.5	194.0
251.5	201.0
251.5	207.0
251.0	213.5
251.5	227.0
252.7	140.7
252.5	167.0
252.5	181.0
252.5	187.5
252.5	233.0
253.7	160.7
253.0	174.0
253.5	239.0
254.3	153.3
255.0	147.0
257.5	210.5
257.0	217.0
258.0	197.5
258.0	204.0
258.0	223.0
258.5	229.0
259.0	135.5
259.5	170.5
259.0	184.0
259.0	191.0
259.0	235.0
260.3	142.3
260.5	157.5
260.0	163.5
260.0	177.0
260.0	240.5
261.0	149.5
263.5	214.0
264.7	200.7
264.0	207.0
264.0	219.5
264.3	225.7
265.5	131.5
266.7	153.7
265.5	174.0
265.0	187.5
265.5	194.0
265.3	231.3
266.3	138.3
266.7	160.7
266.3	167.3
266.0	181.0
266.0	237.0
267.0	145.5
270.7	210.7
270.5	217.0
270.5	223.0
271.5	184.5
271.5	191.0
271.5	197.5
271.0	204.0
271.0	229.0
271.5	239.0
272.7	164.7
272.0	171.0
272.0	178.0
272.0	234.5
273.3	134.3
273.3	141.3
274.3	148.3
274.5	155.5
277.3	213.3
277.0	219.5
277.5	225.0
277.5	231.5
278.5	168.0
278.5	175.5
278.0	182.0
278.0	188.0
278.3	194.3
278.0	201.0
278.0	207.0
278.0	237.5
279.0	160.5
280.3	130.3
280.0	138.5
280.0	145.0
283.5	216.5
283.0	222.0
283.0	228.0
283.0	234.0
283.5	241.0
284.5	172.0
284.0	184.0
284.5	191.0
284.5	204.0
284.0	210.5
285.7	156.7
285.5	178.0
285.0	197.0
286.3	147.7
286.0	165.5
287.0	132.5
287.3	140.3
289.3	219.3
289.0	225.0
289.0	231.0
289.0	237.0
290.5	182.0
291.0	188.3
290.5	201.0
290.5	207.0
290.0	213.0
291.7	152.7
291.0	160.0
291.5	170.5
291.0	194.5
292.0	135.0
293.5	145.5
295.0	177.5
295.5	222.0
295.0	227.5
295.0	233.0
295.5	239.0
296.0	165.0
296.5	210.0
296.0	216.0
297.0	140.5
297.5	191.0
297.5	197.5
297.5	204.0
298.0	157.5
298.5	172.0
298.5	185.0
299.0	134.0
299.5	150.0
301.5	219.0
301.0	231.0
301.0	236.5
302.5	144.0
302.0	213.0
302.0	225.5
303.0	167.5
303.5	179.5
303.7	200.7
303.0	207.0
304.5	131.0
304.5	138.0
304.0	161.5
304.5	189.0
304.7	194.7
305.3	155.3
306.3	147.7
306.5	173.0
306.0	241.0
307.5	184.5
307.5	223.0
307.5	229.0
307.0	234.0
308.5	210.0
308.0	216.5
309.0	165.5
309.0	204.0
310.0	141.5
310.5	198.0
311.0	134.5
311.5	153.5
311.0	159.0
311.0	179.0
311.5	191.0
312.0	237.5
313.5	147.0
313.5	172.0
313.0	226.0
313.0	232.0
314.7	184.7
314.5	214.5
314.0	220.0
315.5	139.0
315.0	208.0
316.0	163.5
316.5	202.0
317.3	131.7
317.0	240.0
318.5	157.0
318.0	177.5
318.0	196.0
318.5	235.0
319.0	144.5
319.7	189.3
319.5	223.5
319.5	229.5
320.5	170.0
320.5	212.0
321.5	205.5
321.0	218.0
322.7	137.7
322.0	183.0
323.0	163.0
323.0	240.5
324.0	200.0
324.5	234.0
325.5	131.5
325.3	176.3
325.7	227.3
326.0	143.0
326.5	170.0
326.5	188.0
326.0	194.0
326.5	209.0
326.7	221.7
327.5	158.0
327.0	215.5
328.0	182.0
329.0	203.5
329.5	237.0
330.3	137.7
330.5	165.0
330.5	231.0
331.4	150.2
332.7	171.7
332.0	192.0
332.3	198.7
332.5	211.5
332.0	224.0
333.5	143.5
333.5	155.0
333.3	178.3
333.0	186.0
333.0	217.5
335.7	131.3
335.7	160.7
335.3	240.3
336.7	228.3
336.0	234.0
338.0	138.5
338.3	150.7
338.0	167.0
338.0	195.0
338.7	200.7
338.0	207.0
339.0	182.0
339.0	188.5
339.0	214.0
339.3	220.3
340.5	156.0
340.5	174.0
341.5	144.0
341.7	237.7
342.5	226.0
342.0	232.0
343.0	132.5
343.0	162.0
344.5	204.0
344.5	210.0
345.5	139.0
345.5	152.0
345.7	168.7
345.0	179.0
345.0	185.0
345.0	191.5
345.0	198.0
345.0	216.0
347.7	221.3
347.0	241.0
348.0	135.0
348.7	156.7
348.0	230.0
349.5	175.0
349.5	236.0
350.5	163.0
350.5	188.0
351.0	181.0
351.0	194.5
351.0	201.0
351.3	207.3
352.5	139.0
352.0	213.0
352.7	218.7
353.0	151.0
353.7	169.7
353.5	225.0
354.0	132.5
355.5	157.0
355.0	231.5
356.5	176.0
356.0	184.0
357.5	144.5
357.0	191.0
357.5	197.5
357.5	203.5
357.5	210.0
357.0	237.0
358.0	163.5
358.0	221.5
360.0	137.5
359.0	216.0
359.5	227.0
361.0	153.0
361.5	171.0
361.0	180.5
361.5	232.5
363.3	158.3
363.0	187.0
363.5	206.0
364.5	193.5
364.5	199.5
364.0	212.0
364.0	222.5
364.7	237.3
366.0	165.5
365.0	176.0
366.0	140.5
366.3	217.3
366.5	228.0
367.0	147.5
368.0	182.0
369.7	154.7
369.7	171.7
369.5	189.0
369.5	208.0
369.0	233.0
370.7	202.3
371.5	196.0
371.7	213.7
371.0	223.5
371.5	238.5
372.0	145.0
372.5	160.0
372.5	177.0
373.7	137.7
373.5	229.0
374.5	130.5
375.0	166.5
374.7	183.7
375.0	150.5
375.5	219.0
376.5	189.5
376.7	207.3
376.0	234.0
377.3	172.3
377.0	201.0
378.7	143.7
378.0	155.5
378.0	224.5
378.5	239.5
379.5	162.0
379.7	178.7
379.0	195.0
379.5	213.5
380.5	134.0
380.0	230.0
381.7	184.7
382.0	204.0
382.0	220.0
382.5	235.0
383.0	150.5
383.3	167.3
384.5	174.0
384.0	191.0
384.5	225.0
385.0	139.0
385.5	198.0
385.0	209.5
385.0	240.0
386.0	156.0
386.5	180.0
386.5	215.0
387.5	132.0
387.0	230.5
388.0	161.5
389.5	145.0
389.0	186.5
389.0	204.5
389.0	220.5
389.5	236.0
390.7	151.3
390.5	210.5
391.0	193.0
391.0	226.0
392.5	166.5
392.0	175.0
392.0	241.0
393.0	158.0
393.5	199.0
393.5	216.0
394.3	130.3
394.3	138.3
394.0	181.5
394.0	231.5
395.0	206.0
396.5	145.0
396.0	188.0
396.0	221.5
396.0	237.0
397.5	153.0
397.0	171.0
398.0	194.0
398.0	211.5
398.5	227.0
399.5	160.0
399.3	177.3
400.7	133.3
400.0	200.5
400.5	217.0
401.5	140.5
401.0	166.0
401.5	183.5
401.0	232.5
402.5	148.0
402.5	190.0
402.5	207.0
403.0	222.5
403.0	238.5
404.5	155.0
404.5	172.0
405.0	196.0
405.0	213.0
406.5	161.0
406.5	179.0
406.5	202.5
406.0	228.0
407.7	134.7
408.5	142.0
409.0	185.3
408.0	218.0
408.0	234.0
409.5	167.0
409.3	208.3
410.8	148.8
410.0	191.5
410.0	224.0
410.0	239.5
411.0	198.0
412.0	174.0
412.0	214.0
413.0	156.5
413.5	204.0
413.0	229.5
415.0	136.5
414.7	162.7
414.5	181.0
415.5	194.0
415.0	219.0
415.0	235.0
416.3	143.3
416.0	187.5
417.0	169.0
417.0	209.5
417.0	225.0
417.3	240.3
418.0	151.0
418.0	199.0
419.3	176.3
419.5	215.0
419.0	231.0
420.4	131.8
420.7	158.7
421.5	193.0
421.0	204.5
421.5	221.0
421.5	236.0
422.3	139.3
422.3	164.3
422.0	182.5
424.5	146.0
424.5	171.0
424.0	199.0
424.0	226.5
425.5	189.0
425.5	210.0
426.4	153.2
426.5	216.0
426.5	232.0
427.0	177.5
428.0	160.0
428.0	195.0
428.5	203.0
428.5	222.0
428.0	238.0
429.7	133.7
429.5	166.0
429.7	183.7
430.5	141.5
431.5	173.0
431.7	207.7
431.0	228.0
432.3	148.3
432.0	190.5
432.0	213.0
433.0	155.0
433.3	233.7
434.0	179.0
434.0	197.0
434.5	218.5
435.5	161.5
435.5	185.0
435.5	240.0
436.0	203.0
436.5	224.5
437.0	135.5
437.0	167.5
438.0	142.5
438.7	192.3
438.0	209.0
438.5	230.0
439.5	174.0
440.5	181.0
440.5	214.5
440.5	236.0
441.0	198.5
442.3	130.3
442.5	220.0
443.0	187.5
443.3	204.3
444.5	137.5
445.0	161.5
444.5	170.0
444.0	226.0
445.0	143.0
446.0	177.0
446.0	194.5
446.0	210.5
446.0	232.0
447.5	238.0
448.0	183.5
448.5	200.0
448.0	216.5
449.0	146.5
450.5	166.0
450.5	206.0
450.0	222.0
451.3	133.3
451.0	173.5
451.0	189.5
451.5	228.0
452.5	140.0
452.5	234.0
453.0	159.0
453.0	180.0
453.5	195.0
453.0	212.0
455.0	218.0
455.0	240.0
456.5	146.5
456.5	169.5
456.0	185.0
456.0	201.5
456.5	224.0
457.0	163.5
458.5	135.5
458.0	175.0
458.0	191.0
458.0	208.0
458.7	229.7
460.0	213.5
460.5	235.5
461.3	141.7
461.0	159.0
461.0	180.0
461.0	197.0
462.5	220.0
462.0	241.5
463.5	166.5
463.0	186.5
463.0	203.0
464.7	148.7
464.5	225.5
465.0	174.0
465.5	209.0
465.7	231.7
466.0	192.5
467.5	137.0
467.0	155.5
467.5	215.5
467.0	237.5
468.7	161.7
468.5	180.5
468.5	198.5
469.5	222.0
470.3	143.3
470.3	169.3
470.5	205.0
471.0	187.5
471.0	228.0
473.2	131.8
472.0	149.5
472.5	211.0
473.5	176.0
473.5	194.0
473.0	233.5
474.0	157.5
474.5	217.0
475.5	164.0
475.3	200.3
475.0	240.0
476.5	139.0
476.0	182.5
476.0	223.0
477.7	145.7
477.0	206.5
478.5	171.0
478.0	189.5
478.0	229.0
479.0	152.5
480.5	196.0
480.5	219.0
480.0	235.0
481.0	159.5
481.0	177.5
481.3	241.3
482.0	134.0
482.5	202.5
482.7	224.7
483.5	141.0
483.0	166.0
483.5	184.0
484.0	208.0
485.0	147.5
485.0	230.0
486.0	172.5
486.5	192.0
487.5	154.5
487.7	161.7
487.5	236.0
488.5	179.0
488.5	198.0
488.5	219.0
489.5	135.0
489.0	205.0
489.0	212.0
490.5	186.0
490.3	225.3
491.0	143.0
492.0	167.5
491.0	231.5
493.0	150.5
494.0	158.5
494.0	174.0
494.5	194.0
494.5	240.5
496.0	131.0
495.0	181.0
495.0	201.0
495.5	208.0
495.0	215.0
495.5	222.0
496.0	228.0
496.0	234.5
497.7	138.3
497.0	187.5
499.0	147.0
499.5	170.0
500.0	154.5
501.0	176.5
501.5	198.0
501.7	211.7
501.5	218.5
501.5	238.0
502.5	184.0
502.3	191.3
502.0	205.0
502.0	225.0
502.3	231.7
504.0	135.0
504.5	143.5
506.5	151.5
507.5	159.0
508.0	169.5
508.0	179.5
508.5	201.0
509.0	208.0
508.5	222.0
508.0	229.0
508.5	236.0
509.5	130.5
509.5	139.0
509.6	187.2
509.0	194.0
509.0	215.0
514.0	145.0
514.5	154.0
514.0	167.5
514.5	175.0
514.7	225.7
514.3	232.3
515.0	160.5
515.5	183.0
515.7	190.7
515.5	198.0
515.5	205.0
515.5	212.0
515.0	219.0
515.0	239.5
517.0	138.0
521.5	148.5
521.7	164.7
521.0	172.5
521.5	222.0
521.0	229.0
521.5	235.0
521.5	241.0
522.0	156.5
522.0	180.0
522.5	187.0
522.5	194.0
522.0	201.5
522.5	215.5
523.0	141.5
523.0	208.5
525.0	135.0
527.7	168.7
527.5	232.0
527.7	238.7
528.3	152.7
528.5	160.5
528.3	176.3
528.7	183.7
528.5	225.5
529.0	145.5
529.5	191.0
529.5	219.0
530.0	198.0
530.0	206.0
530.0	212.5
531.0	138.5
532.3	131.3
534.5	157.5
534.7	171.7
534.5	229.0
534.5	236.0
535.3	149.7
535.3	164.3
536.7	142.7
536.0	180.0
536.5	187.5
536.3	194.7
536.7	202.3
536.5	216.0
536.0	222.5
537.0	209.5
538.3	136.3
540.0	241.0
541.0	154.5
541.5	160.0
541.5	233.0
542.5	147.0
542.3	167.3
542.7	175.3
542.5	191.0
542.5	220.0
542.0	227.0
543.5	140.5
543.5	199.0
543.3	206.3
543.5	213.0
544.0	184.0
546.3	133.3
547.5	239.0
548.4	161.8
548.5	195.0
548.5	224.0
548.5	231.0
549.5	145.5
549.0	153.0
549.0	189.0
549.5	217.0
550.0	170.0
550.0	178.0
550.5	203.0
550.5	210.5
551.5	139.0
553.3	130.3
553.8	184.4
555.3	157.3
555.5	165.0
555.3	191.3
555.5	216.0
555.7	236.7
556.5	150.5
556.7	172.7
556.3	197.3
556.5	222.0
556.5	229.0
557.3	143.3
557.5	209.5
558.0	203.0
559.4	135.8
559.0	179.5
560.7	186.7
561.0	161.0
563.0	167.5
562.0	193.0
564.3	219.1
563.0	153.5
563.5	199.5
563.3	206.3
563.5	232.5
564.5	146.0
564.0	213.0
564.3	225.7
565.3	139.3
565.0	175.0
565.0	239.0
566.0	182.5
567.0	131.5
568.0	189.0
569.0	161.0
569.7	195.7
570.3	169.3
570.5	201.5
571.0	209.0
571.0	215.8
571.0	144.0
571.0	152.0
571.3	223.3
571.3	230.3
571.3	236.3
572.5	137.5
572.5	177.0
574.3	156.3
574.3	183.7
575.5	191.0
577.0	198.0
578.0	205.0
578.3	212.3
578.3	219.3
578.7	226.7
578.7	233.3
578.0	239.5
580.5	180.0
582.0	187.5
583.0	194.5
584.5	201.0
584.5	208.0
584.5	223.0
584.0	239.5
585.5	215.5
585.0	230.5
587.5	176.5
588.5	183.0
589.5	161.0
589.0	190.0
591.0	197.0
591.0	204.0
591.7	210.7
591.5	238.0
592.0	169.0
592.0	217.5
592.5	231.5
593.0	224.5
594.5	178.0
595.0	186.0
597.0	164.0
597.0	193.0
598.0	200.0
598.0	206.5
598.3	213.3
599.0	172.0
599.0	220.5
599.5	227.5
599.3	234.3
599.5	241.0
600.0	142.5
601.0	180.5
602.7	159.3
602.5	188.0
604.5	167.5
604.5	195.0
605.0	202.0
605.7	209.3
605.0	216.5
606.0	224.0
606.0	231.0
606.5	238.0
607.0	175.5
608.5	183.5
611.5	190.5
611.7	197.7
611.5	220.0
612.0	162.0
612.0	170.0
612.0	205.0
612.3	212.3
613.5	227.0
613.0	234.0
613.0	241.0
615.0	178.0
618.0	186.0
618.5	193.0
618.5	215.0
619.7	200.7
619.7	207.7
619.0	223.0
620.5	230.0
620.3	236.7
623.0	146.5
624.0	180.5
625.0	187.5
625.7	211.3
626.0	163.0
626.0	171.0
626.0	219.0
626.7	226.3
627.0	195.0
627.0	203.5
627.0	233.5
627.3	240.3
631.7	184.3
632.7	191.3
633.5	208.5
633.5	215.5
633.0	223.0
633.7	230.3
634.3	200.3
634.0	238.0
639.5	180.0
639.5	188.0
639.0	206.0
640.5	213.0
640.0	219.5
640.0	235.5
641.0	172.5
641.3	195.3
641.7	227.3
642.8	158.6
643.5	201.5
64.7	246.7
64.3	252.3
64.0	260.5
65.0	273.0
64.0	302.0
64.0	313.0
64.0	324.5
64.0	336.0
64.0	348.0
66.5	285.0
67.5	296.0
67.5	318.5
68.3	266.7
68.0	307.5
68.0	330.5
68.0	341.5
70.0	279.0
70.0	351.5
71.5	249.0
71.7	261.3
71.0	290.0
71.5	324.0
71.5	336.0
72.0	242.0
72.0	255.0
72.5	302.0
72.0	312.5
72.7	346.3
73.5	273.0
74.7	284.3
75.5	296.0
75.0	318.0
75.0	330.0
76.3	307.3
76.5	341.0
77.7	244.7
78.4	265.4
77.0	352.0
78.0	251.5
78.5	279.0
78.5	324.5
79.0	258.0
79.5	290.0
79.5	313.0
79.5	335.0
80.0	301.5
80.7	346.3
81.5	273.0
81.7	318.7
82.5	330.0
83.0	284.5
83.0	295.5
84.0	247.5
84.0	254.0
84.5	307.0
84.0	340.5
84.5	352.0
85.5	261.5
85.5	268.0
85.5	324.5
86.3	278.7
87.0	290.0
87.5	301.0
87.5	335.0
88.0	312.5
88.5	318.5
88.0	346.0
89.5	244.0
89.5	256.0
89.5	273.0
90.0	250.5
90.7	295.7
90.0	330.0
91.7	284.3
91.0	306.5
92.0	266.0
92.0	340.5
92.0	351.5
94.0	278.0
93.0	324.0
94.0	260.0
94.3	290.3
94.5	312.0
94.0	335.0
95.0	301.0
95.5	318.0
96.5	248.0
96.0	254.0
96.5	271.5
96.5	329.0
96.5	345.0
97.0	242.0
98.5	265.0
98.5	306.5
98.5	339.0
98.0	351.5
100.0	282.0
101.0	258.5
102.0	276.0
101.5	312.5
101.0	333.5
102.3	251.7
102.5	301.0
102.5	328.0
103.7	269.7
103.7	318.7
103.5	343.5
104.5	245.5
104.3	349.7
105.7	262.7
105.5	286.0
105.5	292.0
106.5	307.0
106.0	337.0
107.5	256.0
107.7	280.3
107.0	324.5
108.0	297.0
108.7	330.7
109.5	274.0
109.0	313.5
110.0	249.5
110.5	347.5
112.0	243.0
111.5	267.0
111.0	288.5
111.5	303.0
111.0	319.5
111.0	342.0
112.5	336.0
113.0	260.5
113.0	294.0
113.5	326.0
114.7	254.3
114.0	284.0
114.0	308.5
115.7	278.3
115.5	315.0
116.0	299.0
116.5	351.0
117.0	248.5
117.0	271.5
117.0	332.0
117.0	339.5
117.7	345.3
118.5	265.5
118.0	289.0
118.0	320.5
119.0	304.5
120.0	243.0
120.0	259.0
120.5	295.0
121.0	283.0
121.5	310.0
121.0	326.5
122.0	253.0
122.0	276.0
123.5	300.0
123.0	316.0
123.0	336.0
123.7	342.3
123.5	348.0
124.0	270.0
124.0	330.0
125.5	247.5
125.5	264.0
125.0	288.5
126.0	305.5
126.0	321.5
127.5	258.0
127.0	280.0
127.5	295.5
128.0	311.5
129.5	252.0
129.5	275.0
129.0	327.0
129.5	333.0
129.5	340.0
130.0	284.5
130.5	301.0
130.5	345.5
130.0	351.5
131.5	268.5
131.0	317.0
132.5	244.0
132.0	262.0
132.0	290.0
134.5	279.5
134.5	296.0
134.5	307.0
134.0	322.0
135.5	249.5
135.0	256.0
135.3	273.3
135.0	313.0
135.5	329.0
136.0	335.5
136.5	342.0
136.5	348.0
137.0	285.0
137.0	301.0
138.0	263.0
139.7	268.7
139.0	291.0
140.5	246.0
140.5	311.0
140.0	318.0
141.5	252.0
141.5	275.0
141.5	281.0
141.0	324.5
141.7	331.7
142.3	297.3
142.0	304.0
142.0	338.0
142.7	344.7
143.0	258.0
143.5	286.0
143.5	351.0
145.0	264.5
145.7	291.7
146.5	242.5
146.0	270.5
146.5	315.0
146.5	321.0
147.7	276.7
147.5	308.0
147.0	327.0
148.0	248.5
148.0	334.0
148.5	340.0
149.5	254.5
149.0	282.5
149.0	301.5
149.0	346.5
150.5	261.0
150.5	295.0
151.7	288.3
152.0	267.0
152.7	272.3
153.7	277.7
153.0	311.5
153.0	318.0
153.0	324.0
154.3	244.3
154.5	305.0
154.0	330.0
154.0	336.5
155.5	299.0
155.0	342.5
155.5	349.0
156.0	250.5
157.0	257.0
156.0	283.0
157.8	263.4
157.0	293.0
158.5	274.0
158.7	287.7
159.0	269.5
159.5	321.0
159.5	326.5
160.0	308.5
160.0	314.5
160.0	332.5
160.5	338.5
161.5	247.0
161.0	277.5
161.5	302.0
161.0	345.0
163.0	253.0
162.0	351.0
163.0	284.0
163.5	296.0
164.5	259.0
164.5	290.0
165.5	265.5
166.0	272.5
166.5	306.0
166.3	311.3
166.5	317.0
166.0	323.5
166.0	329.0
166.0	335.0
166.5	341.0
167.0	242.5
167.5	347.0
168.5	249.0
168.0	279.0
168.7	300.3
169.5	286.0
170.5	255.0
171.5	262.0
171.0	293.0
172.5	268.0
172.7	313.3
172.5	320.0
172.0	326.0
172.0	332.0
172.0	338.0
172.5	343.5
173.0	274.5
173.0	307.0
174.5	245.0
174.3	299.0
174.3	349.7
175.0	281.0
176.0	251.0
176.5	287.0
177.3	257.3
178.0	263.5
178.0	293.0
178.3	328.3
178.3	334.7
178.0	340.0
178.5	346.0
179.0	270.0
179.5	304.0
179.0	310.0
179.0	316.0
179.0	322.0
180.3	276.3
180.7	298.7
181.0	282.0
182.0	247.0
182.5	350.0
183.3	253.3
183.0	288.5
184.3	259.3
184.5	325.0
184.5	331.0
184.5	337.5
184.0	343.5
185.0	266.0
185.5	295.0
185.5	307.0
185.0	313.0
185.0	319.5
186.0	272.0
186.5	278.0
186.0	301.5
187.0	243.0
188.0	283.5
188.7	347.7
189.7	247.7
189.5	289.0
190.5	255.0
190.0	340.5
191.0	261.5
191.5	268.0
191.7	304.7
191.5	310.5
191.0	316.5
191.0	322.5
191.0	328.0
191.0	335.0
192.5	274.0
192.0	298.5
193.0	293.5
193.5	351.0
194.0	280.0
194.0	285.0
194.0	344.5
196.0	251.0
196.0	258.0
196.5	319.5
196.5	325.5
196.0	331.0
196.5	339.0
197.5	264.0
197.0	289.5
197.3	307.7
197.3	313.7
198.0	271.0
198.8	301.3
199.5	277.0
199.0	295.0
200.0	242.0
200.7	283.7
200.5	334.0
200.0	343.5
202.0	248.0
202.0	254.0
202.0	322.0
202.3	328.7
203.0	260.5
203.0	290.0
203.0	305.5
203.0	316.5
203.7	338.7
203.5	348.5
204.0	267.0
204.0	311.0
205.0	273.0
205.0	296.0
206.0	279.5
206.5	333.0
207.0	244.0
207.5	302.0
207.0	325.0
207.0	343.0
208.3	250.3
208.7	256.7
208.0	285.5
208.5	319.0
209.5	263.0
209.5	291.5
209.0	307.5
210.5	269.0
210.5	313.0
210.5	329.0
210.5	338.5
210.0	348.5
211.5	275.5
212.0	297.5
213.0	281.5
213.7	303.3
213.5	324.0
213.5	334.0
214.0	246.0
214.3	252.3
214.0	318.0
214.0	344.0
215.3	258.7
215.0	287.5
215.0	309.0
216.0	265.0
216.5	293.0
216.5	339.0
217.0	271.0
217.0	329.0
217.0	349.0
218.5	277.0
218.5	299.0
218.0	314.0
220.7	242.3
220.0	249.0
220.5	255.0
220.0	283.5
220.3	304.3
220.0	319.0
220.0	334.0
220.7	344.3
221.5	325.0
222.0	261.5
222.0	289.0
222.5	310.0
223.0	267.0
223.5	273.5
223.0	339.5
223.5	350.0
224.0	295.0
224.0	315.0
224.0	330.0
225.5	251.5
225.0	279.5
225.5	300.5
226.5	320.5
226.5	335.0
227.3	246.3
227.0	257.0
227.0	285.0
227.5	306.0
227.5	345.0
228.7	263.3
228.5	269.5
228.5	326.0
228.0	340.0
229.0	290.5
229.0	311.5
230.5	296.5
230.0	331.5
230.0	351.5
231.0	251.0
231.0	275.5
231.0	316.5
232.5	281.0
232.0	302.0
232.5	322.0
232.0	336.5
233.0	257.0
233.5	342.0
234.0	267.0
234.5	286.5
234.5	307.0
234.5	347.5
235.0	246.0
235.0	327.0
236.5	262.5
236.7	271.7
236.0	292.0
236.0	312.5
236.5	333.0
237.5	252.5
237.7	277.3
237.5	298.0
237.0	318.0
238.0	338.0
239.5	283.0
239.0	303.5
239.0	323.5
239.0	344.0
240.3	258.3
240.7	288.3
240.5	349.0
241.0	242.0
241.0	266.5
241.0	308.5
241.0	329.0
242.0	248.0
242.5	273.0
242.0	294.0
242.0	314.5
243.0	334.5
244.0	254.0
244.5	279.0
244.0	299.5
244.0	319.5
244.0	339.5
245.5	305.0
245.5	325.5
245.3	345.3
246.5	259.0
246.0	285.0
246.0	351.0
247.0	264.0
247.5	269.5
247.5	290.5
247.0	310.0
247.0	330.5
248.0	243.0
248.0	316.0
249.0	249.0
249.5	275.0
249.0	295.5
249.0	336.0
250.5	301.0
250.0	321.5
250.0	342.0
251.0	255.0
251.0	281.0
251.0	327.0
251.5	347.0
252.5	260.0
252.5	287.0
252.0	306.0
253.5	266.0
253.0	312.0
253.0	332.5
254.7	244.7
254.7	271.7
254.5	292.0
254.0	318.0
254.5	338.0
255.3	297.7
255.5	323.0
256.0	251.0
256.0	277.0
256.0	343.5
257.5	257.0
257.5	302.5
257.0	328.5
257.3	349.3
258.0	283.0
258.5	308.0
258.7	313.7
258.5	334.0
259.0	262.5
260.7	267.7
260.7	273.3
260.0	288.0
260.0	293.5
260.0	319.5
260.0	339.5
261.0	246.5
261.5	325.0
261.5	345.5
262.5	279.0
262.0	299.0
263.0	252.5
263.5	304.5
263.0	330.5
263.0	351.0
264.3	258.3
264.5	284.0
264.5	315.0
264.0	336.0
265.7	289.7
265.0	309.5
265.5	321.0
265.5	342.0
266.5	243.0
266.0	264.0
266.5	270.0
266.5	295.0
267.5	275.0
267.5	326.0
267.0	347.0
268.0	248.5
268.5	300.0
268.5	352.5
269.0	280.0
269.0	316.5
269.0	332.0
269.3	337.7
270.0	254.0
270.7	285.7
270.0	306.0
271.7	259.7
271.5	291.5
271.5	311.5
271.3	321.3
271.0	343.5
272.5	244.5
272.0	266.0
272.3	271.3
273.3	296.3
273.7	326.7
273.0	348.5
274.5	249.0
274.0	276.5
274.5	301.5
274.5	316.5
274.0	334.5
275.0	339.5
276.5	255.0
276.0	281.5
276.5	287.0
276.0	307.0
277.0	331.0
277.0	344.5
278.0	260.0
278.0	266.0
278.0	292.0
278.0	322.0
279.0	245.0
279.0	272.0
279.7	297.7
279.0	312.0
279.5	336.0
279.0	349.5
280.5	250.5
280.0	278.0
280.5	303.0
280.0	327.0
281.5	283.0
281.3	317.7
281.0	340.5
282.0	256.0
283.0	262.0
283.5	288.0
283.0	308.5
283.5	332.0
283.0	345.5
284.0	268.0
284.5	293.5
284.0	322.5
284.5	350.5
285.0	246.5
285.0	273.5
285.5	299.0
285.0	313.5
285.0	337.0
286.5	252.0
286.5	279.0
286.7	304.3
286.5	327.5
287.0	341.5
288.0	258.0
288.0	284.5
288.0	318.5
288.5	346.5
289.7	263.7
289.0	310.0
289.0	332.5
290.5	269.0
290.0	289.5
290.3	295.3
290.0	323.5
291.0	243.0
291.5	275.0
291.5	301.0
291.5	315.0
291.0	337.5
291.0	351.5
292.0	248.0
292.5	280.5
292.5	328.5
293.5	254.0
293.0	306.0
293.0	342.5
294.5	259.0
294.0	319.5
294.7	333.3
295.0	285.5
295.5	291.5
295.5	311.0
295.5	347.5
296.0	265.0
296.5	270.5
296.5	297.0
296.3	324.7
297.3	276.3
297.5	302.5
297.0	338.5
297.0	352.5
298.0	316.0
298.5	329.5
299.5	244.0
299.5	250.0
299.0	343.0
300.0	256.0
301.0	282.5
300.0	308.0
300.0	320.5
300.7	334.3
301.0	261.0
301.7	312.3
301.0	348.0
302.0	266.5
302.7	272.3
302.0	299.0
302.5	339.0
303.5	304.0
303.0	325.5
304.0	277.5
304.0	317.0
304.5	330.0
305.0	247.0
305.0	344.0
306.0	252.0
306.0	257.5
306.5	285.0
306.0	309.0
306.0	321.5
306.5	335.0
306.5	349.0
307.3	263.3
307.5	300.0
308.0	269.0
308.5	290.5
308.5	313.5
308.5	326.0
308.5	340.0
309.0	275.0
309.5	280.5
310.5	295.5
310.0	305.0
310.0	318.0
310.0	331.0
310.0	345.0
311.3	243.3
311.5	249.0
312.0	254.0
312.7	259.3
312.0	286.0
312.5	310.0
312.5	322.5
312.0	336.0
312.0	349.5
313.3	265.3
314.0	271.0
314.7	276.7
314.7	291.7
314.0	300.5
314.5	314.5
314.0	327.0
314.0	341.0
316.0	282.5
316.5	296.5
316.5	305.5
316.5	318.5
316.5	332.0
316.0	346.0
317.7	250.3
318.0	245.0
318.0	256.0
318.0	287.5
318.3	310.3
318.0	323.5
318.0	337.0
318.3	350.7
319.0	261.5
319.3	267.3
320.5	273.0
320.0	278.5
320.5	292.5
320.0	301.0
320.0	328.0
320.0	342.0
321.5	284.0
321.0	315.0
322.5	306.0
322.0	319.0
322.0	333.0
322.0	347.0
323.3	247.3
323.0	288.5
323.5	296.5
323.5	338.0
324.0	253.0
324.3	258.7
324.5	311.0
324.0	324.0
324.0	351.5
325.0	264.0
325.5	270.0
325.5	275.5
325.5	329.5
325.5	343.0
326.5	281.0
326.0	301.5
327.7	286.3
327.3	292.3
327.0	315.5
327.0	334.5
328.5	306.5
328.5	320.0
328.0	348.0
329.0	243.5
329.0	249.5
329.7	339.3
330.0	255.5
330.5	261.0
330.0	297.0
330.0	325.5
331.0	266.5
331.0	272.5
331.5	278.0
331.3	311.3
331.5	330.0
331.3	344.3
332.3	283.3
332.5	288.5
332.0	302.0
332.5	316.5
333.0	293.0
333.0	335.5
333.5	349.0
334.3	321.3
335.0	246.0
335.0	252.0
335.7	258.3
335.5	306.5
335.5	326.5
335.0	340.5
336.5	264.0
336.5	296.5
336.7	345.3
337.0	269.5
337.0	275.0
337.5	280.5
337.5	286.0
337.5	291.0
337.0	301.5
337.5	312.5
337.5	331.5
338.7	317.7
338.5	350.5
339.0	336.5
340.0	323.0
341.5	243.5
341.0	249.0
341.5	304.0
341.5	327.5
341.0	341.5
342.0	255.0
342.3	261.3
342.5	267.0
342.7	272.7
342.7	288.3
342.5	293.5
342.0	299.0
342.0	309.0
342.5	346.5
343.0	277.5
343.0	283.0
343.0	314.0
343.0	333.0
344.5	337.5
344.0	351.5
345.0	319.0
346.0	324.5
346.0	343.0
347.0	252.0
347.5	301.0
347.3	306.3
347.0	329.0
348.7	246.7
348.0	258.0
348.5	264.0
348.0	269.5
348.0	275.0
348.0	280.5
348.0	286.0
348.0	291.5
348.0	296.5
348.0	310.5
348.5	334.0
348.0	348.0
349.5	315.5
349.5	339.5
350.5	320.5
351.3	303.3
351.5	326.0
351.7	344.3
351.0	352.0
352.3	251.3
352.5	331.0
353.0	242.0
353.5	267.0
353.5	272.5
353.5	278.0
353.5	289.0
353.5	294.5
353.0	299.0
353.5	336.0
354.0	256.0
354.0	261.0
354.0	283.0
354.0	307.5
354.7	312.3
355.0	317.0
355.0	340.5
355.0	348.5
356.5	247.0
356.0	322.5
357.0	327.5
358.5	252.0
358.7	269.7
358.5	281.0
358.5	292.0
358.5	298.0
358.0	303.0
358.0	333.0
358.5	338.0
358.3	344.3
359.5	264.0
359.0	275.5
359.0	286.0
359.5	309.0
359.5	349.5
360.3	242.3
360.0	258.0
360.0	314.0
360.5	319.0
361.5	324.5
362.5	248.0
362.0	329.5
363.0	335.0
363.0	340.5
363.5	346.0
364.5	261.5
364.0	273.0
364.0	278.5
364.5	284.0
364.0	289.0
364.0	295.0
364.0	300.0
364.0	305.5
365.0	253.5
365.0	267.5
365.0	311.0
365.5	316.0
365.5	351.0
366.0	321.0
367.0	243.0
367.0	326.5
367.5	332.0
367.5	337.0
368.0	342.5
369.0	249.0
369.0	257.5
369.5	297.0
369.3	302.3
369.5	308.0
369.0	347.0
370.3	264.3
370.3	270.3
370.0	275.5
370.0	281.5
370.5	286.5
370.0	291.5
370.3	313.3
371.0	318.0
371.5	323.5
371.5	352.0
372.5	253.5
372.5	328.5
373.0	334.0
373.0	338.5
373.5	344.0
374.0	244.0
375.0	259.5
375.5	267.0
375.5	278.5
375.5	284.5
375.0	289.5
375.0	294.5
375.0	300.0
375.0	304.5
375.5	310.0
376.5	273.0
376.0	315.5
376.5	321.0
377.0	249.0
377.0	325.5
377.5	330.0
377.0	352.0
378.5	264.0
378.0	336.0
378.0	340.5
378.5	346.0
379.0	254.5
380.5	281.5
380.0	286.5
380.7	291.7
380.5	302.5
381.0	245.0
381.0	269.5
381.0	297.0
381.5	312.5
382.0	260.0
382.0	275.0
382.0	307.5
382.0	318.0
382.0	323.0
382.5	328.0
382.7	333.3
383.0	338.5
383.0	344.0
384.0	250.0
384.0	265.0
385.5	279.0
385.5	284.0
385.7	289.3
386.0	255.5
386.5	271.0
386.0	295.0
386.0	300.0
387.0	305.0
387.0	310.0
387.0	315.0
387.0	320.5
387.5	325.5
387.5	331.0
387.0	351.5
388.0	246.0
388.0	261.0
388.0	336.0
388.0	341.0
388.0	346.5
389.0	276.0
390.0	251.0
390.5	266.0
391.0	281.0
391.0	286.5
391.0	292.0
392.5	256.5
392.5	271.5
392.5	297.0
392.3	302.3
392.3	307.3
392.0	312.0
392.0	317.0
392.5	322.5
392.5	344.0
392.5	350.0
393.0	328.0
393.0	333.0
393.0	338.5
394.0	247.0
394.5	262.0
396.5	267.0
396.0	278.0
396.0	284.0
397.0	252.0
397.5	289.0
397.0	294.5
397.5	305.0
397.5	315.0
397.5	320.0
397.7	325.3
397.0	346.5
398.7	242.7
398.0	272.5
398.0	299.5
398.0	310.0
398.0	330.5
398.0	335.5
398.5	341.5
399.0	257.0
400.0	350.0
401.0	248.0
401.0	263.0
401.3	276.3
401.5	281.5
402.5	286.5
402.5	291.5
402.5	337.5
402.0	345.5
403.0	253.5
403.5	268.0
403.0	296.5
403.0	302.0
403.0	306.5
403.0	312.0
403.0	317.5
403.0	322.5
403.0	328.0
403.0	333.0
405.0	244.0
405.5	259.0
405.5	273.5
405.7	341.7
406.0	350.0
407.0	278.5
407.5	283.5
407.7	324.7
407.5	336.5
408.0	249.0
408.0	264.5
408.0	289.0
408.3	294.3
408.5	304.5
408.5	310.0
408.5	315.0
408.0	320.0
408.0	331.5
408.5	345.5
409.5	254.5
409.5	270.0
409.0	299.5
411.0	327.0
411.5	341.0
411.5	350.0
412.7	245.3
412.0	260.5
412.0	275.0
412.5	280.5
413.5	286.0
413.3	317.3
413.0	322.0
413.5	336.0
414.7	250.7
414.5	266.0
414.5	291.0
414.3	296.7
414.0	302.0
414.5	307.5
414.0	312.5
415.0	331.0
415.7	346.3
416.5	256.0
416.0	271.0
417.5	276.5
417.0	326.0
417.0	341.0
418.0	321.0
419.0	246.5
419.0	262.0
419.0	282.0
419.0	287.5
419.5	316.0
419.0	335.5
420.7	252.7
420.0	293.5
420.0	300.0
420.0	305.5
420.0	311.0
420.5	330.0
420.5	349.0
421.0	267.5
421.0	344.0
422.5	273.0
422.5	325.0
423.0	258.0
423.5	279.0
423.0	339.0
424.0	242.0
424.3	284.3
424.7	314.7
424.0	320.0
425.3	248.3
425.0	263.5
425.0	289.5
426.2	304.4
425.5	309.5
425.0	334.0
426.0	295.0
426.5	329.0
426.5	343.0
426.5	346.5
427.5	254.0
427.0	269.0
427.7	299.7
427.0	351.5
428.0	275.0
428.0	324.0
428.5	338.0
429.5	260.0
429.5	318.5
430.5	244.0
430.0	280.5
430.5	286.0
430.5	313.0
431.5	265.5
431.5	292.0
431.5	308.0
431.0	333.0
432.5	250.0
432.5	302.5
432.5	327.5
432.0	343.0
432.0	349.0
433.0	271.5
433.0	297.0
434.5	256.0
434.5	277.0
434.3	322.7
435.0	337.5
436.0	261.5
436.0	282.0
436.3	311.7
436.0	317.5
436.5	332.0
437.0	246.0
437.5	267.0
437.0	288.5
437.5	306.0
437.5	346.0
437.5	351.5
438.5	300.5
438.0	327.0
439.0	252.0
439.0	273.0
439.0	294.5
439.0	341.5
440.7	257.7
440.0	321.5
440.5	336.5
441.0	278.5
441.3	315.7
442.5	263.5
442.3	284.3
442.5	310.0
442.5	331.0
443.0	242.0
443.5	269.0
443.0	290.5
444.0	299.0
443.0	348.0
444.7	247.7
444.0	304.5
444.0	325.5
444.5	342.0
445.5	274.5
446.3	253.3
446.5	295.0
446.0	319.5
446.5	335.5
447.3	259.3
447.0	280.5
447.0	314.0
448.5	265.0
448.0	286.0
448.0	329.5
448.0	352.0
449.0	308.5
449.0	346.0
450.0	244.0
450.5	271.0
450.0	291.0
450.0	324.0
450.5	340.0
451.5	249.5
451.5	276.0
451.0	303.5
452.5	255.0
452.5	297.5
452.0	318.5
452.5	334.0
453.7	260.7
453.0	282.0
453.5	313.0
454.3	328.7
454.0	349.5
455.0	266.5
455.5	307.5
455.5	323.0
455.5	344.0
456.0	293.0
456.0	338.5
457.5	245.0
457.3	277.3
457.0	302.0
458.0	251.0
458.5	261.5
458.0	317.0
458.7	333.3
459.3	256.3
460.7	281.7
460.5	297.0
460.0	312.0
460.0	348.0
461.0	327.5
461.0	342.0
462.0	265.5
462.0	306.5
462.0	322.0
463.0	276.0
463.0	291.5
463.0	337.0
464.0	247.0
464.5	316.5
465.5	253.0
465.0	259.0
465.5	286.0
465.0	301.5
465.0	331.0
465.5	346.0
465.0	352.0
466.0	270.5
466.5	340.5
467.5	281.0
467.3	295.7
467.0	311.0
467.0	326.0
468.0	264.0
469.5	243.0
469.7	290.7
469.0	306.0
469.0	320.5
469.0	336.0
470.0	249.0
470.0	275.5
471.0	258.5
471.5	315.5
471.0	330.5
471.0	344.0
471.0	349.5
472.0	269.0
472.0	285.5
472.0	300.5
473.5	295.0
473.5	310.0
473.5	325.0
473.3	340.7
474.0	253.0
474.0	280.0
475.3	263.3
475.7	319.7
475.5	335.0
476.5	274.0
476.5	289.0
476.5	305.0
476.0	352.5
477.0	246.5
477.0	346.0
478.0	257.5
478.5	284.0
478.7	299.3
478.0	314.0
478.0	330.0
479.5	268.0
479.5	340.0
480.7	293.7
480.0	309.0
480.0	324.5
481.0	252.0
481.0	279.0
482.0	263.0
482.0	319.0
482.5	335.5
482.0	350.0
483.3	273.7
483.0	288.5
483.0	303.5
483.0	344.0
484.5	247.0
484.0	313.5
484.5	330.0
485.5	257.0
485.5	283.0
485.0	298.0
486.0	268.0
486.0	324.0
487.0	292.5
487.0	308.0
487.0	340.0
488.0	242.0
488.0	318.0
488.5	334.0
488.0	347.5
489.5	252.0
489.0	262.0
489.5	273.0
489.3	278.7
489.0	287.0
489.7	302.3
490.0	313.0
490.0	328.0
492.0	246.5
492.7	267.7
492.5	284.0
492.0	297.0
492.0	323.0
492.7	344.3
493.3	257.3
493.5	338.0
493.0	350.5
494.0	290.0
494.0	307.0
494.0	317.5
494.3	332.3
495.0	273.5
495.7	326.7
496.5	263.0
496.5	301.0
497.5	251.5
497.0	280.0
497.5	295.0
497.0	312.0
498.7	285.7
498.5	348.0
499.5	245.0
499.5	269.0
499.0	322.0
499.5	330.0
499.0	336.0
499.0	342.0
500.0	258.5
500.5	306.0
500.7	316.7
501.0	275.0
501.5	291.0
503.5	264.0
503.7	296.7
503.0	311.5
504.0	254.5
504.0	281.0
504.5	326.5
504.5	333.0
504.0	345.5
504.0	351.5
505.5	302.5
505.0	320.5
505.0	339.0
506.5	242.5
506.0	249.0
506.0	270.0
506.5	287.0
507.5	308.0
508.0	259.0
508.5	276.0
508.5	292.5
508.0	314.5
510.5	265.0
510.5	282.5
510.5	330.0
510.0	336.0
510.0	342.0
510.0	348.5
511.0	253.5
511.0	298.0
511.0	324.0
512.7	317.7
513.0	247.0
513.0	271.5
513.0	288.0
513.3	304.7
513.0	311.0
515.5	259.5
515.3	277.3
515.0	352.0
516.0	293.0
516.5	333.0
516.0	339.0
516.0	345.5
517.5	283.0
517.5	321.0
517.5	327.0
518.0	252.5
518.0	266.5
518.0	298.5
519.5	246.0
519.0	309.0
519.0	315.0
520.0	272.5
520.0	303.0
521.5	263.0
521.0	279.0
521.5	288.0
521.5	349.0
522.5	257.0
522.0	336.5
522.0	343.0
523.0	293.5
523.0	324.0
523.0	330.5
524.5	251.0
525.0	299.5
525.0	306.0
525.0	312.5
526.0	268.5
526.0	275.5
526.0	283.0
526.5	352.0
527.0	245.0
528.0	261.5
528.5	289.5
528.5	327.0
528.5	340.0
528.3	345.7
529.5	255.0
529.7	295.7
529.0	334.0
530.5	302.0
531.5	279.0
531.0	308.5
531.0	315.0
532.0	249.0
532.0	272.5
532.5	349.0
533.5	243.0
533.7	266.3
534.5	285.0
534.5	330.0
535.7	260.3
535.5	292.0
535.0	337.0
535.5	343.5
536.0	298.5
536.5	305.0
536.7	317.7
537.0	254.0
537.7	278.0
537.0	311.5
538.7	271.3
538.0	350.0
539.0	247.5
540.0	327.0
541.5	265.0
541.0	289.0
541.5	295.0
541.7	320.7
541.0	333.0
541.3	339.3
543.0	258.8
542.5	308.0
542.5	346.0
543.0	282.5
543.0	301.5
543.0	314.5
544.5	252.0
544.5	276.0
544.0	352.5
546.0	245.5
546.3	269.3
546.0	324.0
547.0	292.5
547.0	329.5
547.7	335.7
548.5	263.0
548.0	286.0
548.5	312.0
548.5	318.5
548.0	342.0
549.3	298.3
549.0	305.5
549.0	348.0
550.5	257.0
550.0	280.5
551.5	250.0
551.0	274.0
552.0	243.5
553.0	291.0
553.0	324.5
553.5	332.0
554.0	267.5
554.5	285.0
554.0	317.5
554.0	338.0
554.5	344.0
555.5	303.0
555.0	309.5
555.0	350.0
556.0	261.0
556.3	278.3
557.0	254.5
557.0	296.0
558.7	271.7
559.7	242.7
559.0	248.5
559.5	289.5
559.3	321.3
559.5	328.5
560.5	314.0
560.0	335.0
560.3	341.7
561.0	265.5
561.5	283.0
561.3	307.3
561.0	348.5
562.5	259.0
563.0	301.0
564.5	253.0
564.0	277.0
564.0	294.0
565.5	318.5
565.5	325.0
566.0	246.5
566.0	270.0
566.5	287.5
566.0	332.0
566.5	338.0
566.7	344.7
567.0	311.5
568.5	264.0
568.5	305.0
568.5	351.0
569.5	257.0
569.0	281.0
570.5	298.5
571.0	274.5
571.5	292.0
572.3	243.3
572.3	250.3
572.0	315.5
572.0	322.5
572.7	329.3
573.7	335.3
573.0	346.5
574.0	268.0
574.0	285.5
574.3	308.7
574.5	341.0
575.5	262.0
575.7	351.7
576.3	255.3
576.3	279.3
577.0	296.5
577.0	302.5
577.0	319.0
578.3	290.7
578.5	326.0
579.0	246.5
579.0	272.5
580.0	313.5
580.0	332.5
580.0	345.5
581.0	252.5
581.3	265.7
581.0	284.0
581.5	307.0
581.0	339.0
582.5	259.5
582.0	295.0
582.5	351.0
583.5	278.0
584.5	300.0
584.0	319.0
585.5	271.0
585.0	289.5
585.0	328.0
586.7	247.7
586.5	312.0
586.0	345.5
587.0	255.0
587.0	335.0
588.0	283.0
588.0	305.0
588.3	341.3
589.0	264.0
589.0	294.5
589.0	323.0
591.0	276.5
592.0	317.3
592.3	288.7
592.0	300.0
592.5	310.0
592.0	329.0
593.0	245.0
593.0	251.5
593.0	345.0
593.5	352.0
594.0	258.5
594.5	335.0
595.0	269.5
596.0	282.5
596.5	304.5
596.5	323.0
597.0	295.5
597.0	340.5
598.5	312.0
599.5	248.0
599.3	263.3
599.0	276.0
599.0	329.5
599.3	347.3
600.0	255.0
600.0	288.0
600.7	318.3
602.0	299.5
602.0	335.5
603.7	270.3
603.5	282.0
603.0	293.5
603.3	306.3
603.7	324.7
604.0	342.0
605.0	313.0
606.0	245.0
606.0	252.0
606.0	258.5
606.0	331.0
607.0	288.0
607.5	319.5
607.5	349.0
608.0	265.0
608.0	276.0
608.5	295.0
609.5	308.0
609.5	336.5
610.7	301.3
610.3	324.7
611.0	282.5
612.5	254.5
612.8	260.3
612.0	271.0
612.0	314.0
612.0	342.5
613.0	247.5
613.0	331.0
614.0	289.0
615.0	277.0
615.0	320.0
615.0	348.5
616.5	265.0
616.0	296.5
616.0	308.5
617.0	325.0
618.0	283.5
618.0	337.5
619.7	250.7
619.0	257.5
619.0	314.0
619.5	330.5
620.0	244.0
620.0	272.0
620.0	291.0
620.5	303.0
620.3	344.7
621.7	320.7
622.7	278.7
623.0	309.0
623.0	352.0
624.3	266.7
624.3	297.7
624.5	325.5
625.5	260.5
625.0	285.5
626.3	253.7
626.0	316.0
626.5	332.5
626.0	339.5
627.5	246.5
627.5	292.0
627.5	304.0
628.7	347.3
629.0	272.5
630.5	310.5
630.0	322.0
631.0	280.5
631.5	327.0
632.0	265.5
633.8	258.6
633.0	300.5
633.5	335.0
634.5	252.0
634.5	291.5
634.0	317.5
634.5	342.5
635.3	245.7
635.7	306.3
636.5	270.0
637.3	277.3
637.0	324.0
638.0	330.8
637.0	349.5
638.5	312.5
639.0	284.5
640.0	300.0
640.3	338.3
641.5	242.0
641.5	256.0
641.0	291.5
641.5	319.5
642.0	249.5
642.5	264.0
642.5	345.0
644.0	272.0
643.0	307.5
643.5	326.0
644.2	352.6
645.0	280.5
645.0	332.5
64.5	462.0
65.5	355.0
65.7	361.7
65.0	455.5
66.5	385.5
66.0	417.0
67.0	368.5
67.0	404.5
67.0	429.0
67.0	448.5
68.7	391.7
68.0	440.5
69.0	375.0
69.5	423.0
70.7	410.7
72.0	364.3
71.0	434.5
71.5	460.0
72.0	381.0
72.0	399.0
72.7	453.3
73.7	445.3
74.0	358.0
74.5	370.0
74.5	387.0
74.0	417.0
75.5	405.0
75.0	428.5
76.7	375.7
76.7	439.3
77.0	393.0
77.0	422.5
78.5	364.0
78.7	411.3
78.5	458.0
79.5	382.0
79.5	433.0
79.5	451.0
80.0	399.5
81.0	358.0
81.0	418.0
81.5	445.0
82.5	369.5
82.0	387.5
83.0	406.0
85.0	394.0
84.0	425.5
84.0	437.5
84.5	462.5
86.0	376.3
85.3	455.7
86.0	364.0
86.0	413.5
86.5	449.5
87.3	400.7
88.7	357.7
88.0	382.0
88.0	431.0
89.5	389.0
89.0	420.0
89.0	443.5
90.5	407.5
91.5	370.0
91.5	454.0
91.0	460.5
92.0	396.0
92.0	425.5
92.3	436.3
93.7	363.3
93.0	377.5
93.5	414.0
93.5	448.0
94.5	384.0
95.0	402.0
96.0	358.0
96.5	420.0
96.3	430.7
96.0	441.5
97.5	373.5
97.0	390.5
98.0	408.5
98.5	458.5
99.7	368.3
99.7	396.7
99.7	425.7
99.0	452.0
100.0	378.5
100.0	436.5
100.0	446.0
101.5	362.0
101.0	414.5
102.0	385.0
102.5	403.5
103.0	356.0
103.0	430.5
104.7	391.7
104.0	420.5
104.5	442.0
104.0	462.0
105.5	373.5
105.5	449.0
105.0	455.5
106.0	409.5
107.5	367.0
107.0	380.0
107.0	398.0
107.7	426.3
107.0	436.0
108.5	360.0
108.5	415.5
109.3	386.7
110.0	354.0
110.0	404.0
110.3	459.3
111.0	432.0
111.5	453.0
112.5	393.0
112.5	422.0
112.0	446.5
113.5	370.0
113.0	376.0
113.5	382.0
113.0	410.5
113.0	439.5
114.0	363.5
114.5	399.0
115.5	357.5
115.7	416.7
116.0	428.0
116.5	463.0
117.5	387.0
117.0	405.0
117.7	450.3
117.0	457.0
118.0	434.0
120.0	374.0
119.5	380.0
119.0	394.0
119.3	422.7
119.0	444.0
120.0	368.0
120.5	412.0
121.5	361.0
121.5	400.5
122.0	439.0
122.7	460.7
123.5	354.5
123.5	390.0
123.5	418.0
123.0	429.5
124.5	406.0
124.5	447.0
124.0	454.0
125.5	384.0
126.0	377.5
126.0	396.0
126.5	424.0
126.0	435.0
127.5	365.0
127.0	371.0
127.5	412.5
127.5	441.0
128.5	358.0
128.7	401.3
129.0	463.5
130.0	428.5
130.0	452.0
130.5	418.5
130.7	434.7
131.5	381.0
131.0	390.5
131.5	458.0
132.5	375.0
132.0	407.0
132.0	446.5
133.0	369.0
133.0	396.0
134.0	362.0
134.0	413.0
134.5	424.0
135.0	385.0
135.0	441.0
137.0	354.5
136.5	401.5
136.0	431.0
136.0	453.0
138.0	391.0
138.5	408.0
138.0	419.0
139.0	366.5
139.0	373.0
139.0	380.0
139.0	436.5
139.5	448.0
139.5	459.0
140.0	360.5
140.0	396.5
141.0	414.0
141.0	425.0
142.0	385.5
143.0	403.0
143.3	430.7
143.0	442.5
143.0	453.5
145.0	375.5
144.3	391.3
145.0	356.5
145.0	369.0
145.5	409.0
145.0	420.0
146.0	363.0
146.5	381.0
146.5	437.0
146.5	459.0
147.5	397.5
147.0	448.5
148.0	426.0
149.0	387.0
149.0	414.5
150.5	353.0
150.0	371.0
150.0	403.5
150.3	442.7
150.0	454.0
151.5	359.0
151.5	392.0
151.0	432.0
152.0	377.0
152.0	421.0
153.0	365.5
153.5	382.5
153.0	409.5
153.5	460.0
154.0	398.0
154.0	449.0
155.5	415.5
155.0	427.0
155.0	437.5
156.5	355.0
156.5	372.0
156.0	388.0
157.0	404.0
157.5	444.0
157.0	454.5
158.0	361.0
158.0	378.0
158.7	393.3
159.5	421.0
159.0	432.5
159.0	460.0
160.0	367.0
160.0	410.0
160.5	449.0
161.0	383.5
161.0	399.0
162.5	427.0
162.0	438.0
163.0	357.0
163.0	373.0
163.0	389.0
163.3	415.7
164.0	405.0
164.3	443.3
164.5	455.0
164.5	462.0
165.0	362.5
165.0	378.5
166.0	394.0
166.5	422.0
166.0	433.0
167.0	368.5
167.0	384.5
167.0	410.5
167.0	448.5
168.0	353.0
168.5	400.0
169.5	358.5
169.5	427.0
169.0	438.0
170.0	374.0
170.0	389.5
170.0	416.0
171.0	405.5
171.0	453.0
171.0	458.5
172.0	364.0
172.0	379.5
172.3	395.3
172.0	443.0
173.7	355.3
173.0	422.0
173.7	432.7
174.0	369.5
174.5	385.0
174.0	411.0
175.0	401.0
175.0	448.5
176.0	359.5
176.0	375.0
176.0	427.0
177.0	390.5
177.0	417.0
177.0	438.5
177.0	455.0
178.5	364.5
178.0	407.0
178.0	461.0
179.5	355.0
179.0	380.0
179.5	396.0
179.5	422.5
179.0	444.0
181.0	370.0
181.0	386.0
181.0	412.5
181.0	429.0
181.5	450.5
182.0	402.0
182.5	434.0
183.0	360.0
183.0	376.0
183.0	391.0
183.5	418.0
184.5	439.5
184.0	457.0
185.0	365.0
185.0	381.0
185.0	408.0
186.0	396.5
186.0	424.0
186.0	446.0
186.0	463.0
187.5	354.0
187.5	370.5
187.0	386.5
187.0	413.5
187.5	430.0
188.5	403.0
188.0	452.5
189.0	376.0
189.3	435.3
190.0	361.0
190.0	392.0
190.0	419.0
191.5	382.0
191.0	408.5
191.0	441.5
191.0	459.0
192.0	367.0
192.0	398.0
192.5	425.0
192.5	448.0
194.5	357.0
194.0	372.5
194.0	387.0
194.0	414.0
194.0	454.0
195.0	403.5
195.7	431.7
195.5	438.0
196.0	377.5
196.0	393.0
196.5	419.5
197.0	363.0
197.0	444.0
198.0	383.0
198.0	409.0
198.5	425.5
198.0	462.5
199.7	353.3
199.0	368.0
199.0	398.0
199.0	451.0
199.5	457.0
200.3	373.3
200.0	388.0
200.0	415.0
201.7	403.7
201.5	435.0
202.0	359.0
202.0	378.5
202.5	394.0
202.5	429.5
203.0	364.5
203.0	420.5
203.0	441.0
204.5	369.5
204.0	384.0
204.0	409.5
204.5	447.0
204.5	460.0
205.7	398.7
205.0	454.0
206.5	389.0
207.0	354.0
207.0	374.5
207.5	404.5
207.0	415.0
207.0	425.5
208.0	361.0
208.5	380.0
208.0	432.0
209.3	366.3
209.5	394.0
209.0	420.0
209.0	438.0
210.0	385.0
210.5	409.5
210.5	444.0
210.5	457.0
210.5	463.0
211.3	371.3
211.5	451.0
212.0	399.5
212.5	424.0
213.0	357.0
213.0	377.0
213.0	415.0
213.5	429.0
214.0	353.0
214.5	382.5
214.5	389.0
214.5	405.0
214.5	435.0
215.0	362.5
215.5	441.0
216.0	368.0
216.0	395.0
216.5	447.0
216.5	460.0
217.0	410.5
217.0	420.0
217.5	454.0
218.0	373.0
219.0	354.0
219.5	359.0
219.0	379.0
219.0	400.0
219.0	415.5
219.0	426.0
220.0	385.0
220.5	406.0
220.0	431.5
221.3	364.3
221.3	390.3
221.0	437.0
222.5	370.0
222.0	443.5
222.3	457.3
223.0	396.0
223.0	411.0
223.0	422.0
223.0	450.0
224.5	355.5
224.0	375.5
224.5	416.0
224.7	427.7
225.0	381.0
225.0	401.5
225.5	433.0
226.0	360.5
226.5	386.5
226.7	406.3
226.5	439.0
226.7	454.7
227.5	366.0
228.5	371.5
228.0	392.0
228.0	445.0
228.0	460.5
229.0	397.5
229.0	412.5
229.7	423.3
230.0	377.0
230.0	418.0
230.5	450.5
231.0	357.0
231.5	382.5
231.5	403.0
231.5	429.0
232.5	362.0
232.0	435.0
232.5	456.0
233.0	388.0
233.3	408.3
233.5	441.0
234.0	367.5
234.3	393.3
234.0	463.0
235.5	353.0
235.0	373.5
235.0	414.0
235.5	420.0
235.0	446.5
236.0	379.0
236.0	398.5
236.0	425.5
237.0	358.5
237.7	384.3
237.0	431.0
237.0	452.0
238.0	364.0
238.0	404.0
238.7	436.7
238.5	458.0
239.0	389.5
239.5	410.0
240.0	369.0
240.0	416.5
240.0	442.5
241.5	354.5
241.0	375.0
241.0	395.0
241.5	422.0
241.3	448.3
242.0	380.5
242.5	400.0
242.5	427.0
243.0	360.5
243.5	386.0
243.0	433.0
243.5	454.0
244.3	365.3
244.0	406.0
245.5	371.0
245.0	391.0
245.5	412.0
245.0	438.0
245.0	459.5
246.5	396.5
246.0	418.0
246.5	444.0
247.5	356.5
247.0	377.0
247.5	423.5
248.3	382.3
248.5	402.0
248.0	429.0
248.0	450.0
249.0	362.0
249.7	434.3
249.3	455.3
250.5	367.0
250.0	387.5
250.0	408.0
251.5	373.0
251.0	414.0
251.0	440.0
251.0	461.5
252.5	353.0
252.0	393.0
252.0	419.5
253.0	378.0
253.0	398.5
253.0	425.0
253.0	445.5
254.0	358.0
254.0	384.0
254.5	404.0
254.0	430.5
254.5	451.0
255.0	363.5
255.5	436.0
255.7	457.3
256.0	369.0
256.0	389.5
256.0	409.0
257.5	395.0
257.0	415.0
257.5	421.0
257.3	441.7
258.5	354.5
258.0	374.5
258.5	427.0
258.0	462.5
259.0	380.0
259.0	400.5
259.0	453.0
260.0	359.5
260.5	385.5
260.5	406.0
260.0	432.0
260.5	447.5
261.0	365.0
261.5	437.5
262.0	370.5
262.0	391.0
262.0	411.0
262.5	417.0
262.0	458.0
263.0	376.0
263.0	396.5
263.0	423.0
264.0	428.5
264.0	442.5
265.0	356.5
265.0	381.5
265.0	402.0
265.5	434.0
265.0	452.5
266.0	361.5
266.0	387.0
266.7	407.7
267.0	367.0
267.5	393.0
267.5	419.0
267.7	447.7
268.0	372.5
268.0	413.0
268.5	425.0
268.5	457.5
269.0	378.0
269.0	398.0
269.0	430.0
269.0	438.5
270.5	358.0
271.0	383.0
271.0	403.5
271.3	443.3
271.5	453.0
271.0	462.0
272.0	363.0
272.5	369.0
272.0	388.5
273.7	374.3
273.0	394.0
273.5	409.0
273.0	416.0
273.5	421.5
273.7	433.7
274.5	354.0
274.0	427.5
274.3	448.7
275.0	380.0
275.0	399.0
275.0	439.0
275.0	457.5
276.7	358.7
276.5	366.0
276.5	385.0
277.0	404.5
277.7	444.3
277.0	463.5
278.5	371.0
278.0	390.0
278.0	413.5
278.5	419.5
278.5	453.0
279.5	363.0
279.3	376.3
279.5	395.0
279.5	409.0
279.0	425.0
279.0	430.0
280.0	435.0
281.0	354.5
281.0	381.0
281.0	400.0
281.5	440.5
281.5	449.0
281.0	459.0
282.5	367.5
282.0	386.0
283.3	359.7
283.0	405.0
283.0	411.5
283.0	417.0
284.3	372.7
284.0	391.0
284.0	422.0
284.7	427.3
285.5	377.5
285.3	396.3
285.0	432.5
285.3	444.3
285.0	455.0
286.0	364.0
286.5	382.5
286.5	438.0
287.0	355.5
287.5	401.0
287.0	408.5
287.5	460.0
288.0	369.0
288.0	387.5
288.0	414.0
288.0	450.0
289.7	360.7
289.0	373.0
289.5	392.0
289.7	405.7
289.0	419.0
289.7	424.3
290.5	430.0
291.5	365.5
291.0	378.5
291.0	397.0
291.7	410.3
291.0	435.0
291.3	445.3
291.7	455.3
292.0	383.0
292.0	440.5
292.5	462.0
293.0	356.5
293.3	370.3
293.5	402.0
293.0	416.0
294.0	388.5
294.5	421.0
294.5	449.5
295.5	361.5
295.0	375.0
295.3	393.3
295.3	407.3
295.5	426.5
296.5	380.0
296.5	432.0
296.5	458.5
297.5	366.5
297.0	398.0
297.0	412.0
297.5	438.0
297.5	444.0
298.5	357.5
298.0	384.5
298.5	454.0
298.5	463.5
299.0	371.5
299.5	389.0
299.5	403.5
299.0	417.5
300.5	423.0
300.5	449.0
301.0	377.0
301.0	394.5
301.0	408.5
301.0	428.5
302.5	353.0
302.0	362.5
302.0	381.5
302.0	434.0
302.0	459.0
303.0	357.5
303.0	368.0
303.0	386.0
303.5	399.0
303.0	414.0
303.0	439.5
304.7	390.3
304.5	445.5
304.0	454.0
305.0	373.0
305.0	404.5
305.0	419.5
305.3	463.7
306.5	365.0
306.0	378.0
306.0	425.0
307.5	360.5
307.5	383.0
307.5	395.0
307.0	410.0
307.0	431.0
307.0	450.0
308.0	354.5
308.0	436.5
308.0	458.5
309.5	370.0
309.0	387.5
309.0	400.5
309.0	416.0
309.0	442.0
310.5	447.5
311.5	364.5
311.0	392.0
311.0	406.0
311.0	421.5
311.5	427.5
312.0	359.0
312.5	410.5
312.0	433.0
312.0	453.5
313.0	396.5
313.5	438.5
314.0	354.5
314.7	372.3
314.5	388.0
314.5	401.5
314.7	415.3
314.5	443.5
314.5	459.0
315.0	368.0
316.5	377.5
316.3	392.7
316.3	419.7
316.5	424.5
316.0	449.5
317.5	359.0
317.0	364.0
317.5	383.5
317.0	406.0
317.0	430.0
318.0	398.0
318.5	411.5
318.0	435.0
318.0	455.0
319.0	440.0
320.5	355.0
320.0	368.5
320.0	374.0
320.0	389.0
320.3	402.7
320.5	416.0
320.5	445.5
321.0	460.0
322.0	360.0
322.0	364.5
322.0	394.0
322.3	407.7
322.0	421.0
322.3	426.3
322.0	451.0
323.0	384.5
323.0	431.5
324.5	371.5
324.0	376.0
324.0	399.0
324.5	412.5
324.0	437.0
324.0	456.5
325.0	389.5
325.0	442.0
326.0	356.5
326.5	367.0
326.0	404.0
326.0	417.5
326.3	447.3
327.0	361.5
327.0	394.5
327.5	423.0
327.5	428.0
327.0	461.0
328.0	378.5
328.5	386.0
328.0	409.0
328.5	433.5
328.3	452.7
329.0	374.5
329.5	399.5
330.0	353.0
330.0	414.0
330.0	438.5
330.0	443.5
330.5	456.5
331.5	358.5
331.8	364.0
331.5	390.5
331.5	405.0
332.0	382.5
332.7	395.3
332.0	419.0
332.0	449.5
333.5	410.0
333.5	424.5
333.0	430.0
334.5	372.5
334.3	377.7
334.5	386.5
334.0	435.5
334.0	460.5
335.0	354.5
335.0	367.5
335.0	401.0
335.5	415.0
335.5	445.5
335.5	454.5
336.5	391.5
336.0	440.0
337.5	359.0
337.5	382.0
337.0	406.0
337.5	429.0
338.0	374.0
338.5	396.5
338.0	419.5
338.0	450.0
339.5	369.5
339.7	387.3
339.5	411.0
339.0	434.0
339.5	459.0
340.0	364.5
340.0	378.0
340.5	402.0
340.0	424.5
340.5	444.5
341.0	355.5
341.5	393.0
341.5	415.5
341.7	439.3
342.5	374.0
342.5	429.0
342.0	454.0
343.0	359.5
343.0	384.0
343.0	406.5
343.5	420.0
344.0	397.5
344.7	434.3
344.0	448.5
345.5	364.5
345.0	389.0
345.7	402.7
345.0	411.5
345.5	425.0
346.5	416.0
346.0	444.0
346.0	458.0
347.0	356.0
347.5	394.0
349.0	360.5
348.0	373.5
348.0	407.5
348.0	429.5
348.0	439.0
348.0	452.5
350.0	377.0
349.0	385.0
349.5	399.0
349.0	421.0
350.5	412.5
350.5	434.0
350.0	448.0
351.0	390.0
351.0	425.5
351.0	461.0
352.5	395.0
352.0	404.0
352.0	443.5
352.0	456.0
353.2	381.4
352.7	416.7
353.0	357.0
353.0	373.0
353.5	408.5
354.0	386.0
354.0	430.0
354.0	438.5
354.0	452.0
355.0	400.0
355.0	421.5
355.5	447.0
356.7	369.3
356.7	390.3
356.5	412.0
356.3	434.7
357.0	354.0
357.5	405.5
357.3	426.3
357.3	459.7
358.0	359.0
358.0	385.0
358.3	395.7
358.0	417.5
358.0	442.5
359.0	379.0
359.5	454.5
360.5	400.5
360.0	431.0
360.5	449.0
361.5	355.0
361.3	409.3
361.0	422.0
361.0	438.0
362.7	371.7
362.0	391.5
362.5	405.0
362.0	414.0
362.5	463.0
363.5	360.0
363.5	427.0
364.0	376.5
364.0	396.5
364.7	418.7
364.0	444.0
364.5	458.0
365.5	368.5
365.5	433.5
365.5	453.0
366.0	401.5
366.5	423.5
366.5	439.0
367.5	356.0
367.5	373.0
367.5	380.5
367.3	413.7
368.5	393.5
368.0	448.0
368.5	462.5
369.5	360.5
369.5	377.0
369.0	385.0
369.7	418.7
369.0	428.5
370.0	398.0
370.0	443.5
370.7	457.3
371.0	369.0
371.0	409.5
372.0	390.5
372.0	402.5
372.5	423.5
372.7	432.7
372.0	438.0
372.0	452.0
373.3	356.7
373.0	381.5
373.0	414.5
374.0	364.5
374.0	373.5
374.5	395.5
374.5	406.5
374.5	447.0
374.5	461.5
375.0	386.5
375.7	419.3
375.0	428.5
376.5	360.5
376.7	368.7
376.5	378.0
376.5	400.5
376.0	410.5
376.0	441.5
376.7	456.3
377.5	391.0
377.5	436.5
378.7	356.3
378.7	382.3
378.0	424.0
378.3	451.3
379.5	373.5
379.5	405.5
379.0	415.5
380.0	364.5
380.0	396.0
380.0	431.0
380.0	446.0
381.3	386.7
381.0	460.5
382.0	360.0
382.0	378.0
382.5	401.0
382.5	410.5
382.0	420.0
382.0	440.5
382.0	455.0
383.0	369.0
383.0	391.5
383.3	425.3
383.5	435.5
384.0	382.5
384.0	449.5
385.0	356.0
385.0	364.0
385.0	395.5
385.0	415.5
385.5	430.0
386.0	387.5
386.0	406.0
386.0	444.5
387.0	459.0
388.5	360.0
388.0	372.0
388.7	391.7
388.0	411.0
388.5	420.5
388.5	425.5
388.0	439.5
388.0	454.0
389.3	367.3
389.5	382.5
390.5	355.0
390.3	376.3
390.6	404.4
390.0	434.0
390.0	449.0
391.0	396.0
391.3	415.3
391.0	463.0
392.0	363.0
392.5	387.5
392.0	429.5
392.0	443.5
393.0	371.5
393.5	410.0
393.5	424.5
393.0	457.5
394.0	358.0
394.5	392.0
394.0	400.0
394.0	438.5
394.5	452.5
395.0	367.0
395.0	419.5
396.3	375.7
396.5	404.5
396.0	433.5
396.3	447.7
397.0	354.5
397.5	362.5
397.0	395.5
397.0	414.5
397.0	462.0
398.7	370.7
398.5	387.5
398.5	409.5
398.0	429.0
398.5	442.5
399.5	379.5
399.0	400.0
399.7	423.7
399.5	457.0
400.0	358.0
400.3	366.3
400.3	391.3
400.0	437.0
401.5	383.0
401.7	404.7
401.5	419.0
401.0	451.5
402.3	413.7
402.5	432.5
402.7	446.7
403.5	354.5
403.5	363.0
403.0	374.0
403.0	395.0
403.5	461.0
404.5	369.0
404.5	387.0
404.5	409.0
404.0	427.5
404.7	441.3
405.5	379.0
405.5	400.0
405.5	423.0
405.5	455.5
406.5	418.0
407.0	359.0
407.5	363.5
407.0	391.0
407.0	436.5
407.0	450.0
408.0	373.5
408.0	405.0
408.0	413.0
408.5	431.5
409.5	354.5
409.0	383.0
409.0	396.0
409.7	426.3
409.0	445.5
410.0	369.0
410.5	387.5
410.0	459.5
411.5	378.5
411.5	400.5
411.7	421.3
411.0	440.5
412.3	363.7
412.5	416.0
412.0	455.0
413.0	359.0
413.0	435.0
413.0	449.5
414.0	373.0
414.0	405.5
414.0	411.0
414.5	430.0
414.5	463.5
415.5	353.5
415.5	382.5
415.5	388.0
415.0	396.0
416.5	368.0
416.5	425.0
416.0	444.0
416.3	458.7
417.0	362.5
417.3	377.3
417.0	420.0
417.7	438.7
418.0	453.5
419.5	372.5
419.0	392.5
419.7	403.3
419.0	408.5
419.0	414.0
419.5	433.5
419.5	448.0
420.0	358.5
420.0	386.0
420.0	397.5
421.5	353.5
421.5	381.0
421.3	428.7
421.5	463.0
422.0	364.0
422.0	368.0
422.0	423.0
422.0	443.0
422.3	457.3
423.5	376.0
423.5	417.5
424.5	390.0
424.5	401.0
424.7	406.7
424.0	412.0
424.5	437.0
424.5	452.0
425.0	395.0
426.0	356.5
426.0	372.0
426.0	384.5
426.5	432.0
426.5	446.5
427.5	361.0
427.0	366.5
427.7	420.7
427.0	426.5
427.0	460.5
428.0	379.5
428.5	441.5
429.3	393.3
429.5	404.0
429.5	409.5
429.0	415.0
429.7	455.7
430.0	375.0
430.5	388.0
430.0	398.5
430.0	451.0
431.3	369.3
431.5	436.5
432.0	354.5
432.0	359.0
432.3	364.3
432.5	383.0
432.0	429.5
432.5	446.0
433.0	424.0
433.0	461.5
434.5	378.0
434.5	407.0
434.5	412.5
434.0	418.0
435.7	372.7
435.0	391.0
435.0	396.0
435.0	401.0
435.5	441.5
435.0	451.0
436.5	367.5
436.0	432.5
437.5	357.0
437.7	362.3
437.0	387.0
437.0	456.5
438.5	382.0
438.0	421.5
438.3	427.3
438.0	437.0
438.5	446.5
439.5	410.0
439.0	416.0
439.5	462.0
440.5	376.5
440.5	392.0
440.5	398.5
440.0	404.0
441.0	371.0
441.5	442.0
441.0	452.0
442.5	360.0
442.3	365.7
442.0	432.0
443.0	354.0
443.0	386.5
443.0	423.5
443.0	457.0
444.5	407.5
444.5	418.5
444.0	447.0
445.0	381.0
445.0	401.5
445.0	412.5
445.5	428.0
445.0	437.0
446.5	375.0
446.0	396.0
446.0	462.0
447.5	364.0
447.0	369.5
447.0	390.0
447.0	452.5
448.0	358.0
448.0	433.0
448.0	442.0
449.0	385.0
449.5	405.0
449.7	415.7
449.0	423.0
450.5	399.5
450.0	458.0
451.0	379.5
451.5	410.0
451.7	437.7
451.0	448.0
452.5	367.5
452.0	373.5
452.0	394.5
452.5	428.0
453.0	355.0
453.0	361.5
453.3	389.3
453.5	453.0
453.0	463.0
454.0	419.0
454.5	443.0
455.0	384.5
455.0	404.5
455.0	433.0
456.0	399.5
456.0	414.0
456.3	423.7
456.5	458.5
457.0	379.5
457.5	448.0
458.5	353.5
458.5	359.0
458.0	365.0
458.0	371.0
458.0	394.0
458.0	409.0
458.0	438.0
459.0	388.5
459.3	418.7
459.3	428.3
460.5	403.5
460.3	453.3
461.3	383.3
461.0	443.0
462.7	373.7
462.7	378.7
462.0	398.0
462.0	413.5
462.0	423.5
462.0	432.5
463.0	368.0
463.0	459.0
464.0	357.5
464.0	363.0
464.0	392.5
464.5	408.0
464.0	448.0
465.7	387.3
465.0	418.0
465.5	427.5
465.0	438.0
466.5	402.5
467.3	382.3
467.5	413.0
467.0	454.0
468.5	372.0
468.0	377.0
468.5	397.0
468.0	422.5
468.0	432.5
468.0	443.0
469.5	361.0
469.0	366.0
470.0	355.5
470.0	391.5
470.5	407.0
470.5	448.0
470.0	459.0
471.5	386.0
471.0	418.0
471.0	437.5
472.5	381.0
472.0	427.0
473.0	401.5
473.5	453.5
474.3	369.7
474.0	376.0
474.0	412.0
474.5	422.0
474.5	432.5
475.5	358.5
475.0	364.0
475.0	395.5
475.0	443.0
476.5	390.5
477.5	384.5
477.0	406.0
477.5	448.5
477.0	459.0
478.5	379.0
478.0	417.0
478.0	427.0
478.0	438.0
479.5	373.5
479.0	400.0
480.5	362.0
480.0	367.5
480.0	411.0
480.0	454.0
481.5	356.0
481.5	394.5
481.5	422.0
481.0	432.5
481.0	443.0
482.7	388.3
483.7	382.7
484.5	377.0
484.0	406.0
484.0	416.0
484.5	427.0
484.0	448.5
484.0	458.5
485.5	371.0
485.0	438.0
486.3	359.3
486.0	365.0
486.0	399.5
487.3	353.7
487.0	393.0
487.0	411.0
487.5	421.0
488.0	386.5
488.0	433.0
488.0	443.5
488.5	453.5
489.3	380.3
489.7	405.3
490.0	374.0
490.5	416.0
491.7	362.7
491.0	368.5
491.0	427.0
491.5	438.0
491.5	448.0
491.0	459.0
492.5	357.0
492.3	395.3
492.3	400.7
493.5	384.0
493.0	390.0
493.0	410.0
494.0	421.0
495.0	377.5
495.5	405.0
495.0	432.0
495.0	443.0
495.5	454.0
496.0	372.0
497.0	366.0
497.5	399.0
497.0	415.5
498.0	354.0
498.0	360.0
498.0	387.5
498.0	393.5
498.0	426.0
498.0	437.0
498.0	448.5
498.0	460.0
499.7	381.3
500.5	410.0
501.0	375.5
501.0	421.0
501.5	443.0
502.3	369.3
502.0	404.5
502.0	431.5
502.0	454.5
503.7	357.3
503.0	363.5
503.3	385.3
503.5	391.0
504.0	397.5
504.5	416.0
504.5	449.0
505.5	426.0
505.0	437.0
505.5	460.0
506.3	379.3
506.5	410.0
507.3	373.3
508.0	367.0
508.0	403.5
508.7	442.3
508.5	454.0
509.0	355.0
509.0	361.0
509.0	386.5
509.5	392.5
509.0	421.0
509.0	431.5
510.5	398.0
511.0	415.0
512.5	426.0
512.0	437.5
512.7	449.3
512.5	460.0
513.0	370.5
513.0	376.0
513.5	382.0
513.0	408.5
514.0	364.5
515.0	358.5
515.0	389.0
515.0	402.5
515.5	431.5
515.7	443.7
517.0	420.0
516.0	455.0
517.0	395.5
517.5	413.5
518.5	367.0
518.5	372.5
519.5	378.0
519.5	407.5
519.0	426.5
519.5	437.5
519.5	449.0
519.0	460.5
520.5	362.0
520.0	385.0
521.0	355.0
521.0	401.0
522.0	391.0
523.3	417.7
523.0	432.0
523.0	443.0
523.0	454.5
524.0	369.5
524.0	380.5
524.0	396.0
524.5	411.5
525.0	422.0
526.0	358.0
526.5	375.0
526.5	386.0
526.5	399.0
526.5	405.0
526.0	426.5
526.5	437.0
526.5	448.5
526.5	459.5
527.0	364.5
529.0	392.0
529.0	414.5
529.5	431.5
530.0	370.0
530.5	380.5
531.0	421.0
530.0	442.5
530.0	454.5
531.0	396.0
532.0	354.0
532.0	360.0
532.5	402.0
532.5	409.0
533.0	386.0
533.0	426.5
533.3	436.7
534.0	365.0
534.0	375.0
534.3	448.7
534.0	460.5
535.5	391.5
536.5	415.0
536.7	431.7
537.0	380.5
537.5	398.0
537.5	442.5
538.5	356.5
538.5	363.0
538.5	370.0
538.5	404.0
538.7	426.3
538.0	454.5
539.0	386.5
539.5	420.5
540.5	409.5
540.0	437.0
541.0	376.0
541.5	393.0
541.5	460.0
542.0	448.5
543.0	365.0
543.0	382.0
543.0	414.0
543.5	431.5
544.0	400.5
544.5	442.0
545.5	359.0
545.0	371.0
545.5	425.5
546.0	388.0
546.5	407.0
546.0	454.0
547.7	376.7
547.0	419.0
548.0	394.0
548.0	436.5
548.7	447.3
549.0	365.0
549.0	412.0
549.0	460.0
550.0	354.5
550.0	383.0
550.5	400.5
550.0	430.5
552.0	371.5
552.7	388.7
552.5	425.0
552.5	442.0
553.0	360.0
553.5	407.0
553.0	454.0
554.5	377.5
554.3	435.7
555.0	395.0
555.0	418.5
556.0	366.0
556.7	447.7
557.5	355.0
557.7	383.7
557.5	401.0
557.0	412.0
557.0	429.5
557.0	459.5
559.5	372.5
559.5	390.0
559.3	440.7
560.0	361.0
560.0	406.5
560.0	423.5
560.7	453.3
561.7	378.3
561.0	434.0
562.5	395.5
563.5	367.0
563.0	417.0
564.3	355.7
564.5	385.0
564.3	428.7
564.0	447.0
564.5	458.5
565.0	400.5
565.5	439.0
566.0	411.5
567.3	362.3
567.0	372.5
567.5	391.0
567.0	406.0
567.0	422.0
568.0	433.5
568.5	453.5
570.0	379.5
570.0	396.5
570.5	416.5
570.0	444.0
571.0	367.5
571.0	427.5
572.0	357.0
572.5	386.0
572.0	402.5
572.7	409.7
572.5	459.0
573.0	438.0
573.0	448.5
574.0	374.0
574.5	392.0
574.0	422.0
575.5	363.0
576.7	398.7
576.0	432.5
576.3	453.7
577.0	380.5
577.0	443.5
578.5	368.5
578.5	405.0
578.0	417.0
579.5	357.0
579.3	386.3
579.7	410.7
579.8	426.0
580.0	437.5
580.7	449.3
580.0	460.0
581.0	375.0
581.3	393.3
583.3	363.3
583.5	381.0
583.5	400.0
583.0	420.5
583.3	431.7
584.0	443.5
584.5	454.5
585.3	369.3
585.5	388.0
585.0	414.5
587.4	356.8
587.0	407.5
587.0	425.0
587.7	437.3
588.0	375.5
588.5	395.0
588.5	449.0
588.5	461.0
590.5	364.0
590.0	382.5
590.0	419.5
591.5	401.0
591.5	430.5
592.3	389.3
592.0	413.0
592.0	443.5
592.5	455.0
593.0	370.0
594.3	425.7
595.0	358.5
595.0	377.0
595.5	407.5
595.0	436.5
596.5	395.5
596.0	449.5
596.3	460.7
597.0	384.5
597.0	418.5
598.0	365.5
599.0	429.5
599.0	442.5
600.5	372.0
600.0	389.5
600.5	401.5
600.7	455.3
601.7	353.7
602.3	360.3
602.5	379.5
602.7	436.3
602.0	448.5
603.5	424.0
604.7	394.3
604.0	461.5
605.0	367.0
605.3	386.7
606.0	408.5
606.5	416.5
606.3	429.3
607.5	374.0
607.0	442.5
608.3	451.3
608.5	456.5
609.0	355.5
609.0	362.5
609.5	435.0
610.0	381.0
610.0	423.5
612.3	389.3
612.3	396.3
612.5	404.0
612.5	411.0
612.0	461.5
613.7	361.7
613.0	369.5
613.0	440.0
614.3	428.7
615.0	376.0
615.5	448.0
616.0	455.5
617.5	415.0
616.7	422.3
617.0	356.0
617.0	382.0
617.7	434.7
618.5	408.0
619.3	365.3
619.0	399.5
619.0	462.0
620.0	372.0
620.0	392.5
621.3	443.0
622.0	379.0
622.0	429.0
622.7	450.7
623.5	385.0
624.7	359.7
624.5	457.5
625.0	404.0
625.0	411.0
625.5	418.0
625.3	436.7
626.0	396.0
627.0	367.5
627.0	425.0
628.3	374.7
628.5	390.0
628.5	445.5
629.5	382.0
629.0	432.0
630.0	354.0
630.5	453.0
631.0	401.0
631.5	407.5
632.3	362.7
632.5	414.0
632.5	421.0
632.3	459.3
633.0	439.5
634.5	428.0
635.0	369.5
635.6	448.8
636.5	388.0
636.0	396.0
637.0	378.5
637.0	435.0
638.5	358.0
639.0	403.5
639.0	411.0
639.5	417.5
640.3	444.0
639.0	455.5
640.0	365.0
640.5	424.0
641.5	372.5
641.5	430.0
642.5	385.0
642.7	392.7
642.5	462.0
643.7	438.3
644.5	360.0
644.5	400.0
644.0	450.5
645.0	378.0
645.0	407.0
64.3	492.7
65.7	485.3
65.0	525.0
68.0	472.5
67.0	478.5
67.3	549.7
68.7	531.3
69.7	496.7
69.0	504.0
69.7	518.3
70.0	466.5
71.7	490.7
71.0	538.5
73.5	477.0
73.0	547.0
74.0	484.0
75.0	515.5
74.0	527.0
75.0	534.0
75.0	508.0
75.7	553.7
76.5	471.0
77.0	464.0
77.5	501.0
77.5	521.0
78.0	494.0
79.5	488.0
80.0	540.5
81.7	481.3
81.5	528.0
81.5	548.5
82.5	475.0
82.4	512.8
82.5	556.0
83.0	468.5
83.5	506.0
84.8	498.8
84.0	563.0
84.5	570.0
85.0	522.5
86.5	492.0
86.5	535.0
87.0	485.5
88.5	479.5
88.5	516.5
88.3	543.7
89.0	473.0
89.5	510.0
89.0	528.0
89.0	551.5
90.0	467.0
90.0	559.0
90.7	566.3
90.7	573.7
91.0	503.0
92.5	496.5
93.5	490.0
93.0	522.0
94.5	484.0
94.0	533.0
94.5	540.0
95.5	471.0
95.5	477.0
95.5	515.5
96.0	547.0
97.0	508.5
96.0	554.0
97.0	464.5
97.5	562.5
98.5	501.0
98.5	528.0
98.5	570.0
100.5	487.5
100.5	494.0
100.5	521.0
101.5	475.0
101.5	481.0
101.0	536.5
102.0	543.0
102.7	468.7
102.5	514.0
103.7	506.3
105.0	532.0
104.0	550.5
104.7	558.3
106.0	500.5
106.0	525.5
106.0	566.5
106.0	574.0
107.5	484.5
107.3	490.3
108.0	478.5
108.5	519.0
108.7	538.7
109.7	472.3
110.0	465.5
110.7	505.7
110.0	546.0
110.5	553.5
111.0	495.0
111.0	513.0
111.7	530.7
112.3	562.7
113.3	523.7
113.0	571.5
114.5	482.0
114.5	500.5
115.0	476.0
115.0	489.0
116.5	470.0
116.0	517.0
116.3	535.3
116.0	542.5
117.5	509.0
117.0	550.0
118.5	558.0
119.0	495.5
119.0	528.5
119.5	566.5
120.5	479.0
121.3	485.3
121.5	502.0
121.0	521.5
122.0	539.5
123.0	467.5
123.5	491.0
123.7	546.3
123.5	574.0
124.3	474.3
124.0	515.0
125.0	507.5
125.0	527.0
125.0	553.5
126.5	534.0
126.5	561.5
127.3	480.3
127.3	496.3
128.5	522.5
129.5	486.0
129.0	502.5
129.3	569.3
130.5	469.5
130.0	540.5
131.0	509.5
131.7	547.7
132.0	476.0
132.5	491.5
132.0	529.5
133.0	516.5
134.5	497.5
134.0	555.5
135.7	480.7
135.0	536.0
135.5	564.0
136.0	464.5
136.7	503.7
136.0	523.5
137.0	542.0
137.0	571.0
138.5	486.0
139.0	472.5
139.0	510.0
139.0	530.5
139.5	549.5
140.0	492.5
141.0	517.5
142.7	465.7
142.0	498.0
142.0	537.0
142.0	557.5
143.0	480.5
143.5	524.0
143.0	565.0
144.0	504.0
144.5	544.0
144.5	572.5
145.0	488.0
145.8	512.0
146.0	470.5
146.5	531.0
147.0	551.5
148.5	477.0
149.0	483.5
148.0	494.0
148.0	519.0
148.7	559.7
149.0	536.0
150.0	465.0
150.0	507.0
150.7	566.7
151.5	500.0
151.0	525.0
151.3	541.3
152.5	547.5
152.5	574.0
153.0	471.0
153.0	489.0
153.5	513.5
154.0	530.5
155.0	478.0
155.7	495.3
155.5	554.0
156.0	519.5
156.5	561.5
157.0	484.0
157.5	507.0
157.0	536.5
158.0	465.5
158.7	568.3
159.0	525.5
159.0	543.0
160.3	472.3
160.0	491.0
160.0	501.0
160.5	549.5
161.3	513.3
162.5	479.0
162.0	531.5
163.0	556.5
164.5	486.0
164.3	496.7
164.0	520.5
164.7	537.7
164.5	563.0
165.0	507.5
166.0	468.0
167.0	474.5
167.5	526.5
167.5	544.5
168.5	571.5
169.5	480.5
169.0	492.0
169.0	502.5
169.0	514.5
169.0	551.0
170.7	532.7
171.5	464.5
171.0	558.0
172.7	470.7
172.5	487.0
172.5	539.0
172.5	565.0
173.0	498.0
173.0	509.0
173.0	521.0
174.5	476.0
175.0	546.0
176.5	515.0
176.0	527.5
176.3	570.3
177.0	482.0
177.0	492.0
177.0	503.5
177.7	533.7
177.0	553.5
179.3	466.3
179.0	562.0
180.5	472.5
180.5	498.0
180.0	510.0
180.0	521.5
180.0	540.5
181.0	478.5
181.5	486.0
182.0	548.5
183.0	528.0
184.3	492.7
184.0	505.0
184.0	516.0
184.5	534.0
184.0	555.5
184.0	568.5
186.5	469.0
187.3	475.3
187.5	482.0
187.7	522.7
187.0	542.0
187.5	562.0
188.5	500.0
188.3	511.7
188.7	574.7
189.0	488.5
189.3	549.3
190.7	529.3
191.5	556.0
192.3	465.3
192.0	494.5
192.0	506.0
192.3	517.7
192.3	536.7
193.0	471.0
193.5	477.5
193.0	567.0
194.3	483.7
194.7	544.3
195.7	500.3
195.5	523.5
196.0	489.5
196.0	512.0
197.3	551.7
197.5	560.0
197.0	573.0
198.5	468.0
199.2	531.4
199.0	474.0
199.0	495.0
199.0	506.5
199.5	539.0
200.0	480.0
200.0	485.0
200.7	567.3
201.0	518.0
202.0	524.5
202.5	547.0
203.0	489.0
203.0	500.0
203.5	512.0
204.5	465.5
204.0	554.5
204.5	561.5
205.0	471.5
205.7	483.7
205.5	536.0
206.0	477.5
206.5	494.0
206.5	506.0
206.5	574.5
207.0	529.0
207.7	541.7
208.5	523.0
208.5	568.0
209.7	499.7
209.0	517.0
210.0	469.0
210.0	488.0
210.0	548.0
211.5	511.0
211.5	556.0
212.0	475.0
212.5	482.0
213.5	505.0
213.0	536.0
214.0	493.0
214.5	528.0
214.0	563.5
215.5	499.5
215.5	522.0
215.3	543.7
215.7	571.3
216.0	467.0
216.0	487.0
216.7	550.7
217.0	472.0
217.0	515.5
218.5	509.5
219.0	477.0
220.0	532.0
219.5	558.0
220.5	483.5
220.0	503.0
220.5	539.0
221.7	489.7
221.0	496.0
221.5	520.0
221.5	526.0
221.5	546.0
221.0	565.5
223.0	464.0
223.7	472.3
223.5	513.0
223.3	571.7
224.7	552.3
225.0	507.0
226.0	479.0
226.0	500.5
226.5	536.0
226.7	559.7
227.0	487.0
227.5	530.0
227.0	542.0
228.5	467.0
228.3	493.3
228.3	517.7
228.0	524.5
228.0	566.0
229.0	574.5
230.5	473.0
230.3	510.7
230.0	547.5
231.7	483.3
231.7	498.3
231.0	504.0
232.7	540.3
232.0	555.5
233.0	478.5
233.5	489.0
233.5	534.0
235.0	561.5
234.7	568.7
235.5	469.0
235.5	515.0
235.0	521.5
235.0	528.5
236.0	495.0
236.0	508.0
236.5	550.0
237.3	501.3
238.0	475.5
238.0	483.5
238.0	544.5
239.7	538.3
240.5	464.0
240.5	532.0
240.3	556.3
240.7	565.3
241.0	491.0
241.0	519.5
241.5	526.0
242.0	470.0
242.7	497.3
242.0	512.5
242.0	571.5
243.3	504.3
244.0	480.5
244.0	485.5
244.0	549.5
245.0	475.0
245.0	543.0
245.0	561.0
246.5	537.0
247.0	465.0
247.5	489.5
247.5	510.0
247.5	517.0
247.7	523.3
248.0	495.0
248.3	500.3
248.0	530.5
248.5	555.5
249.5	471.0
249.0	567.5
250.3	548.7
251.0	478.0
251.5	506.0
251.5	542.0
252.0	485.0
252.3	561.3
253.7	466.7
253.3	491.3
253.3	512.7
253.7	525.3
253.5	536.0
253.0	574.0
254.0	519.0
255.5	473.0
255.0	497.0
256.0	502.5
256.0	531.0
256.0	554.5
256.0	567.5
257.0	477.5
257.7	482.3
257.5	547.0
258.5	488.0
258.0	508.0
259.5	493.5
259.5	515.0
259.7	561.3
260.0	468.0
260.0	522.0
260.0	541.0
260.0	573.5
261.5	499.0
262.0	473.5
262.5	505.0
262.0	529.0
262.0	535.5
262.0	551.0
263.5	479.0
263.5	485.0
263.5	511.0
263.5	567.5
264.5	464.0
264.0	557.0
265.0	490.5
265.7	517.7
265.0	545.0
266.5	470.0
266.7	495.7
266.5	524.0
267.5	501.5
267.3	573.7
268.3	475.3
268.0	532.0
268.5	539.0
268.5	551.0
268.0	562.0
269.0	507.5
270.0	481.0
270.5	487.0
270.5	514.0
271.5	492.0
271.0	567.5
272.0	467.0
272.5	497.5
272.0	520.0
272.0	545.5
272.5	556.5
273.5	472.0
273.5	527.5
274.0	504.0
274.5	534.5
274.3	574.3
275.5	477.5
275.5	510.0
275.5	550.0
275.5	562.5
276.0	483.0
276.5	488.5
276.5	540.5
277.5	494.0
277.0	516.0
278.5	468.5
278.5	522.0
279.0	500.0
279.7	545.3
279.3	556.7
280.7	473.7
280.7	505.7
280.0	529.0
280.0	568.5
281.5	479.0
281.7	484.7
281.3	535.3
282.0	490.5
282.5	512.0
282.7	551.3
283.0	464.5
283.5	518.0
283.5	563.5
284.0	496.0
284.0	541.0
285.0	470.0
285.5	524.0
286.7	475.7
286.5	486.5
286.0	502.0
287.0	508.0
287.0	530.0
287.0	547.0
287.0	558.0
287.0	571.0
288.3	481.7
288.5	491.5
288.5	536.0
289.0	466.0
289.0	513.5
290.7	471.7
290.0	497.5
290.3	519.3
290.5	552.0
290.5	564.0
291.0	541.5
292.0	503.5
293.0	477.0
293.0	487.0
293.0	525.5
294.5	467.0
294.0	509.0
294.3	531.7
294.0	547.0
294.5	558.0
294.5	570.0
295.0	493.0
295.7	537.3
296.0	482.0
296.0	515.0
297.5	472.5
297.0	498.5
297.5	521.0
297.5	564.5
298.0	552.0
299.5	488.0
299.0	504.5
299.0	541.5
300.0	478.0
300.3	510.7
300.0	527.5
301.3	468.3
302.0	494.0
302.0	517.0
302.0	534.0
302.0	546.5
302.0	558.0
302.5	570.0
303.5	473.5
303.0	483.5
304.0	499.5
304.0	523.0
305.0	506.0
305.3	540.7
305.5	552.5
305.5	564.0
306.0	489.0
307.7	468.3
307.0	478.5
307.0	512.5
307.0	529.0
308.5	494.5
308.5	547.0
309.0	502.0
309.0	518.5
309.0	535.5
309.5	558.5
310.0	474.0
310.0	484.0
310.0	569.0
311.5	464.0
311.5	508.0
311.5	524.5
312.3	489.3
312.0	541.5
313.0	478.5
313.0	498.0
313.5	514.0
313.0	552.5
314.0	469.0
314.0	530.0
314.7	565.3
315.7	493.7
315.0	503.0
315.0	573.5
316.5	474.0
316.0	484.0
316.0	519.5
316.5	547.0
316.5	558.5
317.7	464.3
317.5	536.0
318.0	509.0
318.5	525.0
319.5	489.0
319.0	498.5
319.5	542.0
320.7	469.7
320.0	479.0
320.5	515.0
320.0	553.0
321.5	531.0
321.0	563.5
321.0	570.0
322.5	484.0
322.5	494.0
322.0	504.5
323.3	474.3
323.0	520.0
323.5	548.0
323.0	558.0
324.0	464.5
324.0	537.0
325.7	489.3
325.0	499.0
325.0	510.0
325.5	526.0
326.0	479.5
327.3	469.3
327.0	542.5
327.5	554.0
327.0	567.0
327.5	573.5
328.5	505.0
328.0	516.0
328.0	532.0
328.7	560.7
329.5	475.0
329.0	485.0
329.0	495.0
330.0	521.5
331.0	464.5
331.0	548.5
332.0	490.0
332.0	500.0
332.0	510.5
332.0	527.5
332.0	538.0
333.0	480.0
334.0	469.5
334.5	533.0
334.5	555.0
334.0	569.0
335.5	495.0
335.0	505.5
335.0	516.0
335.0	543.5
335.0	562.0
336.5	475.0
336.0	485.0
337.7	464.7
337.0	549.0
338.0	500.0
338.0	510.5
338.3	521.3
338.0	527.5
339.5	480.0
339.0	490.0
339.0	538.5
339.5	572.0
340.7	469.7
340.5	566.0
341.7	505.3
341.5	515.5
341.7	533.3
341.3	558.7
342.0	485.0
342.0	495.0
342.3	544.7
342.5	552.0
343.0	475.0
344.3	463.3
344.7	510.7
344.0	527.5
345.0	490.0
345.0	500.0
345.5	520.5
346.3	470.7
346.0	480.0
346.0	539.0
346.5	570.5
347.7	563.3
348.5	495.0
348.0	505.0
348.5	532.5
348.0	556.5
349.0	466.0
349.7	475.7
349.0	485.5
349.0	515.5
349.0	549.5
351.0	500.0
351.0	526.5
351.0	544.0
352.0	481.0
352.0	490.5
352.0	510.0
353.5	470.5
353.5	520.0
353.0	538.0
353.5	553.5
354.0	566.0
353.8	572.6
354.7	495.3
354.5	505.0
354.0	559.5
355.5	465.0
355.5	485.5
355.0	531.5
356.0	477.0
356.5	515.0
356.5	548.5
357.5	499.5
357.5	525.0
358.3	490.3
358.5	510.0
358.0	542.5
359.0	473.0
359.0	481.5
360.5	468.5
360.5	519.5
360.0	536.0
361.0	495.0
361.5	504.5
361.0	553.5
361.0	562.0
361.0	569.0
362.5	477.0
362.5	486.0
362.5	530.0
363.0	514.5
363.3	547.7
364.0	499.5
365.0	472.5
365.5	491.0
365.0	524.5
365.0	541.5
366.0	482.0
366.3	508.7
367.0	468.0
367.5	519.0
367.5	535.0
367.0	558.5
367.0	565.0
368.5	503.0
368.5	552.0
368.3	571.7
369.0	477.0
369.3	486.3
369.5	496.5
370.0	513.5
370.0	529.0
370.5	546.0
371.5	472.0
372.5	481.5
372.0	523.5
372.5	540.0
373.0	466.5
373.0	491.0
373.0	507.5
373.0	556.0
373.5	562.0
374.5	518.0
374.0	568.5
375.0	476.5
375.0	502.0
375.0	534.0
376.3	486.3
376.5	496.0
376.5	528.0
376.0	550.5
377.0	471.0
377.0	512.0
377.5	544.5
379.0	465.5
379.0	481.0
379.0	491.0
379.5	506.0
379.0	522.5
379.0	559.0
380.3	500.7
380.0	539.0
380.7	564.7
381.0	475.0
381.0	517.0
381.5	532.5
381.0	554.5
381.7	571.3
382.5	512.0
383.3	469.7
383.5	496.0
383.7	526.3
383.0	549.0
384.5	464.0
384.5	484.0
384.5	490.0
384.7	543.3
385.3	502.3
386.0	479.0
386.0	508.0
386.0	521.0
386.0	537.0
386.0	560.0
387.0	568.0
388.0	474.0
388.0	515.5
388.0	531.0
388.0	553.5
388.7	574.7
389.5	468.5
390.0	547.5
390.0	488.0
390.0	493.0
390.5	499.0
390.0	525.0
391.0	482.5
391.0	505.0
391.0	542.0
391.5	564.0
392.0	511.0
392.7	519.3
392.5	536.0
393.0	477.5
393.0	558.0
394.0	472.5
394.0	529.5
394.5	570.0
395.0	467.0
395.7	486.3
395.5	491.0
395.5	552.0
396.5	496.0
396.5	514.0
397.0	481.0
397.0	502.5
397.0	524.0
397.3	545.7
398.5	508.5
398.0	563.5
399.0	476.0
399.3	526.7
399.0	539.5
400.5	471.0
400.5	519.0
400.0	533.5
401.3	465.7
401.5	557.0
402.0	486.5
402.0	493.0
402.7	568.3
403.0	499.5
403.0	505.0
403.5	514.0
403.3	550.7
404.0	480.5
404.5	524.0
404.0	531.0
404.7	544.3
405.5	475.0
406.5	469.5
407.7	490.3
407.5	497.0
407.0	509.5
407.0	538.0
407.0	563.0
408.0	464.5
408.0	484.5
408.0	519.0
408.5	556.0
409.0	503.0
409.0	569.5
410.5	479.0
410.5	514.0
410.5	532.0
410.0	549.5
411.5	473.5
412.7	468.3
412.0	494.0
412.5	525.5
412.0	543.0
413.0	488.0
413.0	508.5
413.5	561.0
414.0	498.5
414.0	519.0
414.3	537.3
414.7	566.7
415.0	483.0
415.3	554.7
415.0	573.0
416.7	477.7
416.3	503.3
417.7	472.7
417.5	492.5
417.0	513.5
417.0	531.0
417.0	548.5
418.7	524.3
419.0	467.5
419.5	487.0
419.5	542.5
420.5	497.5
420.0	508.0
420.7	568.3
421.0	518.5
421.0	561.5
422.5	476.5
422.7	481.7
422.0	536.0
422.5	554.0
423.5	503.0
424.0	492.0
424.0	513.0
424.0	530.0
424.0	547.5
425.0	471.0
425.5	524.0
426.3	486.7
426.5	572.0
427.0	497.5
427.0	507.5
427.5	518.0
427.0	541.5
427.5	559.0
427.0	565.5
428.5	466.0
428.0	476.0
428.0	535.5
428.3	552.7
429.5	481.0
430.5	492.0
430.5	502.0
430.5	512.5
430.0	529.0
430.7	546.7
431.5	471.5
432.0	523.0
433.7	476.7
433.0	486.5
433.7	540.7
433.0	557.0
433.0	570.5
434.0	497.0
434.0	506.5
434.0	517.5
434.3	563.3
435.0	467.0
435.0	534.0
435.5	551.0
436.5	481.5
437.0	492.0
437.0	512.0
437.0	528.0
438.0	472.0
438.0	502.0
438.5	545.5
439.0	522.0
439.7	556.7
439.0	568.0
440.0	486.5
440.0	539.0
441.0	477.0
441.0	497.0
441.5	516.0
441.0	574.0
442.3	467.3
442.0	508.5
442.0	533.0
442.7	550.7
443.7	491.7
443.0	563.0
444.0	481.5
444.7	502.3
444.0	527.0
445.3	472.3
445.5	520.0
445.5	544.0
446.5	486.0
446.5	556.5
446.0	569.0
447.5	478.0
447.5	514.0
448.0	538.0
448.0	496.0
448.0	531.0
449.0	467.5
450.5	483.0
450.0	507.5
450.0	525.0
450.0	550.0
451.0	473.0
451.5	490.0
451.0	500.5
451.0	563.0
452.0	519.0
453.5	479.0
453.5	494.5
453.0	543.5
453.5	570.0
454.0	531.5
455.0	468.5
455.7	503.3
455.0	513.0
455.0	556.5
456.5	485.0
456.5	537.0
457.0	526.0
457.5	548.5
458.0	473.5
458.0	498.0
458.0	508.5
458.5	519.0
458.5	564.0
459.0	464.0
459.5	491.0
460.5	480.0
460.0	531.5
460.5	543.0
461.5	554.0
461.5	570.5
462.0	469.5
462.0	502.5
462.5	513.5
463.0	525.0
463.0	560.0
464.0	475.0
464.0	485.5
464.0	496.5
464.0	537.0
465.0	508.0
465.0	548.0
466.0	464.0
466.3	518.7
466.5	566.0
467.0	491.0
467.5	530.5
468.0	480.0
468.5	502.0
468.5	542.5
469.0	469.5
469.0	513.0
469.0	554.0
469.0	572.5
470.5	496.0
471.5	475.0
471.0	486.0
471.0	525.0
471.5	536.5
471.3	560.3
472.0	507.5
473.0	464.0
473.5	519.0
473.0	548.5
473.5	567.0
474.5	491.0
475.5	469.0
475.0	481.0
475.0	502.5
475.3	530.3
476.0	513.0
476.0	543.0
476.0	554.5
476.3	573.3
477.5	497.0
478.7	475.3
478.5	486.0
478.0	524.5
478.0	561.5
479.5	507.5
479.0	536.0
480.5	464.0
480.3	518.7
480.5	549.0
481.5	491.0
481.0	568.0
482.3	480.7
482.5	502.0
482.0	530.0
483.3	469.7
483.5	513.0
483.7	542.3
483.3	555.3
483.7	574.7
484.3	524.3
485.0	486.0
485.0	496.5
485.0	563.0
486.7	475.7
486.5	507.0
486.5	536.0
487.3	464.3
487.3	518.3
488.0	491.0
488.0	568.5
489.0	481.0
489.0	501.5
489.0	530.0
489.0	549.0
489.3	557.7
490.5	470.0
491.0	496.5
491.5	512.0
491.0	524.0
491.3	541.7
492.0	486.0
493.5	476.0
493.0	563.0
494.0	465.0
494.0	506.0
494.7	517.7
494.0	535.0
495.0	492.0
495.5	528.5
495.0	554.0
496.0	481.0
496.0	569.0
497.5	470.0
497.0	500.0
497.3	522.7
497.5	547.5
498.0	512.0
499.0	487.0
499.0	540.5
500.0	475.5
500.5	534.0
500.0	560.5
501.5	493.0
501.0	506.5
502.0	465.0
502.0	519.0
502.5	527.0
502.3	552.3
502.5	571.0
503.0	482.0
504.5	470.5
504.5	500.0
504.0	545.0
505.0	512.0
506.0	488.0
506.0	538.0
506.0	566.0
507.5	476.5
507.3	530.3
507.0	559.5
508.5	465.0
508.0	494.5
508.0	506.5
508.0	523.5
509.0	517.5
510.0	482.0
510.5	548.0
510.5	554.0
511.5	471.0
511.5	500.0
511.0	572.0
512.7	488.7
512.0	512.0
512.0	541.5
513.3	534.3
513.3	565.7
515.0	465.5
515.0	477.0
515.0	495.0
515.0	506.0
515.3	519.3
515.0	528.0
515.0	559.5
517.5	552.5
518.5	471.5
518.0	483.0
518.5	500.0
518.0	545.5
518.0	571.5
519.0	490.0
519.0	512.5
519.5	539.0
520.5	565.0
521.7	477.3
521.0	532.5
522.5	465.5
522.5	494.5
522.5	506.0
522.3	525.7
523.7	518.3
523.7	558.3
524.0	488.0
524.0	551.0
525.5	471.5
525.5	544.0
525.5	570.5
526.0	482.5
526.0	500.0
526.5	511.5
527.0	537.0
528.7	476.7
528.7	493.3
528.5	531.0
528.0	563.5
530.0	465.5
530.5	487.5
530.5	505.0
530.0	524.0
530.0	556.5
532.0	517.5
531.5	549.0
532.5	569.0
533.5	471.0
533.0	482.0
534.0	511.0
533.5	542.0
534.0	535.0
535.0	476.0
535.0	492.5
535.3	562.7
536.0	529.0
537.5	487.0
537.0	522.5
537.0	555.0
538.0	465.5
539.0	480.5
539.7	497.7
539.0	515.0
539.0	540.5
540.5	568.0
541.0	472.0
541.0	547.0
542.0	491.0
542.5	520.0
542.0	534.0
542.0	560.5
543.3	527.3
544.0	484.5
544.5	501.5
544.0	554.0
545.0	465.5
546.0	477.5
546.5	515.0
546.0	541.5
547.0	496.0
548.3	557.3
548.0	564.5
549.0	471.5
549.0	490.0
549.0	522.5
549.5	549.0
549.0	571.5
550.7	483.3
550.0	529.5
551.3	536.3
552.7	502.7
553.0	465.5
553.5	476.5
553.7	494.3
553.3	510.7
553.5	543.0
553.0	561.0
554.0	518.0
554.5	568.5
555.5	488.5
555.7	524.7
556.0	554.5
556.7	548.7
557.0	470.0
558.0	482.5
558.5	506.5
558.0	531.5
559.0	499.5
559.7	513.7
559.7	537.7
560.5	465.0
560.5	493.0
560.5	562.5
561.0	475.5
561.0	520.5
561.0	544.5
562.5	571.0
563.5	487.5
563.3	526.3
563.5	551.5
564.5	509.5
565.0	471.5
565.0	480.5
565.7	504.3
565.5	532.0
566.5	558.5
567.0	498.0
567.3	515.3
567.5	539.0
567.7	564.7
568.5	464.0
568.7	491.7
568.5	546.0
569.0	522.0
570.5	477.5
570.5	573.0
571.0	485.0
571.5	528.0
571.5	553.0
572.3	470.7
572.7	502.7
572.0	509.5
573.5	534.0
574.5	496.0
574.0	559.5
575.5	516.0
575.7	540.7
576.0	465.0
576.0	490.0
576.5	568.0
577.0	476.0
577.0	523.5
577.5	549.0
578.0	482.5
578.3	507.7
580.0	471.0
580.0	501.0
580.5	530.0
580.0	555.5
581.0	488.5
581.5	536.5
581.5	562.5
582.5	494.0
582.3	518.7
583.5	477.0
583.0	543.5
583.0	570.5
584.7	466.3
584.5	512.5
585.5	506.0
585.0	525.0
585.0	550.5
586.0	483.5
587.5	498.5
587.5	532.0
587.0	557.0
588.0	472.5
588.0	565.5
589.3	490.7
589.0	538.5
590.5	478.0
590.0	518.5
590.5	545.5
591.5	510.5
591.0	573.0
592.5	466.5
592.7	484.7
592.0	527.0
592.7	552.3
593.0	503.0
594.5	534.0
594.5	558.0
595.0	496.5
596.0	473.0
596.7	489.7
596.0	540.5
596.0	567.5
597.0	516.0
597.0	522.0
597.7	547.3
598.7	481.3
599.3	508.7
599.5	561.5
599.5	574.5
600.0	467.0
600.5	501.0
600.0	528.5
601.7	538.3
601.0	553.0
602.0	494.0
603.5	474.0
603.5	487.0
603.7	520.3
604.0	544.5
604.0	568.0
605.5	480.5
605.5	505.0
605.0	514.0
605.7	533.3
606.3	559.7
607.3	467.3
607.5	574.0
608.5	498.0
608.5	525.5
609.5	491.5
609.5	540.0
609.5	552.0
610.5	472.5
611.3	509.7
611.5	519.0
611.5	567.0
612.0	478.5
612.0	485.0
613.0	503.0
613.5	532.0
614.7	467.3
615.0	496.0
615.5	559.0
616.0	514.5
616.0	525.0
616.0	572.5
617.7	474.3
617.0	489.5
617.3	538.7
618.5	507.5
618.0	552.0
619.0	482.5
619.5	565.0
620.5	501.0
620.0	520.0
621.0	532.0
622.5	469.0
622.3	494.7
622.0	545.0
623.5	513.0
623.7	558.7
623.5	571.0
624.5	488.0
624.7	525.3
625.0	476.5
625.5	506.5
626.0	538.5
626.5	551.5
627.0	481.5
627.5	519.0
627.3	564.3
628.0	464.5
628.0	500.0
629.5	493.0
629.0	532.5
630.5	513.0
630.3	545.3
631.0	472.0
631.7	487.3
631.0	558.0
631.3	569.7
632.0	525.5
633.5	479.5
633.3	505.7
634.0	538.5
636.0	499.5
635.3	551.7
636.4	466.2
636.0	519.5
636.7	532.3
636.7	564.3
638.0	473.5
638.3	492.7
639.0	513.0
640.5	480.0
640.5	487.0
640.6	526.4
640.0	545.0
641.5	506.0
641.5	559.0
641.5	571.5
642.0	536.5
643.8	468.3
643.3	498.7
643.0	552.5
644.0	519.5
645.0	475.0
84.3	576.7
90.2	580.6
97.5	584.5
98.5	577.5
102.0	590.0
102.0	598.5
104.5	582.0
104.5	606.0
108.5	594.0
111.3	600.7
112.0	579.0
116.7	593.3
118.7	578.3
121.0	601.5
124.7	588.7
125.0	595.5
125.7	608.3
126.5	581.5
129.5	601.0
132.0	577.0
132.0	593.0
134.0	584.5
137.0	599.0
139.5	578.5
142.5	585.0
143.5	603.0
147.5	579.0
148.5	592.0
150.5	585.0
156.0	580.5
161.0	575.0
162.5	584.5
166.0	579.0
166.7	604.3
167.0	591.0
170.3	584.7
171.5	597.5
173.3	577.7
175.0	590.5
176.7	621.3
177.7	583.3
179.5	596.0
179.0	608.5
181.0	576.5
182.5	589.0
185.7	582.3
185.0	602.0
187.5	594.5
190.5	587.5
190.0	620.0
191.5	613.0
193.0	580.5
196.0	592.5
197.5	586.0
199.7	610.3
200.0	579.0
201.0	603.5
202.5	597.0
204.7	589.3
206.5	582.0
209.0	601.0
210.5	594.0
211.5	587.0
213.3	578.7
214.5	605.5
216.5	598.5
217.5	591.0
218.3	618.3
219.5	584.5
220.7	577.7
221.3	610.7
224.0	596.5
225.3	589.3
226.5	582.0
233.7	587.7
234.0	581.0
237.0	575.0
240.5	592.0
240.0	599.5
242.3	579.3
242.0	585.5
245.7	604.7
247.0	575.5
247.0	597.0
248.0	590.0
249.5	582.5
252.5	602.0
253.5	595.0
254.5	588.0
256.0	580.0
258.0	607.5
259.3	600.3
260.5	586.5
262.0	593.3
263.0	580.5
266.0	606.5
267.0	587.0
268.0	599.0
270.3	580.7
270.5	612.0
271.5	593.0
273.5	605.5
274.7	586.7
276.0	598.0
277.5	580.0
279.0	591.5
282.5	576.0
282.0	584.0
282.7	623.3
284.0	597.0
286.0	589.0
287.5	604.5
288.5	582.0
290.5	593.0
292.3	576.7
292.5	599.0
293.5	587.5
296.5	581.5
297.5	593.5
300.3	575.7
301.0	587.5
301.0	600.0
304.3	581.3
304.5	593.0
307.7	575.3
308.3	587.3
308.5	599.0
312.5	594.0
313.3	580.3
315.7	587.3
318.7	615.3
320.0	604.5
321.0	577.0
321.0	583.5
321.5	591.5
325.0	598.0
326.5	587.0
327.0	605.0
328.5	580.5
329.0	593.5
329.7	622.7
333.5	587.0
334.0	576.0
334.5	605.0
336.0	594.0
337.5	582.0
337.5	611.5
339.0	600.5
340.0	588.0
342.5	577.0
342.7	594.7
342.3	606.7
344.5	583.0
346.7	601.3
347.0	589.5
349.5	577.5
350.0	607.5
351.5	584.0
351.0	596.0
352.7	614.7
354.5	590.5
355.0	602.0
356.5	579.5
359.5	596.5
361.0	587.0
362.5	575.0
362.5	621.5
363.7	581.7
369.3	578.7
369.0	586.0
371.0	592.0
375.5	575.0
376.5	581.0
376.5	587.5
376.0	606.0
378.0	594.0
382.5	578.0
383.0	584.5
383.0	603.5
384.0	591.0
389.5	581.0
390.0	587.5
390.7	594.3
390.5	601.0
396.0	577.0
396.5	584.0
397.0	591.0
402.5	580.5
403.0	587.5
403.5	594.5
404.0	601.5
404.5	609.0
409.5	577.0
409.7	583.7
410.0	590.0
410.0	597.5
411.0	605.0
416.0	579.5
416.5	593.5
417.0	586.0
417.0	600.5
418.7	607.3
419.0	614.0
422.0	575.5
422.5	589.5
423.5	582.5
424.0	596.0
425.0	603.0
426.7	610.3
429.3	577.3
430.0	591.0
431.5	584.0
431.0	598.5
432.5	605.5
436.5	578.5
436.5	593.0
438.3	601.3
439.5	608.0
440.0	585.0
443.5	590.5
444.0	580.0
444.0	596.5
445.5	604.0
447.5	586.0
449.0	575.0
450.3	593.3
452.0	581.5
452.0	599.0
453.5	605.5
454.5	588.0
454.5	612.5
457.0	576.0
457.5	594.5
459.0	601.0
460.0	582.5
460.5	608.0
462.5	589.5
464.0	577.5
464.5	596.0
466.0	603.5
467.5	585.0
469.0	591.5
470.0	611.5
472.0	579.5
472.0	598.5
474.3	586.3
475.0	605.0
477.0	594.0
479.0	581.0
481.5	588.0
481.0	602.0
485.0	594.5
486.5	581.5
486.3	611.3
488.0	601.0
489.5	588.0
491.0	575.5
491.0	607.5
493.0	594.5
494.3	582.3
496.0	601.5
497.5	588.5
498.5	576.0
500.5	595.0
502.0	582.5
504.0	601.5
506.5	577.0
510.5	583.0
510.3	615.3
514.5	589.5
515.0	577.5
519.0	584.0
522.3	577.3
523.0	590.5
524.0	598.5
525.0	607.0
526.5	583.5
529.5	576.0
530.0	595.7
531.5	589.0
531.0	618.0
533.5	582.0
533.0	609.5
537.0	575.5
537.5	594.0
537.0	602.0
538.5	587.0
542.5	582.5
543.7	574.3
549.0	578.5
551.5	586.0
552.5	593.5
553.0	601.0
556.3	575.3
556.5	582.0
560.0	596.5
564.0	578.0
565.5	584.5
566.5	592.5
567.5	599.5
572.0	580.5
574.0	587.0
574.0	595.0
575.3	602.3
578.5	575.5
580.0	582.5
581.7	589.7
582.0	597.0
586.0	578.0
588.0	584.5
590.0	599.0
590.7	606.7
594.0	580.0
595.7	594.3
596.3	587.3
596.5	602.0
597.0	611.0
603.5	581.0
603.0	597.5
604.5	606.0
609.5	586.5
610.0	594.0
611.0	602.0
612.0	579.5
617.0	584.5
617.5	590.5
621.5	578.0
623.7	586.3
624.3	594.3
628.5	576.0
629.3	582.7
631.5	589.5
635.5	577.0
637.0	584.5
640.3	591.7
644.5	586.5
642.3	579.4
83.6	157.9
74.6	170.4
86.0	176.3
79.4	163.1
70.8	164.8
62.9	167.3
67.4	173.5
63.6	180.7
99.2	228.8
99.8	288.9
99.5	295.2
99.5	323.5
195.2	245.4
280.6	152.1
98.8	171.1
97.1	163.8
96.7	156.2
92.9	149.6
86.4	151.0
81.5	145.8
87.7	143.8
94.7	142.4
103.3	159.0
109.2	161.7
124.0	170.4
127.1	143.4
117.1	128.6
150.0	147.9
200.8	154.1
241.6	150.0
239.1	154.5
125.8	149.6
198.0	348.0
304.8	294.1
300.3	293.8
318.6	151.0
325.2	150.7
348.7	145.8
360.8	129.2
353.9	125.4
311.0	127.2
302.0	123.7
295.5	127.9
293.7	122.0
286.5	125.8
278.9	123.4
272.0	126.8
271.6	120.3
276.8	116.8
285.8	118.9
172.1	125.8
170.7	117.5
178.6	122.7
180.7	115.4
164.1	121.0
164.8	128.6
158.6	125.4
153.8	121.0
137.5	126.5
136.8	119.9
109.5	154.5
110.2	147.9
117.1	152.8
116.1	160.7
123.7	157.6
122.0	164.5
144.8	122.0
147.5	113.7
156.9	114.7
150.6	107.8
142.0	105.4
132.7	107.1
127.5	100.6
119.9	101.9
114.4	106.4
116.8	113.3
109.9	117.8
109.9	124.1
124.7	108.9
101.9	122.0
97.1	125.8
95.3	132.4
90.2	135.5
82.9	137.9
74.6	139.3
77.0	133.7
83.6	130.6
88.8	127.9
84.6	121.6
77.7	124.1
77.4	116.1
70.1	122.7
71.2	128.6
70.1	134.8
71.5	146.2
93.6	119.9
100.5	115.1
99.8	108.2
93.6	113.0
85.7	114.0
80.1	108.9
70.5	109.5
73.9	104.7
77.0	96.1
85.0	93.3
83.9	100.6
89.5	105.7
96.0	101.3
90.9	97.1
93.6	88.8
98.8	93.6
104.0	98.5
107.1	104.0
112.3	99.9
107.1	93.6
101.6	87.1
111.9	85.7
116.4	94.3
123.7	94.3
120.2	88.5
129.6	88.8
124.4	82.9
132.0	95.4
138.2	99.2
137.5	90.2
133.7	83.6
143.4	86.0
145.1	93.0
147.2	100.9
155.8	101.3
154.5	94.3
150.3	88.8
150.6	82.2
157.6	87.1
162.7	92.3
161.4	98.8
160.3	107.8
166.9	105.1
166.5	112.3
174.8	105.1
181.4	103.0
185.6	108.9
191.4	115.1
191.4	122.7
185.6	127.9
198.0	126.8
198.7	118.9
207.3	123.4
216.0	124.1
212.2	118.2
204.6	117.8
199.0	112.7
194.9	107.5
190.7	102.6
185.6	96.4
177.3	97.4
170.0	98.5
171.7	91.6
165.9	85.7
174.2	84.7
180.0	89.5
183.1	84.0
189.0	88.8
191.4	83.6
196.3	89.2
192.8	95.0
197.7	100.2
202.5	106.4
207.7	111.3
210.8	105.1
207.3	98.8
202.5	94.0
210.8	91.9
225.3	124.1
220.8	117.5
216.3	112.0
224.6	111.6
229.5	117.8
232.2	123.7
238.4	123.7
245.4	122.7
251.2	126.5
258.1	127.9
264.0	123.4
255.7	120.6
263.0	116.8
255.7	113.0
248.1	116.5
239.1	117.5
241.6	110.6
233.6	111.6
236.4	103.7
229.5	104.7
221.2	104.7
225.0	99.2
216.0	98.8
219.8	95.0
225.7	91.6
231.9	96.8
239.8	98.8
239.5	91.9
247.4	95.4
245.7	103.7
248.8	109.2
232.2	88.1
253.6	91.9
247.1	88.1
254.3	99.2
256.1	105.4
263.3	108.5
261.9	100.9
261.9	94.3
260.6	87.1
268.2	89.5
270.2	96.4
270.6	103.7
277.5	106.4
285.1	109.9
293.4	113.0
292.7	105.1
284.1	102.6
277.2	99.9
276.8	92.6
274.4	86.0
282.0	89.2
283.7	96.4
290.6	99.2
298.6	99.2
296.9	93.0
289.9	90.5
295.8	85.7
303.4	88.5
304.5	95.7
305.1	103.0
299.3	107.8
300.3	115.4
307.2	118.5
306.5	110.9
311.4	106.8
311.7	98.5
311.7	92.6
309.3	85.4
318.3	86.7
325.2	89.2
325.2	82.6
333.5	85.0
340.7	87.8
333.5	91.9
326.2	96.4
320.0	93.6
320.0	100.6
326.6	104.0
320.0	109.2
313.8	113.0
314.8	121.0
321.4	124.8
320.0	117.5
327.3	118.5
326.9	112.0
333.8	114.7
334.9	123.0
328.3	124.8
341.1	125.1
348.0	126.8
346.6	120.3
340.7	118.9
347.7	113.7
339.7	110.2
333.5	108.2
333.8	100.6
340.4	103.3
340.7	96.1
347.3	92.6
348.4	85.7
355.3	82.9
356.3	89.2
356.0	95.7
348.7	98.8
348.7	106.4
354.9	103.3
354.9	109.2
354.9	116.5
360.4	118.9
367.0	123.4
368.4	116.8
361.8	113.0
362.9	107.1
363.2	99.2
363.6	93.0
363.6	86.4
370.8	90.2
369.4	97.4
369.8	104.7
369.1	110.2
375.7	107.5
375.7	114.7
374.6	122.3
367.0	131.7
380.7	126.8
381.4	119.6
388.7	123.4
387.6	117.2
382.4	112.7
388.7	106.8
379.3	102.6
377.9	96.1
377.6	88.5
382.8	92.6
385.2	85.7
391.1	89.8
392.5	95.7
385.6	99.5
394.9	100.9
398.3	108.5
393.5	112.3
394.5	118.9
398.3	123.7
405.3	124.1
412.9	127.5
411.1	121.0
401.1	116.8
409.4	114.7
405.9	110.2
402.8	103.7
400.1	97.1
398.3	89.8
416.0	116.1
413.9	110.2
410.4	104.0
407.7	97.4
405.3	91.2
411.5	90.5
401.8	84.0
418.4	88.5
416.0	97.4
424.3	99.2
419.8	103.3
421.2	110.6
423.2	116.5
417.7	122.0
424.3	124.4
433.6	125.1
431.2	120.3
435.0	107.8
428.1	105.4
422.5	94.0
430.5	94.0
425.0	86.7
432.9	87.4
437.4	92.3
433.9	99.9
441.5	103.3
444.3	109.9
450.5	107.5
448.5	100.6
442.2	96.8
445.0	91.6
441.2	86.7
449.8	86.0
452.6	93.0
456.1	99.5
459.5	93.0
458.5	87.4
467.5	89.5
470.6	95.4
464.7	100.6
459.2	106.4
465.7	108.2
471.6	103.0
478.5	97.8
475.4	91.2
472.6	85.7
482.3	86.7
490.6	89.5
484.7	94.0
486.8	100.2
480.6	105.7
474.0	110.2
429.4	113.0
437.4	113.7
440.2	119.6
445.7	116.1
447.8	125.1
452.9	118.2
455.4	125.8
464.0	128.9
461.9	121.6
458.5	114.0
468.2	115.8
469.5	124.4
479.2	126.1
476.5	118.9
482.3	112.3
489.6	126.1
492.7	117.2
484.4	121.0
498.6	123.4
575.5	163.8
576.9	171.1
583.8	171.1
582.8	162.8
587.6	154.1
594.9	155.2
602.5	151.0
593.9	147.9
586.3	142.7
579.0	142.4
579.7	149.6
575.5	128.9
576.2	122.0
569.0	123.4
560.7	126.8
538.9	128.2
525.8	127.2
517.1	130.3
610.5	154.1
609.1	146.9
607.0	139.6
606.3	131.7
597.7	135.5
593.2	140.3
591.4	132.0
599.0	127.2
590.4	123.0
583.8	127.5
581.8	134.8
618.8	171.8
618.8	164.8
618.8	157.2
615.6	148.6
626.0	155.2
632.6	175.9
632.9	168.0
640.2	164.8
647.8	169.0
647.4	176.9
645.7	184.5
634.0	158.3
634.0	150.0
629.5	141.3
621.2	138.9
614.6	139.6
614.6	133.0
626.4	133.7
635.0	134.8
639.1	142.7
581.8	156.2
585.6	117.5
579.7	112.7
528.2	119.6
520.2	123.0
512.3	123.4
504.3	125.8
506.4	118.5
500.5	115.1
495.4	109.9
494.7	96.8
503.3	93.0
500.9	86.4
510.2	91.9
507.8	98.1
500.2	103.0
508.1	104.4
504.7	110.2
512.6	111.3
513.0	117.5
520.9	114.7
520.9	108.2
515.1	102.6
515.8	96.4
518.9	88.8
524.7	92.6
523.0	99.9
526.8	86.4
534.1	90.9
531.7	98.1
528.2	105.7
527.8	112.3
536.1	110.9
534.8	116.5
534.1	124.1
541.7	121.0
542.0	115.1
542.7	106.8
537.2	103.0
540.6	97.1
542.0	90.5
543.7	84.3
535.1	84.3
550.3	88.5
548.2	95.4
548.2	101.9
548.6	110.6
548.6	118.2
547.9	125.4
555.8	122.7
555.5	115.8
554.8	107.8
557.2	100.2
557.2	92.6
557.9	84.3
565.2	82.2
564.8	89.2
564.1	96.4
563.4	104.0
563.1	112.3
562.8	119.6
570.4	116.1
570.7	108.2
571.4	100.6
571.7	93.0
571.7	85.7
496.1	163.5
503.3	163.8
579.0	105.7
584.5	102.6
579.7	96.4
580.4	89.2
590.4	88.8
587.3	95.4
586.3	83.3
592.1	100.9
595.6	94.3
599.7	88.8
594.9	81.9
604.2	81.9
605.3	93.3
610.1	87.8
614.6	81.6
619.4	86.4
625.0	82.2
632.2	83.3
627.7	88.8
637.1	89.2
642.9	84.7
646.1	90.5
652.3	85.4
641.2	95.4
649.2	97.4
640.5	149.6
643.6	132.4
650.5	131.7
647.1	124.8
652.3	118.5
648.5	110.2
652.3	104.4
645.0	103.7
637.1	100.9
639.5	110.6
643.3	116.8
635.3	119.2
639.1	125.8
632.2	126.8
629.5	121.6
625.3	126.1
617.4	124.8
622.2	120.6
606.3	124.4
605.3	117.5
599.0	120.6
597.3	114.0
590.1	108.9
597.7	107.1
603.5	101.3
605.3	108.9
610.1	100.6
616.0	93.6
623.2	94.7
631.9	93.6
628.1	99.9
620.8	100.6
615.6	108.2
623.9	108.5
633.3	108.9
628.4	114.4
619.8	114.0
611.1	114.7
612.2	121.0
488.8	106.8
479.5	211.9
484.3	215.0
442.1	148.0
438.0	151.4
440.8	157.3
445.6	152.8
460.8	152.5
453.2	152.8
455.6	271.7
460.5	270.7
458.7	286.9
452.8	287.3
588.0	350.2
525.1	318.7
530.3	321.2
535.1	323.6
456.3	374.9
607.3	401.1
600.8	411.8
532.7	498.3
540.6	508.3
536.5	503.1
546.5	508.6
588.7	592.5
602.9	589.7
559.0	589.3
544.8	590.0
545.1	598.3
545.5	606.3
539.9	610.1
553.8	608.4
561.4	603.9
506.1	588.7
508.1	595.2
517.5	595.2
511.3	601.8
517.8	601.8
529.9	602.8
645.3	597.0
631.2	597.3
639.1	600.1
645.7	604.2
639.1	609.1
632.2	606.3
624.9	602.5
617.7	598.0
618.4	606.7
611.8	609.8
604.6	614.3
611.8	617.7
619.1	614.3
626.7	618.1
625.6	610.8
633.6	614.3
640.5	617.7
646.7	613.2
647.8	620.8
641.2	626.0
634.3	622.2
627.0	627.0
619.1	622.6
611.5	626.4
605.2	622.2
596.3	619.1
589.7	615.3
582.4	604.9
575.5	610.8
582.1	612.5
582.8	620.1
575.5	617.7
568.6	614.3
568.3	607.3
562.4	611.1
547.2	613.2
555.1	615.6
562.0	618.4
568.6	622.2
514.3	608.7
506.0	607.7
498.8	607.7
502.6	613.9
497.8	619.1
493.6	613.9
488.8	619.4
492.6	626.4
505.4	621.5
518.1	613.9
526.1	613.6
523.3	618.8
514.7	620.5
519.5	625.3
527.5	624.6
535.8	614.9
541.3	618.1
548.6	620.1
556.5	622.6
612.8	545.8
479.1	610.5
474.6	617.0
481.9	617.4
462.2	614.9
446.9	611.1
433.8	612.9
426.6	617.4
433.5	620.1
440.7	615.6
412.7	611.8
397.5	604.9
397.2	597.7
383.3	598.0
375.4	599.4
364.7	591.8
368.1	598.0
361.9	602.9
356.7	609.1
364.3	609.1
371.9	610.1
368.8	603.9
381.3	609.8
388.9	608.0
394.8	610.5
399.9	614.6
406.9	616.3
413.8	618.4
393.7	619.8
388.2	614.6
382.7	616.7
374.7	616.3
367.4	615.3
360.2	614.9
455.6	620.1
448.3	618.4
590.7	623.9
575.9	625.3
570.0	629.5
562.7	626.4
536.1	622.9
543.7	625.7
533.7	629.8
551.3	628.4
559.3	632.2
583.8	628.4
599.4	627.4
592.1	632.9
605.9	632.2
619.8	631.2
635.0	632.9
627.0	637.1
578.6	635.3
566.2	637.1
542.3	632.6
552.4	636.4
510.9	628.8
501.9	629.5
523.3	632.2
507.4	636.4
495.3	633.6
484.3	626.0
487.4	632.9
477.7	623.2
467.7	618.4
462.2	623.9
470.8	625.3
478.1	630.8
437.3	628.1
442.1	623.2
449.7	626.0
456.3	629.5
466.6	630.8
401.5	620.8
407.7	623.2
413.9	625.0
420.2	622.2
428.5	625.0
421.9	629.1
430.9	631.5
445.4	632.2
397.4	625.3
390.1	626.7
386.3	622.6
378.0	622.6
371.1	621.9
374.5	629.1
382.8	629.5
395.6	631.2
403.2	629.1
410.1	631.9
345.3	613.2
330.5	610.5
313.5	602.9
317.7	598.4
331.5	599.4
333.2	617.4
340.5	618.8
347.7	620.1
355.7	621.2
366.1	628.1
357.8	627.7
343.2	626.0
350.9	628.8
323.2	610.1
326.0	616.3
321.8	622.9
314.9	620.8
297.3	605.6
280.3	603.9
280.3	610.1
290.0	610.5
285.2	616.0
277.6	617.0
271.4	619.1
275.8	625.7
296.2	612.2
303.5	613.6
315.3	609.4
310.4	613.9
305.9	607.0
306.3	620.8
310.8	627.0
317.7	628.1
325.6	629.8
336.0	626.4
345.0	632.9
332.9	633.3
291.7	618.1
299.3	619.4
301.3	627.0
292.7	625.0
287.5	630.8
296.2	632.6
306.2	632.9
278.9	632.2
262.6	613.2
250.9	609.4
255.4	615.3
231.5	602.5
232.9	594.6
222.9	603.9
229.5	609.1
238.8	606.3
243.6	612.2
235.3	612.5
208.0	608.7
213.6	614.3
76.0	561.0
68.7	560.0
77.0	569.0
76.3	580.4
69.4	569.3
77.7	590.4
69.8	585.6
82.6	585.2
67.4	511.6
90.9	588.7
94.3	595.2
86.4	593.5
78.4	597.7
70.1	595.9
74.3	603.2
88.1	600.4
96.4	602.2
82.2	605.6
70.1	609.4
77.7	612.2
91.2	607.3
86.4	613.9
98.5	609.1
93.6	615.3
115.4	607.7
115.7	617.0
124.0	617.4
132.0	617.0
144.8	610.1
139.2	591.8
143.7	597.3
150.3	599.7
156.5	596.3
156.9	588.7
164.1	598.4
158.9	602.9
152.0	606.7
138.2	615.6
135.4	607.3
146.2	618.1
153.1	614.6
160.0	610.1
161.4	618.1
167.6	611.1
174.5	604.6
185.9	609.1
193.2	606.3
193.9	599.7
110.2	587.3
117.8	585.9
108.5	612.2
102.3	618.8
111.6	623.9
120.6	624.6
129.6	624.3
139.6	623.6
149.6	625.0
155.1	621.9
162.7	624.6
169.0	619.1
174.5	614.6
182.8	616.3
197.7	618.8
205.6	616.3
227.0	616.7
233.3	621.2
240.5	618.4
247.4	623.2
249.2	617.4
240.2	625.3
263.3	619.4
257.1	623.2
267.8	625.7
253.3	629.5
244.7	631.2
262.3	630.2
270.6	633.6
319.3	635.0
211.1	621.2
225.3	624.6
216.3	625.7
231.9	628.1
236.4	633.6
223.9	631.5
203.5	623.9
195.6	627.0
170.7	627.0
183.8	624.6
180.7	629.1
163.4	630.8
154.8	630.2
144.1	630.5
134.4	630.8
125.1	630.8
116.1	630.5
105.0	628.1
94.7	623.2
96.7	632.6
108.8	634.3
119.5	638.5
129.9	637.4
189.7	635.0
208.0	631.2
215.3	636.0
199.4	633.6
84.3	621.9
88.1	630.2
75.3	619.8
368.6	405.3
365.8	409.1
387.6	399.8
410.1	408.8
416.3	400.8
412.5	391.8
382.1	353.5
382.4	349.0
374.1	348.6
393.5	379.4
395.2	383.9
384.1	374.2
386.6	378.7
364.1	363.8
368.6	364.9
349.9	365.6
353.7	362.4
361.0	366.6
358.2	363.1
354.4	366.2
326.8	382.5
321.6	379.7
310.5	374.9
311.9	379.0
312.9	383.9
335.4	362.4
330.6	369.4
354.4	377.0
358.2	373.5
363.1	381.5
363.4	386.6
367.6	389.4
346.5	381.1
344.7	377.3
352.0	369.0
348.5	369.4
344.4	369.0
299.1	287.4
303.3	288.8
401.7	574.5
