     x      y
88.5	125.0
109.0	83.0
124.5	119.0
231.5	119.5
236.0	125.0
252.0	130.5
273.5	128.0
295.0	128.0
302.0	128.0
306.0	123.0
311.0	117.0
314.0	123.5
315.0	111.0
322.3	122.7
323.0	111.5
326.5	127.5
330.5	122.5
333.5	128.5
337.0	123.0
340.0	130.0
345.5	112.0
348.0	119.0
419.0	128.0
425.0	124.0
437.7	119.7
448.5	111.5
454.5	85.0
459.0	119.5
470.0	124.5
478.0	125.0
489.3	116.3
495.0	111.5
500.0	126.0
501.5	114.0
507.5	127.5
525.5	119.5
602.0	121.0
76.5	207.0
77.5	227.0
78.5	173.5
79.0	188.5
79.5	161.0
79.5	213.0
80.3	202.0
81.3	167.7
81.5	235.5
83.3	218.3
84.5	224.0
85.0	192.5
85.0	241.0
87.0	200.0
87.0	230.0
88.0	152.0
89.2	235.8
91.7	207.3
92.5	147.0
92.0	158.5
95.0	176.0
95.3	200.7
95.3	232.3
96.3	214.3
98.7	134.3
99.5	207.5
101.0	160.0
104.0	186.0
106.5	193.5
108.0	174.0
108.5	181.0
108.0	227.0
109.0	220.0
112.0	214.0
113.0	240.0
114.5	177.0
115.0	208.0
118.5	201.0
118.7	214.7
121.5	154.0
122.0	221.0
123.7	180.3
128.3	187.3
129.5	154.5
130.5	174.0
131.8	130.6
131.7	193.7
131.7	207.7
131.5	221.0
132.5	228.0
132.5	236.0
133.5	138.0
133.5	147.5
133.0	181.0
133.3	214.7
134.5	200.0
135.0	161.0
136.5	168.5
136.5	187.5
138.0	152.5
138.5	175.0
138.0	205.0
138.5	211.5
138.3	225.7
139.0	194.0
139.7	217.7
139.5	233.0
139.0	239.5
140.5	131.0
140.7	139.7
141.0	182.0
141.5	158.0
142.5	147.0
142.5	164.0
143.5	200.0
144.3	170.3
144.0	188.5
144.0	223.0
145.5	135.0
145.0	207.0
145.8	213.4
145.5	231.0
146.3	152.3
146.0	237.0
147.0	176.5
148.3	141.3
148.5	159.0
148.0	194.0
149.7	182.7
149.5	219.0
149.0	226.0
150.5	147.0
150.5	165.0
151.3	202.7
152.5	171.0
153.0	209.0
152.7	240.3
153.5	135.5
153.0	190.5
154.7	153.7
154.5	197.0
154.5	215.0
155.5	222.0
155.0	229.0
156.5	142.0
156.3	160.3
156.0	177.0
156.0	235.5
157.7	184.3
158.5	130.5
158.5	166.0
159.5	148.0
160.7	172.7
160.3	210.3
161.5	190.0
161.5	196.0
161.0	202.0
161.0	218.0
162.0	136.0
162.3	154.3
162.5	224.5
162.3	231.3
162.5	238.5
163.3	179.3
164.3	142.3
164.5	161.0
166.7	131.3
166.5	167.0
167.0	186.0
167.3	148.7
167.5	206.0
167.0	213.0
168.5	174.0
168.7	192.7
168.5	199.5
168.0	220.0
169.5	226.5
169.7	232.7
170.5	137.0
170.5	155.0
171.3	143.3
171.0	180.5
171.0	239.0
173.0	161.0
173.5	210.0
174.5	168.0
174.3	203.7
174.5	217.0
175.5	131.0
175.3	149.3
175.0	187.5
175.5	223.0
176.5	175.0
176.5	196.0
176.5	235.0
177.0	228.0
177.5	241.0
178.0	141.0
178.5	156.0
179.7	180.7
180.5	163.0
180.0	211.5
180.3	219.3
181.5	135.5
181.0	169.5
181.0	203.5
182.3	152.3
182.5	186.0
182.0	192.0
183.5	225.5
183.3	231.3
184.0	145.5
184.0	174.5
184.5	237.0
186.0	215.5
186.5	140.0
186.5	157.5
186.5	197.0
186.0	209.0
187.5	181.0
187.0	221.0
188.5	134.5
188.0	168.0
188.0	203.0
189.5	151.0
189.3	186.3
189.5	230.0
190.0	161.5
191.7	174.7
191.5	192.0
192.0	145.0
192.5	213.0
193.0	206.0
193.3	224.7
193.8	235.4
194.7	138.3
194.5	156.0
194.0	199.0
194.0	219.0
195.0	167.5
195.5	180.5
196.5	188.0
197.5	132.0
197.7	229.7
198.0	149.5
198.5	161.5
198.0	210.5
198.5	241.0
199.5	173.0
199.0	193.5
199.3	204.7
200.5	216.5
200.0	223.5
201.5	143.0
201.0	184.0
201.5	199.0
201.7	234.7
202.5	136.5
202.3	155.7
203.0	167.0
204.0	178.0
204.0	189.5
204.0	209.5
205.5	131.0
205.7	221.3
205.0	228.5
206.5	149.0
206.5	161.0
206.0	240.0
207.5	138.5
207.5	172.0
207.5	195.0
207.0	203.0
207.5	215.0
208.0	183.5
209.7	234.7
210.5	155.0
211.0	133.0
211.0	144.0
211.7	166.7
211.5	177.5
211.0	189.0
211.5	200.5
211.0	208.0
211.7	224.7
211.5	230.0
212.5	219.0
214.7	149.7
214.0	195.0
214.0	213.5
214.5	240.0
215.5	138.0
215.0	161.0
215.5	172.0
215.7	183.7
216.0	204.0
217.5	234.5
218.0	131.5
218.5	155.0
218.5	209.5
218.0	228.0
219.0	143.5
219.5	166.5
219.7	177.7
219.5	190.0
219.5	198.0
219.3	221.7
220.0	216.0
222.5	149.5
223.5	138.0
223.0	161.0
223.5	172.0
223.5	183.5
223.0	204.5
223.5	236.5
224.7	131.3
224.5	194.5
224.0	231.0
225.5	211.5
225.5	218.0
225.5	225.0
226.5	155.0
227.0	167.0
227.5	177.0
228.0	143.0
228.5	188.0
228.5	200.0
228.0	241.0
230.0	206.0
230.0	234.0
231.5	137.0
231.0	149.5
231.0	161.0
231.3	171.3
231.5	215.0
231.3	221.7
232.7	182.7
232.0	194.0
232.0	228.0
234.5	209.0
235.5	143.5
235.0	155.5
235.0	166.5
235.5	239.0
236.5	177.0
236.3	203.3
237.7	188.7
237.5	197.0
237.0	218.5
237.0	233.0
238.0	132.0
238.5	224.5
239.5	150.0
239.5	213.0
240.0	139.0
240.0	160.5
240.0	171.0
240.5	182.0
242.5	207.0
242.0	229.5
243.7	145.3
243.0	155.0
243.3	193.3
243.0	200.0
243.0	219.0
244.5	165.0
244.5	176.0
244.5	236.0
245.5	134.0
245.0	186.0
246.5	213.0
246.0	225.0
247.0	140.0
249.0	151.5
248.7	158.7
248.5	197.0
248.7	203.7
249.0	180.0
249.0	230.5
250.0	173.0
250.0	190.5
250.0	219.5
251.7	145.3
252.5	164.0
252.0	236.5
253.0	137.0
253.5	185.0
253.3	208.3
253.0	214.5
253.0	224.5
254.0	200.5
255.5	157.0
255.0	195.0
255.7	230.7
257.5	135.0
257.0	149.5
257.0	170.0
257.0	179.0
258.0	141.5
258.5	190.0
258.0	218.5
258.5	236.0
259.0	204.5
259.5	211.5
260.7	130.3
260.0	163.0
260.0	224.5
261.5	174.5
261.5	185.0
262.5	157.0
262.0	198.0
262.7	230.7
263.5	136.0
263.7	143.7
264.5	151.0
264.5	205.0
265.0	169.0
265.0	180.0
265.5	192.0
265.5	212.0
265.0	218.5
265.0	237.0
267.0	162.5
267.0	225.0
268.5	200.0
269.0	132.0
269.3	156.7
269.0	174.0
269.0	186.0
269.5	231.0
270.5	138.5
270.5	145.5
270.3	206.3
270.3	213.7
271.5	151.0
271.0	237.5
272.0	167.0
272.5	180.0
272.0	192.0
272.0	220.5
274.5	161.0
274.0	198.0
274.0	226.5
275.0	210.0
275.3	232.3
276.5	134.0
276.5	155.0
276.0	175.0
276.5	186.0
276.5	204.0
277.5	147.0
277.0	216.0
277.5	238.0
278.0	140.5
278.5	169.5
278.0	193.0
278.0	221.5
280.5	164.0
280.5	180.5
281.0	199.0
281.3	210.3
281.0	227.0
281.0	233.0
282.7	151.7
282.0	158.0
282.5	188.0
283.0	174.0
283.7	215.7
284.5	136.0
284.0	143.5
284.0	205.0
284.0	222.0
284.5	238.0
285.5	168.0
285.0	193.5
286.5	231.5
287.0	184.5
287.5	199.0
288.0	130.5
288.0	162.0
288.0	178.5
288.3	210.3
289.5	155.0
289.0	225.0
290.5	141.0
290.0	148.5
290.0	173.0
290.0	189.0
290.0	218.5
290.5	236.0
291.5	204.5
292.5	230.0
293.5	135.0
293.0	166.0
293.0	183.0
294.0	199.0
294.0	213.5
295.0	160.0
295.5	177.0
295.7	193.3
295.0	224.0
295.0	241.0
296.0	146.0
296.0	208.5
297.0	153.0
297.5	171.0
297.5	218.5
297.0	235.0
298.0	187.5
299.0	141.0
299.5	165.0
299.0	203.5
299.7	229.3
300.0	133.5
300.0	182.0
301.3	197.7
301.0	213.5
302.0	158.5
302.5	176.0
302.0	223.5
302.0	240.0
303.0	147.0
303.5	192.0
303.5	208.0
304.5	170.0
304.0	234.0
305.0	137.0
305.3	153.3
305.5	186.0
305.0	218.0
306.0	202.0
306.0	229.0
307.3	142.3
307.0	164.0
307.5	180.0
307.7	212.7
308.0	131.0
308.5	196.0
309.0	158.0
309.5	224.0
310.5	148.0
310.0	174.0
310.5	207.0
310.0	236.5
311.5	137.0
311.7	190.7
311.5	218.0
312.0	168.5
312.5	185.0
312.5	231.0
313.5	154.0
313.0	162.5
313.0	200.5
314.5	143.0
314.5	212.5
315.0	131.5
315.0	179.0
316.3	224.3
316.3	236.3
317.0	206.5
318.0	137.5
318.0	149.0
318.0	160.0
318.0	173.0
319.0	218.0
319.5	230.0
320.5	166.0
320.0	200.5
320.5	212.0
320.0	241.0
321.5	144.0
321.5	154.5
322.0	132.5
322.5	236.0
323.0	178.0
323.0	195.0
323.0	223.5
324.5	171.5
324.0	206.0
325.0	139.0
325.5	149.0
325.0	160.0
325.5	190.0
325.0	217.0
325.5	231.0
326.0	200.5
326.5	240.5
327.0	183.5
328.3	165.3
328.0	211.5
328.5	226.0
329.0	134.0
329.0	154.5
329.5	177.0
329.5	220.5
329.5	235.0
330.0	142.5
330.3	194.7
330.5	206.0
332.7	148.3
332.5	160.0
332.5	171.0
332.0	188.0
332.0	201.0
332.0	216.5
333.0	230.0
334.0	182.0
334.0	239.5
335.5	135.0
335.5	154.0
335.0	211.0
335.5	224.0
336.5	165.0
336.7	192.7
336.7	234.7
337.0	142.0
337.0	176.0
337.5	199.0
337.0	205.0
339.0	148.0
339.0	187.0
339.5	229.0
340.0	159.5
340.5	170.0
340.0	216.0
341.0	180.5
341.0	238.5
342.0	136.0
342.5	154.0
342.0	210.0
342.0	223.5
343.5	197.0
343.0	203.5
343.3	233.3
344.3	142.7
344.0	164.5
344.7	175.3
344.5	191.0
345.0	185.0
346.5	149.0
346.0	218.5
346.0	228.0
347.7	131.3
347.0	213.0
347.5	238.0
348.0	158.5
348.5	170.0
348.5	181.0
348.0	207.0
349.0	138.0
349.7	194.7
349.5	201.0
349.5	222.5
350.0	233.0
351.3	164.7
351.0	188.0
352.0	146.0
352.5	176.0
352.5	211.5
352.3	217.3
352.5	152.5
353.0	227.5
354.5	238.0
355.0	135.0
355.3	158.3
355.5	170.0
355.0	181.5
355.0	205.5
355.5	222.0
356.7	192.7
356.0	199.0
356.3	216.3
357.5	141.5
357.0	232.5
358.0	164.5
358.7	186.7
358.5	210.0
359.5	147.5
360.0	153.0
360.0	176.5
360.5	203.0
360.0	227.0
361.0	132.0
361.5	237.0
362.5	137.0
362.3	182.7
362.5	197.0
362.5	221.0
363.3	159.3
363.5	215.0
364.5	143.0
364.0	190.5
364.3	231.7
365.0	166.0
365.7	172.3
365.0	208.5
367.0	149.5
367.0	178.0
367.5	201.5
367.0	226.0
368.5	155.0
368.0	184.0
368.7	219.3
368.0	237.0
369.0	195.5
370.0	137.5
370.3	161.3
370.7	189.7
371.5	145.0
371.5	168.0
371.7	206.3
371.0	213.0
372.7	173.7
372.0	231.5
373.0	224.5
374.0	179.5
375.0	151.5
375.7	157.7
375.0	185.0
375.0	198.0
375.0	237.0
376.0	134.0
376.5	141.0
376.0	192.0
376.5	217.0
377.0	164.0
377.0	204.0
377.5	210.0
378.5	169.5
378.7	222.7
378.0	228.5
379.5	175.0
379.0	234.0
380.0	147.0
380.3	181.3
381.0	187.5
381.5	194.0
381.5	200.0
382.5	136.5
382.5	154.0
382.5	160.0
383.5	166.0
383.0	206.0
383.0	213.0
383.3	218.7
384.0	225.0
384.0	231.0
384.0	238.0
385.0	143.0
385.0	171.5
386.5	177.0
387.0	149.5
387.0	183.5
387.5	190.0
388.0	131.5
388.5	196.0
388.5	202.5
389.0	160.5
389.3	208.3
389.0	215.0
389.5	221.5
390.0	138.0
390.3	155.3
390.5	167.0
390.0	228.0
390.0	234.0
390.0	240.0
392.0	144.5
392.0	173.0
392.5	179.0
393.5	186.0
394.5	192.0
395.0	133.0
395.0	149.0
395.0	198.5
395.0	205.0
395.0	211.0
395.5	217.5
395.5	224.0
396.0	161.0
396.0	230.0
396.0	236.5
397.0	140.5
397.5	169.0
398.3	175.3
399.0	146.5
399.0	182.0
400.0	153.0
400.0	188.0
401.0	135.0
401.3	194.3
401.5	200.5
401.5	207.0
401.5	213.0
401.5	220.0
401.7	226.7
401.5	233.0
401.5	239.5
403.5	159.0
403.5	166.0
404.3	141.7
404.3	148.3
404.0	172.0
405.3	178.3
406.3	184.3
407.5	136.0
407.5	190.0
407.5	210.0
407.0	223.0
407.3	228.7
407.5	235.0
408.0	196.5
408.0	203.0
408.0	216.5
409.0	154.5
409.0	162.0
410.0	169.0
412.3	146.3
412.5	178.5
413.0	131.5
413.3	139.3
413.5	186.0
413.0	218.5
413.0	225.0
413.0	232.0
413.5	238.0
414.0	193.0
414.0	199.5
414.0	206.0
414.0	212.0
415.0	157.5
415.5	165.5
417.0	151.0
417.0	173.0
418.5	181.5
418.5	222.0
419.8	134.6
419.0	142.0
419.0	215.5
419.0	228.0
419.0	235.0
419.5	240.0
420.5	148.0
420.0	189.0
420.0	195.5
420.0	202.5
420.0	209.0
421.7	169.3
422.0	155.0
422.5	162.0
423.0	176.0
424.5	212.0
424.5	218.0
425.7	130.7
425.5	144.0
425.0	224.5
425.3	231.3
426.5	136.5
426.5	166.5
426.5	181.5
426.3	187.7
426.0	200.0
426.5	206.5
426.0	238.0
427.0	150.0
427.0	194.0
429.3	156.3
429.0	172.0
430.0	212.5
430.0	221.0
431.0	162.0
431.5	178.0
431.0	227.5
431.5	234.0
432.5	133.0
432.3	139.3
432.0	146.0
432.5	199.0
432.0	240.0
433.0	168.0
433.0	184.5
434.0	192.0
434.0	207.0
435.0	178.0
435.5	218.0
436.5	151.0
436.7	158.7
436.0	172.0
436.0	224.5
437.0	212.5
437.5	231.0
438.0	144.0
438.0	165.0
438.5	203.0
438.0	237.0
439.3	130.3
439.0	137.0
439.0	187.5
440.0	181.5
441.3	197.3
442.0	175.0
442.7	207.7
442.0	220.5
442.5	227.0
443.5	148.0
443.0	155.0
443.0	162.0
444.3	168.8
443.5	192.0
443.0	214.0
443.0	233.0
443.5	239.0
445.0	141.0
446.0	134.0
446.0	185.0
446.5	203.0
448.0	179.0
448.5	196.5
448.0	218.0
448.0	224.0
449.0	152.0
449.0	159.0
449.5	172.5
449.0	235.0
450.5	145.0
450.0	166.0
450.0	213.0
450.3	229.3
450.0	240.5
451.0	190.0
451.7	207.3
452.5	138.0
453.5	131.0
453.0	183.0
453.5	220.0
454.0	201.5
455.5	156.0
455.5	163.0
455.0	176.5
456.0	170.0
456.0	195.5
456.0	213.5
456.5	226.0
456.0	232.0
456.0	239.0
457.5	142.0
457.0	149.0
458.0	187.5
459.0	207.0
460.7	133.7
460.5	160.0
460.0	180.5
460.5	219.0
461.0	166.5
462.7	173.7
462.0	200.5
462.0	230.0
463.5	154.0
463.5	193.0
463.5	213.0
463.5	235.0
463.0	241.0
463.7	140.3
464.0	147.0
465.5	186.0
465.0	225.0
466.5	161.0
466.3	206.7
467.5	179.0
467.3	219.7
468.5	136.0
468.0	167.5
468.3	198.3
468.5	240.0
469.0	232.0
470.0	142.5
470.5	149.5
470.5	156.0
470.5	173.0
470.5	191.0
470.0	214.5
471.5	225.0
472.7	184.7
473.0	161.0
473.5	236.5
474.7	178.3
474.0	203.5
475.3	132.3
475.5	139.0
475.5	167.0
475.0	211.0
476.7	145.7
476.0	196.0
476.0	218.0
476.0	230.0
477.0	153.5
477.0	173.0
478.0	189.5
479.5	207.5
479.0	224.0
480.0	161.5
480.0	183.0
480.3	236.7
481.5	176.0
481.0	201.5
482.0	133.5
482.0	140.5
482.0	168.5
482.0	195.5
482.5	212.0
483.0	230.0
484.0	148.0
484.0	156.0
485.0	187.0
485.5	217.5
485.5	241.0
486.0	162.5
486.7	180.7
486.0	206.0
486.5	224.0
488.5	168.5
488.0	174.0
488.3	194.3
488.0	235.0
489.0	136.0
489.0	201.0
490.0	142.0
490.7	150.3
490.0	230.0
491.0	190.0
491.0	210.0
492.0	157.0
492.0	184.0
492.0	223.0
492.7	240.7
493.3	163.3
494.5	132.0
494.5	197.0
494.3	216.7
495.7	169.7
495.3	177.3
496.0	137.5
496.5	146.0
496.0	204.0
496.5	235.0
497.0	152.5
497.0	190.5
497.0	228.0
498.0	159.5
498.0	210.5
499.0	184.0
499.0	222.5
500.0	241.0
501.8	134.0
501.0	197.0
501.0	216.0
502.0	142.0
502.3	164.3
502.5	171.5
502.5	230.5
503.5	149.5
503.5	156.0
503.5	179.0
504.0	190.5
504.7	201.7
504.5	237.0
505.0	211.0
505.0	221.0
506.0	184.5
507.0	227.0
508.5	139.0
508.0	168.0
508.0	195.5
508.5	206.0
509.5	146.0
510.0	159.7
509.0	175.0
509.0	216.0
509.5	233.0
510.5	153.0
511.0	181.5
511.0	189.0
511.5	239.0
512.0	133.0
512.0	211.0
512.0	223.0
513.0	199.5
514.5	165.0
514.0	228.5
515.3	140.3
515.0	171.0
515.0	217.5
516.5	147.0
516.0	177.5
516.5	193.0
516.0	205.0
517.5	154.0
517.3	185.7
517.0	235.0
518.5	241.0
519.5	160.0
519.0	211.5
519.5	224.0
520.5	135.0
520.0	199.0
521.0	167.0
521.5	173.5
521.5	218.0
522.0	142.0
522.0	179.0
522.5	231.0
523.5	148.5
523.5	205.0
523.7	237.3
524.7	184.7
524.0	192.0
525.0	155.5
526.5	163.0
526.0	212.5
527.5	170.0
527.0	199.5
529.0	137.0
528.5	143.5
528.0	176.5
528.0	220.0
530.5	150.0
530.5	187.0
530.5	207.0
530.0	234.5
530.5	241.0
531.5	195.0
532.0	158.0
532.0	225.5
533.0	165.0
533.0	180.0
533.0	213.5
535.7	144.7
535.0	172.5
535.0	201.5
535.0	231.0
536.5	184.0
536.0	190.5
536.0	219.5
536.3	237.3
537.5	134.5
537.5	152.0
538.7	159.7
538.0	208.0
539.3	167.3
540.2	195.6
539.0	225.5
540.5	179.0
540.7	214.7
542.0	140.0
541.7	232.7
542.5	202.0
543.5	148.5
543.5	172.0
543.0	187.0
543.7	220.7
543.0	239.0
544.3	132.7
544.3	154.7
545.0	163.5
545.3	209.3
545.7	227.3
547.0	178.5
547.5	196.0
548.5	216.0
548.5	234.0
550.2	137.6
549.7	144.7
549.5	184.5
550.7	151.7
550.0	203.5
551.0	160.0
551.5	167.0
551.0	173.0
551.3	222.3
551.3	239.3
552.0	191.0
553.3	210.7
553.5	229.0
554.5	178.0
554.7	197.3
555.7	234.7
556.3	217.3
557.5	148.0
557.5	156.0
557.0	185.0
557.3	204.3
558.5	134.5
558.5	141.0
558.0	164.5
559.0	225.0
560.3	172.7
560.0	191.5
560.0	239.5
561.0	212.5
561.0	231.5
562.3	179.3
562.7	199.3
563.3	219.7
565.0	146.0
564.0	153.0
564.0	160.0
565.0	167.0
564.7	185.7
565.0	138.5
565.7	206.7
566.5	131.0
566.5	227.0
566.5	235.5
568.0	174.5
568.0	194.0
568.0	213.5
570.3	156.3
570.0	181.0
570.0	201.0
572.0	143.0
571.7	149.7
571.0	220.0
572.0	162.5
572.5	188.5
572.5	232.0
573.5	135.0
573.0	169.0
573.0	207.5
573.5	239.0
574.0	226.0
575.0	176.0
575.3	195.3
575.0	214.0
577.0	183.0
577.3	202.3
578.0	155.5
578.7	164.3
578.0	220.0
579.0	236.0
580.3	130.3
580.0	139.0
580.0	147.0
580.5	171.0
580.0	189.0
580.5	209.5
581.7	177.7
581.0	225.5
582.5	196.0
583.5	215.0
585.5	152.0
585.0	160.5
585.5	204.0
585.7	220.7
586.7	135.3
586.0	144.5
586.3	167.3
586.5	182.0
586.3	227.3
586.0	235.5
587.5	175.0
588.0	190.0
588.0	210.0
589.5	198.5
591.5	146.5
591.5	158.5
591.3	224.3
591.3	231.3
592.0	131.5
592.0	214.5
593.0	139.0
593.5	152.5
593.5	165.0
593.5	171.0
593.7	237.3
594.3	179.0
594.0	186.5
594.0	206.5
595.5	220.0
596.5	197.5
597.7	226.7
598.5	147.5
598.5	156.5
599.0	162.0
599.0	214.5
599.0	233.0
600.9	133.7
600.0	168.5
600.0	190.0
600.7	239.7
601.0	175.5
601.5	182.0
601.0	203.0
602.5	221.0
603.0	142.0
603.0	150.5
603.7	196.3
603.5	209.0
604.5	228.0
605.0	157.5
606.5	214.5
606.5	235.0
607.0	164.5
607.5	172.0
607.7	178.7
608.5	133.0
608.5	148.0
608.7	184.7
608.0	191.0
608.0	202.0
610.5	141.5
610.7	154.7
610.5	208.0
612.5	161.0
612.0	196.5
612.0	230.0
613.3	167.3
613.3	236.3
614.0	174.5
614.7	181.7
614.0	214.5
615.0	136.0
615.7	148.3
615.0	189.0
615.3	201.3
617.0	142.0
617.7	207.7
617.5	226.0
618.0	156.0
619.5	164.0
619.5	194.5
619.5	220.0
619.5	232.0
619.5	238.5
620.5	130.5
620.5	177.5
620.0	213.5
621.0	171.0
622.6	137.2
622.0	185.5
623.5	145.0
623.3	200.3
625.0	207.8
624.5	225.0
625.5	151.5
625.7	159.7
626.0	235.5
627.0	167.0
628.7	174.3
628.7	179.7
628.7	194.3
628.5	232.0
629.3	186.3
629.0	240.0
630.0	139.0
630.0	213.0
631.5	146.5
631.0	202.0
632.7	162.7
632.0	209.0
632.0	225.5
633.0	154.5
634.5	170.0
636.0	133.7
635.0	191.0
635.0	237.0
636.0	177.5
636.0	183.5
636.0	197.5
636.3	214.3
636.7	230.3
637.3	140.3
637.3	204.3
637.5	219.0
638.7	147.3
639.5	151.0
639.5	210.5
640.8	158.8
640.0	223.0
641.5	166.0
641.5	173.0
641.5	187.0
641.0	194.5
642.5	180.0
642.0	236.0
643.5	205.5
643.3	216.7
644.5	136.0
644.3	228.3
645.0	144.5
645.5	201.0
77.6	263.4
76.5	274.0
77.5	306.5
77.0	320.5
77.5	326.5
77.5	334.0
78.3	256.3
78.0	301.0
79.0	242.0
80.7	250.3
80.5	280.5
80.7	294.7
81.5	269.0
82.5	288.0
83.7	274.3
84.5	258.0
84.7	304.7
84.0	323.0
84.5	336.0
84.0	349.5
86.7	264.7
87.5	293.0
89.7	253.3
89.0	270.5
89.0	287.5
89.5	319.0
90.5	348.0
91.7	325.3
92.0	260.5
94.7	249.7
95.0	266.0
97.3	272.3
97.0	320.5
98.0	327.0
100.0	280.0
105.0	329.5
108.3	264.3
110.0	271.0
119.7	242.7
119.3	279.7
122.0	261.0
126.5	281.5
130.5	259.0
130.7	270.7
130.7	306.7
130.5	329.0
131.5	277.0
131.5	291.0
131.7	297.3
132.5	286.0
132.5	312.0
132.5	335.0
132.5	346.0
132.3	351.7
133.0	250.0
133.3	318.3
134.5	243.5
134.0	281.5
135.5	302.0
135.5	340.5
136.0	324.5
137.5	262.0
137.5	268.0
137.0	295.5
137.5	308.5
137.5	331.0
138.5	255.0
139.7	284.7
139.0	290.5
139.8	314.3
139.5	349.0
140.0	248.0
140.5	320.0
140.7	337.3
141.0	299.0
142.7	303.7
142.5	326.0
143.4	342.4
144.0	258.5
144.5	265.0
144.5	332.0
145.7	243.7
145.5	282.5
145.0	295.0
145.7	308.7
146.0	251.0
146.0	289.0
146.5	315.5
146.3	347.7
148.2	277.4
147.5	322.0
148.0	271.0
148.3	300.7
148.3	336.3
149.7	328.3
150.5	255.5
151.3	246.3
151.0	262.0
152.0	294.3
151.5	311.5
152.0	284.5
152.0	344.0
152.5	350.5
154.0	268.0
153.5	306.0
153.0	317.0
153.7	333.3
154.5	251.0
154.5	274.5
154.3	300.3
154.5	323.0
155.5	340.0
156.3	257.3
156.0	280.5
156.3	288.3
157.5	329.0
158.5	263.0
158.0	313.0
159.5	245.0
159.5	346.5
160.7	252.3
160.5	269.0
160.5	303.0
160.5	319.0
160.3	334.3
161.5	275.5
161.3	309.3
161.5	325.0
162.5	340.5
163.5	259.0
163.5	282.0
164.6	294.6
164.5	288.0
164.5	315.0
165.5	249.0
165.5	265.0
165.7	300.7
165.0	330.0
166.5	335.0
166.5	344.5
166.0	350.0
167.0	272.0
167.3	306.3
167.5	321.0
168.0	244.0
168.5	255.0
168.5	277.0
170.5	261.0
170.7	287.3
170.5	293.0
170.5	326.0
170.0	339.0
171.7	267.7
171.0	281.5
172.5	300.0
172.5	332.0
172.5	344.0
173.0	245.0
173.0	251.0
173.0	274.0
173.5	306.0
173.5	349.0
175.0	257.0
175.5	324.0
176.5	279.0
176.5	337.5
177.0	263.0
177.0	284.5
177.0	289.5
178.0	294.5
177.7	317.7
177.5	330.0
178.7	247.3
178.7	268.7
178.5	344.0
179.0	300.0
180.0	274.5
180.0	305.5
181.0	322.3
181.0	253.0
181.0	312.5
181.3	334.3
181.5	350.0
182.5	259.0
183.5	243.0
183.5	265.0
183.0	286.0
183.5	340.0
185.0	282.0
184.0	328.0
185.5	271.0
185.3	277.3
185.5	291.0
185.5	297.0
185.0	308.0
186.5	249.0
186.0	302.5
186.5	345.5
187.5	255.0
187.5	321.5
188.3	261.7
188.5	312.0
188.0	335.5
189.5	287.0
189.5	327.0
189.0	351.0
190.5	242.0
190.5	267.0
190.0	274.5
191.5	281.0
190.0	340.5
191.7	300.3
191.0	306.5
191.5	332.0
192.5	293.0
192.5	316.0
193.0	247.0
193.5	252.0
193.5	347.0
194.3	258.3
195.2	310.4
194.7	324.3
195.7	264.3
195.5	287.0
196.0	270.0
197.5	276.0
197.0	305.0
198.5	300.0
198.0	320.0
199.0	248.0
199.7	281.3
200.0	294.0
199.5	315.0
200.0	255.0
200.5	333.0
200.0	345.0
200.0	351.0
201.7	260.7
201.5	267.0
201.5	327.0
202.7	287.7
202.6	339.2
203.0	272.5
203.0	305.0
204.7	251.3
204.5	312.0
204.7	319.7
205.0	245.5
205.0	299.0
206.5	257.0
206.7	277.7
206.0	293.0
206.0	346.5
207.5	352.0
208.3	267.7
208.7	289.7
208.3	308.7
208.0	325.0
208.0	331.5
209.8	283.8
209.0	337.5
210.6	251.2
210.0	261.5
210.5	273.0
210.0	302.0
210.5	316.0
211.0	342.5
212.0	245.0
212.0	295.5
212.3	348.3
213.7	256.3
213.5	279.0
214.5	267.0
214.3	306.3
214.0	311.5
214.0	328.0
214.5	334.0
215.5	284.0
215.0	290.0
215.5	321.0
216.0	300.0
216.0	340.0
217.5	251.0
217.0	273.0
217.7	344.7
218.7	246.3
218.0	261.0
218.5	316.0
219.7	294.7
219.5	304.0
219.0	350.5
220.7	287.3
220.3	309.7
221.5	256.0
221.0	268.0
221.0	279.0
221.0	331.5
221.0	337.0
222.0	242.5
223.5	300.0
223.0	342.0
224.0	252.5
224.5	273.5
224.5	290.0
224.5	347.0
225.0	262.0
225.5	284.0
225.0	312.0
225.0	352.5
226.5	247.0
226.3	305.7
227.0	295.5
227.0	334.5
228.5	257.0
228.5	268.0
228.5	279.0
228.7	314.3
228.5	324.0
228.0	339.0
230.0	301.0
230.3	344.3
231.5	251.5
231.7	262.7
231.0	291.5
231.0	309.5
231.3	349.7
232.0	274.0
232.0	285.0
232.0	319.5
232.3	328.3
233.3	245.3
233.7	296.7
233.0	333.5
234.0	305.5
234.0	339.5
235.5	257.0
235.5	269.0
235.0	313.5
236.0	280.0
236.0	345.5
237.0	290.0
237.5	301.0
237.5	318.0
237.0	323.5
237.5	351.5
238.0	309.0
239.0	263.5
239.5	274.0
239.7	294.7
239.0	330.5
240.0	252.5
240.0	285.0
240.5	336.0
240.7	341.3
241.5	347.0
242.5	306.0
242.0	314.5
242.5	321.0
243.0	258.0
243.0	269.0
243.5	280.0
243.5	290.0
243.5	300.0
243.5	327.0
245.0	248.0
246.5	264.0
246.7	274.3
246.0	294.5
246.0	332.5
246.5	338.5
246.0	350.5
247.5	254.0
247.5	285.0
247.5	311.0
247.3	317.3
247.5	324.0
248.0	242.5
248.0	344.5
249.5	298.0
249.0	305.0
250.5	259.0
250.5	269.0
250.5	279.0
250.7	290.3
251.5	248.0
251.0	329.0
252.0	340.0
252.3	349.7
253.5	264.0
253.7	274.3
253.5	284.0
253.3	316.7
253.0	323.0
253.0	335.0
254.3	242.3
254.5	254.0
254.0	295.0
254.0	301.0
254.0	311.0
254.5	345.0
256.5	269.0
256.7	305.7
256.5	327.0
257.5	279.0
257.0	288.5
258.0	248.0
258.0	260.0
258.7	321.7
258.5	333.0
258.0	339.5
258.7	347.7
259.0	294.0
259.0	315.0
260.7	242.3
260.7	272.7
260.5	284.0
260.0	301.0
260.5	309.5
261.0	254.5
261.5	265.5
261.5	344.0
261.5	352.0
262.0	328.0
263.5	290.5
263.0	296.5
263.0	306.0
263.0	337.5
264.0	249.0
264.5	260.0
264.0	278.0
264.3	313.3
264.5	318.0
264.5	323.0
265.3	332.7
265.5	348.0
266.5	285.0
266.5	301.5
267.5	254.5
267.0	270.0
267.0	310.5
268.0	243.5
268.5	328.0
268.0	343.0
269.5	276.0
269.5	290.5
269.0	296.5
270.5	281.5
270.0	305.5
270.0	315.5
270.5	322.0
270.5	334.5
271.0	249.0
271.0	259.0
271.0	265.0
271.5	338.5
272.0	349.0
273.0	272.0
273.5	286.5
273.0	310.0
274.5	243.0
274.0	253.5
274.0	294.5
275.5	259.0
275.0	304.0
275.5	313.0
275.5	319.0
275.0	325.0
275.0	330.5
275.3	345.7
276.0	268.0
276.0	277.5
276.7	336.3
277.5	282.5
277.0	290.5
277.5	352.0
278.0	248.5
278.0	342.0
279.3	263.3
279.3	272.7
280.7	296.3
280.0	301.5
280.5	327.5
280.5	348.0
281.0	243.0
281.0	253.0
281.0	287.0
281.3	315.3
281.0	322.0
281.0	333.0
282.3	278.3
282.7	343.7
283.0	258.5
283.0	268.0
283.5	292.0
283.0	338.0
285.0	248.0
285.7	309.3
285.5	352.0
286.5	264.0
286.5	273.0
286.0	283.0
286.0	301.0
286.5	319.0
286.0	324.0
286.0	329.5
287.0	334.5
287.5	347.5
288.3	242.3
288.0	288.5
288.0	295.5
288.0	305.0
288.5	342.0
289.0	252.5
289.0	258.0
289.0	278.0
290.0	268.0
290.0	314.5
291.5	284.0
291.5	301.5
291.0	322.0
291.0	327.5
291.3	332.3
291.0	337.5
292.0	247.0
292.5	352.0
293.0	263.0
293.5	273.0
293.0	291.5
293.0	308.5
293.5	346.0
294.0	297.0
294.0	318.5
295.0	257.0
295.3	278.7
295.5	341.0
296.0	314.0
296.5	331.0
296.0	336.0
297.0	251.0
297.0	288.5
298.0	268.0
298.0	284.0
298.5	300.5
298.5	305.0
299.7	245.3
299.7	273.7
299.5	294.5
299.0	309.5
300.0	261.5
300.5	339.5
301.0	327.5
301.0	345.5
302.0	255.5
302.0	279.0
302.0	318.0
302.0	333.0
303.0	285.0
303.0	290.0
303.7	299.3
303.5	313.0
304.5	250.0
304.5	308.0
304.7	350.7
305.5	303.0
305.0	341.5
306.5	260.0
307.0	244.0
307.5	281.0
307.0	294.5
307.5	317.0
307.0	336.0
308.5	330.0
308.0	346.0
309.5	254.0
309.0	311.5
310.5	263.0
310.0	268.5
310.5	306.0
311.0	300.5
311.0	320.0
311.0	340.5
312.0	248.0
312.0	273.0
312.5	279.5
312.0	335.5
313.5	242.0
313.0	349.5
314.3	258.7
314.0	284.0
314.5	290.0
314.3	295.7
314.0	314.0
314.5	331.5
315.5	265.0
315.5	310.0
315.5	317.5
315.0	344.0
316.0	252.5
316.3	304.7
317.0	270.0
317.0	275.5
317.0	322.5
317.5	339.0
318.0	247.0
318.0	300.0
318.3	352.3
319.5	262.0
319.0	281.0
319.0	335.0
320.0	286.5
320.0	291.5
320.0	296.0
320.0	314.5
320.0	329.5
320.0	347.5
321.0	257.0
321.5	309.0
322.5	251.0
322.5	274.0
322.5	304.0
322.0	320.0
322.0	325.0
322.0	341.5
323.0	267.0
324.0	245.5
324.7	279.7
324.7	283.7
324.0	333.0
325.5	261.0
325.0	289.0
325.0	294.5
325.0	299.0
325.5	314.0
325.7	345.7
326.0	328.5
326.5	351.0
327.0	256.0
327.5	308.5
327.0	324.0
327.0	337.5
328.5	250.0
328.0	271.0
328.5	277.0
328.0	319.0
329.5	303.0
329.5	342.5
330.0	266.0
330.0	282.0
330.5	292.5
330.5	297.5
330.5	332.5
331.0	244.5
331.5	260.0
331.0	287.0
331.0	315.0
331.0	348.0
332.0	322.5
332.0	327.5
332.3	337.7
333.0	254.5
333.5	275.0
334.0	270.0
334.5	306.0
334.0	311.0
335.0	249.0
335.5	264.5
335.5	279.0
335.0	301.0
335.0	343.0
336.0	284.0
336.5	290.0
336.0	295.5
336.5	330.0
337.5	259.0
337.5	325.0
337.0	348.5
338.0	243.5
338.7	320.3
339.0	253.0
339.5	269.0
339.5	310.5
340.0	275.0
340.5	304.0
341.5	248.0
341.5	262.5
341.5	281.0
341.5	287.5
341.0	294.0
341.3	299.7
341.5	344.0
342.0	333.0
343.5	257.5
343.5	324.0
343.0	328.0
343.0	350.5
344.7	266.7
344.7	292.7
344.0	308.0
345.0	243.5
345.0	272.0
345.0	313.0
345.5	318.5
345.3	347.3
346.0	252.0
346.0	277.0
346.8	283.4
346.7	297.7
346.7	342.3
347.0	262.5
347.0	303.5
347.0	336.0
348.5	331.0
349.0	247.5
349.5	258.0
349.0	288.0
349.5	326.0
349.0	351.0
350.0	268.0
350.0	310.5
352.0	243.0
351.0	273.5
351.3	279.3
351.5	294.0
351.0	316.0
351.0	321.5
351.7	345.7
352.0	340.0
353.0	252.5
353.0	263.0
353.0	285.0
353.3	299.3
353.0	304.5
353.5	334.5
354.3	329.3
355.5	324.5
355.0	349.5
356.0	248.0
356.0	257.5
356.0	268.5
356.0	275.5
356.0	290.0
356.0	314.0
356.5	344.0
357.0	281.5
357.5	319.5
358.0	338.5
359.0	242.0
359.0	252.5
359.0	263.0
359.5	273.0
359.5	286.5
359.0	304.0
359.0	333.0
360.5	292.0
360.7	347.7
361.5	277.5
361.0	310.0
361.3	327.3
361.5	342.0
362.5	247.0
362.5	257.5
362.5	268.0
362.0	316.0
362.5	322.0
363.0	282.0
363.7	302.3
363.5	337.0
364.3	288.3
365.3	262.3
365.0	273.0
365.0	307.0
366.3	326.8
365.7	331.7
365.0	351.5
366.0	242.0
366.0	253.0
366.0	293.0
366.0	346.0
367.3	278.3
367.0	298.0
367.0	312.5
367.0	340.0
368.5	268.0
368.5	283.5
368.0	318.5
369.0	248.0
369.0	258.0
369.0	303.5
370.0	289.0
370.5	349.5
371.7	263.3
371.7	294.3
371.0	309.5
371.7	314.7
371.0	336.0
371.0	342.5
372.0	242.0
372.3	273.3
372.3	329.3
373.0	253.0
373.0	279.0
373.0	300.0
374.7	267.7
374.0	284.5
374.5	305.5
374.5	352.0
375.5	290.5
375.0	346.0
376.0	248.0
376.0	258.5
376.5	310.5
376.3	334.7
376.0	340.5
377.5	263.5
377.0	296.0
377.5	315.5
378.3	274.3
378.0	281.0
378.5	330.0
379.5	242.5
379.5	254.0
379.5	269.0
379.0	286.5
379.0	301.0
379.0	320.5
380.5	344.0
380.0	349.5
381.0	292.0
381.0	305.5
381.7	324.7
381.5	338.5
382.5	248.5
382.0	258.5
382.0	311.0
382.5	333.5
383.0	264.0
383.0	278.0
383.5	283.0
383.3	297.3
383.0	316.0
384.0	289.0
384.5	328.5
385.0	301.5
385.5	320.5
385.7	347.7
386.0	244.5
386.0	268.0
386.5	306.0
386.7	342.3
387.5	251.0
387.0	256.0
387.0	274.0
387.0	337.0
388.5	261.0
388.3	292.3
388.0	310.5
389.0	280.5
389.0	286.0
389.0	298.0
389.0	316.0
389.0	331.5
390.5	326.5
390.0	351.0
391.0	246.0
391.0	266.0
391.7	303.3
391.3	321.7
391.7	340.3
392.0	271.0
392.5	308.0
392.3	345.3
393.0	251.0
393.0	257.0
393.0	277.0
393.0	289.0
393.5	294.5
393.0	313.0
393.0	335.5
394.0	283.0
394.3	318.3
395.6	330.3
395.0	350.0
396.0	243.0
396.0	299.5
396.7	324.7
397.0	268.0
397.5	291.0
397.5	309.5
397.5	340.0
398.0	274.5
398.5	304.5
398.5	334.5
398.7	345.3
399.5	263.0
399.0	279.5
399.0	286.0
399.0	314.5
399.0	320.0
400.7	295.3
400.5	351.0
401.5	245.5
402.5	271.5
402.0	300.0
403.7	256.3
403.5	282.0
403.0	290.0
403.7	310.3
403.3	317.3
403.0	322.5
403.5	338.0
404.0	250.5
404.0	333.0
404.0	343.0
404.5	347.5
405.0	262.5
405.0	276.0
405.5	295.5
406.0	304.5
407.0	242.0
407.5	269.5
407.0	286.0
407.0	299.5
408.0	247.0
408.0	314.5
408.0	320.0
408.0	325.0
409.5	253.0
409.5	259.0
409.0	290.5
409.0	309.5
409.5	330.0
409.5	335.5
409.0	340.0
409.0	345.0
410.0	281.0
410.0	350.5
411.0	264.0
411.0	295.5
412.0	275.5
412.5	300.5
412.5	317.5
413.0	249.0
413.0	286.0
413.7	305.3
413.0	313.0
413.5	322.5
414.0	243.0
414.5	254.5
414.0	269.0
414.0	327.0
414.5	337.0
414.5	347.5
415.0	291.0
415.5	333.0
415.0	342.5
415.0	352.5
416.0	259.0
416.0	281.5
416.7	296.7
417.0	273.5
417.0	309.5
418.0	264.5
418.5	287.0
418.5	301.5
418.0	315.0
418.5	320.5
419.0	251.0
419.5	278.0
419.0	326.0
419.5	339.0
420.0	246.0
420.5	292.5
420.0	344.0
420.0	350.0
421.0	269.5
421.0	306.5
422.0	283.0
422.0	297.0
422.5	312.0
423.0	259.0
423.0	317.5
424.0	274.0
424.5	302.5
424.0	324.0
424.0	335.5
425.5	249.0
425.0	264.5
425.0	288.0
425.0	329.0
425.0	342.0
425.0	347.0
426.0	243.5
426.0	279.5
426.0	293.0
427.0	254.5
427.0	270.0
427.0	308.5
428.0	298.0
428.0	314.5
429.0	260.0
429.0	284.0
429.0	320.0
429.0	332.5
430.0	275.0
430.5	302.5
430.0	326.0
430.0	338.0
430.0	343.5
430.5	349.0
431.0	266.0
432.5	280.0
432.0	329.5
433.0	255.5
433.5	307.0
433.5	312.5
434.5	270.5
434.7	298.3
434.0	317.5
434.7	334.3
435.5	261.0
435.0	285.5
435.0	323.5
435.0	340.0
435.5	346.0
436.5	276.0
436.0	351.0
437.5	244.0
437.0	303.5
437.5	328.5
438.5	255.0
438.0	266.0
438.0	294.5
439.0	281.0
439.0	309.5
439.5	315.0
439.5	320.0
440.7	249.7
440.5	286.5
440.5	332.0
440.0	337.5
440.0	342.5
440.0	348.0
441.5	261.0
441.0	271.5
441.0	299.5
441.7	324.7
443.0	276.5
443.5	291.0
443.0	305.5
444.7	255.3
444.5	267.0
444.7	295.7
444.5	310.5
445.0	245.0
445.0	281.5
445.0	315.5
445.0	320.0
445.0	329.5
445.5	335.0
445.5	340.5
445.0	345.0
446.5	325.0
446.0	349.5
447.7	261.7
447.0	272.0
447.0	287.0
447.0	301.5
448.5	251.0
449.0	277.5
449.0	292.0
449.0	306.5
450.5	297.0
450.0	312.0
450.0	318.0
450.5	323.0
450.5	344.0
451.0	267.0
451.5	282.5
451.5	327.5
451.0	332.5
451.0	338.5
451.5	350.0
452.0	245.5
452.0	256.0
453.0	273.0
453.5	288.0
453.7	303.3
454.5	262.0
454.5	309.0
455.5	251.0
455.5	278.0
455.0	293.0
455.0	298.5
455.0	314.5
456.0	320.0
456.5	325.0
456.5	341.0
456.0	346.0
457.0	267.5
457.0	330.0
457.0	336.0
457.5	351.0
458.5	256.5
458.0	283.5
459.0	245.5
459.7	301.7
459.5	306.5
460.0	273.0
460.0	290.0
460.5	296.0
460.0	311.0
460.7	316.7
461.0	262.5
461.5	322.0
462.7	251.7
462.7	278.7
462.0	333.0
462.5	338.5
462.0	345.0
463.5	328.0
463.5	352.0
463.5	268.0
464.3	284.3
465.0	257.5
465.7	294.3
465.0	307.5
466.0	246.5
466.5	274.0
466.0	301.0
466.0	314.0
466.5	319.0
467.0	289.5
467.0	324.0
467.5	341.5
468.0	263.0
468.0	334.0
468.0	347.0
469.7	279.7
469.0	352.0
470.0	251.5
470.5	269.5
470.5	305.0
471.5	292.0
471.0	298.0
471.5	328.0
472.0	245.0
472.3	258.7
472.0	286.0
472.3	310.3
472.5	315.5
472.0	321.0
472.5	338.5
473.0	275.0
473.0	344.0
473.3	348.3
474.5	265.0
474.5	301.0
476.5	248.5
476.5	279.5
476.5	305.5
476.5	334.5
477.0	242.0
477.5	255.0
477.0	290.5
477.0	296.5
477.3	324.3
477.5	329.5
477.5	351.0
478.0	311.5
478.5	317.5
478.5	340.5
479.0	261.0
479.0	285.0
479.0	346.0
481.0	268.0
481.0	274.0
481.0	300.5
482.5	246.0
482.0	293.5
482.5	306.5
482.5	321.5
483.5	251.0
483.5	280.0
483.0	326.5
483.0	332.0
484.0	257.5
484.0	337.5
484.5	343.5
484.3	349.7
485.5	264.0
485.5	318.0
486.0	286.0
486.7	297.7
487.0	269.5
487.0	303.0
487.5	324.0
488.0	275.5
488.0	292.5
488.5	329.5
489.5	247.0
489.5	335.0
489.5	340.5
489.5	345.5
490.0	253.5
490.3	259.3
490.0	281.5
490.0	314.5
490.5	350.5
492.0	288.0
492.0	321.0
493.0	265.0
493.5	271.0
493.0	304.5
493.5	326.5
494.3	293.3
494.0	299.0
494.7	311.3
494.5	337.0
495.5	246.5
495.7	251.7
495.0	277.0
496.0	341.8
495.0	347.0
496.0	257.5
497.0	330.5
497.0	283.0
497.0	317.5
498.0	289.0
498.0	308.0
498.3	323.7
499.0	268.0
499.7	296.3
499.0	302.5
500.5	262.0
500.3	273.3
500.0	336.5
501.5	248.0
501.0	349.0
502.0	254.0
502.0	279.0
502.0	313.0
502.5	319.5
502.0	342.0
503.0	285.0
503.7	325.7
504.0	291.0
504.5	301.5
504.0	307.0
504.0	331.0
505.0	259.0
505.5	270.0
506.3	243.3
506.0	296.5
506.0	337.0
506.0	352.5
507.7	249.7
507.5	265.0
507.0	275.0
507.5	342.0
507.5	347.5
508.5	281.0
508.5	316.5
508.0	322.0
510.0	255.0
509.5	287.0
509.5	304.5
509.0	310.5
510.7	292.7
510.0	326.5
510.5	332.5
511.5	261.0
511.0	299.0
511.3	352.7
512.3	270.3
512.0	338.0
512.5	344.0
513.0	246.0
514.0	276.5
514.5	321.0
515.5	252.0
515.5	265.5
515.0	282.5
515.5	289.0
515.0	308.0
515.0	314.0
515.5	349.0
516.0	302.0
517.0	259.0
517.0	295.5
517.0	327.5
517.0	334.0
517.5	340.0
519.5	247.5
519.0	273.0
520.0	279.0
520.0	345.5
521.0	264.0
521.0	285.5
521.5	292.0
521.5	304.5
521.5	310.5
521.0	316.0
521.3	322.3
522.0	253.0
522.0	298.0
523.0	332.5
523.0	337.5
524.0	269.0
524.0	327.0
524.7	349.7
525.0	244.5
525.5	259.0
525.0	276.0
525.0	342.5
526.5	282.0
527.0	289.0
527.5	301.0
527.5	307.0
527.5	313.0
527.5	319.0
528.5	295.0
529.0	253.5
529.0	265.0
529.0	324.5
529.5	331.0
529.5	337.0
530.3	271.3
530.0	342.5
530.3	352.7
531.5	347.0
532.5	247.5
532.0	278.0
532.7	284.7
533.7	260.3
533.5	303.0
533.5	309.5
534.0	291.0
534.5	297.0
534.5	316.0
534.7	321.7
534.7	327.7
535.5	254.0
535.5	334.0
535.5	340.0
536.0	267.0
536.5	345.0
537.0	273.5
537.0	349.5
538.3	243.7
538.5	281.0
539.5	307.0
541.0	250.5
541.0	263.0
540.0	288.0
540.0	294.0
540.0	300.5
540.0	313.0
540.5	325.0
540.5	331.5
541.3	257.3
541.0	318.0
542.5	269.0
542.0	337.0
542.5	344.0
542.7	351.7
543.5	276.5
544.5	311.0
545.5	245.0
545.5	304.0
546.0	284.0
546.5	291.0
546.0	297.5
546.0	323.0
546.0	330.0
547.5	342.0
548.3	249.3
548.5	255.0
548.3	261.7
548.5	266.0
548.0	336.0
548.0	348.0
549.0	271.5
549.5	278.5
550.5	308.0
552.7	295.3
552.0	301.5
552.5	320.0
552.5	327.0
553.0	289.0
553.5	333.0
554.0	245.0
554.5	251.5
554.0	283.0
554.3	339.3
554.5	345.5
554.0	351.5
555.0	258.5
555.0	275.5
556.5	306.0
556.7	310.7
557.0	316.0
558.0	300.5
558.0	323.0
559.5	293.0
559.5	329.5
560.7	246.7
560.0	286.0
560.7	335.7
560.5	342.0
560.0	348.5
561.5	254.0
561.5	260.5
561.5	272.5
561.3	279.3
562.5	307.5
563.3	266.3
563.0	314.5
563.5	320.0
564.5	301.5
564.0	326.0
565.5	296.0
566.5	290.0
566.0	332.0
566.7	338.7
566.5	345.0
566.0	351.5
567.0	242.0
567.3	249.3
567.0	257.0
567.0	283.5
568.0	277.0
568.5	323.0
569.0	263.0
569.0	305.5
570.0	311.0
570.2	317.4
570.5	269.5
570.0	299.0
572.7	293.7
572.5	328.0
572.7	334.7
572.5	348.0
573.5	245.0
574.0	252.3
573.5	281.0
573.0	287.5
573.5	301.0
573.0	341.0
574.0	274.5
575.0	258.5
575.0	307.5
576.0	265.0
576.5	314.0
577.0	321.5
577.5	352.0
578.0	270.5
578.7	296.7
578.5	329.0
579.3	248.3
579.3	277.3
579.3	283.7
579.0	290.5
579.0	336.0
579.0	345.5
580.5	242.0
580.0	302.5
580.5	341.0
581.7	260.7
581.0	310.0
582.5	317.0
583.5	254.5
583.5	266.5
584.5	273.0
584.7	286.7
584.0	324.0
584.5	331.5
585.0	247.5
585.5	280.0
585.5	293.0
585.8	299.6
585.7	305.3
585.5	350.0
586.0	338.0
586.5	344.0
587.3	311.3
588.5	261.0
589.0	242.5
589.5	317.0
589.5	328.5
591.0	249.5
591.0	267.5
591.5	275.5
591.3	289.7
591.7	296.7
591.0	335.0
592.0	282.5
592.5	304.0
592.0	323.0
592.0	347.5
593.0	256.5
593.5	311.0
593.0	341.0
595.5	245.0
595.7	263.7
595.7	329.3
596.0	317.5
597.5	271.0
597.7	292.7
597.5	352.0
598.3	251.3
598.3	278.3
598.0	285.5
598.5	300.0
598.7	306.7
598.0	336.5
598.3	345.3
599.7	324.3
600.0	257.0
600.5	313.0
601.7	341.7
602.5	245.5
602.0	318.5
602.5	331.0
603.5	262.0
603.7	268.3
603.5	289.0
604.0	282.0
604.5	296.0
604.0	348.5
605.0	275.0
605.3	302.3
605.5	309.0
606.3	323.3
606.0	336.5
607.5	242.0
607.5	249.0
607.7	315.3
608.0	256.5
608.3	329.7
609.7	269.3
609.3	284.7
609.0	342.0
610.0	263.0
610.3	291.3
610.7	298.7
612.0	305.5
612.7	334.7
612.5	347.0
614.5	273.5
613.5	312.0
613.7	326.3
614.3	243.3
614.0	252.5
614.0	319.5
615.5	259.0
615.7	266.3
615.0	281.0
616.7	288.3
616.5	341.0
617.0	295.0
617.5	302.0
619.5	309.0
619.5	315.5
619.0	329.5
619.5	335.0
620.5	253.0
620.3	322.3
620.0	348.0
621.0	245.5
622.5	263.5
622.7	269.7
622.3	277.3
622.7	284.3
623.3	291.3
623.5	298.0
624.5	257.0
624.5	305.0
624.5	339.5
624.0	345.0
625.5	250.5
626.0	312.0
627.0	350.5
628.0	247.0
628.0	318.5
629.5	267.0
629.0	273.5
630.0	280.5
630.5	255.0
631.0	288.0
630.5	294.0
630.5	344.0
631.5	261.0
631.0	300.5
631.0	308.0
632.0	336.5
633.5	322.5
633.5	329.5
634.0	244.0
634.3	250.7
635.0	315.5
636.0	349.0
636.0	270.5
636.0	276.5
636.5	283.5
636.3	297.7
637.0	304.3
636.7	310.7
637.3	256.3
637.5	342.0
638.0	292.0
638.5	334.5
639.7	248.7
640.0	261.5
640.8	267.7
640.7	320.3
640.0	327.5
641.0	242.0
641.5	314.0
642.3	254.3
642.0	274.0
642.5	280.5
642.0	287.0
642.0	307.5
643.0	298.5
643.5	346.5
644.3	338.7
78.7	370.3
77.0	393.5
79.3	386.7
80.0	354.0
80.0	364.0
83.8	391.3
85.2	368.6
86.5	379.0
86.7	385.3
86.5	397.0
87.5	462.5
88.5	354.5
88.0	441.0
91.2	434.6
91.7	389.7
92.5	401.0
92.5	408.0
93.0	448.3
93.5	377.0
93.5	415.0
93.5	460.0
96.8	421.0
98.0	404.5
97.7	453.3
98.5	433.5
99.0	391.5
99.5	446.5
100.0	426.5
101.7	440.3
103.0	462.0
106.0	406.0
106.7	443.7
111.7	440.7
112.5	414.0
112.3	447.3
112.5	455.0
116.0	460.5
117.5	444.0
118.0	423.5
119.5	389.0
119.5	402.0
120.0	382.0
125.3	370.7
125.7	412.3
125.3	445.3
130.5	373.0
132.0	400.8
131.5	410.5
132.0	416.5
132.0	429.3
131.5	441.5
132.5	388.0
132.0	394.5
132.5	422.5
132.5	448.0
133.0	361.0
133.5	368.0
133.0	382.5
135.0	377.0
136.0	455.0
138.5	357.0
138.0	372.0
138.7	391.3
138.5	398.0
138.5	404.5
138.5	411.0
138.5	431.5
138.3	437.7
139.0	443.8
138.0	463.0
139.5	364.5
139.5	384.5
139.3	418.7
139.5	425.0
139.0	449.5
141.3	377.3
142.7	459.3
144.3	353.3
144.7	371.3
144.5	388.0
144.5	395.0
144.0	401.0
144.5	407.5
144.0	414.0
144.5	435.0
144.3	453.7
145.3	359.3
145.5	421.0
145.5	428.5
145.5	447.0
146.5	365.0
146.0	381.0
146.5	440.5
149.5	375.0
150.0	398.0
149.5	458.5
150.5	386.5
150.5	392.0
150.5	404.0
150.0	410.5
150.5	416.0
150.7	445.7
150.5	452.0
151.5	356.0
151.5	368.5
151.7	435.3
152.5	362.0
152.5	422.0
152.7	428.7
153.0	381.0
155.5	455.0
156.0	377.5
156.0	390.5
156.0	396.0
156.5	407.0
156.5	413.0
156.0	442.0
157.0	371.5
157.0	385.5
157.0	401.5
157.5	449.0
157.5	462.0
158.5	359.0
158.0	365.5
158.3	418.3
158.5	425.0
158.5	432.0
159.5	353.0
161.5	382.0
161.0	438.5
162.7	375.3
162.5	404.0
163.0	388.5
163.0	397.0
163.0	410.0
164.0	356.0
164.5	363.0
164.0	369.0
164.5	416.0
164.0	422.0
164.5	428.0
164.0	463.0
165.0	434.0
166.5	455.5
167.5	392.5
168.0	379.5
168.7	401.3
168.0	440.0
169.0	359.5
169.0	373.5
169.0	386.0
169.3	406.3
169.5	412.0
169.7	423.7
170.5	365.0
170.0	418.0
170.5	433.0
170.0	449.5
170.5	461.0
171.0	355.0
172.0	397.0
172.0	455.0
173.0	370.0
173.5	381.0
173.5	391.0
173.5	444.0
174.0	376.0
174.0	428.0
175.7	360.7
175.7	408.3
175.5	415.0
175.5	437.5
176.5	386.0
176.0	401.5
176.0	421.5
177.5	366.0
177.3	451.7
177.0	458.5
178.0	355.0
178.5	396.0
178.0	432.0
179.5	372.0
179.3	446.7
180.0	379.0
180.5	391.0
180.3	426.3
181.7	405.3
181.5	411.0
181.5	417.0
181.0	441.0
182.5	361.0
182.0	422.0
183.5	367.0
183.0	385.0
183.3	435.7
183.0	456.0
184.0	462.0
184.7	355.7
184.0	400.0
184.0	450.0
185.3	373.3
185.0	395.0
185.5	430.0
186.7	380.3
186.5	390.0
186.0	444.5
187.7	408.3
187.3	424.7
188.3	414.3
188.5	419.5
188.5	439.0
188.5	453.5
189.5	362.5
189.0	368.0
189.0	403.5
190.5	357.0
190.5	386.0
190.3	458.7
191.0	377.0
191.7	392.3
191.0	398.0
191.0	434.0
191.0	448.5
192.5	372.0
193.0	428.0
193.7	442.7
194.5	406.0
194.5	412.0
194.0	422.5
195.0	353.0
195.5	367.5
195.0	382.0
195.0	417.5
195.0	454.0
195.5	460.5
196.5	358.0
196.0	400.5
196.0	437.0
197.3	363.7
197.0	377.0
197.0	390.0
197.7	395.7
198.0	447.0
199.3	385.3
199.7	409.3
199.7	425.7
199.0	432.0
200.0	372.0
200.5	415.0
200.7	419.7
201.7	404.3
201.0	441.5
201.0	457.0
202.5	356.0
202.7	361.3
202.5	367.0
202.5	379.0
202.0	451.0
202.5	463.0
203.5	384.0
203.0	399.5
203.5	436.0
204.5	389.5
205.5	394.5
205.0	429.0
205.0	446.0
206.0	374.0
206.5	422.0
206.0	453.5
207.5	369.0
208.7	358.3
208.0	364.0
208.0	381.0
208.5	403.0
208.5	416.0
209.2	441.4
208.0	459.0
209.5	386.0
209.5	433.0
209.3	449.3
210.0	392.0
211.0	377.5
211.0	398.0
211.0	426.5
212.5	372.0
213.0	366.0
213.5	406.5
213.0	455.0
214.0	355.0
214.5	383.0
214.5	413.0
214.5	419.5
214.0	437.5
214.0	448.0
215.5	389.0
216.0	402.0
215.0	460.5
216.0	396.0
216.5	431.0
216.5	443.0
217.0	362.0
217.0	371.0
217.5	377.0
217.0	425.5
218.5	453.0
219.5	438.0
220.0	356.0
220.3	366.7
220.3	384.3
220.0	408.0
220.0	415.0
220.5	458.0
221.3	421.7
221.5	428.0
221.0	448.0
222.0	389.5
222.5	401.0
223.0	361.0
223.0	374.0
223.3	379.7
223.0	433.0
223.5	443.0
223.0	462.0
224.5	417.5
224.7	453.7
225.5	369.0
225.3	411.7
226.0	357.5
226.0	386.0
226.5	406.0
226.0	438.0
227.5	364.5
228.0	382.5
227.5	448.0
228.5	391.0
228.5	422.0
228.0	428.0
229.0	372.0
229.0	377.0
229.0	458.0
230.0	401.0
230.0	416.0
230.5	434.5
230.0	442.0
231.5	354.5
231.0	360.0
231.7	384.3
231.0	411.0
232.0	368.0
232.0	394.5
232.0	452.0
233.5	379.5
233.5	407.0
233.5	425.5
233.5	462.0
234.7	373.7
234.5	420.5
234.0	430.0
234.7	439.3
234.5	447.0
235.0	388.5
235.5	402.0
235.3	414.7
236.0	457.0
237.0	357.0
237.5	368.0
237.5	383.5
237.5	396.5
237.5	434.0
238.5	411.0
239.5	378.0
239.0	452.0
240.5	373.0
240.0	392.0
240.3	406.7
240.0	418.0
240.0	424.5
240.0	429.5
240.5	442.5
240.0	463.0
241.5	387.0
241.0	437.5
241.3	447.7
242.0	400.5
243.3	355.7
243.5	457.5
244.0	381.5
244.0	395.0
244.7	415.3
244.5	433.0
245.0	410.0
245.5	422.0
246.7	370.3
246.0	375.5
246.5	390.0
246.7	404.3
246.5	440.0
246.0	451.0
247.7	428.3
248.5	385.0
248.5	399.5
248.5	446.0
249.0	359.5
249.3	412.7
249.5	455.5
250.5	354.5
250.7	378.7
250.5	394.0
250.5	418.0
250.0	435.5
251.5	372.5
251.0	408.0
251.0	461.0
252.5	388.0
252.0	424.0
252.5	451.0
253.0	403.0
253.0	441.0
254.5	383.0
255.0	370.5
255.0	397.0
255.5	446.0
256.7	353.7
256.5	377.0
256.5	392.0
256.7	412.7
256.5	418.5
256.7	458.3
257.5	366.0
257.5	407.0
257.0	436.5
258.3	386.7
258.5	452.0
259.5	374.0
259.0	401.0
259.0	423.5
260.0	381.5
260.5	396.0
260.0	433.0
260.0	441.5
261.8	357.6
261.5	390.5
262.0	369.0
262.5	410.0
262.0	416.5
262.0	429.0
262.5	447.0
262.5	456.0
263.3	404.3
263.5	461.0
264.0	377.0
264.0	386.0
264.5	399.5
264.5	423.5
264.5	436.5
265.7	394.3
265.5	452.0
266.5	372.5
266.3	381.3
266.0	442.5
267.5	413.0
267.5	418.5
267.0	431.5
268.0	389.0
268.5	408.0
268.5	427.5
269.3	398.3
269.0	403.0
269.0	448.0
269.0	457.0
270.3	374.3
270.5	379.5
270.0	439.0
271.0	385.0
271.0	422.5
271.5	462.0
272.0	393.0
272.0	417.0
272.5	434.5
273.5	353.5
273.0	359.0
273.5	406.5
273.5	412.0
273.0	443.0
273.3	452.3
274.0	429.5
275.5	382.0
275.7	425.0
275.5	448.0
276.5	372.5
276.0	377.5
276.5	390.0
276.3	396.3
276.3	420.3
276.0	457.5
277.5	415.5
277.0	438.5
278.5	356.5
278.3	367.7
278.5	386.0
278.0	463.0
279.5	404.5
279.0	409.5
279.0	434.0
279.0	443.0
279.5	448.5
280.5	381.0
280.7	399.7
280.0	429.0
280.5	454.0
281.0	362.0
281.0	376.5
281.7	394.3
281.0	424.0
282.5	419.0
282.0	459.0
283.0	371.5
283.0	389.5
283.0	413.0
284.0	357.0
284.7	366.7
284.5	407.5
284.5	439.0
284.0	445.0
285.0	384.0
285.0	433.0
286.5	362.0
286.5	375.0
286.0	398.0
286.0	427.0
286.0	450.0
286.7	455.7
287.0	380.0
287.0	393.0
287.0	422.0
288.7	387.7
288.0	416.0
289.5	358.0
289.5	367.0
289.0	371.5
289.0	411.0
290.0	436.8
289.5	444.0
289.0	460.5
290.0	406.0
290.5	431.0
291.5	382.5
291.5	396.5
291.0	401.0
292.3	363.3
292.3	377.7
292.7	391.3
292.0	425.5
292.7	448.7
293.0	420.0
294.0	372.5
294.0	414.5
294.5	463.0
295.0	368.0
295.5	403.5
295.0	409.0
295.7	434.3
296.3	387.7
296.0	398.5
296.3	443.7
297.7	423.7
297.0	429.0
298.0	363.0
298.3	377.7
298.0	382.5
298.0	394.0
298.7	418.3
298.0	439.0
298.7	448.3
298.0	454.0
299.5	459.0
300.0	372.5
300.7	401.3
300.7	406.7
300.0	413.0
301.5	367.0
301.7	390.3
302.0	395.0
302.3	386.3
302.3	426.7
302.0	431.5
302.7	436.3
303.5	421.5
303.5	442.0
304.3	361.7
304.5	377.0
304.0	381.5
304.0	416.0
304.0	449.5
304.5	455.0
305.0	355.5
305.0	410.0
305.0	460.5
306.5	372.0
306.0	399.5
306.0	405.0
307.5	393.5
308.7	365.7
308.0	383.0
308.5	389.0
308.3	419.3
308.0	425.0
308.5	446.0
309.0	413.0
310.7	354.3
310.0	359.5
310.5	397.0
310.0	452.0
311.7	370.7
311.5	458.0
312.7	365.3
312.0	402.0
312.0	407.5
313.0	384.0
313.5	417.0
313.3	422.3
313.5	428.0
313.0	433.0
313.3	442.3
313.5	447.5
314.0	412.0
315.3	438.3
315.0	452.5
316.0	361.0
316.0	374.0
316.5	398.0
317.5	370.0
317.5	403.5
317.7	408.3
317.5	443.0
318.3	382.7
318.5	387.0
318.7	392.7
318.7	434.7
318.0	457.5
319.0	365.0
319.0	414.5
319.0	420.0
319.0	429.0
319.0	448.0
320.5	378.0
320.0	461.5
321.5	452.5
322.5	374.0
322.0	401.0
322.3	406.3
322.0	439.5
323.0	355.5
323.5	369.0
323.5	417.0
323.0	425.0
323.5	445.0
324.7	363.3
324.0	385.0
324.0	391.0
325.7	379.7
325.0	430.5
326.5	408.5
326.3	435.7
326.5	449.0
326.0	457.0
326.7	463.7
327.5	359.0
328.5	367.5
328.0	373.0
328.0	403.0
328.0	442.0
329.0	389.0
329.5	393.5
329.5	418.0
329.0	426.0
330.3	383.7
330.5	412.5
330.5	431.5
331.0	378.5
331.0	453.0
331.3	459.7
332.0	398.0
332.5	407.0
332.0	437.0
333.5	364.0
333.3	369.7
333.5	447.0
334.5	391.0
334.0	403.0
334.5	442.0
335.3	375.7
335.0	387.0
336.5	382.0
336.5	395.0
336.3	452.3
337.5	371.0
337.3	399.7
337.0	410.0
337.0	432.0
337.0	458.0
338.0	361.0
338.0	405.5
338.5	437.0
338.5	443.0
339.5	353.5
339.5	391.0
340.5	385.5
340.5	414.0
340.5	420.0
340.0	448.0
341.0	375.0
341.5	379.5
341.5	396.5
341.7	402.7
341.3	426.7
341.5	454.0
343.5	357.5
343.5	363.0
343.0	408.0
343.0	433.0
343.5	439.0
343.5	459.0
344.5	391.0
344.7	399.7
344.3	444.3
345.0	382.0
345.5	387.0
345.5	417.0
345.0	450.0
346.5	372.5
346.5	412.0
346.5	422.0
347.7	377.7
347.0	395.0
347.0	404.0
347.0	426.0
348.7	356.3
348.5	367.0
348.0	430.0
348.5	435.5
348.0	456.0
349.0	361.0
349.5	390.5
349.0	408.0
349.0	441.0
350.5	382.5
350.5	400.0
350.7	413.3
350.0	446.0
351.0	387.0
351.0	418.5
351.0	451.0
352.5	422.5
352.5	461.0
353.2	404.4
353.5	354.5
354.2	370.6
353.0	376.0
353.0	394.5
353.0	427.0
354.0	360.0
354.5	365.5
355.0	379.3
354.3	409.3
354.0	432.5
354.5	438.0
354.7	454.7
355.0	384.5
355.0	443.0
355.3	448.7
356.0	389.0
356.0	399.5
357.5	413.0
357.5	424.0
358.5	354.0
358.0	367.5
358.0	374.5
358.5	429.5
358.3	459.7
359.0	361.5
359.7	384.7
359.0	394.0
359.0	435.0
360.0	440.0
360.5	445.5
360.5	450.5
360.5	455.0
361.5	371.0
361.3	379.7
362.7	365.7
363.2	397.6
362.0	411.5
362.5	421.5
363.0	356.0
363.5	375.0
363.0	389.5
363.3	426.7
364.5	361.0
364.5	402.0
364.7	415.7
364.0	432.0
364.5	458.0
364.0	463.0
365.0	407.5
365.0	437.0
365.5	442.5
365.7	447.7
365.7	452.7
367.0	370.5
367.0	393.0
367.0	420.5
368.5	365.0
368.0	425.0
369.0	355.0
369.5	360.0
369.0	388.5
369.5	397.0
369.0	411.5
369.0	430.0
369.5	435.0
370.5	401.0
370.5	417.0
370.5	450.0
370.0	455.5
370.0	461.0
371.0	440.0
371.0	445.0
372.3	372.3
373.2	381.8
372.5	422.0
373.7	367.7
373.0	387.0
373.5	393.5
374.5	357.5
374.0	363.0
374.0	427.5
374.7	432.7
375.7	376.7
375.5	399.5
375.7	404.3
375.3	415.7
375.5	452.0
375.0	458.5
376.7	389.3
376.0	437.5
376.5	443.0
377.5	371.0
377.0	394.0
377.0	447.0
378.0	411.5
378.0	420.0
378.0	424.5
379.3	355.3
379.0	360.5
379.0	366.0
379.5	385.5
379.5	430.0
380.0	380.0
380.7	397.3
380.3	407.7
380.3	456.3
381.5	392.0
381.5	402.5
381.0	417.0
381.0	435.0
381.5	440.5
381.0	460.0
382.0	375.0
382.0	446.0
382.0	451.0
383.5	369.0
383.5	412.0
383.0	422.0
384.0	358.0
384.0	364.0
384.5	388.5
384.0	427.0
385.0	353.0
385.0	383.0
385.0	431.5
385.7	462.3
386.0	378.0
386.5	395.5
386.0	407.0
386.0	418.0
386.0	456.0
387.5	373.0
387.5	401.0
387.7	425.7
387.0	437.0
387.0	443.0
388.0	449.0
389.0	386.0
390.0	356.5
390.0	381.0
390.5	415.0
390.7	432.2
391.0	369.5
391.7	376.3
391.0	397.5
391.0	420.5
391.0	460.0
392.0	406.0
392.0	439.5
393.5	386.0
393.5	401.5
393.5	425.5
393.0	445.0
393.7	450.7
394.5	359.5
395.0	373.5
395.5	381.0
395.7	418.3
395.5	456.0
396.0	398.0
396.0	412.5
396.0	430.5
396.7	435.7
398.0	355.3
397.0	390.5
397.0	423.5
397.5	442.0
397.0	461.0
398.5	364.0
398.3	377.3
398.5	447.5
399.5	385.0
400.3	373.3
400.0	395.0
400.5	416.0
401.0	427.3
400.7	453.3
401.0	359.0
401.7	368.3
401.0	432.5
402.0	390.0
402.0	421.0
402.0	438.5
402.5	459.0
403.5	378.0
403.7	411.3
403.0	444.0
403.7	449.3
404.5	364.0
404.0	399.5
405.0	354.5
405.5	373.5
405.0	393.5
405.0	405.0
405.5	463.0
406.5	417.0
406.5	430.0
406.5	435.5
406.7	453.7
407.5	368.5
407.5	388.5
407.0	423.5
407.5	441.5
408.0	359.5
408.7	409.7
408.5	447.5
409.0	377.5
409.5	397.5
409.0	458.5
410.0	355.0
410.0	364.0
410.0	429.0
411.0	373.0
411.0	393.0
411.7	413.7
411.0	420.0
411.3	433.7
412.5	439.0
412.0	454.5
413.5	368.0
413.5	388.0
413.0	424.5
413.0	444.5
413.0	450.0
414.0	400.5
415.3	357.7
415.0	363.0
415.0	377.0
415.5	409.5
416.5	372.0
416.0	395.5
416.5	417.0
416.0	429.5
416.0	460.0
417.7	384.7
417.0	405.0
417.0	453.5
418.7	367.3
418.0	413.0
418.0	421.5
418.0	435.5
418.5	442.0
418.0	447.5
419.0	381.0
419.0	390.0
419.0	425.0
420.0	355.0
420.0	361.0
420.3	376.3
420.0	400.0
421.5	395.0
421.5	430.0
421.5	457.0
422.0	371.5
422.0	406.0
422.0	416.5
423.0	386.0
423.0	411.0
423.5	445.0
423.0	450.5
423.0	463.5
424.3	380.3
424.0	390.0
424.0	421.5
424.3	426.7
424.0	434.0
424.0	439.5
426.7	357.6
425.0	368.0
425.7	374.7
426.0	353.0
426.0	362.5
426.0	399.0
427.0	395.0
427.5	405.0
427.5	410.0
427.5	453.0
427.0	459.0
428.5	384.0
428.0	413.5
429.5	366.5
429.0	389.5
429.0	418.0
429.0	424.5
429.0	436.5
429.5	448.0
430.0	378.0
430.5	395.5
430.0	442.5
430.0	462.0
431.0	354.0
431.0	373.0
431.3	400.7
432.3	361.7
432.5	406.0
432.5	411.0
432.5	457.0
433.5	387.0
434.0	368.5
434.0	382.0
434.7	392.7
434.0	415.5
434.0	421.0
434.0	427.0
434.5	439.0
434.0	451.0
435.5	376.0
436.0	356.5
436.5	397.5
436.0	446.0
437.7	371.7
437.0	403.0
437.0	461.0
438.3	361.3
438.3	365.7
438.0	408.5
438.0	418.5
438.0	456.0
439.0	385.0
439.5	414.0
439.3	423.7
439.0	429.5
439.0	435.5
440.0	380.0
440.0	441.0
440.5	451.5
441.5	353.0
442.0	358.0
442.5	369.5
442.0	375.0
442.0	399.5
442.5	404.5
442.3	447.7
442.5	462.5
443.7	409.7
444.0	363.5
444.0	416.0
444.0	420.0
444.7	425.7
444.0	432.0
444.0	437.5
444.0	456.0
445.0	384.0
445.5	443.0
446.0	379.0
446.0	389.5
446.5	396.0
447.0	355.0
447.5	368.0
447.0	373.0
447.0	401.5
447.5	463.0
448.0	406.0
448.5	429.5
448.5	453.0
449.0	360.0
449.0	412.0
449.7	417.7
449.0	421.5
449.5	435.0
449.5	447.0
450.3	381.7
450.5	440.5
450.0	458.0
451.5	364.5
451.0	386.0
451.0	392.5
452.0	398.0
452.5	403.0
452.0	425.5
453.5	355.5
453.0	370.0
453.0	376.0
453.0	408.5
453.5	451.0
454.3	414.3
454.0	431.0
454.0	463.0
455.3	360.7
455.0	389.0
455.7	420.7
455.0	437.0
455.0	444.0
455.0	457.0
456.7	394.7
457.0	366.5
457.5	404.0
458.5	372.0
458.0	400.0
458.5	410.0
458.0	427.0
458.0	448.0
458.5	453.5
459.3	356.3
459.5	459.0
460.5	362.0
460.0	377.5
460.5	389.5
460.0	416.0
460.0	432.5
461.5	438.0
462.5	367.0
462.5	395.0
462.3	405.7
462.3	422.7
462.0	444.0
463.0	383.0
463.0	449.5
464.0	373.0
464.5	401.0
464.0	411.0
464.0	428.5
464.3	455.3
465.0	357.0
466.5	362.5
466.0	378.0
466.5	390.0
466.0	434.5
466.0	461.0
467.3	415.3
467.0	420.0
467.0	440.0
468.5	368.0
468.0	406.0
468.0	425.0
468.0	446.0
469.0	382.5
469.0	396.0
469.0	451.5
470.5	357.5
470.0	373.5
470.5	411.5
470.3	430.3
470.5	457.0
471.0	387.0
471.0	401.5
472.5	363.5
472.5	378.0
472.5	392.0
472.3	421.7
472.0	436.0
472.5	442.0
472.0	462.5
473.5	407.0
473.5	417.0
474.5	353.5
474.7	368.7
474.7	397.3
474.0	426.0
474.3	447.3
475.0	383.0
475.0	453.0
476.0	359.0
476.5	431.0
477.0	374.0
477.0	388.5
477.0	402.5
477.0	412.0
477.5	421.0
477.0	439.5
477.0	458.5
478.7	364.3
478.5	393.0
479.0	378.5
479.0	444.0
480.5	398.0
480.0	407.0
480.0	416.5
480.5	426.0
480.5	435.5
480.5	449.0
481.0	354.5
481.0	369.5
481.0	383.0
481.7	454.7
482.0	360.0
483.3	374.3
483.0	388.5
483.5	403.0
483.5	411.0
483.5	431.0
483.3	440.7
483.5	460.0
484.0	393.5
484.0	421.0
485.5	355.0
485.0	365.0
485.5	379.0
485.5	446.0
486.5	426.0
486.5	436.0
487.7	369.7
487.0	398.0
487.0	407.0
487.0	416.0
487.5	450.5
488.5	360.0
488.0	384.5
488.5	456.0
489.0	375.0
489.7	390.7
489.7	420.7
489.5	431.5
490.0	402.0
490.0	441.0
490.0	462.0
491.5	355.5
491.0	380.0
491.5	446.0
492.0	365.0
492.3	395.3
492.5	426.0
492.3	436.7
493.5	370.5
493.3	385.3
493.0	406.5
493.0	416.5
493.3	452.7
494.3	376.3
495.7	390.7
495.0	400.5
495.0	431.0
495.0	460.0
496.5	359.0
496.5	421.0
496.0	442.0
497.0	353.0
497.5	381.0
497.0	448.5
498.3	365.3
498.5	375.0
498.3	395.3
498.5	405.0
498.7	415.3
498.0	435.5
499.5	386.0
499.5	426.0
499.5	454.0
501.0	370.5
501.5	399.5
501.0	410.0
501.0	430.5
501.0	444.5
502.0	355.5
502.0	458.5
503.5	361.5
503.0	377.5
503.5	393.0
503.7	421.3
503.0	440.0
504.0	382.5
504.5	404.5
504.0	415.0
504.0	449.5
505.5	367.0
505.3	387.7
505.0	434.0
506.5	373.0
506.5	428.0
507.0	398.5
507.0	409.5
507.5	444.0
508.3	357.7
508.5	455.0
508.0	462.0
509.0	378.0
509.5	383.5
509.5	419.0
509.5	439.0
510.3	389.3
510.7	394.3
510.0	404.0
511.5	363.0
511.7	368.7
511.5	414.0
511.5	433.0
511.0	449.0
512.5	374.0
513.5	399.5
513.5	427.5
514.5	358.5
514.0	409.5
514.0	443.0
514.0	459.5
515.0	379.0
515.5	385.0
515.0	422.5
515.5	453.0
516.0	390.5
516.0	404.5
516.3	417.3
516.0	437.5
517.0	370.5
517.0	395.5
518.3	354.3
518.5	413.0
518.0	433.0
518.0	447.5
519.0	360.0
519.0	366.0
519.0	375.5
519.5	400.0
519.5	427.0
519.5	457.0
520.3	380.3
520.3	441.3
520.5	463.0
521.0	386.0
521.3	407.3
521.0	421.0
522.0	391.0
522.0	452.0
523.0	371.0
523.0	396.5
523.7	416.3
524.0	431.0
524.0	447.0
525.0	356.0
525.0	362.0
525.0	376.5
525.0	402.0
525.7	425.3
525.0	457.5
526.5	367.5
526.7	381.7
526.0	411.5
527.0	387.0
527.0	436.0
527.0	442.0
528.0	392.5
528.5	398.0
528.0	405.5
528.0	420.0
528.5	452.0
529.5	372.0
530.5	431.0
530.0	462.0
531.0	358.5
531.0	364.5
531.5	378.0
531.0	415.0
531.5	446.0
532.5	425.0
532.0	440.5
533.0	384.0
533.5	389.5
533.5	401.5
533.0	409.5
533.0	457.0
535.0	368.3
534.5	395.0
534.5	435.0
535.0	419.5
535.5	451.0
536.7	355.7
536.5	362.0
536.5	374.0
537.3	380.3
537.0	429.5
537.0	445.5
537.0	462.5
538.0	414.0
538.7	439.7
539.5	387.0
539.7	392.7
539.0	398.5
539.5	424.0
540.5	450.0
540.0	456.5
542.5	365.0
542.5	371.0
542.3	376.7
542.7	402.3
542.0	433.5
542.7	444.7
543.0	358.5
543.0	382.5
543.0	418.0
544.5	392.0
544.7	412.3
545.0	438.8
544.5	461.5
545.0	396.5
545.0	428.0
545.0	454.5
547.0	387.0
547.5	406.5
547.0	449.0
548.5	355.0
548.0	362.0
548.5	368.5
548.5	423.0
548.7	433.7
549.0	374.5
549.0	380.5
549.0	400.0
549.0	416.5
549.0	443.0
549.5	455.0
551.5	393.0
551.5	411.0
551.0	427.5
552.5	438.0
553.5	359.0
553.5	385.5
553.7	404.7
553.0	448.5
553.0	460.5
554.0	366.0
554.0	420.5
554.7	432.3
555.3	372.7
556.5	379.0
555.5	398.0
556.0	415.5
556.0	442.5
556.0	454.0
557.5	409.0
557.0	426.0
558.0	391.5
559.5	355.0
559.5	362.0
559.5	437.0
560.0	369.0
560.0	385.5
560.5	403.0
560.0	420.5
560.0	448.0
560.5	458.0
561.5	414.0
561.5	431.0
562.5	375.0
562.0	396.5
563.0	442.5
564.5	380.5
564.5	408.0
564.5	425.0
564.0	453.0
565.5	358.0
565.3	364.3
565.0	390.5
565.0	462.5
566.0	370.5
566.0	419.0
566.0	436.0
567.5	386.0
567.0	401.0
567.3	447.3
568.0	413.0
568.3	457.3
569.5	430.0
570.5	375.0
570.0	395.0
570.5	442.0
571.7	354.7
571.0	361.5
571.0	368.0
571.0	381.5
571.0	407.0
571.5	424.0
571.5	452.5
572.5	389.0
572.5	418.0
573.7	400.7
573.0	435.5
574.7	458.7
575.0	412.0
575.0	447.0
576.5	358.5
576.5	365.0
577.0	371.0
577.0	377.0
577.5	384.0
577.0	394.5
577.5	406.0
577.5	422.5
577.0	429.5
577.7	441.3
578.0	453.0
580.5	389.5
580.0	417.5
581.0	401.0
581.0	435.5
581.0	459.0
582.5	359.5
582.0	411.0
583.5	373.0
583.5	379.0
583.7	423.7
584.0	366.0
584.5	385.0
584.5	405.5
584.0	454.0
585.5	356.5
585.0	395.5
585.0	431.0
586.5	417.0
587.7	436.7
587.5	462.0
588.5	410.0
588.5	449.0
589.7	361.7
589.5	369.0
589.8	375.4
589.0	391.5
589.5	402.0
589.0	427.0
590.0	382.0
590.5	443.0
591.5	354.5
591.3	420.7
591.0	455.0
592.0	397.0
592.0	432.0
593.5	414.0
594.7	437.7
594.0	461.0
595.5	365.5
595.5	372.0
595.0	386.0
595.5	407.5
595.0	449.0
596.5	359.0
596.0	378.5
596.0	393.0
596.0	426.5
597.0	400.5
597.5	419.0
598.0	443.0
598.0	454.5
600.3	382.3
600.0	412.5
600.0	431.5
601.7	369.3
601.0	389.0
601.7	406.3
601.7	437.7
602.0	355.5
602.0	362.5
602.0	376.0
602.3	395.3
602.0	424.0
602.0	449.5
602.0	460.0
605.5	385.5
605.0	400.5
605.0	418.0
605.0	444.0
605.3	454.7
606.7	379.3
606.7	428.3
608.0	359.3
607.5	411.5
607.7	438.3
608.0	352.5
608.0	366.0
608.0	373.0
608.0	392.0
608.0	405.5
609.0	449.5
609.0	461.5
610.7	397.3
610.0	422.5
611.0	385.0
613.0	402.5
613.0	416.5
613.3	435.7
613.0	443.5
613.0	456.0
614.7	355.7
614.0	363.5
614.5	370.0
614.0	378.0
614.5	409.5
614.5	429.0
615.0	391.5
616.0	449.5
616.5	461.0
617.0	384.5
617.0	398.0
617.0	421.5
619.0	404.0
619.3	414.7
619.3	433.7
619.6	441.8
620.0	360.5
620.0	367.0
620.0	374.0
620.5	455.0
621.0	354.0
621.3	380.7
621.7	387.7
621.3	408.3
621.0	427.5
622.5	393.5
623.3	448.7
624.0	400.0
624.3	420.3
624.0	461.0
625.5	364.0
626.0	405.0
626.0	411.5
626.0	433.5
627.0	357.0
627.0	377.5
628.2	384.6
627.5	455.0
628.5	389.0
629.5	401.5
629.0	427.0
630.5	395.0
630.5	415.0
631.5	362.0
631.5	408.5
631.0	448.5
631.0	461.0
632.0	373.5
632.3	421.7
632.0	437.5
634.0	356.0
635.0	378.8
634.5	401.5
634.5	454.0
635.5	368.0
635.0	384.5
635.0	391.0
635.0	432.0
635.0	443.5
636.7	459.3
637.7	396.3
637.5	418.5
637.0	426.0
638.5	373.5
638.5	437.5
638.3	449.7
639.0	361.0
639.3	412.7
641.5	379.0
641.3	386.3
641.3	406.7
642.0	367.0
642.7	393.3
642.0	423.5
642.0	431.5
642.0	444.0
642.7	457.3
642.0	463.5
643.7	353.3
643.0	400.5
644.7	437.7
645.0	372.5
86.5	508.0
89.0	475.0
91.0	468.0
92.0	492.5
95.7	498.3
96.7	473.3
98.3	515.3
99.3	492.7
100.3	532.3
101.0	521.0
105.0	526.0
106.7	484.3
106.0	566.0
108.5	491.0
108.0	503.5
110.3	478.3
111.0	574.0
112.5	497.5
112.0	509.0
112.3	567.7
114.3	537.3
115.5	515.0
116.7	491.7
116.3	503.3
117.5	467.5
117.0	479.5
118.0	521.0
119.7	509.3
119.5	571.0
121.0	497.0
123.7	503.3
125.7	470.3
125.0	491.0
126.0	521.3
127.5	510.0
127.7	574.7
128.3	497.7
129.0	476.5
130.7	483.7
131.3	465.7
131.3	515.7
132.0	504.0
132.0	547.5
133.5	492.0
133.3	569.3
134.5	471.5
134.5	479.0
134.5	522.0
134.3	534.7
134.0	555.0
135.0	561.5
136.5	509.5
137.5	542.0
137.5	486.5
137.0	499.0
137.5	529.0
139.0	476.0
139.5	517.0
139.5	549.0
141.0	469.3
140.5	493.0
140.0	557.5
141.5	481.0
141.5	504.5
141.3	523.3
142.3	536.7
142.5	563.5
142.0	572.5
143.5	511.0
144.7	545.3
145.0	465.0
145.5	475.0
145.0	498.5
145.7	528.7
146.0	487.0
146.5	518.5
147.7	540.3
147.0	557.5
147.5	568.5
148.0	551.0
149.5	469.5
149.0	534.5
151.0	481.0
150.0	503.0
150.0	511.0
150.7	574.7
151.5	495.0
151.5	524.0
152.0	464.0
152.3	530.3
152.5	545.5
152.0	562.5
153.5	488.0
153.5	539.0
154.5	518.0
154.7	555.3
155.0	475.0
156.5	500.0
156.5	506.0
157.5	469.0
157.0	512.0
157.5	535.0
158.3	483.7
158.0	493.0
158.5	549.0
160.0	522.3
159.0	529.0
160.0	542.0
161.5	561.0
161.5	573.0
162.5	516.0
164.0	472.5
163.7	510.3
163.3	554.7
164.5	479.5
164.5	490.0
164.0	497.5
164.5	504.0
164.0	533.0
165.7	548.3
165.0	567.0
166.5	485.0
166.3	526.7
167.5	520.5
168.0	537.5
169.7	514.3
169.0	560.5
169.0	573.5
170.0	467.0
170.0	495.5
171.4	542.4
170.5	553.0
171.5	474.0
171.0	508.0
171.5	531.0
172.0	490.0
172.5	501.5
172.5	568.0
173.5	484.0
173.5	525.0
174.0	547.5
175.0	518.5
175.5	536.0
176.0	563.5
176.0	470.0
176.5	479.0
176.7	558.3
177.0	464.5
177.0	496.0
177.0	574.0
178.5	490.0
178.0	506.0
178.0	513.0
178.5	530.0
178.7	552.3
180.0	474.5
180.0	523.5
181.0	541.0
181.0	484.5
182.2	547.4
181.5	569.0
183.7	468.3
184.0	479.8
183.0	517.0
183.5	535.0
184.5	495.5
184.0	502.5
185.5	511.0
185.5	528.0
185.5	557.5
185.5	564.0
186.0	489.0
187.0	475.0
187.7	483.3
187.5	552.0
188.5	522.0
188.5	539.0
189.3	545.3
190.0	569.0
190.5	465.0
190.5	471.0
190.0	506.0
190.7	515.3
190.3	532.7
191.0	500.0
191.7	562.3
192.5	493.0
193.5	481.0
193.5	527.0
193.5	556.0
194.7	475.7
194.5	510.0
194.5	550.0
195.0	543.0
196.0	521.0
196.5	537.5
196.7	570.7
197.5	466.0
197.0	504.0
198.5	498.0
198.5	532.0
198.0	565.5
199.0	493.0
199.0	515.5
200.0	472.0
200.5	478.0
200.5	553.5
200.5	560.0
201.5	508.5
201.5	526.0
201.0	548.5
202.7	542.7
203.0	484.0
203.5	537.0
203.6	569.8
204.7	468.3
205.0	488.8
204.0	501.5
204.0	520.0
206.5	474.0
206.5	495.0
206.0	513.0
206.7	563.7
208.3	532.3
207.0	555.0
208.0	481.0
208.7	506.7
208.0	548.0
209.3	524.7
209.0	541.5
210.0	464.5
210.7	571.3
211.7	470.7
211.5	500.5
211.7	518.3
213.5	494.0
213.5	551.5
213.0	559.0
213.5	565.0
214.0	480.0
214.0	512.0
214.7	537.3
215.0	529.5
215.0	545.0
216.5	489.0
216.3	505.7
217.0	466.5
217.0	473.5
217.3	522.7
217.7	570.3
218.5	556.0
219.0	500.0
220.3	478.7
220.0	517.0
220.0	533.5
220.5	562.5
221.0	484.5
221.0	494.5
221.0	510.5
221.7	527.3
221.0	549.5
222.7	468.7
222.5	543.0
224.5	474.5
224.0	505.0
224.0	522.0
224.3	568.3
225.0	490.5
225.5	536.5
226.5	480.5
226.5	497.5
226.3	514.3
226.5	555.5
227.7	465.7
227.5	530.0
227.0	562.0
228.7	572.7
229.5	471.5
229.0	549.0
230.0	485.0
230.0	502.0
230.0	508.5
230.5	542.0
231.0	477.0
231.7	491.3
231.0	522.0
232.5	535.0
232.0	566.5
233.7	496.3
233.7	515.3
233.3	559.7
234.0	553.0
235.0	467.5
236.0	480.5
235.0	528.5
236.3	486.3
236.0	502.0
236.0	547.0
237.0	474.0
237.5	540.0
237.5	571.0
238.5	492.0
238.0	508.0
238.5	523.0
238.5	564.0
239.5	534.0
240.7	497.7
240.0	514.0
240.0	557.5
241.0	469.5
241.7	482.3
241.0	551.5
242.5	503.0
242.3	528.3
243.5	476.0
243.0	487.5
243.0	518.5
243.0	545.0
243.0	574.5
244.0	539.0
244.7	568.3
245.7	492.7
245.0	508.5
245.5	562.0
246.0	464.5
246.7	513.7
246.0	523.0
247.5	482.0
247.3	533.7
247.0	556.0
248.0	470.5
248.0	498.5
248.0	550.0
249.5	504.0
249.5	518.0
249.5	528.0
249.5	543.5
250.0	476.0
250.0	488.0
251.5	509.0
251.5	538.0
251.5	567.0
251.0	574.0
252.7	465.3
252.5	494.0
252.0	560.5
253.3	480.3
253.3	513.7
253.5	523.0
253.5	554.0
254.7	470.7
254.0	532.0
255.5	485.0
255.0	500.0
255.0	548.0
257.3	475.3
257.0	506.0
257.0	542.0
258.0	490.0
258.0	526.0
258.0	565.0
258.0	572.0
259.0	465.5
259.0	511.0
259.0	536.0
259.0	558.5
260.0	481.0
260.5	496.0
260.5	552.0
261.5	470.5
261.0	520.0
262.5	501.0
262.0	530.5
262.5	546.5
263.0	486.0
263.0	568.5
264.0	476.5
264.3	507.7
264.5	514.0
264.0	540.0
265.0	491.5
265.0	524.5
265.0	562.0
266.7	466.3
266.5	535.0
266.0	556.0
267.0	482.0
267.3	497.7
267.5	550.0
267.0	573.5
268.5	472.0
268.3	518.3
269.5	504.0
269.0	529.0
270.0	487.0
270.5	540.0
270.0	566.0
271.3	477.7
271.5	546.0
271.5	559.5
272.0	492.5
272.5	523.5
273.0	467.5
273.0	533.5
273.5	553.0
274.0	483.0
274.0	499.0
274.5	571.0
276.0	473.0
276.5	488.0
276.7	504.7
276.0	528.5
276.7	563.7
278.2	516.4
277.0	538.0
278.0	479.0
278.5	494.0
278.7	543.7
278.7	556.7
279.0	523.0
280.0	468.5
280.0	510.0
280.5	532.5
280.0	550.0
280.5	574.0
281.0	484.0
281.3	499.3
282.5	474.0
282.3	567.3
283.0	488.5
283.7	514.7
283.7	538.7
284.0	464.5
284.7	479.3
284.0	505.0
284.5	520.5
284.0	527.0
284.5	544.5
284.0	561.0
285.5	555.0
286.5	470.0
286.0	494.0
287.5	488.0
287.0	510.5
287.0	533.0
287.7	549.7
288.5	483.0
288.5	500.0
288.0	571.0
289.7	466.7
289.0	476.0
289.3	516.3
289.5	522.5
289.5	539.0
289.7	564.7
290.5	528.5
291.0	505.5
291.0	558.0
292.0	472.0
292.5	491.0
292.0	545.5
293.7	479.3
293.7	496.7
293.0	512.0
295.0	534.0
294.0	552.0
295.5	468.0
295.0	485.5
295.0	517.5
296.0	523.0
295.5	569.0
296.0	502.5
296.0	540.5
297.7	473.7
297.5	508.0
297.0	528.5
297.5	547.0
297.5	562.5
298.0	492.5
298.5	557.0
299.7	478.3
299.3	513.7
300.3	483.7
300.0	498.5
300.5	552.0
301.0	464.5
301.5	504.0
301.5	519.5
301.7	531.7
302.5	469.0
302.5	489.0
302.5	525.5
303.0	537.3
302.0	543.0
302.5	567.0
302.5	573.0
304.5	494.5
304.0	509.5
304.7	561.3
305.0	474.0
306.2	479.6
305.5	515.0
305.0	548.0
306.0	500.0
307.5	485.0
307.5	505.5
307.5	528.0
307.5	555.0
308.0	464.5
308.0	522.0
308.0	533.5
308.0	542.5
308.7	568.7
309.0	491.0
310.0	470.0
310.7	496.3
310.0	511.0
311.5	475.5
311.5	538.0
311.0	549.0
311.5	560.0
312.5	481.0
312.0	501.5
312.5	517.0
313.5	487.0
313.0	526.0
314.5	465.0
314.5	507.0
314.5	543.0
314.5	554.0
314.0	572.0
315.5	492.0
315.5	522.0
315.5	532.0
316.0	471.0
316.0	512.0
316.0	565.5
317.0	498.0
318.0	477.5
318.5	483.0
318.5	517.5
318.0	548.5
319.7	488.7
319.0	503.5
319.0	537.0
319.0	559.5
320.0	526.5
321.5	467.5
321.5	494.0
321.0	509.5
321.0	543.0
321.0	570.5
322.3	473.3
322.0	553.5
323.5	500.0
323.0	515.0
323.0	521.0
324.0	479.0
325.0	484.8
324.0	531.0
324.0	564.5
325.5	547.5
326.5	490.5
326.3	505.7
327.0	496.0
327.7	512.3
327.5	525.0
327.7	535.7
327.0	558.5
328.0	469.5
328.5	519.0
328.5	553.0
328.0	570.0
329.0	475.0
329.5	542.0
330.0	481.5
331.5	487.5
331.0	501.0
331.0	530.0
331.5	564.0
332.3	508.7
332.7	548.3
333.3	465.3
333.0	494.0
333.0	558.5
333.0	574.5
334.0	472.0
334.0	515.0
334.0	521.0
334.7	536.7
335.0	477.5
335.0	526.0
335.5	543.5
336.0	484.0
336.0	504.0
336.5	554.5
336.5	568.0
338.0	497.5
338.0	490.0
339.7	463.3
339.0	469.0
339.0	510.0
339.5	531.0
339.5	549.0
339.0	561.0
340.0	480.5
340.0	502.5
340.0	517.0
340.5	524.5
340.0	574.0
341.5	474.0
341.5	543.0
342.0	537.0
343.0	486.0
343.5	554.0
343.0	567.5
344.5	468.0
344.0	492.5
345.5	479.0
345.0	499.0
345.5	504.5
345.5	511.0
346.0	516.5
346.5	522.0
346.0	528.0
346.5	533.0
346.7	547.7
347.3	463.3
347.7	473.3
347.0	541.0
347.0	563.0
347.0	574.0
348.5	488.5
348.5	558.5
349.3	483.3
349.5	495.0
350.5	553.0
350.0	568.5
351.0	467.5
351.5	478.0
351.5	507.0
351.0	536.0
352.0	501.0
352.0	513.0
352.5	519.0
353.5	473.0
353.5	525.0
353.0	531.0
353.0	542.0
353.5	563.0
354.0	490.5
354.0	548.0
354.5	573.5
355.0	485.5
356.0	496.0
357.0	465.0
357.5	476.0
357.3	480.7
357.5	510.0
357.5	553.0
357.0	558.0
357.5	568.0
358.0	470.5
358.5	504.5
358.0	516.5
358.0	535.5
359.0	529.0
359.3	542.3
360.5	490.0
360.0	500.0
360.0	522.5
360.0	549.0
360.5	563.0
362.0	484.5
362.0	496.5
362.0	573.0
363.0	468.0
363.5	473.0
363.5	478.5
363.0	513.5
364.0	508.5
364.3	517.3
364.0	532.5
364.0	538.5
364.5	546.0
365.5	504.0
365.7	526.7
365.0	553.5
365.0	567.0
366.5	560.5
367.0	492.5
367.5	499.0
367.5	521.0
368.5	481.5
368.0	487.0
369.7	466.7
369.0	472.0
369.0	476.5
369.0	514.5
369.5	536.0
369.0	542.0
369.0	572.5
370.7	508.3
370.5	548.0
371.5	496.0
371.0	530.0
371.0	556.0
371.7	566.3
372.5	524.0
373.7	484.7
373.0	503.0
373.0	518.5
374.5	479.0
374.0	490.5
374.3	512.7
374.3	561.3
375.0	464.0
375.0	468.0
375.0	474.0
375.5	497.0
375.5	538.5
375.5	544.0
375.7	551.7
376.5	508.0
376.0	533.5
376.5	570.5
377.3	527.3
378.0	522.0
378.5	547.0
378.0	556.5
379.5	487.5
379.0	516.5
380.5	466.0
380.0	476.0
380.0	481.5
380.7	493.7
380.0	566.0
381.5	471.0
381.5	500.0
381.5	537.0
381.5	542.0
382.0	506.0
383.0	512.5
382.5	531.0
382.5	551.5
382.5	561.0
383.5	525.0
384.5	570.0
385.0	479.0
385.5	484.5
385.0	490.0
385.0	518.5
385.0	556.5
386.5	497.0
386.3	508.7
386.0	547.0
387.0	468.0
387.0	474.0
387.5	535.0
388.0	541.5
387.7	564.3
388.0	503.0
389.5	492.5
389.5	529.0
389.0	552.0
390.0	512.5
390.0	523.5
391.0	481.5
391.0	488.5
391.0	518.0
391.3	558.3
392.0	465.5
392.5	477.0
392.5	538.0
392.5	547.0
392.0	569.5
393.0	471.0
393.0	507.0
394.7	494.7
394.0	501.0
394.0	533.0
395.0	485.0
395.5	527.5
395.5	553.0
395.0	564.0
396.5	522.0
396.5	542.5
396.5	574.0
397.0	480.5
397.3	515.7
398.3	468.7
398.0	474.5
398.7	558.7
399.5	510.0
399.0	537.0
399.5	548.0
399.5	569.0
400.0	491.0
400.0	497.5
400.0	504.0
400.5	532.0
401.3	465.3
401.5	485.0
401.5	526.0
402.0	553.0
403.3	472.0
403.0	479.0
403.0	520.0
403.0	542.0
403.0	563.5
404.0	514.0
404.0	573.5
405.5	501.0
405.5	507.0
405.5	537.0
406.0	494.5
406.0	548.0
406.0	558.5
407.5	476.0
407.5	482.0
407.0	488.5
407.0	531.0
407.0	568.5
408.0	469.0
408.0	524.5
409.0	519.0
409.0	553.0
410.5	513.0
410.5	542.0
410.5	563.0
411.5	464.0
411.5	574.0
412.0	493.5
412.5	501.0
412.5	507.5
412.0	529.5
412.0	536.0
412.5	549.0
413.5	474.0
413.0	480.0
413.0	486.5
413.5	557.0
414.5	469.0
414.3	524.7
414.3	568.7
415.7	518.3
417.5	512.0
417.5	532.0
417.0	539.0
417.3	545.7
418.0	465.5
418.0	490.0
418.0	496.5
418.5	506.0
418.0	552.0
418.0	562.5
419.5	472.0
419.0	478.0
419.0	484.0
419.0	501.0
420.3	524.3
421.0	557.0
421.3	568.3
422.0	516.5
423.0	536.5
423.0	543.0
423.5	550.5
424.0	469.5
424.5	481.5
424.0	487.5
424.5	493.5
424.5	499.0
424.5	504.5
424.0	510.5
424.7	530.3
425.0	476.0
425.0	563.0
425.0	574.0
427.0	519.5
427.0	525.0
427.5	556.5
428.5	468.0
428.5	514.0
428.0	540.0
429.3	484.7
429.0	535.0
429.0	546.0
429.3	568.7
430.0	474.0
430.8	479.6
430.0	490.5
430.0	497.0
430.5	503.0
430.0	508.5
431.0	552.0
431.0	563.0
432.5	523.0
432.0	529.0
433.7	465.7
433.5	517.5
434.7	471.3
434.5	487.0
434.0	540.0
434.7	558.3
435.0	500.5
435.5	507.5
436.0	476.5
436.0	493.0
436.5	513.0
436.0	533.0
436.0	547.0
436.5	565.5
437.5	482.0
437.0	553.0
438.3	526.3
439.0	467.0
439.5	519.0
440.5	488.0
440.7	505.3
440.0	543.0
440.0	571.0
441.0	472.5
441.0	498.5
441.0	537.0
442.5	478.0
442.7	530.7
442.0	551.0
442.7	557.3
443.0	511.5
443.5	564.0
444.5	467.5
444.3	483.7
444.0	493.0
444.7	523.7
445.5	504.5
445.3	517.7
445.5	547.0
446.5	489.0
446.5	541.0
447.0	473.5
447.0	498.5
447.0	535.0
447.0	570.5
448.0	479.0
448.0	528.5
449.3	514.7
449.5	552.0
449.5	559.0
450.3	468.3
450.0	483.5
450.3	508.7
450.5	565.0
451.7	532.3
451.0	545.0
452.0	474.0
452.5	489.0
452.0	495.0
452.0	502.0
452.0	525.0
453.5	479.0
453.0	538.5
454.0	519.0
454.5	550.0
454.0	570.0
455.3	512.7
456.0	469.5
456.0	485.0
456.0	557.0
457.5	492.0
457.0	506.0
457.0	530.0
457.5	544.0
457.5	564.0
458.0	475.0
458.0	498.5
458.5	524.0
458.7	574.7
460.5	465.0
460.5	481.0
460.0	537.5
461.5	487.0
461.0	510.5
461.0	519.0
461.5	549.0
461.3	569.7
462.0	560.0
463.0	471.0
463.0	493.5
463.0	504.0
463.0	531.0
464.0	543.0
464.7	554.7
465.0	477.0
465.5	514.5
465.0	525.0
465.3	565.3
466.5	483.0
466.0	499.0
467.0	466.5
467.0	489.0
467.0	509.0
467.0	537.0
467.5	571.0
468.5	519.5
468.0	549.0
469.0	472.5
469.7	493.7
469.5	504.0
469.5	530.5
469.3	559.3
471.0	479.5
471.0	542.0
472.5	486.5
472.0	514.0
472.0	525.0
472.5	565.0
473.5	468.0
473.0	499.0
474.5	509.0
474.0	536.0
474.5	554.0
474.5	572.0
475.0	474.0
475.0	548.0
476.0	494.0
476.0	519.0
476.5	530.0
476.0	560.0
477.5	478.5
477.0	503.5
478.0	464.0
478.0	484.0
478.5	489.0
478.0	542.5
479.0	513.0
480.5	470.0
480.0	498.5
480.0	524.5
480.5	535.0
481.5	508.0
481.0	550.0
481.5	557.0
481.5	563.5
481.0	569.5
482.3	475.3
483.5	481.0
483.5	494.0
483.3	518.7
484.0	487.0
484.0	503.0
484.5	529.0
484.5	539.5
485.0	466.0
486.0	513.0
486.0	546.0
487.5	472.0
487.3	498.7
488.5	477.0
488.5	491.0
488.0	524.0
488.0	534.0
488.5	553.0
488.0	561.0
488.0	568.0
489.0	483.5
490.0	507.0
490.5	518.0
491.0	468.0
491.5	529.0
491.0	540.0
492.0	495.5
493.0	512.5
493.0	547.0
494.3	473.3
494.5	480.0
494.0	486.0
494.7	559.3
494.5	565.5
495.5	467.0
495.0	491.5
495.3	501.3
495.0	523.0
495.0	534.0
496.0	553.0
497.5	571.0
498.5	509.0
498.0	516.0
498.5	529.0
498.0	540.0
499.0	496.0
499.7	546.7
500.5	477.0
500.5	483.0
500.0	489.0
501.5	465.0
501.0	471.0
501.5	559.0
502.0	503.5
502.0	525.0
502.0	535.0
502.3	552.3
502.5	566.0
503.5	519.5
504.7	513.3
505.5	492.0
505.0	498.0
505.0	541.0
506.5	475.0
506.0	486.0
506.0	530.0
506.8	548.0
507.7	468.7
507.0	480.5
507.0	508.0
507.0	556.0
508.0	562.0
508.5	569.5
509.5	502.0
509.0	525.0
509.5	535.0
510.5	518.5
511.0	489.5
511.0	496.0
511.5	512.0
512.5	484.5
512.5	541.0
512.0	553.5
513.5	466.0
513.0	472.0
513.0	478.5
513.5	530.0
513.0	565.5
514.5	506.0
514.7	547.7
515.7	523.3
516.7	499.7
516.7	560.3
517.5	491.0
517.0	517.0
517.5	535.0
518.5	469.0
518.5	483.0
518.5	511.0
518.0	542.0
518.5	553.5
519.0	476.0
519.0	568.5
520.5	529.0
521.5	488.0
521.0	496.5
521.7	503.7
521.5	547.0
522.3	522.3
522.5	558.0
523.5	472.0
524.0	478.0
524.0	516.0
524.0	540.0
525.5	492.0
525.5	509.0
525.0	564.0
526.0	467.5
526.0	483.0
526.0	527.0
526.0	534.0
526.0	552.5
526.0	572.0
528.0	497.0
528.5	503.0
528.0	546.5
529.7	473.7
530.0	486.5
529.0	521.0
529.5	558.0
530.7	514.3
530.0	539.5
531.3	527.3
531.5	565.0
532.0	480.0
532.0	492.5
532.3	508.3
532.5	552.0
533.0	468.0
533.5	533.5
534.0	499.0
534.3	572.3
535.5	520.0
535.0	545.5
536.0	475.0
536.0	488.0
536.5	558.5
537.0	504.5
537.0	539.0
538.3	482.7
538.0	493.5
538.0	512.0
538.5	566.0
539.0	525.5
539.0	551.0
541.0	472.0
541.7	498.7
541.7	518.3
541.5	543.5
542.0	478.5
542.0	490.0
542.0	534.5
542.7	560.3
542.5	573.0
543.3	505.3
544.5	485.5
545.0	467.5
545.3	511.7
546.0	529.0
545.0	554.5
546.5	474.0
546.5	548.0
546.0	566.5
547.3	522.7
547.7	541.3
548.0	480.5
548.5	492.0
548.0	499.0
548.0	516.5
549.5	535.0
549.5	560.0
550.5	506.0
550.5	572.5
551.7	467.3
551.5	486.0
551.5	553.0
553.0	475.0
553.5	496.0
553.0	512.0
553.7	546.3
553.5	566.0
554.0	518.0
554.0	530.0
555.7	480.7
556.0	491.0
556.0	502.0
556.5	524.0
556.0	538.5
556.3	558.3
557.0	470.5
557.7	572.3
559.0	465.0
558.5	508.0
559.5	486.0
559.0	497.0
559.0	551.0
560.0	475.5
560.3	514.7
560.7	520.3
560.5	533.0
560.5	564.5
561.0	544.5
562.5	503.0
562.3	527.3
563.0	480.5
563.0	491.0
563.0	556.5
564.3	469.3
564.0	538.0
565.3	509.3
565.5	570.0
566.0	497.0
566.5	521.0
566.5	549.5
567.0	475.0
567.0	486.0
567.0	531.5
568.5	562.5
570.0	464.5
569.5	503.0
569.5	515.0
569.0	543.0
570.0	480.0
570.0	491.0
571.0	526.0
571.5	555.5
571.5	574.0
572.0	470.5
572.0	537.0
573.3	497.7
573.0	509.0
574.5	485.5
574.0	520.5
574.0	548.5
574.0	567.5
575.0	531.5
577.0	514.5
577.0	542.0
579.0	536.0
579.0	554.5
580.4	487.2
580.5	509.0
581.5	566.0
582.8	547.3
584.5	540.0
584.0	558.5
586.0	525.5
587.0	552.0
588.5	564.5
590.0	545.5
591.0	530.0
592.0	557.5
595.0	551.0
595.5	563.5
597.5	480.5
599.0	465.0
599.0	503.5
600.5	539.0
600.5	558.0
601.0	487.0
601.7	567.7
602.5	551.0
605.7	544.3
608.5	488.0
608.0	563.0
611.0	531.0
614.0	544.0
616.0	519.0
616.0	572.0
617.0	497.5
619.5	485.0
620.3	533.7
621.5	474.0
628.0	542.5
630.0	549.5
637.7	550.7
638.7	483.7
644.7	477.7
645.5	550.5
101.0	587.0
111.0	580.0
120.5	578.5
126.0	583.0
127.5	589.5
132.5	594.0
134.5	577.0
135.7	600.3
142.0	579.5
144.5	586.0
146.5	601.0
164.0	580.0
184.3	575.3
198.0	588.0
207.0	576.5
214.5	577.0
217.0	584.0
221.6	578.2
223.7	596.3
228.5	591.0
229.5	579.5
237.5	579.0
250.5	585.5
255.5	579.0
258.0	593.8
260.0	586.0
260.0	601.5
263.0	579.0
272.0	577.5
276.0	585.5
277.0	592.5
279.5	580.0
286.7	601.7
287.0	578.0
289.5	594.0
291.5	588.0
299.0	585.5
301.7	579.3
304.5	589.0
307.5	583.0
309.0	576.0
309.0	595.0
312.0	588.5
314.3	581.7
316.3	594.3
322.0	581.5
325.0	576.0
326.0	586.5
329.0	581.0
331.5	592.0
336.7	580.3
339.2	601.4
341.3	585.7
344.5	580.0
346.0	591.5
349.0	585.0
352.0	579.0
352.5	591.0
356.5	585.0
357.5	596.0
359.3	578.7
360.5	590.0
362.7	600.7
363.5	584.0
367.0	578.5
370.5	600.0
372.5	583.0
374.3	576.7
376.5	588.5
379.0	581.5
382.0	576.0
383.0	587.5
384.5	598.0
386.0	581.0
387.5	592.5
389.0	575.0
389.5	604.0
390.0	586.5
391.7	597.3
393.0	579.5
395.0	591.5
397.0	585.0
399.0	596.0
400.0	579.0
402.0	590.0
403.5	584.5
407.0	601.0
408.0	579.0
414.7	580.7
418.5	575.0
419.0	585.0
423.0	580.5
430.3	582.3
432.3	600.7
433.5	588.0
436.0	575.5
438.0	583.5
443.0	577.0
445.5	584.0
445.0	605.0
448.0	590.5
451.3	577.3
453.5	604.0
458.8	580.4
463.0	602.0
464.0	584.0
466.5	577.5
469.4	590.6
471.0	583.5
474.0	577.5
477.0	591.0
478.7	583.7
481.0	576.0
483.5	588.0
484.5	594.0
486.5	581.0
491.4	589.2
494.0	582.0
497.5	577.0
497.0	595.5
498.5	588.0
501.5	582.0
501.5	602.0
503.5	594.0
504.0	574.5
506.5	587.5
508.0	581.0
511.7	574.7
512.0	593.0
513.5	586.5
515.7	580.3
516.7	603.7
525.0	601.5
527.0	594.5
529.3	578.3
531.5	600.0
538.5	579.0
543.0	584.0
547.0	579.0
548.0	595.0
550.7	586.3
554.5	579.5
563.5	598.0
565.8	585.6
568.0	579.5
568.7	602.7
573.3	584.7
577.0	601.5
581.0	585.5
584.7	578.3
592.5	576.0
593.0	590.0
597.0	582.0
597.0	594.5
599.0	601.0
601.5	588.0
604.7	581.7
605.0	603.0
610.0	576.0
621.7	595.7
155.0	124.0
149.0	130.0
145.0	124.0
134.0	120.0
137.0	125.0
127.0	125.0
119.0	123.0
124.0	111.0
127.0	98.0
134.0	102.0
131.0	108.0
124.0	104.0
116.0	100.0
116.0	108.0
121.0	94.0
132.0	90.0
138.0	95.0
144.0	101.0
141.0	107.0
131.0	114.0
138.0	114.0
146.0	113.0
141.0	119.0
150.0	119.0
153.0	112.0
149.0	107.0
153.0	100.0
157.0	106.0
162.0	113.0
159.0	118.0
163.0	125.0
167.0	120.0
170.0	113.0
166.0	106.0
162.0	100.0
157.0	95.0
147.0	95.0
142.0	89.0
141.0	83.0
133.0	84.0
124.0	85.0
118.0	80.0
115.0	89.0
148.0	80.0
152.0	87.0
158.0	80.0
162.0	88.0
172.0	88.0
167.0	80.0
166.0	94.0
175.0	94.0
170.0	100.0
174.0	106.0
180.0	111.0
174.0	118.0
170.0	125.0
178.0	124.0
188.0	122.0
183.0	128.0
193.0	127.0
183.0	118.0
190.0	116.0
188.0	111.0
183.0	107.0
178.0	100.0
187.0	100.0
183.0	94.0
181.0	86.0
176.0	81.0
187.0	79.0
190.0	86.0
196.0	98.0
191.0	93.0
200.0	103.0
192.0	105.0
196.0	110.0
196.0	118.0
199.0	124.0
206.0	124.0
203.0	119.0
203.0	113.0
207.0	108.0
210.0	100.0
204.0	95.0
198.0	91.0
198.0	83.0
206.0	88.0
207.0	82.0
213.0	91.0
216.0	86.0
217.0	98.0
220.0	92.0
223.0	103.0
215.0	106.0
212.0	113.0
212.0	119.0
213.0	127.0
218.0	123.0
219.0	116.0
221.0	110.0
224.0	120.0
227.0	125.0
232.0	130.0
126.0	135.0
121.0	130.0
116.0	135.0
120.0	142.0
129.0	143.0
125.0	148.0
116.0	148.0
116.0	159.0
120.0	166.0
121.0	173.0
113.0	170.0
117.0	184.0
119.0	190.0
123.0	194.0
126.0	202.0
123.0	209.0
127.0	215.0
128.0	166.0
125.0	160.0
126.0	230.0
128.0	242.0
126.0	248.0
126.0	255.0
119.0	250.0
116.0	255.0
124.0	267.0
130.0	265.0
124.0	237.0
119.0	227.0
118.0	234.0
241.0	241.0
239.0	246.0
124.0	274.0
117.0	266.0
117.0	272.0
121.0	287.0
126.0	291.0
118.0	294.0
123.0	298.0
127.0	302.0
117.0	308.0
125.0	310.0
142.0	273.0
139.0	278.0
159.0	295.0
172.0	312.0
172.0	318.0
185.0	317.0
196.0	330.0
195.0	336.0
196.0	341.0
123.0	326.0
128.0	323.0
121.0	315.0
127.0	316.0
117.0	323.0
117.0	330.0
119.0	336.0
125.0	333.0
127.0	339.0
119.0	342.0
126.0	346.0
120.0	348.0
126.0	352.0
123.0	359.0
121.0	366.0
127.0	365.0
129.0	357.0
117.0	355.0
116.0	361.0
117.0	370.0
116.0	377.0
123.0	376.0
128.0	380.0
126.0	385.0
126.0	391.0
119.0	395.0
125.0	398.0
133.0	406.0
126.0	405.0
120.0	409.0
118.0	416.0
125.0	420.0
125.0	427.0
118.0	430.0
124.0	433.0
131.0	435.0
124.0	440.0
118.0	438.0
119.0	451.0
121.0	457.0
123.0	464.0
130.0	459.0
127.0	452.0
161.0	457.0
162.0	451.0
163.0	445.0
210.0	410.0
204.0	411.0
227.0	396.0
221.0	395.0
243.0	367.0
234.0	364.0
239.0	362.0
244.0	361.0
247.0	365.0
252.0	366.0
268.0	352.0
267.0	358.0
269.0	362.0
276.0	364.0
268.0	367.0
273.0	368.0
255.0	359.0
259.0	361.0
264.0	363.0
120.0	474.0
114.0	472.0
124.0	480.0
120.0	486.0
130.0	528.0
123.0	527.0
118.0	532.0
126.0	533.0
121.0	538.0
128.0	541.0
123.0	545.0
117.0	543.0
120.0	550.0
127.0	553.0
128.0	560.0
119.0	565.0
120.0	557.0
128.0	567.0
150.0	581.0
157.0	578.0
159.0	585.0
167.0	587.0
172.0	580.0
175.0	587.0
180.0	581.0
183.0	587.0
188.0	581.0
191.0	588.0
192.0	575.0
195.0	582.0
199.0	576.0
203.0	583.0
210.0	584.0
206.0	589.0
155.0	570.0
211.0	487.0
198.0	486.0
192.0	487.0
170.0	479.0
123.0	515.0
226.0	585.0
234.0	585.0
242.0	585.0
247.0	580.0
269.0	582.0
269.0	588.0
284.0	584.0
294.0	582.0
295.0	576.0
319.0	587.0
334.0	586.0
257.0	517.0
274.0	518.0
272.0	511.0
369.0	588.0
411.0	586.0
426.0	587.0
454.0	586.0
430.0	575.0
490.0	575.0
520.0	575.0
522.0	582.0
527.0	587.0
535.0	585.0
541.0	590.0
562.0	577.0
558.0	586.0
578.0	579.0
578.0	573.0
585.0	572.0
593.0	569.0
609.0	570.0
601.0	574.0
589.0	584.0
615.0	564.0
608.0	556.0
614.0	552.0
623.0	560.0
616.0	557.0
621.0	547.0
623.0	553.0
615.0	581.0
611.0	587.0
577.0	561.0
585.0	532.0
579.0	526.0
582.0	520.0
585.0	514.0
590.0	511.0
586.0	506.0
577.0	503.0
581.0	498.0
576.0	492.0
576.0	477.0
578.0	471.0
576.0	465.0
583.0	465.0
586.0	471.0
583.0	475.0
590.0	480.0
586.0	486.0
584.0	493.0
587.0	499.0
590.0	492.0
594.0	498.0
598.0	493.0
594.0	487.0
604.0	493.0
602.0	498.0
592.0	505.0
597.0	510.0
589.0	518.0
593.0	523.0
599.0	527.0
597.0	533.0
592.0	538.0
598.0	545.0
604.0	532.0
609.0	538.0
615.0	536.0
622.0	540.0
618.0	527.0
612.0	523.0
607.0	519.0
606.0	525.0
600.0	521.0
595.0	517.0
603.0	514.0
606.0	507.0
610.0	513.0
614.0	507.0
610.0	501.0
611.0	495.0
614.0	490.0
621.0	492.0
620.0	511.0
622.0	504.0
622.0	519.0
624.0	527.0
611.0	482.0
605.0	481.0
617.0	478.0
624.0	480.0
625.0	498.0
610.0	474.0
600.0	471.0
592.0	466.0
594.0	473.0
582.0	482.0
605.0	468.0
601.0	477.0
613.0	468.0
620.0	467.0
584.0	443.0
582.0	448.0
579.0	231.0
525.0	224.0
528.0	229.0
516.0	129.0
512.0	121.0
504.0	120.0
495.0	121.0
489.0	128.0
485.0	121.0
475.0	118.0
481.0	115.0
474.0	111.0
471.0	106.0
482.0	104.0
487.0	109.0
476.0	102.0
473.0	94.0
480.0	95.0
487.0	95.0
490.0	103.0
496.0	99.0
500.0	94.0
500.0	106.0
505.0	101.0
506.0	109.0
511.0	115.0
516.0	110.0
512.0	104.0
518.0	117.0
521.0	123.0
525.0	130.0
532.0	130.0
538.0	126.0
538.0	118.0
532.0	122.0
545.0	125.0
546.0	117.0
540.0	113.0
537.0	108.0
544.0	105.0
531.0	112.0
523.0	112.0
525.0	106.0
532.0	103.0
519.0	101.0
526.0	99.0
534.0	96.0
539.0	100.0
547.0	98.0
549.0	110.0
552.0	121.0
552.0	129.0
560.0	128.0
560.0	122.0
555.0	115.0
551.0	104.0
557.0	107.0
564.0	108.0
563.0	115.0
573.0	126.0
579.0	122.0
573.0	117.0
567.0	123.0
571.0	109.0
579.0	113.0
586.0	119.0
586.0	127.0
593.0	120.0
598.0	127.0
606.0	127.0
611.0	122.0
615.0	117.0
618.0	123.0
613.0	129.0
622.0	118.0
618.0	112.0
624.0	104.0
616.0	104.0
609.0	106.0
607.0	115.0
598.0	114.0
603.0	107.0
595.0	107.0
590.0	114.0
586.0	107.0
578.0	106.0
571.0	102.0
577.0	97.0
584.0	100.0
587.0	93.0
592.0	100.0
595.0	93.0
600.0	100.0
604.0	94.0
608.0	100.0
613.0	111.0
613.0	96.0
621.0	96.0
617.0	88.0
622.0	82.0
613.0	81.0
610.0	87.0
601.0	88.0
604.0	81.0
596.0	85.0
590.0	85.0
583.0	80.0
582.0	88.0
576.0	82.0
576.0	89.0
569.0	94.0
567.0	85.0
558.0	87.0
561.0	93.0
563.0	100.0
556.0	99.0
551.0	93.0
550.0	85.0
558.0	81.0
535.0	88.0
528.0	91.0
530.0	83.0
540.0	82.0
519.0	93.0
513.0	97.0
508.0	92.0
512.0	86.0
522.0	86.0
517.0	79.0
510.0	79.0
504.0	79.0
504.0	86.0
492.0	88.0
497.0	82.0
491.0	79.0
485.0	86.0
478.0	89.0
471.0	86.0
477.0	83.0
484.0	80.0
469.0	80.0
462.0	85.0
458.0	92.0
465.0	92.0
453.0	97.0
461.0	97.0
469.0	100.0
463.0	105.0
466.0	114.0
458.0	111.0
451.0	117.0
447.0	121.0
454.0	123.0
448.0	128.0
441.0	124.0
461.0	127.0
467.0	119.0
466.0	130.0
456.0	104.0
447.0	104.0
441.0	102.0
446.0	95.0
439.0	95.0
439.0	84.0
447.0	83.0
450.0	90.0
442.0	90.0
434.0	89.0
434.0	81.0
427.0	83.0
419.0	85.0
419.0	93.0
426.0	90.0
432.0	96.0
428.0	102.0
435.0	101.0
423.0	106.0
423.0	97.0
416.0	102.0
413.0	89.0
413.0	83.0
404.0	81.0
405.0	88.0
408.0	95.0
400.0	92.0
402.0	100.0
405.0	107.0
413.0	108.0
419.0	111.0
427.0	112.0
431.0	108.0
436.0	114.0
443.0	115.0
439.0	108.0
434.0	125.0
430.0	118.0
421.0	116.0
418.0	121.0
413.0	116.0
412.0	124.0
407.0	121.0
407.0	128.0
399.0	128.0
398.0	122.0
402.0	118.0
407.0	114.0
399.0	110.0
396.0	103.0
389.0	102.0
395.0	96.0
392.0	90.0
399.0	85.0
388.0	83.0
378.0	88.0
382.0	81.0
384.0	90.0
379.0	95.0
381.0	101.0
386.0	95.0
385.0	107.0
388.0	114.0
393.0	109.0
395.0	116.0
391.0	121.0
393.0	127.0
386.0	125.0
384.0	119.0
380.0	124.0
374.0	123.0
381.0	131.0
373.0	128.0
367.0	130.0
368.0	124.0
362.0	126.0
363.0	120.0
356.0	120.0
356.0	129.0
349.0	125.0
344.0	123.0
342.0	117.0
336.0	117.0
327.0	117.0
319.0	117.0
331.0	110.0
339.0	111.0
344.0	103.0
353.0	108.0
353.0	113.0
360.0	114.0
366.0	112.0
370.0	117.0
373.0	112.0
377.0	117.0
380.0	112.0
378.0	107.0
370.0	107.0
362.0	107.0
359.0	102.0
356.0	95.0
352.0	101.0
364.0	96.0
367.0	102.0
372.0	95.0
374.0	101.0
369.0	90.0
364.0	84.0
374.0	83.0
355.0	83.0
347.0	83.0
351.0	89.0
360.0	89.0
347.0	95.0
342.0	89.0
339.0	84.0
334.0	91.0
330.0	85.0
339.0	96.0
336.0	104.0
328.0	104.0
329.0	96.0
323.0	99.0
317.0	96.0
323.0	90.0
318.0	84.0
303.0	82.0
297.0	89.0
304.0	91.0
308.0	96.0
311.0	103.0
320.0	105.0
326.0	78.0
409.0	101.0
281.0	128.0
276.0	122.0
284.0	121.0
288.0	114.0
290.0	123.0
294.0	117.0
298.0	122.0
304.0	116.0
298.0	109.0
307.0	110.0
291.0	108.0
295.0	102.0
300.0	97.0
303.0	103.0
292.0	95.0
288.0	88.0
295.0	82.0
280.0	89.0
276.0	84.0
268.0	84.0
272.0	91.0
277.0	96.0
285.0	95.0
288.0	102.0
283.0	108.0
279.0	102.0
271.0	103.0
275.0	108.0
279.0	114.0
271.0	113.0
266.0	109.0
263.0	101.0
267.0	95.0
262.0	89.0
250.0	85.0
255.0	92.0
258.0	85.0
259.0	97.0
252.0	103.0
250.0	97.0
246.0	92.0
241.0	97.0
233.0	96.0
238.0	88.0
225.0	85.0
221.0	79.0
229.0	92.0
233.0	83.0
285.0	82.0
226.0	97.0
230.0	106.0
236.0	102.0
227.0	113.0
235.0	113.0
240.0	108.0
246.0	102.0
258.0	108.0
248.0	109.0
246.0	114.0
239.0	118.0
245.0	120.0
244.0	127.0
250.0	125.0
251.0	120.0
254.0	113.0
269.0	120.0
266.0	126.0
258.0	118.0
257.0	125.0
263.0	122.0
263.0	115.0
316.0	195.0
319.0	190.0
320.0	183.0
256.0	427.0
254.0	431.0
275.0	401.0
285.0	403.0
301.0	358.0
295.0	358.0
298.0	354.0
298.0	349.0
321.0	360.0
329.0	355.0
333.0	352.0
336.0	356.0
338.0	339.0
337.0	335.0
343.0	338.0
369.0	323.0
375.0	325.0
374.0	320.0
357.0	296.0
363.0	297.0
356.0	309.0
310.0	324.0
314.0	326.0
305.0	325.0
305.0	321.0
298.0	322.0
296.0	326.0
274.0	299.0
225.0	318.0
222.0	322.0
220.0	326.0
226.0	329.0
316.0	356.0
338.0	366.0
343.0	369.0
370.0	377.0
367.0	380.0
366.0	385.0
390.0	410.0
397.0	408.0
413.0	381.0
409.0	384.0
404.0	383.0
409.0	402.0
411.0	406.0
427.0	430.0
431.0	431.0
435.0	433.0
307.0	434.0
307.0	430.0
309.0	439.0
293.0	440.0
292.0	453.0
293.0	458.0
318.0	424.0
322.0	411.0
326.0	414.0
326.0	422.0
314.0	379.0
310.0	377.0
279.0	310.0
281.0	306.0
373.0	409.0
371.0	405.0
314.0	389.0
313.0	394.0
326.0	399.0
322.0	396.0
334.0	419.0
335.0	415.0
336.0	423.0
334.0	427.0
361.0	417.0
356.0	418.0
359.0	408.0
359.0	404.0
332.0	360.0
388.0	367.0
397.0	369.0
394.0	365.0
389.0	361.0
476.0	270.0
430.0	289.0
432.0	294.0
436.0	290.0
421.0	255.0
432.0	246.0
434.0	251.0
399.0	258.0
402.0	267.0
394.0	262.0
441.0	395.0
440.0	390.0
456.0	381.0
457.0	385.0
490.0	308.0
486.0	311.0
482.0	314.0
490.0	412.0
496.0	411.0
399.0	402.0
401.0	407.0
390.0	454.0
502.0	206.0
552.0	313.0
547.0	316.0
541.0	409.0
537.0	405.0
522.0	437.0
509.0	424.0
539.0	467.0
404.0	328.0
400.0	329.0
102.0	83.0
95.0	79.0
91.0	86.0
85.0	80.0
81.0	88.0
76.0	81.0
73.0	90.0
71.0	97.0
70.0	105.0
79.0	99.0
79.0	107.0
70.0	112.0
78.0	116.0
69.0	119.0
76.0	124.0
76.0	131.0
82.0	128.0
83.0	120.0
91.0	117.0
86.0	104.0
84.0	112.0
94.0	108.0
95.0	100.0
87.0	95.0
97.0	92.0
107.0	91.0
98.0	114.0
107.0	111.0
105.0	120.0
97.0	123.0
91.0	131.0
91.0	140.0
82.0	136.0
85.0	145.0
103.0	128.0
111.0	127.0
117.0	116.0
111.0	117.0
108.0	134.0
104.0	140.0
100.0	144.0
97.0	153.0
105.0	153.0
108.0	147.0
112.0	141.0
112.0	153.0
109.0	159.0
106.0	166.0
100.0	171.0
95.0	166.0
87.0	163.0
90.0	171.0
85.0	176.0
89.0	181.0
103.0	178.0
98.0	183.0
91.0	187.0
92.0	193.0
100.0	193.0
111.0	188.0
115.0	195.0
104.0	200.0
111.0	199.0
84.0	157.0
79.0	152.0
77.0	144.0
72.0	138.0
72.0	150.0
74.0	156.0
74.0	166.0
84.0	183.0
79.0	196.0
84.0	207.0
89.0	214.0
92.0	219.0
94.0	225.0
101.0	223.0
104.0	215.0
102.0	230.0
111.0	233.0
102.0	237.0
88.0	247.0
95.0	242.0
102.0	246.0
107.0	243.0
109.0	250.0
114.0	247.0
101.0	253.0
96.0	256.0
100.0	262.0
108.0	258.0
93.0	277.0
87.0	281.0
95.0	284.0
103.0	268.0
105.0	274.0
106.0	286.0
100.0	288.0
114.0	284.0
113.0	291.0
106.0	293.0
106.0	299.0
99.0	295.0
95.0	290.0
93.0	296.0
85.0	299.0
82.0	311.0
89.0	309.0
93.0	303.0
98.0	301.0
98.0	307.0
104.0	306.0
111.0	305.0
111.0	298.0
116.0	301.0
122.0	304.0
115.0	222.0
108.0	207.0
92.0	370.0
94.0	358.0
96.0	353.0
99.0	348.0
95.0	344.0
91.0	340.0
92.0	333.0
85.0	329.0
84.0	343.0
77.0	341.0
78.0	347.0
77.0	359.0
87.0	363.0
83.0	374.0
88.0	374.0
80.0	381.0
94.0	383.0
100.0	375.0
98.0	369.0
93.0	364.0
101.0	363.0
103.0	357.0
105.0	352.0
107.0	348.0
102.0	343.0
102.0	337.0
99.0	332.0
96.0	338.0
108.0	336.0
109.0	343.0
114.0	339.0
114.0	345.0
112.0	333.0
111.0	326.0
104.0	323.0
102.0	311.0
97.0	314.0
88.0	314.0
82.0	317.0
76.0	313.0
109.0	312.0
110.0	319.0
114.0	315.0
104.0	317.0
113.0	352.0
109.0	357.0
107.0	362.0
107.0	368.0
111.0	373.0
114.0	366.0
108.0	379.0
105.0	374.0
113.0	382.0
114.0	388.0
106.0	385.0
100.0	398.0
107.0	400.0
113.0	394.0
113.0	400.0
114.0	407.0
108.0	390.0
104.0	394.0
101.0	380.0
100.0	386.0
94.0	396.0
99.0	411.0
101.0	417.0
106.0	412.0
107.0	418.0
106.0	423.0
112.0	428.0
113.0	420.0
107.0	431.0
107.0	436.0
114.0	434.0
93.0	428.0
89.0	421.0
86.0	410.0
86.0	403.0
87.0	416.0
87.0	429.0
81.0	424.0
80.0	413.0
114.0	261.0
107.0	280.0
113.0	278.0
123.0	320.0
106.0	451.0
106.0	458.0
99.0	466.0
108.0	467.0
112.0	463.0
106.0	473.0
101.0	476.0
99.0	483.0
102.0	488.0
94.0	480.0
87.0	482.0
93.0	487.0
86.0	490.0
88.0	497.0
95.0	441.0
83.0	435.0
85.0	447.0
81.0	441.0
86.0	458.0
82.0	452.0
84.0	470.0
83.0	478.0
104.0	498.0
114.0	486.0
92.0	504.0
95.0	510.0
100.0	504.0
104.0	509.0
108.0	515.0
110.0	521.0
114.0	527.0
110.0	532.0
107.0	537.0
100.0	539.0
103.0	572.0
103.0	579.0
94.0	583.0
96.0	568.0
100.0	563.0
106.0	558.0
109.0	552.0
106.0	546.0
109.0	542.0
114.0	548.0
114.0	554.0
113.0	561.0
96.0	545.0
100.0	549.0
100.0	555.0
92.0	556.0
93.0	549.0
87.0	550.0
83.0	543.0
90.0	541.0
94.0	536.0
95.0	527.0
93.0	522.0
91.0	515.0
85.0	519.0
88.0	526.0
88.0	534.0
83.0	530.0
80.0	524.0
81.0	512.0
89.0	453.0
90.0	563.0
84.0	557.0
81.0	564.0
87.0	571.0
86.0	577.0
95.0	575.0
79.0	572.0
78.0	579.0
92.0	588.0
86.0	584.0
97.0	593.0
89.0	594.0
95.0	600.0
106.0	592.0
110.0	586.0
114.0	592.0
111.0	598.0
103.0	600.0
99.0	607.0
86.0	600.0
89.0	608.0
98.0	614.0
123.0	597.0
135.0	584.0
138.0	590.0
140.0	598.0
146.0	593.0
155.0	596.0
153.0	589.0
161.0	591.0
170.0	593.0
161.0	604.0
141.0	606.0
129.0	605.0
120.0	604.0
109.0	605.0
115.0	610.0
125.0	611.0
108.0	612.0
105.0	617.0
113.0	621.0
95.0	621.0
103.0	625.0
119.0	586.0
135.0	611.0
130.0	618.0
120.0	618.0
178.0	593.0
172.0	600.0
185.0	594.0
194.0	594.0
202.0	595.0
209.0	597.0
213.0	590.0
220.0	590.0
216.0	596.0
232.0	597.0
237.0	591.0
241.0	597.0
244.0	590.0
249.0	595.0
272.0	597.0
264.0	595.0
253.0	591.0
180.0	600.0
189.0	599.0
197.0	601.0
205.0	602.0
199.0	608.0
192.0	606.0
183.0	607.0
175.0	606.0
168.0	606.0
171.0	612.0
179.0	612.0
188.0	612.0
150.0	608.0
158.0	611.0
145.0	613.0
154.0	603.0
165.0	598.0
214.0	602.0
208.0	609.0
202.0	615.0
213.0	616.0
219.0	609.0
221.0	603.0
228.0	604.0
228.0	612.0
237.0	602.0
245.0	602.0
243.0	610.0
234.0	608.0
253.0	601.0
250.0	607.0
257.0	607.0
279.0	601.0
284.0	597.0
284.0	590.0
294.0	598.0
302.0	595.0
297.0	592.0
267.0	601.0
266.0	607.0
273.0	604.0
281.0	607.0
275.0	610.0
293.0	605.0
288.0	610.0
300.0	603.0
307.0	601.0
314.0	600.0
305.0	607.0
312.0	607.0
319.0	605.0
322.0	599.0
323.0	593.0
328.0	598.0
335.0	597.0
332.0	603.0
326.0	606.0
339.0	591.0
342.0	597.0
350.0	597.0
346.0	603.0
355.0	603.0
360.0	607.0
365.0	595.0
372.0	594.0
379.0	593.0
377.0	600.0
375.0	606.0
368.0	607.0
383.0	606.0
398.0	602.0
404.0	606.0
396.0	608.0
404.0	612.0
412.0	609.0
407.0	594.0
414.0	592.0
421.0	591.0
420.0	598.0
428.0	594.0
435.0	594.0
441.0	591.0
413.0	600.0
426.0	601.0
420.0	605.0
429.0	607.0
437.0	607.0
447.0	598.0
453.0	594.0
460.0	591.0
440.0	600.0
467.0	595.0
459.0	598.0
473.0	597.0
469.0	606.0
481.0	601.0
482.0	609.0
487.0	605.0
495.0	604.0
490.0	598.0
475.0	605.0
518.0	597.0
520.0	591.0
509.0	600.0
534.0	592.0
540.0	597.0
538.0	604.0
545.0	601.0
557.0	594.0
554.0	600.0
564.0	591.0
560.0	605.0
571.0	595.0
578.0	593.0
583.0	597.0
586.0	590.0
590.0	597.0
594.0	606.0
586.0	603.0
581.0	607.0
573.0	608.0
587.0	611.0
619.0	589.0
623.0	567.0
623.0	575.0
623.0	582.0
626.0	591.0
615.0	601.0
612.0	595.0
605.0	595.0
623.0	604.0
629.0	598.0
636.0	599.0
632.0	605.0
640.0	606.0
632.0	612.0
645.0	601.0
647.0	594.0
640.0	592.0
634.0	592.0
631.0	585.0
632.0	574.0
630.0	566.0
631.0	557.0
640.0	556.0
637.0	565.0
640.0	574.0
637.0	584.0
645.0	580.0
646.0	586.0
651.0	582.0
654.0	588.0
653.0	598.0
648.0	609.0
640.0	615.0
611.0	608.0
619.0	610.0
601.0	609.0
551.0	607.0
509.0	608.0
523.0	608.0
531.0	607.0
533.0	613.0
544.0	609.0
627.0	468.0
630.0	474.0
632.0	481.0
637.0	477.0
642.0	471.0
635.0	468.0
626.0	442.0
626.0	487.0
641.0	490.0
632.0	499.0
637.0	495.0
626.0	513.0
629.0	506.0
638.0	504.0
632.0	511.0
627.0	535.0
631.0	530.0
633.0	536.0
636.0	543.0
640.0	536.0
643.0	544.0
644.0	563.0
629.0	519.0
633.0	524.0
638.0	519.0
638.0	529.0
639.0	511.0
645.0	507.0
644.0	498.0
644.0	515.0
643.0	525.0
646.0	533.0
648.0	521.0
646.0	486.0
648.0	463.0
646.0	450.0
648.0	444.0
652.0	437.0
649.0	431.0
652.0	424.0
652.0	416.0
645.0	418.0
646.0	412.0
648.0	405.0
653.0	410.0
654.0	403.0
650.0	399.0
647.0	391.0
648.0	383.0
650.0	377.0
625.0	371.0
629.0	367.0
609.0	433.0
633.0	489.0
628.0	494.0
645.0	570.0
626.0	327.0
626.0	332.0
647.0	332.0
648.0	325.0
648.0	318.0
647.0	293.0
648.0	304.0
648.0	312.0
650.0	299.0
628.0	132.0
626.0	124.0
626.0	112.0
632.0	117.0
633.0	126.0
636.0	111.0
630.0	105.0
630.0	98.0
626.0	88.0
633.0	90.0
639.0	95.0
638.0	102.0
645.0	108.0
645.0	115.0
638.0	119.0
640.0	128.0
645.0	123.0
652.0	119.0
652.0	127.0
653.0	111.0
647.0	101.0
647.0	92.0
641.0	87.0
631.0	82.0
631.0	73.0
638.0	79.0
647.0	78.0
640.0	71.0
637.0	66.0
533.0	77.0
525.0	78.0
526.0	72.0
593.0	78.0
598.0	74.0
608.0	74.0
618.0	74.0
624.0	70.0
613.0	68.0
630.0	65.0
604.0	68.0
587.0	74.0
593.0	70.0
597.0	65.0
578.0	74.0
568.0	78.0
548.0	77.0
540.0	74.0
555.0	74.0
562.0	73.0
571.0	72.0
582.0	68.0
548.0	70.0
556.0	68.0
567.0	67.0
576.0	65.0
588.0	64.0
536.0	69.0
542.0	65.0
515.0	73.0
497.0	75.0
506.0	72.0
509.0	67.0
520.0	67.0
530.0	67.0
541.0	94.0
543.0	88.0
487.0	75.0
479.0	74.0
475.0	78.0
460.0	79.0
452.0	77.0
442.0	78.0
436.0	74.0
446.0	73.0
457.0	73.0
466.0	74.0
473.0	71.0
484.0	69.0
492.0	70.0
500.0	68.0
463.0	68.0
451.0	69.0
441.0	69.0
359.0	79.0
368.0	79.0
362.0	75.0
376.0	77.0
395.0	79.0
387.0	77.0
400.0	75.0
408.0	76.0
420.0	79.0
428.0	76.0
428.0	71.0
414.0	74.0
420.0	70.0
405.0	70.0
413.0	66.0
433.0	67.0
477.0	65.0
393.0	73.0
396.0	67.0
381.0	73.0
387.0	69.0
371.0	74.0
376.0	68.0
382.0	65.0
365.0	70.0
370.0	65.0
351.0	78.0
343.0	78.0
335.0	78.0
329.0	73.0
339.0	73.0
348.0	73.0
357.0	73.0
359.0	67.0
352.0	67.0
343.0	67.0
334.0	68.0
324.0	67.0
321.0	74.0
310.0	85.0
314.0	91.0
313.0	79.0
311.0	71.0
317.0	67.0
303.0	75.0
291.0	77.0
280.0	78.0
272.0	79.0
263.0	78.0
255.0	79.0
245.0	79.0
242.0	84.0
237.0	77.0
228.0	77.0
243.0	72.0
250.0	75.0
257.0	73.0
269.0	74.0
277.0	73.0
286.0	72.0
296.0	73.0
303.0	68.0
292.0	67.0
281.0	67.0
272.0	68.0
263.0	69.0
250.0	69.0
105.0	77.0
90.0	75.0
80.0	74.0
87.0	69.0
96.0	71.0
113.0	75.0
103.0	70.0
123.0	75.0
130.0	78.0
139.0	76.0
144.0	70.0
150.0	74.0
163.0	74.0
172.0	73.0
181.0	75.0
195.0	75.0
204.0	75.0
216.0	76.0
223.0	72.0
233.0	71.0
239.0	66.0
211.0	72.0
199.0	71.0
188.0	71.0
177.0	68.0
166.0	70.0
156.0	72.0
160.0	65.0
152.0	66.0
133.0	73.0
139.0	66.0
127.0	72.0
117.0	71.0
110.0	68.0
123.0	66.0
131.0	65.0
147.0	62.0
171.0	65.0
184.0	65.0
193.0	67.0
204.0	68.0
217.0	68.0
228.0	66.0
626.6	218.1
610.3	220.4
318.3	576.5
102.7	105.0
107.9	100.3
609.7	278.1
593.4	193.0
555.5	266.5
307.7	275.6
305.1	271.3
304.8	265.4
308.6	286.7
310.0	291.4
398.7	252.9
397.0	248.2
393.5	393.3
389.1	391.3
420.3	331.0
341.3	316.7
337.2	314.9
333.7	318.4
