     x      y
77.7	125.3
84.7	121.3
86.3	112.3
94.5	112.5
99.0	129.0
102.0	115.0
108.0	126.5
114.5	123.5
129.0	108.0
140.0	116.0
149.0	118.0
151.7	125.3
161.0	125.5
164.0	118.0
166.0	111.0
172.0	117.0
178.0	127.0
193.0	130.0
200.0	109.5
201.0	125.0
208.0	129.0
214.5	110.0
214.0	117.5
218.5	123.0
223.0	129.5
230.0	116.5
231.0	129.0
234.0	123.0
239.5	128.5
242.5	122.0
246.5	128.5
263.0	125.5
268.0	129.5
270.0	123.0
304.0	123.0
309.0	118.0
311.0	127.0
355.0	129.5
362.7	128.3
366.3	122.7
379.0	127.5
416.5	126.0
425.7	126.3
439.5	123.0
617.5	125.0
73.5	153.0
73.0	216.0
74.5	146.0
74.5	159.5
74.3	206.3
74.3	237.7
75.0	224.5
76.0	132.0
76.7	139.3
76.3	174.7
76.0	230.5
77.0	167.5
77.5	183.5
77.3	190.3
78.8	213.8
78.5	201.5
79.0	221.0
80.5	156.0
80.5	196.0
82.0	150.0
81.5	163.0
81.3	207.7
81.7	239.3
82.5	143.0
82.3	226.7
82.5	233.0
84.5	136.0
85.5	201.0
86.3	182.7
86.0	210.0
86.0	222.0
87.0	175.0
88.0	155.0
88.0	163.0
88.5	195.0
88.0	237.5
89.0	147.5
91.0	141.0
91.5	168.0
91.0	188.5
91.7	206.7
92.0	133.0
92.0	180.0
93.7	241.3
94.0	200.0
94.3	234.3
95.0	174.0
95.5	193.0
95.5	212.0
96.7	144.7
96.0	151.0
96.0	159.0
97.7	137.7
97.0	167.0
97.3	184.7
97.0	228.0
98.5	205.5
99.5	178.0
100.3	237.3
101.0	156.0
101.3	162.3
101.0	190.5
101.0	219.0
102.0	171.5
102.0	200.0
102.5	213.0
102.0	231.5
103.3	147.3
103.7	225.3
104.3	140.3
104.5	183.0
105.5	134.0
105.7	153.7
105.0	206.5
106.3	194.7
107.0	159.5
107.0	177.5
107.0	219.0
107.5	237.0
109.0	200.7
109.7	150.7
109.0	168.0
109.5	188.0
109.0	212.5
109.0	230.0
110.5	224.0
111.0	144.5
111.7	241.7
112.0	138.0
112.0	163.5
112.0	206.5
113.5	131.0
113.5	157.5
113.3	174.7
113.0	181.0
113.5	194.0
113.0	218.0
113.5	235.0
115.7	211.7
115.5	229.0
116.6	150.2
116.5	169.0
116.5	187.5
117.0	200.0
117.3	222.7
118.5	142.5
119.7	135.3
119.5	162.0
120.4	174.4
119.5	216.0
119.0	240.0
120.5	180.5
120.7	193.3
121.3	205.0
121.0	155.0
121.0	226.0
121.0	234.0
122.5	221.0
123.5	148.0
124.7	167.3
125.2	210.4
124.0	228.5
126.0	140.3
125.0	176.0
125.3	199.3
126.5	160.5
127.5	133.0
127.7	216.7
127.0	223.5
127.0	240.0
128.0	152.5
128.5	193.0
128.0	233.5
129.0	181.0
129.5	205.0
130.0	173.0
131.0	145.5
131.0	227.5
132.5	158.5
132.0	166.0
132.5	199.5
133.5	138.0
133.5	212.5
133.0	219.5
133.0	238.5
135.0	152.5
135.5	185.5
135.5	206.5
136.5	171.0
136.5	194.0
136.5	232.5
137.5	179.0
138.5	213.0
138.5	226.0
139.5	150.0
139.5	157.0
139.0	164.5
140.5	143.0
140.5	200.5
141.0	136.5
141.0	189.0
141.7	207.7
141.5	238.0
143.0	231.0
144.0	169.0
144.5	176.0
144.0	183.0
144.5	196.0
144.0	213.0
145.0	154.5
145.0	161.5
145.0	224.5
146.0	147.5
147.7	140.7
147.5	235.0
148.0	191.0
148.3	203.3
148.0	241.0
149.5	133.0
149.5	167.0
149.3	216.3
149.0	229.0
150.5	180.0
150.5	209.5
151.5	152.0
151.0	174.0
151.5	186.0
151.0	223.0
152.5	159.0
153.0	145.0
153.0	197.5
154.0	204.5
154.5	234.5
155.0	138.0
156.0	215.8
156.7	131.3
156.5	170.0
156.3	190.3
156.0	228.5
156.0	241.0
157.5	163.5
158.5	149.0
158.5	156.0
158.5	209.5
159.5	222.5
160.0	142.0
160.5	178.0
160.3	184.7
161.0	204.0
161.0	235.0
163.0	199.3
163.3	166.3
163.5	172.5
163.0	192.5
163.5	227.5
163.0	241.0
164.0	136.5
164.5	217.5
165.0	146.5
165.0	210.0
166.0	154.0
166.0	180.0
167.5	160.5
167.3	186.3
167.5	204.0
167.0	222.5
167.0	233.0
168.0	141.5
168.3	197.7
168.5	239.0
169.5	192.0
170.0	167.5
170.3	227.7
171.0	149.5
171.3	209.7
172.5	132.0
172.5	156.0
172.5	174.0
172.5	216.0
173.0	181.0
173.0	234.5
174.5	139.0
175.0	162.8
174.0	198.5
174.5	241.0
176.0	145.3
175.0	187.0
175.0	223.0
177.0	169.3
176.0	205.0
177.5	211.5
178.0	151.5
178.5	175.5
178.5	193.5
178.0	229.0
179.5	134.0
179.5	158.0
180.0	218.0
179.5	235.5
180.5	200.0
181.0	141.0
181.5	182.0
182.3	164.3
182.5	206.0
182.3	224.3
183.7	147.7
183.5	189.0
184.5	170.5
185.7	130.3
185.0	154.0
185.0	213.0
185.0	231.0
186.5	176.5
186.0	195.0
186.5	237.5
187.8	136.3
187.5	160.5
187.5	201.0
187.5	220.0
188.7	143.3
189.5	184.0
189.5	208.0
189.0	226.0
190.7	190.7
190.5	232.5
191.0	150.5
191.5	215.0
192.5	172.0
193.7	157.3
193.5	179.0
193.0	196.5
193.7	221.3
193.3	238.7
194.7	137.7
194.7	202.7
195.5	185.5
195.5	227.5
196.3	145.7
197.5	192.0
197.5	210.0
197.5	217.0
197.0	233.5
198.7	151.7
199.5	133.0
199.0	173.5
199.3	240.7
200.0	180.0
200.0	198.0
200.5	223.0
201.5	140.0
201.0	157.0
201.5	228.5
202.0	187.0
202.5	205.0
203.7	234.7
204.0	146.5
204.0	163.0
204.0	193.0
204.5	218.5
205.5	135.0
205.5	169.0
205.3	211.7
206.5	153.0
206.0	175.0
206.5	182.0
206.0	241.5
207.0	199.0
208.0	223.5
209.5	141.0
209.5	158.5
209.0	188.5
209.5	205.5
209.0	229.5
209.7	237.3
210.5	165.0
211.5	171.0
211.5	178.0
211.5	194.5
211.0	218.0
212.5	148.0
212.5	212.0
213.0	135.5
214.5	154.0
214.0	184.0
214.5	200.5
214.0	223.5
214.0	233.0
216.5	160.5
216.0	190.0
217.0	141.5
217.5	167.0
217.0	174.0
217.0	206.0
217.5	217.5
217.5	239.0
219.0	148.0
218.5	227.0
219.7	135.3
219.0	180.0
219.0	195.0
219.5	212.0
220.5	234.0
222.0	156.5
221.0	186.0
221.5	201.0
221.0	222.5
222.5	229.5
223.5	142.5
223.7	206.7
223.5	241.5
224.0	170.0
224.5	175.0
225.2	218.4
225.0	191.5
225.5	196.5
225.5	212.5
225.5	236.0
226.5	152.5
226.0	181.0
226.5	225.0
227.5	134.5
227.5	146.5
227.7	186.3
229.5	140.0
229.3	201.3
229.5	231.5
230.0	158.5
230.0	175.5
230.5	238.0
231.5	194.5
231.0	208.0
231.5	214.0
232.5	152.0
232.3	220.7
232.0	227.0
233.7	170.3
233.0	181.0
233.5	187.5
234.0	140.0
234.5	146.0
234.0	163.5
235.5	235.0
236.0	134.0
236.0	198.5
237.0	204.0
236.0	241.5
237.0	157.5
237.5	176.0
237.0	210.5
237.0	229.0
238.3	183.7
238.5	191.5
238.0	217.0
238.3	223.3
239.3	151.7
240.0	140.0
240.5	169.5
241.0	162.5
241.5	239.0
242.5	201.0
243.5	134.0
243.5	146.5
243.0	180.0
243.0	195.0
243.0	207.5
243.0	214.0
243.0	232.5
244.5	157.5
244.0	187.5
244.0	222.0
244.0	227.0
246.0	140.5
246.5	173.0
248.0	152.0
248.0	166.0
248.0	198.0
248.5	236.0
249.0	184.5
249.7	191.7
249.5	205.0
249.3	211.3
249.5	217.5
249.0	230.0
250.0	146.0
250.0	178.5
250.0	224.0
251.0	133.0
252.0	156.5
254.3	162.6
253.5	240.0
254.0	169.0
254.5	196.0
254.5	202.5
254.5	209.0
254.0	233.5
255.5	143.5
256.0	150.0
255.7	175.3
255.0	188.0
255.5	215.0
255.0	221.0
255.0	227.5
256.0	136.5
256.5	182.0
260.1	131.9
258.3	156.7
259.0	237.0
260.5	166.0
260.5	172.5
260.5	193.5
260.0	199.5
260.0	231.0
261.0	187.0
261.0	206.0
261.0	225.0
262.0	139.0
262.5	178.0
262.3	212.3
262.5	219.0
263.0	146.5
263.5	153.0
263.0	160.5
264.5	241.0
265.0	235.0
266.0	169.5
266.0	183.0
266.0	189.5
266.5	229.0
267.7	142.3
267.0	197.0
267.3	203.3
267.5	223.0
268.5	136.0
268.5	209.5
268.3	215.7
269.7	149.3
269.5	157.0
269.5	176.0
270.0	164.0
270.5	238.0
272.0	180.5
271.5	192.5
271.0	232.5
272.0	186.0
272.5	199.0
272.0	226.0
274.0	138.5
273.0	171.5
273.5	206.0
273.5	219.0
274.0	145.0
275.0	160.3
275.0	212.5
276.5	154.5
276.0	166.0
276.0	236.0
277.3	133.7
277.7	140.3
277.0	182.0
277.0	191.5
277.5	224.0
278.7	176.3
278.0	229.5
279.0	149.0
279.5	160.0
279.5	186.0
280.5	171.0
280.0	202.5
280.5	209.0
280.7	219.3
281.5	130.5
281.0	143.5
281.3	196.7
281.5	214.0
281.0	240.0
282.5	136.0
283.0	158.5
282.7	165.3
282.5	235.0
283.7	180.7
284.5	153.0
285.4	175.6
284.0	191.0
284.3	224.3
285.3	205.3
285.0	230.0
286.5	140.0
286.7	146.7
286.0	200.5
286.7	217.7
287.0	186.0
287.0	211.0
287.7	240.3
288.5	134.0
288.0	162.5
288.0	170.0
288.3	195.7
289.5	235.0
290.0	222.0
290.0	228.5
291.7	150.7
291.0	157.0
291.3	180.7
291.0	190.5
291.0	206.5
292.7	200.7
293.5	144.5
293.3	167.7
293.5	175.0
294.5	194.5
294.3	225.3
294.5	232.0
294.0	238.0
295.5	132.0
295.5	138.0
295.5	211.0
296.8	161.4
296.5	186.5
297.0	155.0
297.0	204.5
298.7	180.3
299.0	149.0
299.0	172.0
299.7	192.3
299.5	198.5
299.3	221.7
299.0	235.0
300.0	142.0
300.0	228.5
300.3	240.7
301.7	135.3
301.0	215.0
302.7	158.7
302.3	165.3
302.5	186.5
302.5	209.0
304.0	176.0
304.5	153.0
304.0	203.0
305.0	182.0
305.7	196.3
305.5	225.0
305.5	231.0
305.0	237.0
306.5	146.0
306.5	169.5
306.3	218.7
307.0	139.0
307.5	191.0
308.3	162.7
308.0	213.0
309.5	133.5
309.5	186.0
309.0	207.0
310.0	156.5
310.7	179.3
310.5	201.0
310.5	222.0
311.7	150.7
311.5	173.0
311.7	227.7
311.0	233.5
311.0	239.0
312.0	195.5
312.5	217.0
314.5	145.0
314.7	167.3
314.0	189.5
314.5	211.0
315.0	138.0
315.0	161.0
315.5	184.0
315.5	205.0
316.5	177.0
316.3	199.3
316.5	223.0
316.3	236.7
317.0	131.5
317.0	155.0
317.5	193.0
317.0	230.0
318.5	216.5
319.5	149.0
319.5	172.0
320.5	187.5
320.0	210.0
321.5	142.5
321.7	165.3
321.0	182.0
321.3	225.7
321.0	234.0
321.5	240.0
322.5	136.0
322.5	159.5
322.0	192.5
322.0	204.0
323.0	198.0
323.5	220.0
325.5	153.0
325.0	177.0
325.0	214.0
325.0	230.5
326.5	208.0
327.7	147.3
327.0	170.0
327.0	183.5
327.5	189.0
327.0	195.0
327.7	225.3
327.0	236.0
328.3	140.7
328.5	163.0
328.3	201.3
330.5	135.0
330.0	217.5
330.5	231.5
331.0	157.5
331.5	212.0
332.0	174.0
332.0	180.0
332.5	206.0
332.7	241.3
333.5	151.5
333.7	196.7
333.0	222.0
333.5	236.0
334.5	168.0
334.0	186.0
334.5	191.5
335.5	146.0
335.0	202.5
335.7	227.3
336.0	139.0
336.0	162.0
337.3	217.0
337.0	176.5
337.0	209.0
337.5	232.0
338.5	133.0
338.7	156.3
339.5	182.0
339.0	238.5
340.0	171.0
340.0	188.0
340.5	193.5
340.0	223.0
341.5	144.0
341.0	150.0
341.0	199.0
341.3	205.3
342.5	166.0
342.3	213.3
342.0	228.5
343.5	138.0
343.5	177.0
343.0	234.0
344.5	161.0
344.5	219.5
345.5	155.0
345.8	171.6
345.7	189.3
345.0	240.0
347.2	130.7
346.5	183.5
346.0	196.0
346.5	202.0
346.0	208.0
347.5	148.0
348.0	230.0
349.5	142.0
349.5	166.0
349.5	216.0
349.0	224.5
349.0	236.0
350.0	176.0
350.5	210.5
350.5	241.5
351.3	159.3
351.0	193.5
352.0	136.0
352.0	153.0
352.0	187.0
352.0	205.0
353.0	170.5
353.3	181.7
353.0	198.5
353.5	221.0
354.5	147.0
354.0	227.0
354.0	232.0
355.5	214.5
355.5	238.0
356.5	141.0
356.5	164.0
356.5	177.0
356.5	209.0
357.0	190.0
358.0	157.5
358.5	196.5
359.3	134.7
359.5	152.0
359.0	183.5
359.3	203.7
359.5	224.0
359.5	234.5
360.0	218.5
360.5	229.5
361.3	172.7
362.0	146.0
362.5	188.0
362.0	211.0
363.0	161.5
363.0	178.5
363.0	193.0
363.7	239.7
364.5	140.0
364.5	200.0
365.5	215.5
365.3	221.3
365.0	233.0
366.0	150.0
366.5	156.5
366.0	183.5
366.0	206.0
366.0	226.5
368.0	134.0
368.0	173.0
368.5	190.0
369.0	145.0
369.5	196.0
369.0	211.5
370.0	162.5
370.0	179.0
370.5	218.0
370.5	230.0
370.0	237.5
371.0	201.5
371.5	224.0
372.5	151.0
373.5	139.5
373.0	168.0
373.5	184.5
373.5	207.0
374.5	157.0
374.3	173.7
374.5	213.5
375.5	191.5
375.0	233.5
376.5	134.0
376.5	146.0
376.3	197.7
376.0	220.0
376.0	240.0
377.7	203.7
377.5	226.5
378.7	163.3
378.0	180.0
379.5	187.0
379.5	210.0
380.3	139.7
380.5	152.0
380.3	169.3
381.0	216.0
381.5	193.0
382.5	159.0
382.5	175.5
382.5	223.0
382.0	234.5
382.0	241.5
383.0	145.0
383.0	199.5
384.0	133.0
384.8	165.6
384.7	181.7
384.0	206.0
384.0	228.0
385.5	189.0
385.5	211.5
386.5	150.0
386.5	233.0
386.5	238.5
387.5	139.0
387.7	217.7
388.0	156.0
388.0	172.0
388.0	195.5
389.0	202.0
389.0	224.0
390.0	145.5
390.7	167.3
391.0	131.5
391.0	178.5
391.5	185.0
391.0	208.0
391.0	229.5
392.5	235.0
393.0	240.8
393.0	151.0
393.5	191.5
393.5	214.0
394.5	136.5
394.0	157.5
394.0	174.0
394.5	198.0
394.5	220.0
395.0	168.5
395.3	225.7
396.5	153.0
396.0	204.5
397.0	141.5
397.5	180.0
397.5	210.0
397.0	231.5
398.5	158.0
398.0	186.5
398.5	237.0
400.2	130.6
399.0	194.0
399.5	216.0
400.0	148.0
400.5	200.0
401.7	137.3
401.0	170.0
401.0	222.0
402.5	154.0
402.5	176.0
402.5	206.0
402.0	228.0
403.5	189.5
403.0	234.0
404.0	143.5
404.0	159.5
404.5	183.0
404.5	196.0
404.0	212.0
404.3	239.3
405.0	165.5
405.0	217.5
406.5	133.0
406.3	149.7
406.5	202.0
407.0	171.5
407.0	224.0
408.5	155.0
408.5	230.0
409.5	178.0
409.5	186.5
409.5	209.0
409.5	236.0
410.0	145.5
410.0	161.0
410.0	193.0
410.0	241.5
411.5	139.0
411.0	198.5
411.3	204.3
411.0	215.0
411.5	221.0
412.5	167.0
413.7	132.3
413.5	183.0
413.7	226.7
414.5	157.0
414.7	173.3
415.0	150.5
415.0	189.0
415.0	232.0
415.5	238.0
416.5	144.0
416.0	195.0
416.0	212.0
417.0	163.0
417.5	179.0
417.0	200.5
417.5	206.0
417.0	218.0
418.3	137.7
418.3	223.7
419.0	185.5
419.5	229.0
420.0	154.0
420.5	169.0
420.5	234.0
421.0	131.0
421.5	159.0
421.0	191.5
421.5	240.5
422.0	175.0
422.3	197.3
422.7	208.7
423.5	148.5
423.5	182.0
423.0	203.0
423.0	214.5
423.0	220.5
424.0	142.0
425.0	136.0
425.5	166.0
425.5	237.0
426.5	187.0
426.0	226.5
426.5	232.0
427.0	154.0
427.5	177.5
427.0	193.0
428.0	172.0
428.5	199.5
428.5	217.0
429.8	160.6
429.7	204.7
429.0	211.0
429.5	223.0
432.7	139.3
430.0	145.0
431.0	133.0
431.5	150.0
431.5	183.0
432.0	229.0
432.0	235.5
433.0	167.0
433.0	189.5
433.3	196.7
434.5	156.0
434.0	178.0
434.0	215.5
434.0	241.0
435.0	208.0
436.5	145.5
436.0	172.0
436.5	202.0
436.0	225.0
437.5	134.5
437.7	184.3
438.5	151.0
438.5	162.0
438.7	219.3
438.0	231.5
439.5	196.0
439.0	212.5
440.5	167.0
440.3	177.3
441.0	140.0
441.5	207.0
442.5	158.0
442.0	227.5
443.5	146.0
443.5	171.5
443.5	217.0
444.5	183.5
444.0	200.5
444.5	233.0
445.5	135.0
445.5	163.5
445.0	222.5
447.0	152.0
446.0	211.5
447.5	141.0
447.5	178.0
447.0	195.0
447.0	239.0
448.5	206.0
448.0	228.0
449.0	158.0
450.5	147.0
450.7	183.7
450.0	189.5
450.7	200.3
450.0	217.0
450.5	233.5
452.0	135.0
452.0	171.5
452.5	211.5
453.5	153.0
453.0	163.0
453.5	194.5
453.3	222.3
454.0	177.5
454.0	228.5
454.5	238.0
455.7	142.3
455.0	206.0
456.5	158.0
456.5	168.0
456.0	189.0
456.5	217.0
457.0	148.0
457.3	200.3
457.0	233.0
458.7	136.3
458.5	183.5
458.5	226.5
459.0	173.5
459.0	211.5
460.7	163.3
461.0	178.3
460.5	194.0
461.0	153.0
461.0	221.5
461.0	238.5
462.5	141.5
462.0	205.5
463.5	169.0
463.0	188.0
463.5	216.0
463.0	233.0
465.0	199.0
465.5	131.0
465.5	147.5
465.5	158.5
465.5	183.0
465.0	227.0
467.3	175.3
466.5	211.0
467.5	137.0
467.5	193.0
467.5	238.0
468.0	165.0
468.0	204.5
468.5	222.0
469.5	153.5
469.5	187.0
470.0	142.5
470.5	170.0
470.5	180.0
470.5	216.0
470.0	232.0
472.5	160.0
472.0	198.5
473.0	132.0
473.5	148.5
473.0	210.0
473.0	226.5
473.5	237.0
474.3	192.7
475.0	174.5
475.3	204.7
475.0	220.5
476.5	154.0
476.5	167.0
476.0	181.5
477.3	140.7
477.0	215.0
477.0	232.0
478.3	159.3
478.5	199.0
479.7	134.3
479.5	187.5
479.5	226.0
480.0	147.5
480.0	177.0
480.0	210.0
480.5	237.0
481.0	193.0
483.0	169.5
482.3	182.3
482.3	220.3
484.0	204.5
484.0	140.5
484.0	215.5
484.0	231.5
485.0	154.5
485.5	176.0
486.5	187.5
486.0	199.0
487.5	147.0
487.5	210.0
487.0	225.5
488.5	135.0
488.5	182.0
488.0	193.0
488.0	237.0
489.5	166.0
489.0	220.5
490.0	172.0
490.5	231.0
491.5	141.0
491.0	153.0
491.5	160.0
491.0	216.0
492.5	197.0
492.5	204.0
493.5	178.0
493.0	190.0
493.0	226.5
494.7	147.3
494.0	211.0
494.5	237.0
495.0	184.0
496.5	135.0
497.0	157.5
496.0	167.0
496.0	221.0
497.0	231.8
497.3	173.3
498.7	194.3
499.3	208.3
499.5	215.0
499.5	227.0
501.8	146.8
500.7	180.3
500.0	188.0
500.0	201.5
501.0	141.0
501.3	152.3
501.0	163.0
501.3	236.3
502.5	221.0
503.5	135.0
503.5	158.0
503.5	168.0
504.7	174.7
505.5	192.0
505.0	198.5
505.0	211.5
506.5	181.0
506.3	216.3
507.3	226.3
506.0	232.0
507.0	186.0
507.7	241.3
508.0	140.5
508.0	154.0
508.0	164.0
509.7	169.7
511.0	147.5
511.0	196.3
510.0	221.0
510.0	237.0
511.0	136.0
511.3	159.7
511.5	177.0
511.0	210.0
512.5	190.0
513.0	183.0
513.0	216.0
513.0	231.5
514.7	141.7
514.0	226.0
515.5	154.0
516.0	165.0
516.5	172.0
516.0	237.0
517.5	135.0
517.0	180.5
517.3	194.3
517.3	207.7
517.5	214.0
517.5	221.0
518.5	148.0
520.5	159.0
520.0	227.5
521.0	176.0
521.0	234.0
521.0	241.0
522.7	130.3
522.5	142.0
523.0	153.5
523.0	170.0
524.6	191.6
524.0	164.0
524.7	180.3
525.0	186.5
524.5	198.0
524.0	205.0
524.0	212.0
524.3	218.3
525.7	224.7
526.7	135.3
526.3	147.7
526.0	231.5
526.5	238.0
527.7	153.7
527.7	175.3
528.0	159.5
529.0	141.5
529.3	169.7
529.5	208.5
530.0	195.0
530.0	202.5
530.5	215.0
531.5	147.0
531.0	182.0
531.0	188.5
531.5	221.0
532.0	153.0
532.5	165.0
532.0	228.5
532.5	234.5
533.7	176.7
533.5	241.0
534.5	135.0
535.0	158.5
535.5	199.0
536.0	171.5
536.5	193.0
536.7	211.3
538.0	141.0
537.0	147.5
537.0	180.5
537.5	187.0
537.5	218.0
538.0	205.0
538.7	224.3
538.5	230.5
538.5	237.0
539.5	154.0
539.5	165.0
541.7	135.7
541.3	176.7
541.5	184.5
542.0	197.0
543.0	147.5
543.5	159.0
543.5	170.0
543.0	190.5
543.7	221.3
544.0	180.0
544.0	203.5
544.0	209.5
544.5	233.5
545.5	227.5
545.0	240.0
546.3	141.7
546.5	153.5
547.6	214.6
548.5	165.5
548.0	175.5
548.7	200.7
549.5	136.0
549.5	148.0
549.5	182.0
549.5	188.5
549.0	194.5
550.0	207.0
550.7	231.3
551.0	225.0
551.0	237.5
552.5	171.5
553.5	153.0
553.5	160.0
554.0	142.5
555.2	209.8
555.5	178.5
555.0	193.5
555.0	203.0
555.7	228.3
556.5	166.5
556.0	187.0
556.7	215.7
556.5	234.0
557.7	148.7
557.3	240.3
558.0	137.0
558.0	184.0
559.5	156.0
560.5	173.5
560.5	198.0
560.0	221.5
561.0	191.5
561.7	204.3
561.0	228.5
562.5	143.0
562.5	162.0
562.5	180.0
563.3	131.7
563.3	186.3
563.0	211.0
563.5	236.0
565.0	151.0
566.0	138.5
566.0	169.0
566.3	200.7
566.0	216.5
566.0	224.5
567.0	157.5
567.3	175.3
567.5	231.5
568.5	207.0
569.3	145.7
569.5	164.0
569.0	182.0
569.3	189.3
570.0	195.5
570.5	213.0
571.0	133.0
572.5	139.5
572.5	171.0
572.3	219.7
572.7	226.3
572.0	238.0
573.3	151.7
574.5	159.0
574.0	186.0
574.3	201.3
574.0	232.0
574.5	178.5
576.7	165.7
576.0	192.5
576.0	208.5
577.0	147.0
577.5	216.0
578.0	135.0
579.0	222.5
579.5	154.0
580.0	172.5
579.5	186.5
579.5	229.5
580.5	236.0
581.5	142.0
581.6	179.8
581.0	204.5
582.7	160.7
583.7	148.7
583.0	193.5
583.0	211.0
583.7	226.7
585.5	167.0
585.5	187.0
585.5	219.5
586.3	200.7
587.7	135.7
587.0	155.5
587.0	174.0
587.3	232.7
587.0	239.5
589.3	143.3
590.0	181.0
589.7	194.3
590.0	161.5
590.0	206.5
590.0	226.0
591.3	130.7
591.5	150.0
593.0	168.5
593.0	188.5
593.8	200.8
593.0	220.5
593.3	238.7
595.0	138.0
595.5	156.5
595.5	175.0
595.0	231.0
596.0	145.0
597.5	164.0
597.3	182.3
597.0	194.5
597.3	225.7
598.0	207.0
598.3	215.3
599.7	133.3
599.5	151.5
599.5	221.0
599.0	236.5
600.5	170.0
600.5	188.0
602.0	140.0
602.3	200.7
602.0	231.0
603.5	146.5
603.5	157.5
603.0	176.0
603.5	194.5
604.3	224.3
605.0	183.0
605.5	237.0
606.5	153.0
607.0	163.0
606.8	171.2
607.5	136.0
607.0	190.0
608.0	142.0
608.7	208.3
609.3	147.3
609.0	201.0
610.7	178.3
610.5	190.0
611.7	140.7
611.5	158.0
611.7	195.7
611.0	220.0
611.0	231.0
612.8	130.4
612.0	168.0
612.3	237.7
614.7	152.3
614.5	174.0
614.3	185.3
614.5	205.0
614.0	212.5
615.5	145.5
615.3	225.3
616.0	136.5
616.0	163.0
616.0	191.0
616.3	232.0
617.7	197.7
618.0	169.0
618.3	220.7
619.7	180.3
619.7	238.7
620.5	158.0
621.0	174.5
620.3	208.7
621.5	131.5
621.0	187.0
621.0	215.0
622.5	201.5
622.5	226.5
623.5	152.0
623.7	169.3
623.0	193.0
624.0	163.5
624.3	233.3
625.0	176.0
625.0	221.0
627.0	181.5
626.0	211.5
627.0	146.0
627.0	206.0
628.5	158.5
628.3	188.3
628.5	239.0
629.0	169.0
629.5	200.5
629.5	227.0
630.7	134.3
630.5	151.5
630.3	193.3
630.7	215.7
631.5	176.0
631.3	233.3
632.5	163.0
633.5	221.5
634.0	169.5
634.5	182.5
635.2	237.2
635.0	147.0
637.0	152.0
636.5	189.0
636.3	195.3
637.5	158.0
638.0	171.0
637.0	203.0
639.0	136.0
639.7	163.3
640.3	143.3
640.0	223.0
640.5	233.0
641.5	177.0
641.3	238.3
643.3	148.8
642.5	183.0
643.0	205.0
643.5	211.0
645.0	170.5
645.0	133.0
645.0	222.5
646.5	177.0
647.0	227.5
648.5	145.5
649.5	209.0
649.0	195.0
650.3	181.3
650.0	202.5
651.0	215.5
650.0	222.0
650.0	233.0
652.0	134.0
652.0	170.5
652.5	176.5
652.3	190.7
654.7	159.7
655.0	196.3
654.5	227.0
655.3	139.7
655.0	153.0
655.5	166.5
656.5	206.0
656.0	220.0
657.0	232.0
657.5	148.0
657.0	213.5
73.5	301.0
75.0	243.5
74.5	250.0
74.0	281.0
74.0	314.0
74.5	326.0
76.0	256.0
76.0	268.0
77.0	261.0
77.3	276.3
77.0	349.5
78.0	285.5
78.5	320.5
78.0	332.5
80.7	246.7
80.3	253.3
80.5	302.0
80.5	339.5
81.7	271.7
81.5	314.0
82.5	265.0
82.0	279.5
82.5	291.0
82.7	326.7
82.5	352.0
84.0	258.0
83.0	308.0
84.0	345.0
85.0	285.5
86.0	296.5
85.7	320.3
86.3	250.7
86.0	275.0
87.5	333.0
88.0	243.5
88.5	269.0
88.7	302.7
88.5	314.0
88.0	351.5
89.0	262.0
89.0	291.0
89.5	309.0
89.0	326.5
89.0	339.0
90.5	278.5
91.5	255.5
91.5	320.5
91.7	346.3
92.0	248.5
93.0	297.5
94.0	267.0
94.5	286.0
94.0	334.5
95.0	273.5
95.0	292.0
95.0	327.0
95.3	341.3
95.0	351.5
96.5	260.0
96.0	302.5
96.0	309.0
96.0	315.0
96.3	320.7
97.7	252.7
97.0	279.5
99.0	246.5
99.0	346.0
100.5	338.5
101.5	268.5
101.7	275.3
101.0	289.5
101.0	297.5
101.5	325.0
101.3	331.7
101.7	351.7
102.0	257.5
102.5	282.0
102.0	305.5
102.3	312.3
102.0	319.0
104.3	242.3
104.0	248.5
104.5	262.5
105.5	254.0
106.5	341.0
107.3	287.3
107.5	294.0
107.5	301.5
107.7	315.7
107.0	328.5
107.3	335.3
107.0	348.5
108.7	247.3
108.5	273.5
108.0	280.0
108.0	308.0
108.5	321.5
109.8	266.0
110.3	259.7
112.7	253.3
112.5	332.0
113.0	345.5
112.5	352.0
113.5	291.5
113.5	298.0
113.5	305.0
114.0	312.0
113.5	339.0
114.0	285.0
114.7	318.3
114.3	325.7
115.0	271.0
115.0	278.0
116.0	246.5
116.3	264.3
119.0	258.0
119.3	251.3
119.5	289.0
119.3	342.3
119.0	349.5
120.0	282.0
120.0	295.5
120.0	302.0
120.5	309.0
120.5	329.0
120.7	335.7
122.0	269.0
121.0	275.0
121.5	315.5
121.0	322.0
123.5	245.0
124.0	263.0
124.7	345.7
125.0	257.0
125.5	292.0
125.5	299.0
126.0	280.0
126.0	286.0
126.0	305.5
126.0	339.0
127.5	273.0
127.7	312.3
127.0	319.0
127.0	326.0
127.0	332.0
128.5	251.0
129.0	349.5
130.5	261.0
130.5	268.0
131.3	245.3
131.7	289.3
131.5	296.0
131.7	328.7
131.5	335.5
132.5	255.5
132.0	277.5
132.0	282.5
132.5	302.0
132.0	342.0
133.3	315.7
133.5	323.0
134.5	308.0
135.7	250.3
135.0	273.5
135.5	347.5
136.0	263.5
136.5	331.5
137.3	285.3
137.5	337.5
138.5	245.0
138.5	257.0
138.5	269.0
138.0	280.0
138.0	292.0
138.0	299.0
139.0	305.5
139.0	313.0
139.0	319.0
140.5	326.0
140.0	343.5
140.5	350.5
141.5	251.0
141.3	274.7
142.0	263.0
142.5	295.0
142.0	333.0
143.0	288.0
144.0	281.5
144.0	302.0
144.0	309.5
144.0	339.5
145.0	245.5
145.0	257.0
145.0	269.0
145.0	316.0
145.0	322.0
145.5	346.0
147.5	275.5
147.0	328.5
148.7	251.3
148.3	262.7
148.0	286.0
148.5	292.0
148.5	335.0
149.5	298.5
150.5	305.0
151.0	312.3
150.7	318.7
150.0	342.0
151.5	269.0
151.0	280.5
152.0	246.5
152.0	257.0
152.0	324.5
152.0	349.0
153.5	291.0
153.5	331.0
154.7	274.7
154.0	286.0
155.0	263.0
155.0	296.5
155.5	301.0
155.0	338.0
156.0	252.0
156.0	308.0
156.0	344.0
157.5	280.5
157.5	314.0
157.5	321.0
157.0	351.5
158.0	257.5
158.0	269.0
158.5	327.0
159.3	285.7
160.0	291.5
160.0	246.5
160.0	304.0
160.5	334.0
161.5	263.5
161.5	275.0
161.5	297.5
161.0	340.0
161.0	346.5
162.0	254.0
162.5	310.5
163.0	317.0
164.0	281.0
165.5	270.0
165.7	306.3
165.0	323.0
165.0	329.5
166.7	256.7
166.5	294.0
166.5	301.0
166.5	342.5
167.5	263.0
167.5	286.5
167.0	348.0
168.3	245.7
168.0	313.5
168.7	334.7
169.0	275.0
170.7	280.7
170.0	319.5
170.0	352.0
171.5	252.0
171.5	297.0
172.0	309.0
171.5	330.0
172.3	269.7
173.2	285.6
172.5	303.0
172.0	325.0
172.0	340.0
172.0	346.0
173.5	258.0
173.0	291.5
174.0	315.5
175.5	275.0
175.3	334.3
175.7	350.7
176.5	247.0
176.0	264.0
177.5	280.0
177.5	299.0
177.0	321.0
177.7	328.3
177.3	344.7
178.5	253.0
179.0	286.5
178.0	293.5
178.0	312.0
179.0	338.8
179.5	270.0
179.5	306.0
180.5	316.5
180.7	332.7
181.0	242.5
181.0	259.5
182.5	276.0
182.7	301.3
182.7	326.3
182.0	349.5
183.0	248.0
183.0	265.0
183.0	282.5
183.0	289.5
183.5	296.0
184.0	311.0
184.0	321.0
184.0	343.0
185.5	254.0
185.0	336.5
186.0	271.5
186.0	305.0
187.5	244.0
187.5	260.0
187.5	316.0
187.5	331.0
189.2	249.6
188.5	278.5
188.0	285.0
188.0	292.0
188.0	348.0
189.0	266.0
189.0	298.0
189.3	325.7
190.3	310.3
190.5	342.5
191.5	271.0
191.5	304.0
191.5	320.0
191.3	336.3
192.0	255.0
192.5	288.0
193.0	276.5
194.0	282.0
193.5	293.0
194.0	245.0
194.0	261.0
194.5	298.5
194.5	314.5
194.0	347.5
195.3	266.3
196.0	251.0
196.7	309.3
196.0	324.5
196.5	341.5
197.5	288.0
197.5	329.0
197.7	335.3
198.5	257.0
198.0	272.0
198.0	303.0
198.3	319.3
198.5	352.0
199.5	278.0
199.5	283.5
200.5	262.5
200.3	297.3
200.0	313.5
200.0	346.5
201.0	247.0
202.5	252.5
202.0	268.0
202.0	323.5
202.5	339.5
203.0	291.5
203.0	308.0
204.5	274.5
204.0	302.0
204.0	317.5
205.0	327.5
204.0	334.0
204.5	350.5
205.5	258.0
205.3	280.3
205.5	285.5
205.3	312.3
205.0	344.5
207.5	248.0
207.0	264.0
207.0	297.0
207.5	322.5
208.7	270.3
208.7	290.3
208.0	305.5
208.5	338.0
209.5	254.0
209.0	316.5
209.5	343.0
210.0	277.5
210.5	310.5
211.5	284.0
211.5	300.0
211.7	326.7
211.0	348.0
212.5	244.0
212.0	260.0
213.0	266.5
213.5	321.0
214.0	249.5
214.5	272.0
214.0	295.0
214.5	305.0
214.0	337.0
215.5	316.0
215.5	352.0
216.3	255.7
216.0	277.5
216.3	289.3
216.0	310.5
216.5	346.0
217.5	284.0
217.5	300.5
217.5	326.0
218.5	262.0
219.0	246.0
219.5	268.0
219.5	335.0
219.0	341.0
220.0	295.5
220.7	305.7
220.0	320.0
221.0	252.0
221.0	274.0
221.0	350.5
222.0	280.0
222.5	291.0
222.0	329.0
222.5	345.0
223.3	257.7
223.5	286.0
224.5	264.0
224.3	300.3
224.5	317.0
224.5	339.5
225.0	323.0
226.0	248.0
226.5	253.5
226.5	270.0
227.0	276.0
227.7	282.7
227.5	334.0
227.0	349.5
228.7	288.7
228.3	295.7
228.0	328.0
230.0	259.0
229.0	306.5
229.3	318.7
230.0	344.5
230.0	244.0
230.5	339.5
231.0	265.0
231.0	301.0
231.7	324.3
232.3	254.3
232.5	272.0
232.0	278.5
232.5	349.5
233.3	284.7
234.0	315.0
233.0	330.0
234.3	247.7
234.0	292.0
235.0	297.5
235.0	304.0
235.5	310.0
235.5	320.5
235.0	336.0
236.0	262.0
236.5	268.5
236.0	343.0
237.5	275.0
237.5	280.0
237.5	326.5
238.0	256.5
238.0	349.5
239.5	251.0
239.3	289.7
239.7	294.7
239.5	300.0
239.0	332.5
240.5	245.0
240.7	305.7
240.5	311.5
240.5	339.0
241.0	317.0
241.5	323.0
241.5	345.0
242.5	260.0
242.5	271.5
243.0	266.0
244.0	255.0
244.0	280.0
244.5	286.0
244.3	297.3
244.0	329.0
244.3	334.3
244.0	350.0
245.0	291.5
246.0	302.8
246.0	249.0
247.0	275.5
246.0	308.0
246.3	313.3
246.0	340.5
247.0	319.0
248.0	243.0
248.7	263.7
248.5	325.5
248.0	346.0
249.0	269.5
249.0	282.0
249.5	331.0
249.5	351.5
250.0	257.5
250.7	277.3
250.5	287.0
250.0	336.5
251.0	252.0
251.5	293.0
251.0	299.0
251.5	305.0
251.5	310.5
251.5	341.5
252.5	246.0
252.0	315.5
252.3	321.3
253.5	347.0
254.5	260.5
254.3	266.3
254.0	327.0
256.0	255.0
256.5	276.0
256.0	282.0
256.0	288.5
256.7	295.3
256.3	301.3
256.0	337.5
256.0	352.0
257.0	249.5
257.5	307.5
257.5	313.0
257.5	318.0
258.5	323.0
258.5	328.5
258.0	341.5
259.0	243.5
259.7	264.3
259.0	270.5
259.5	347.0
261.0	258.5
261.5	280.0
261.5	286.0
261.0	291.5
261.5	303.5
261.8	352.8
262.0	253.0
262.7	297.7
262.5	309.0
262.0	314.5
262.5	320.0
262.0	338.0
263.5	275.0
264.5	247.0
264.7	268.7
264.0	326.0
264.5	343.0
265.5	262.0
266.0	348.0
266.5	283.5
266.8	294.6
267.0	256.5
267.0	289.5
267.5	300.0
267.3	304.7
267.0	311.5
267.0	317.0
268.0	250.5
268.0	275.5
268.5	322.5
268.0	338.0
269.0	329.0
270.0	244.0
270.7	270.7
270.5	343.5
271.5	266.0
271.7	314.3
271.7	333.7
272.7	254.3
272.5	260.0
272.0	281.0
272.0	286.5
272.7	302.3
272.0	309.0
272.5	348.5
273.5	249.0
273.0	292.0
273.7	297.3
273.0	319.0
273.5	324.5
274.5	242.0
274.5	276.0
274.0	338.5
275.5	329.5
276.3	270.3
276.6	306.2
276.0	344.0
278.0	245.0
277.5	264.5
277.7	287.7
277.0	313.0
278.0	254.0
278.0	281.0
278.0	293.5
278.5	318.5
278.0	334.5
278.3	349.7
279.5	298.0
281.0	259.5
280.3	303.3
280.0	324.5
280.0	340.0
281.5	249.5
281.0	269.0
281.5	309.0
282.5	285.0
282.5	315.0
282.3	330.7
282.0	345.0
283.0	290.5
283.5	320.5
283.7	350.7
284.3	244.7
284.0	264.0
284.5	279.5
284.0	294.5
285.0	254.0
285.0	299.0
285.5	305.0
286.0	326.0
286.0	341.0
287.0	259.0
287.0	285.0
287.0	311.0
287.7	346.7
288.3	248.3
288.0	268.5
288.7	275.3
288.5	290.5
288.0	316.5
288.0	331.5
289.5	295.5
289.5	321.5
289.0	352.0
290.0	263.5
291.0	254.5
291.0	280.5
291.0	301.0
291.7	306.7
291.3	327.3
292.5	244.0
292.0	271.5
292.5	286.0
292.0	342.0
293.0	347.0
293.3	317.7
294.3	249.7
295.0	260.5
294.0	266.0
294.7	276.7
294.0	292.0
294.5	332.0
294.5	351.5
296.0	255.0
296.0	297.0
296.5	327.5
297.5	245.5
297.3	271.7
297.5	282.0
297.0	303.0
297.5	308.5
297.8	343.8
298.0	288.0
300.3	336.8
299.0	350.0
300.0	251.5
300.7	277.3
300.0	293.5
301.5	257.5
301.0	299.0
301.0	331.5
302.7	262.3
302.5	305.5
302.8	326.6
302.5	341.0
303.0	272.0
303.0	283.5
303.5	346.0
304.5	242.5
304.0	248.0
304.3	254.3
304.0	289.0
304.0	321.0
304.0	352.0
306.0	267.3
305.5	295.0
306.0	278.5
306.0	300.5
306.0	329.5
306.7	338.3
307.0	260.5
308.0	333.3
308.0	284.5
308.0	324.0
308.3	343.3
309.3	250.7
309.5	291.5
309.3	348.3
310.5	245.0
310.0	256.0
310.5	274.0
310.5	304.0
310.5	319.5
311.5	269.0
311.0	280.5
311.7	298.3
311.0	328.5
312.0	264.0
312.5	309.5
312.3	314.3
312.5	338.0
314.0	304.3
314.5	253.0
314.0	259.0
314.5	289.0
314.5	294.0
314.0	324.0
314.5	332.5
315.5	248.0
315.5	283.5
315.5	342.0
315.0	351.0
316.0	243.0
316.5	272.0
316.0	277.5
317.2	313.6
316.3	318.3
316.5	347.0
317.8	327.4
318.5	262.0
318.0	267.5
318.5	302.0
318.0	308.0
319.0	256.5
319.0	297.5
319.5	322.5
319.0	337.0
320.0	251.0
320.5	286.0
320.0	291.0
320.7	331.7
320.8	342.4
321.5	275.0
321.0	281.0
322.0	246.0
322.5	270.0
322.7	305.3
323.0	310.0
322.0	318.0
322.0	348.0
323.0	264.5
323.5	295.0
323.0	338.5
324.5	259.5
324.0	300.5
324.0	325.5
325.0	254.0
325.5	290.0
325.5	335.0
326.0	248.5
326.0	284.0
326.5	315.0
326.5	344.5
327.0	242.5
327.0	278.5
327.0	320.5
327.0	330.0
328.0	267.5
328.0	273.0
328.0	304.0
328.5	339.5
328.0	349.0
329.5	257.5
329.0	298.5
330.5	252.0
330.0	262.5
330.0	293.5
330.0	325.5
331.7	246.3
331.0	287.5
331.5	313.0
331.0	335.0
332.5	276.5
332.0	282.0
332.0	344.0
333.5	302.5
333.5	308.0
333.0	320.5
333.3	330.3
334.5	266.0
334.0	271.0
334.5	296.5
334.7	339.3
334.3	348.7
336.5	255.5
335.5	291.0
336.5	250.0
336.0	261.0
336.5	285.5
336.0	316.5
336.5	325.5
337.0	245.0
337.5	280.0
337.0	334.5
338.0	275.0
338.3	299.3
338.0	312.0
338.5	344.0
339.5	269.0
339.5	307.0
339.0	321.0
340.5	289.0
340.0	294.0
340.0	330.0
340.5	340.0
341.0	244.0
341.0	264.0
341.5	316.0
342.0	249.0
342.5	253.5
342.0	258.5
342.0	283.5
342.0	302.5
343.5	273.0
343.0	278.0
343.0	335.0
344.0	297.5
344.5	311.5
344.3	320.3
345.0	268.0
345.0	292.5
345.3	330.7
346.0	287.5
346.0	306.0
347.0	245.0
347.5	250.5
347.3	261.3
347.5	282.0
347.7	315.7
347.5	335.0
348.5	256.5
348.5	277.0
348.0	301.0
349.7	320.3
350.5	266.5
350.3	271.7
350.0	291.0
350.0	296.0
350.0	330.0
351.0	350.0
352.0	247.0
352.0	286.0
352.0	305.0
352.5	325.5
352.5	335.5
352.7	344.7
353.0	253.0
354.5	258.0
354.5	263.0
354.7	293.7
354.5	300.0
354.5	317.0
355.0	268.5
355.5	274.5
355.5	331.0
356.0	308.5
356.7	321.7
356.0	340.0
356.3	349.3
357.0	244.0
357.5	289.5
358.0	249.0
358.5	254.5
358.5	284.5
358.7	304.3
358.3	326.7
359.5	260.0
359.5	265.0
359.0	296.0
359.0	313.5
360.8	270.4
360.0	332.0
360.0	344.0
361.5	308.5
361.0	318.0
362.3	275.7
362.5	300.0
362.0	323.0
362.5	339.5
362.5	348.5
363.0	245.0
363.5	251.5
363.7	257.3
363.0	281.0
363.0	292.0
364.0	287.0
364.7	327.7
365.5	262.5
365.0	305.0
365.0	313.0
365.0	332.0
365.5	343.5
366.0	296.0
366.3	318.3
366.5	338.0
366.0	352.5
367.7	273.3
368.0	248.5
368.0	278.5
368.0	284.0
368.5	290.5
368.0	300.5
368.5	309.0
368.0	324.0
369.0	254.0
369.5	259.0
369.0	347.5
370.0	243.0
370.5	314.0
370.0	329.5
370.7	341.7
371.5	305.0
372.0	319.5
371.0	335.0
372.0	264.5
372.5	287.0
372.5	352.0
373.3	249.3
373.0	270.5
373.5	275.5
373.5	281.0
373.5	325.0
373.0	346.0
374.0	255.0
374.3	299.7
374.5	310.0
375.0	331.0
375.5	337.5
376.0	261.0
377.7	245.3
377.0	266.5
377.5	284.0
377.5	305.0
377.5	323.0
377.3	342.7
379.0	278.5
378.5	295.5
378.0	314.0
378.0	352.5
379.0	251.0
379.0	272.5
379.0	290.0
379.7	328.3
380.0	257.0
380.5	333.5
381.7	262.7
382.0	309.5
382.5	348.0
383.5	247.5
383.0	268.5
383.5	276.5
383.0	287.0
383.5	293.0
384.0	298.5
383.0	304.0
383.5	315.0
383.5	324.0
383.3	343.3
385.0	253.5
385.0	329.0
385.5	334.0
386.0	259.0
387.2	351.6
387.7	264.3
387.5	273.0
387.5	306.5
388.5	244.0
388.0	290.5
388.5	301.0
388.0	311.5
388.0	319.0
388.5	347.0
389.0	249.5
389.5	285.5
389.7	295.3
389.0	341.5
391.0	255.5
390.5	279.0
390.5	330.5
390.0	336.0
391.7	260.3
391.0	270.0
392.5	314.5
392.5	320.0
393.5	275.0
393.0	290.0
393.5	298.5
393.0	304.0
393.5	309.5
393.0	351.0
394.5	246.5
394.0	266.0
394.5	284.5
395.2	330.6
394.0	339.5
394.7	344.7
395.5	251.5
396.3	256.7
396.0	294.5
397.0	271.0
397.0	279.5
397.7	313.0
398.5	261.0
398.0	289.0
398.0	318.0
398.5	348.5
399.5	323.0
400.2	337.6
400.0	243.0
400.5	266.0
400.5	275.0
400.5	284.0
400.5	328.0
400.0	342.5
401.0	249.0
401.7	332.7
402.0	254.5
402.3	293.7
403.0	260.5
403.7	270.7
403.5	303.5
403.0	315.0
404.0	279.5
404.3	288.7
404.0	320.0
404.0	351.0
405.5	245.0
405.5	266.0
405.5	298.5
405.5	325.0
405.0	340.5
405.0	346.0
406.7	250.7
406.7	274.7
406.7	335.7
407.5	257.0
407.0	284.0
407.0	330.0
408.0	262.5
408.5	293.0
408.0	308.0
408.5	317.0
409.0	269.0
409.5	322.0
410.0	279.5
410.5	288.5
410.0	303.0
410.5	343.0
410.0	349.0
411.5	247.0
411.3	312.7
411.5	327.0
411.5	333.0
411.3	338.3
412.0	253.0
412.5	274.5
412.3	297.7
413.5	259.0
413.5	265.0
413.5	270.0
413.5	284.0
413.5	307.5
414.5	346.5
414.5	352.0
415.0	292.5
415.5	302.5
416.3	243.7
416.7	249.3
416.0	279.0
416.0	324.5
416.0	330.0
416.0	336.0
417.0	341.5
418.0	255.0
418.7	261.3
418.0	273.0
418.0	297.0
418.0	312.0
419.5	283.0
419.0	307.0
419.5	316.5
419.0	348.5
420.0	267.0
420.5	292.0
420.5	302.0
421.0	321.5
421.0	327.0
421.5	333.0
421.5	338.0
422.7	245.7
422.7	251.7
422.0	277.5
422.7	343.7
423.5	257.5
423.7	286.7
423.7	296.3
423.7	312.2
424.0	263.0
424.0	272.0
424.5	306.0
424.5	349.0
425.7	281.3
425.3	319.3
425.5	324.5
425.5	330.0
426.0	291.0
426.5	301.0
427.0	267.0
427.0	335.0
428.0	242.0
428.5	248.0
428.5	254.5
428.0	276.5
428.5	310.5
428.0	340.5
429.5	286.5
429.5	296.0
429.5	315.5
429.0	346.0
430.0	261.0
430.0	271.5
430.0	304.5
430.0	321.0
430.0	327.0
430.0	351.5
431.5	332.0
432.0	281.5
432.0	291.0
432.0	300.0
433.3	266.3
433.5	276.0
433.0	337.0
434.5	246.0
434.0	251.0
434.0	256.5
434.0	312.5
434.0	343.0
435.5	286.0
435.3	295.7
435.0	318.0
435.3	323.3
435.0	347.5
436.3	261.3
436.5	271.0
436.5	304.0
436.3	328.3
437.7	281.3
437.5	334.0
437.5	339.5
438.0	291.0
438.5	300.0
439.5	255.0
439.5	310.0
439.5	315.0
439.5	344.5
440.0	243.5
440.0	249.0
440.0	266.0
440.0	276.0
440.0	320.5
440.7	325.7
440.7	349.7
441.3	286.7
441.7	295.3
442.5	261.0
442.5	271.5
442.0	305.0
442.0	330.5
443.0	336.0
444.0	281.5
444.5	317.0
444.0	341.5
445.5	245.5
445.0	251.0
445.0	291.0
445.3	300.7
445.3	311.3
445.0	347.0
445.5	352.5
446.3	256.3
446.0	266.0
446.0	276.5
446.0	322.0
446.5	327.5
447.0	286.0
447.7	306.7
447.7	332.7
448.5	296.0
448.5	338.0
449.3	261.3
449.5	271.5
449.5	282.0
449.0	314.0
449.3	343.3
449.5	349.5
450.7	251.3
450.5	319.0
451.0	243.0
451.0	290.0
451.3	300.7
451.3	324.3
452.3	257.3
452.3	266.7
452.0	277.0
452.0	310.5
452.0	329.5
453.3	285.7
453.0	334.5
454.5	247.5
454.0	295.0
455.0	306.0
454.0	340.0
454.0	346.0
455.5	262.0
456.0	272.0
456.0	281.5
456.0	315.0
456.0	320.5
456.0	351.0
457.5	243.0
457.0	252.0
457.0	291.0
457.0	301.0
457.0	326.0
457.5	331.0
458.5	257.5
458.0	310.5
458.0	337.0
458.0	343.0
459.0	267.0
459.5	277.0
459.5	286.0
460.0	296.0
461.7	247.3
461.0	305.5
461.3	316.3
461.0	322.0
461.5	348.0
462.5	253.0
462.0	262.0
462.7	272.3
462.5	333.0
463.0	281.5
463.0	291.0
463.5	311.0
463.5	327.0
463.0	339.0
464.0	301.0
464.5	344.0
465.0	242.5
465.0	258.0
465.7	267.3
465.0	352.5
466.0	277.0
466.5	286.5
466.5	296.0
466.0	319.5
467.5	252.5
467.0	305.5
467.5	316.0
467.5	324.0
467.5	335.5
467.3	346.7
468.5	247.5
468.7	272.3
468.5	330.0
469.0	262.5
469.0	281.5
469.0	291.0
469.3	340.7
470.7	300.7
470.0	310.0
471.5	242.5
471.0	351.5
472.0	258.0
472.5	267.5
472.0	277.0
472.5	286.5
472.7	335.3
473.5	252.5
473.0	295.5
473.5	314.5
473.0	319.5
473.5	325.5
473.0	346.0
474.0	305.0
475.7	281.7
475.5	290.5
475.0	341.0
476.0	248.0
476.0	263.0
476.5	273.0
477.0	320.0
476.0	330.5
476.5	351.0
477.7	242.3
477.0	299.5
477.0	309.5
478.5	258.0
478.5	335.0
478.5	346.0
479.5	268.0
479.0	277.5
479.0	286.5
479.5	305.0
479.5	325.0
480.3	252.7
480.5	293.0
480.0	315.0
481.0	340.5
482.0	247.5
482.0	263.0
482.7	298.7
482.5	320.5
482.0	330.5
482.0	350.0
483.0	281.0
483.5	289.0
483.5	310.0
484.7	242.3
484.5	258.0
484.0	304.5
484.5	335.0
484.0	345.0
485.5	326.0
486.5	253.0
486.0	276.5
486.0	316.0
487.5	264.5
487.5	294.0
487.0	340.0
488.5	288.0
488.5	300.0
488.7	321.3
488.0	331.0
488.5	349.0
489.0	248.0
489.8	258.6
489.5	306.0
490.0	271.5
490.8	311.4
490.0	344.5
491.0	242.5
491.3	326.3
491.0	336.5
492.5	317.0
493.0	253.5
493.0	284.5
493.3	291.3
493.5	341.5
494.0	263.5
494.5	297.0
494.5	302.5
494.0	332.0
495.5	248.0
495.0	279.0
495.0	322.0
495.0	347.5
496.0	307.5
496.7	312.7
497.0	258.5
497.5	327.5
497.0	337.0
498.0	242.5
498.3	274.7
498.0	282.0
498.5	318.0
499.0	253.0
499.0	268.0
499.5	287.0
499.0	293.0
499.0	343.5
500.7	262.7
500.0	333.0
500.0	350.0
501.0	298.0
501.5	303.0
501.0	323.5
502.0	248.0
502.0	279.0
502.3	308.7
503.5	257.0
503.7	272.7
503.0	314.0
503.0	339.5
504.0	242.0
504.7	291.7
504.0	320.0
504.0	328.5
505.3	252.3
505.0	266.5
505.0	284.5
505.5	345.0
506.0	299.0
506.0	334.5
506.5	350.5
507.0	278.0
507.0	306.5
508.5	247.0
508.0	262.0
508.0	312.0
508.0	324.0
508.5	340.0
509.3	281.3
509.5	288.0
509.0	317.0
510.0	257.5
510.5	268.5
510.0	274.5
510.0	294.0
510.3	329.3
511.0	345.5
512.0	252.5
512.0	299.5
512.7	309.3
512.0	335.5
513.0	305.0
513.3	321.7
514.0	241.5
514.0	262.0
514.3	278.3
514.0	315.0
514.7	341.7
514.0	350.0
515.0	272.0
515.0	284.5
515.5	291.0
516.0	245.5
517.3	257.3
516.5	331.0
517.8	296.3
517.7	325.3
518.0	301.5
518.5	337.0
518.0	346.0
519.0	251.5
519.0	263.5
519.3	307.7
519.0	313.5
519.0	319.0
519.0	352.0
520.0	269.0
520.5	281.5
521.0	275.0
521.5	294.0
522.5	247.0
523.0	328.0
522.5	333.5
522.0	341.5
523.3	254.7
523.3	287.3
524.0	260.5
524.0	298.5
524.5	305.0
524.3	316.3
524.0	323.0
524.0	348.0
525.5	266.0
525.5	272.0
525.0	311.0
526.0	338.0
527.7	250.7
527.0	277.5
527.3	332.0
527.5	343.5
528.0	243.5
528.5	284.0
528.5	290.5
529.2	296.4
528.5	320.0
529.0	257.0
529.5	302.0
529.7	347.7
529.0	352.0
530.5	262.5
530.5	308.0
530.0	314.5
530.0	326.5
531.0	269.0
532.7	275.3
532.0	335.0
533.5	280.5
533.5	287.5
533.5	324.0
533.8	340.4
534.0	247.0
534.5	253.0
534.5	293.0
534.5	299.0
534.5	312.0
535.5	305.0
536.0	317.5
535.5	330.0
535.5	345.0
535.0	350.0
536.0	259.0
536.5	265.0
537.0	271.5
539.0	278.5
539.0	322.0
539.3	328.3
539.0	335.0
540.0	243.0
540.5	249.0
540.0	285.0
540.0	291.0
540.5	302.0
540.5	342.0
541.0	255.0
541.0	296.0
541.0	315.0
541.5	348.0
542.7	261.7
542.8	268.4
542.0	308.5
543.8	274.4
544.5	325.0
544.0	331.0
544.0	337.5
545.0	281.0
545.5	287.5
545.5	319.0
546.7	246.3
546.0	293.5
546.3	299.3
547.0	312.3
547.0	253.0
547.5	306.0
547.0	345.0
547.0	352.0
548.5	259.0
549.3	265.3
549.5	271.0
549.3	333.3
550.5	277.5
550.5	284.0
550.3	291.3
550.0	328.5
550.0	339.0
551.5	303.0
551.7	316.7
551.3	322.3
552.5	243.0
552.0	297.0
552.5	349.5
553.5	255.5
553.7	309.3
553.0	343.5
554.0	249.0
554.5	262.0
555.0	332.5
555.5	268.0
555.7	274.3
555.5	327.0
556.0	281.0
556.0	287.0
556.5	293.0
556.7	305.7
557.0	313.5
556.0	338.0
557.5	300.0
557.0	320.0
558.3	347.3
560.0	245.5
560.3	252.3
560.0	258.5
560.0	342.0
561.0	264.5
561.0	271.5
561.3	277.3
561.0	284.0
561.7	289.7
561.5	310.0
561.3	323.3
562.7	295.7
563.5	316.5
563.3	328.3
564.7	351.3
565.5	345.0
566.5	242.0
566.0	249.0
566.5	255.0
567.0	261.0
567.0	268.0
568.0	274.0
567.4	281.4
567.0	295.0
567.0	311.0
568.0	289.0
568.0	321.0
569.0	326.5
568.0	333.0
568.3	339.3
569.5	299.5
570.5	317.0
571.0	344.0
571.5	350.0
572.5	251.5
572.3	264.3
572.5	294.0
572.5	337.5
573.0	245.0
573.0	258.0
573.0	270.5
573.5	277.0
573.0	284.5
574.5	301.0
574.0	323.0
574.5	330.5
575.0	313.0
576.0	289.5
576.0	347.0
577.3	279.3
577.3	341.7
578.3	242.3
578.0	274.0
578.5	296.0
578.0	319.5
578.7	352.3
579.0	249.0
579.0	255.0
579.7	261.3
579.5	268.0
579.0	305.0
579.0	326.0
579.0	335.0
581.0	285.0
581.0	314.0
581.0	340.5
582.0	331.0
582.0	347.0
583.0	291.0
583.0	299.0
583.0	309.0
584.5	252.5
584.5	272.0
584.5	279.0
584.3	318.3
585.5	246.0
585.0	337.0
587.3	349.6
587.2	258.3
586.3	265.3
586.3	304.7
586.0	328.0
587.5	286.0
587.0	315.5
587.7	333.3
587.0	343.5
589.0	295.0
589.5	301.0
589.5	311.0
589.0	322.0
590.0	250.5
590.5	276.0
590.0	282.0
592.5	262.5
591.0	338.5
592.0	244.0
592.0	270.0
592.7	290.7
592.3	316.3
593.7	280.0
593.0	345.0
594.7	255.7
594.0	298.0
594.0	305.0
597.0	248.5
596.0	312.0
596.0	321.5
596.0	334.0
597.5	274.0
598.4	327.8
598.7	268.3
598.0	293.5
598.5	339.0
598.0	349.5
599.0	243.0
599.0	301.0
600.0	259.5
600.0	280.0
600.0	316.0
600.5	344.0
601.5	254.0
602.0	288.5
602.5	305.5
602.5	333.5
603.5	248.0
603.5	265.0
603.0	322.0
604.0	275.5
605.0	282.5
604.5	294.0
604.5	312.0
605.5	327.5
605.5	347.0
606.5	259.0
606.0	301.0
606.0	340.5
607.0	270.0
607.3	317.3
608.5	288.0
608.0	335.0
609.7	243.3
609.5	250.5
609.0	307.5
609.3	323.7
610.7	256.7
610.0	297.0
610.5	330.0
610.3	351.3
611.0	263.0
611.5	276.0
611.5	345.0
612.3	272.0
612.0	283.0
612.3	313.7
612.7	339.3
613.0	302.5
613.0	320.0
614.5	292.0
614.5	334.0
615.0	309.0
615.3	326.3
616.0	245.5
616.0	253.0
616.7	259.7
616.0	267.5
617.0	286.5
617.0	298.5
617.5	315.0
617.0	343.0
618.5	274.0
618.5	281.0
618.5	338.0
618.0	347.5
620.0	332.5
621.0	303.5
620.3	320.3
621.5	290.0
623.0	250.0
622.5	257.0
622.0	263.5
622.5	311.0
622.0	326.5
622.7	341.3
623.0	244.0
623.5	271.0
623.7	351.7
624.0	278.0
624.0	298.0
624.7	315.7
624.5	345.5
628.6	267.7
626.5	284.5
626.7	292.7
626.7	305.7
626.5	332.0
627.0	338.0
627.7	260.7
628.0	321.0
629.0	253.5
630.0	247.0
630.0	273.5
630.5	298.0
630.0	311.0
630.5	350.0
631.0	280.5
631.5	317.5
631.5	342.5
632.0	287.5
633.0	331.5
633.0	258.0
633.0	305.5
634.5	243.5
634.5	293.5
634.5	336.5
635.0	263.5
635.0	270.5
635.5	277.0
636.5	284.0
636.5	315.0
636.0	321.5
636.5	347.0
638.0	257.0
638.3	309.3
638.5	341.5
639.7	288.7
640.7	244.7
640.0	332.5
641.7	249.7
641.0	262.0
642.7	255.3
642.5	284.0
642.5	320.0
642.5	327.0
642.0	352.0
643.5	346.0
645.5	307.0
645.3	339.0
646.3	332.3
648.0	263.0
649.0	344.0
73.7	390.7
73.8	401.8
73.0	460.5
74.3	414.7
74.5	439.0
74.7	447.3
75.3	382.3
75.0	433.0
75.5	454.0
76.5	396.0
77.5	357.5
77.5	409.0
77.5	422.0
78.0	370.0
78.3	458.3
80.5	401.0
80.5	428.0
80.0	442.5
81.0	393.0
81.0	434.5
82.0	378.5
82.0	385.5
82.0	415.5
82.0	450.5
82.7	457.3
84.0	358.5
83.3	408.7
84.7	421.7
85.0	367.0
87.2	403.7
86.0	438.5
86.5	446.0
87.0	373.5
87.7	415.7
87.0	431.0
88.0	381.5
88.3	388.7
88.0	396.5
88.0	453.0
88.0	459.5
91.5	357.0
92.3	362.8
91.0	422.5
91.0	434.5
92.5	369.0
92.5	409.0
92.5	455.0
93.0	376.5
93.0	384.5
93.5	462.0
94.0	401.5
95.0	429.5
94.5	441.0
94.0	447.5
95.5	393.0
96.0	417.0
97.3	457.3
98.5	365.0
98.5	373.0
99.0	358.0
99.0	380.0
99.0	387.0
99.0	398.5
99.0	405.0
100.0	411.0
99.5	424.0
99.5	430.0
99.5	444.0
100.3	436.3
100.7	451.3
101.0	461.5
102.3	416.3
103.0	394.0
104.7	375.7
105.0	362.0
105.0	368.5
105.5	383.0
105.5	401.0
105.5	408.0
105.0	429.0
105.4	444.2
106.0	356.0
106.5	415.0
106.0	437.0
106.0	451.0
107.0	463.5
108.5	389.0
108.0	423.0
109.0	456.5
111.5	372.0
111.0	379.0
111.5	396.0
111.5	430.0
111.0	442.5
111.5	450.0
112.0	358.5
112.3	365.3
112.5	403.5
112.0	413.0
113.5	385.0
113.5	461.5
114.0	409.5
114.0	418.0
114.0	436.5
115.7	391.3
115.3	424.7
115.5	455.5
117.0	376.5
117.0	398.5
118.0	355.5
118.0	362.0
118.0	370.0
118.3	413.3
118.5	431.0
118.0	442.0
118.0	449.5
119.5	405.5
120.5	460.0
121.5	386.5
121.0	419.5
122.0	358.5
122.0	393.5
122.5	437.0
123.5	366.5
123.5	374.0
123.0	425.5
123.0	454.0
124.0	353.0
124.0	380.5
124.0	401.0
125.5	408.0
125.7	414.7
125.0	443.5
126.5	361.0
127.0	390.0
127.0	431.5
127.3	449.3
127.0	461.0
129.6	454.8
129.5	376.5
129.0	384.0
130.0	419.5
129.5	438.0
130.5	356.5
130.5	364.0
130.0	370.0
130.3	397.0
130.5	426.0
131.5	391.0
131.5	404.0
131.5	411.0
131.7	443.7
134.5	431.0
134.0	450.0
135.5	354.0
135.5	360.5
135.5	367.0
135.0	373.0
135.5	380.0
135.7	437.7
136.0	387.0
136.5	461.0
137.0	394.0
137.5	400.0
137.0	406.5
137.7	418.7
137.0	424.5
138.0	414.5
138.3	444.3
138.5	455.0
141.4	369.8
140.5	376.5
140.3	431.7
141.5	357.0
141.0	363.5
141.0	383.5
141.7	409.7
141.3	421.3
142.0	390.0
142.7	438.3
142.5	450.0
143.3	396.7
144.0	426.5
143.7	461.3
145.0	416.5
145.5	444.5
146.3	352.3
146.5	360.0
146.0	379.0
146.5	385.5
146.0	412.0
146.6	432.2
147.3	366.3
147.3	456.3
148.5	373.0
148.0	392.5
149.0	421.0
150.0	398.5
150.3	408.7
150.0	439.5
150.0	451.0
150.5	463.0
151.3	355.7
151.7	381.7
152.5	362.0
152.0	388.0
152.0	415.5
152.0	427.0
152.5	433.0
153.5	369.0
153.5	404.5
154.6	444.4
154.0	375.5
154.5	394.0
154.0	457.5
155.5	411.0
155.0	421.5
155.5	437.5
157.6	431.4
156.5	451.5
157.0	358.0
157.5	383.5
157.0	400.0
159.0	416.8
159.0	364.0
159.0	372.5
160.0	389.3
159.0	411.0
159.5	425.0
160.0	406.0
160.5	458.0
161.0	353.0
161.5	442.0
162.0	379.0
162.5	395.0
162.0	420.5
162.5	436.0
163.0	447.5
162.5	453.0
163.0	368.0
163.7	400.7
164.0	412.5
165.4	355.8
165.0	385.0
166.0	424.3
165.0	430.5
165.5	463.5
166.0	373.5
166.0	406.0
167.7	391.3
167.5	457.0
168.5	417.5
168.0	443.0
169.0	368.5
169.0	380.0
169.0	436.0
170.0	398.5
170.0	411.0
171.8	386.4
171.0	429.0
172.0	363.0
172.0	374.0
172.5	405.0
172.5	422.5
173.5	454.0
173.0	461.5
174.7	357.3
174.5	380.0
174.0	392.0
174.3	415.7
175.5	369.0
175.5	410.0
176.0	398.5
176.0	434.5
176.7	441.3
177.3	427.7
178.5	363.0
179.0	388.0
178.7	458.7
179.5	375.0
179.0	404.0
179.0	422.0
180.0	356.0
180.0	382.0
180.0	394.0
180.5	446.0
180.0	451.5
181.0	369.0
181.0	415.0
182.0	409.0
182.7	432.3
182.0	439.0
183.3	399.3
184.5	360.0
184.0	426.0
185.5	365.5
185.5	378.5
185.0	385.0
185.0	391.5
185.5	420.0
186.0	372.0
187.0	354.0
187.0	405.0
187.0	413.0
187.0	450.0
187.0	455.5
188.5	437.0
188.5	444.0
189.0	430.5
190.5	389.0
190.5	401.0
190.5	424.0
191.0	359.5
191.0	368.0
191.0	375.0
191.0	382.0
191.0	395.0
191.0	418.0
191.0	461.5
192.5	412.0
192.0	455.0
193.0	354.0
193.0	406.5
193.5	448.0
194.5	434.0
194.0	441.0
195.0	364.0
196.0	378.5
196.5	385.0
196.7	391.7
196.5	398.5
196.7	422.7
196.0	428.0
197.0	359.0
197.5	369.5
197.5	416.0
198.7	404.3
198.5	410.0
198.0	452.5
198.0	459.0
199.3	438.7
199.0	445.0
201.3	375.3
200.5	432.0
201.0	364.0
201.7	382.3
201.7	388.7
202.0	395.0
202.0	426.5
203.3	356.3
203.0	370.0
203.0	401.0
203.5	408.0
203.5	414.0
203.0	420.5
204.5	454.0
206.0	435.8
205.0	448.0
205.0	459.5
206.3	441.7
207.5	360.5
207.5	366.5
207.5	373.0
207.3	385.7
207.5	391.5
207.5	430.0
208.0	398.0
208.5	405.0
208.0	418.0
208.0	424.0
209.0	355.0
209.3	379.7
209.3	411.7
210.0	452.0
210.5	458.0
211.0	446.0
212.0	439.0
213.5	364.0
213.7	370.3
213.0	376.0
213.7	383.7
213.7	395.3
213.8	401.8
213.3	433.7
214.3	358.3
214.5	390.5
214.5	408.0
214.5	415.0
214.0	421.0
214.5	427.0
215.0	461.0
216.7	449.3
216.7	455.3
217.8	443.8
218.0	362.5
218.7	437.3
219.0	355.5
219.0	379.0
219.0	386.0
219.3	392.7
219.5	431.0
220.0	367.0
220.5	373.0
220.0	399.0
220.0	406.0
220.5	412.0
220.0	418.0
220.0	424.5
221.5	361.0
221.5	460.0
223.5	355.0
223.7	388.7
223.0	447.5
223.0	453.5
224.0	383.0
225.5	370.0
225.7	377.3
225.0	395.0
225.3	401.3
225.3	421.7
225.5	428.0
225.0	434.5
225.0	441.0
226.0	365.0
226.0	409.0
226.0	415.0
227.0	359.5
228.5	451.5
228.0	458.0
229.5	387.0
229.7	399.7
229.3	445.3
230.0	354.5
230.0	374.0
230.7	380.7
230.0	392.0
230.5	406.0
231.3	422.8
230.5	439.0
231.0	368.0
231.0	418.0
231.0	433.5
232.5	360.5
232.5	412.0
233.0	427.0
233.7	455.7
233.5	461.5
235.5	354.5
235.5	371.5
235.0	377.5
235.0	384.5
235.5	396.0
235.5	450.0
237.0	360.0
237.2	365.6
236.0	390.5
236.0	402.0
236.5	408.0
236.5	419.0
236.5	437.0
236.0	443.5
238.0	431.0
240.2	381.4
239.0	413.0
240.0	375.0
240.5	387.0
241.5	355.0
241.5	370.0
241.7	392.7
241.5	406.5
241.0	447.5
241.0	454.0
242.0	399.5
242.0	441.0
243.5	361.5
243.0	418.5
243.0	435.0
245.0	412.0
245.5	429.0
245.5	446.0
246.2	463.6
246.5	356.0
246.5	373.0
246.0	379.0
246.0	384.0
246.0	390.5
246.5	396.0
246.5	404.0
247.0	367.0
247.5	423.5
247.3	440.3
247.5	457.5
249.0	417.5
249.0	434.0
250.0	362.0
250.7	398.7
251.5	376.0
251.5	381.5
251.5	387.5
251.0	392.5
251.5	429.0
252.5	357.0
252.3	403.7
253.0	413.0
252.5	423.0
252.5	438.0
253.0	462.0
253.0	368.0
253.0	444.0
253.0	455.0
254.5	384.0
254.5	449.5
255.5	408.0
255.5	418.0
255.0	434.0
256.0	363.0
256.0	373.0
256.5	379.0
257.0	391.0
257.5	428.0
258.0	403.0
258.5	412.5
258.3	422.7
259.0	438.5
258.3	444.3
258.0	458.5
259.0	357.5
259.0	368.5
259.0	453.0
261.0	381.5
260.7	386.3
260.7	432.7
261.0	363.0
261.0	375.5
261.5	463.5
262.0	408.0
262.5	418.0
264.0	427.4
262.0	448.5
263.0	394.0
263.7	437.7
263.5	443.0
264.5	358.0
264.0	368.5
264.5	402.5
264.5	413.0
264.0	458.0
265.5	378.5
266.0	363.0
266.5	453.0
268.0	353.0
267.5	373.5
267.0	384.0
267.5	398.0
267.3	407.7
267.0	422.0
267.0	432.5
268.0	448.0
268.0	463.0
270.0	358.0
269.5	368.0
269.0	393.5
269.5	402.5
269.0	417.5
270.7	426.7
270.7	442.3
270.7	458.3
271.0	379.0
271.5	437.0
272.5	363.0
272.0	387.0
272.7	397.7
272.5	407.0
273.5	373.0
273.5	421.5
273.0	452.5
274.0	353.5
274.3	392.7
274.5	416.5
274.3	431.3
274.0	447.0
276.6	358.8
276.0	402.5
276.7	411.7
276.5	441.0
277.0	383.0
277.5	388.5
277.0	426.5
277.5	456.0
277.0	461.0
278.0	377.5
278.5	451.0
279.7	355.7
279.5	407.0
279.5	421.5
279.5	436.0
280.5	392.0
280.5	446.0
281.8	361.3
281.5	365.5
281.3	416.3
281.0	431.0
283.2	411.6
283.0	440.5
283.0	374.5
283.0	381.0
283.5	387.0
283.5	402.5
283.5	426.5
283.7	455.7
283.0	461.0
284.3	435.7
285.5	406.5
285.0	421.0
286.5	365.5
286.5	392.5
286.7	431.3
286.7	450.3
287.3	383.3
287.5	416.0
287.5	444.0
288.0	378.0
288.3	401.7
288.5	411.0
288.7	457.3
289.0	360.0
289.0	372.0
289.7	396.7
289.7	426.3
289.5	436.5
290.5	388.0
291.0	421.5
292.0	441.5
291.5	447.5
291.7	462.7
292.5	367.0
292.0	383.0
292.0	407.0
292.0	431.0
292.0	453.5
293.0	356.5
293.3	392.3
293.0	415.5
294.0	378.0
294.0	401.0
294.5	426.0
294.0	436.0
295.7	361.3
295.5	372.5
295.5	451.5
295.7	458.3
296.5	411.0
296.7	421.3
297.5	382.5
297.0	396.5
297.0	432.0
297.0	446.0
298.7	366.3
298.0	405.5
298.5	416.0
299.0	356.0
299.5	441.0
299.0	455.0
300.0	377.5
300.0	400.5
300.5	411.0
300.0	426.5
300.5	436.0
301.5	361.5
301.5	372.0
301.5	460.0
302.3	420.7
302.0	450.5
303.0	394.5
303.5	406.0
303.5	431.0
303.5	445.5
304.5	367.0
304.0	383.0
304.7	415.7
305.5	357.5
305.5	377.5
305.5	400.5
305.5	425.5
305.0	455.5
306.7	410.3
306.0	440.0
307.5	362.0
307.5	372.0
307.7	450.3
307.5	461.0
308.5	396.0
308.5	405.5
308.5	420.0
308.0	435.0
309.5	382.5
309.5	445.0
310.3	353.7
311.0	358.8
310.5	367.5
310.5	377.0
310.5	415.0
310.5	430.0
311.5	387.0
311.0	425.0
311.5	456.0
312.0	400.0
312.5	409.5
312.5	440.0
313.0	372.0
313.0	392.0
314.5	363.5
314.5	382.0
314.0	419.5
314.5	434.0
314.3	446.7
314.5	461.5
315.5	356.0
315.0	405.0
316.0	376.0
316.0	396.0
316.0	415.0
316.0	424.5
316.7	428.7
316.5	452.0
317.0	369.5
317.5	385.5
318.4	400.6
317.0	438.0
318.5	360.0
318.0	443.0
318.5	457.5
319.0	380.5
319.0	410.0
319.5	420.0
320.0	352.5
320.0	365.0
320.0	433.5
320.7	448.3
321.0	374.5
321.5	396.0
321.5	405.5
321.5	415.5
321.0	462.5
322.0	425.0
323.0	430.0
322.5	439.0
322.7	453.3
323.3	369.7
324.5	444.0
325.0	354.5
325.0	378.5
325.0	410.0
325.0	420.0
325.5	459.0
326.0	397.5
326.0	434.5
326.5	450.0
327.0	366.0
327.0	425.5
328.5	358.0
328.0	388.0
328.0	392.5
328.8	402.3
329.0	415.5
328.5	440.0
329.5	407.0
329.7	429.7
330.0	362.0
332.8	412.0
330.5	421.5
330.0	445.5
330.5	456.0
331.3	353.3
331.0	368.0
331.5	380.0
332.0	397.0
333.2	426.2
332.3	435.7
332.5	451.0
332.5	460.5
333.3	385.7
334.5	358.5
334.5	391.5
334.7	417.3
334.5	441.5
335.5	364.0
335.5	402.0
335.0	407.5
335.3	431.3
336.5	370.5
336.7	446.7
336.0	456.5
337.0	354.0
337.0	376.0
337.5	381.5
337.7	396.3
337.5	422.0
338.2	452.6
338.5	387.0
338.5	436.5
339.7	426.7
339.0	462.0
340.0	360.0
340.7	405.7
340.0	411.5
340.0	416.5
340.5	457.5
342.2	354.6
341.0	366.0
341.3	391.7
341.3	400.7
341.7	431.7
341.0	442.5
342.5	372.0
342.0	378.0
342.5	448.0
343.5	383.5
343.0	422.0
344.0	396.5
344.5	413.5
344.5	437.0
344.5	453.0
344.5	463.0
345.7	428.3
347.0	364.0
346.0	369.0
346.0	388.0
346.5	402.0
346.5	408.5
346.7	418.3
346.5	443.5
347.5	378.0
347.5	392.5
347.5	433.0
347.5	458.5
348.5	424.0
349.0	383.5
349.5	399.0
349.0	448.0
350.5	373.5
350.0	413.5
350.0	439.0
351.0	368.0
351.0	389.0
351.0	405.0
351.5	429.0
351.5	454.0
351.0	463.5
352.5	394.0
352.5	419.0
353.0	434.5
353.3	354.7
353.7	379.3
353.0	444.0
354.5	400.5
354.0	410.0
354.5	424.5
354.3	458.7
355.5	364.0
355.0	449.0
356.0	370.5
356.0	375.5
356.0	384.5
356.3	406.3
356.0	415.0
356.0	439.0
357.0	359.0
357.0	390.5
357.5	429.5
358.0	396.0
358.7	420.3
358.5	444.5
358.0	454.0
359.5	354.0
359.5	379.0
359.7	401.3
360.3	373.3
360.0	411.0
360.0	435.0
360.0	459.5
361.5	363.0
361.0	386.0
361.7	416.7
361.0	425.0
361.5	449.5
362.0	391.5
362.0	440.0
363.5	357.5
363.0	377.5
363.0	397.5
363.0	407.0
363.5	430.5
364.0	463.5
364.5	382.5
364.5	421.5
364.0	454.0
365.0	412.5
365.0	444.5
366.3	388.3
366.0	402.5
366.0	435.0
366.5	459.0
367.0	361.0
367.0	374.0
367.5	393.5
367.7	408.7
367.0	426.5
367.7	449.7
368.0	365.5
368.5	379.5
368.0	417.5
368.5	440.0
369.5	356.5
370.3	370.3
370.7	384.7
370.0	398.5
370.5	422.0
370.0	431.0
370.7	453.7
370.5	463.0
371.5	404.0
371.0	413.0
371.0	445.0
372.5	361.0
372.5	389.0
372.0	436.0
373.0	375.0
373.5	427.0
373.3	458.3
374.0	366.0
374.0	394.0
374.0	409.0
374.0	418.0
374.5	449.0
375.5	357.0
375.0	380.0
375.0	441.5
376.7	370.3
376.0	399.5
376.3	431.7
377.5	361.5
377.0	385.0
377.5	414.0
377.0	423.0
377.3	453.3
377.0	462.5
378.0	390.0
378.0	405.0
378.0	437.0
379.0	376.0
379.5	395.0
379.5	427.5
379.5	446.5
380.5	366.0
380.3	409.7
380.5	419.0
380.5	458.0
381.7	353.7
381.0	381.0
381.0	401.0
382.0	360.5
382.5	371.0
382.7	386.7
382.0	433.0
382.0	442.0
383.5	414.5
383.0	423.5
383.0	452.0
384.3	376.3
384.5	391.0
384.5	396.5
384.0	405.0
384.8	437.6
384.7	462.3
385.8	366.6
385.7	446.3
386.5	356.5
386.5	382.0
386.3	401.3
386.5	410.0
386.0	419.5
386.0	428.0
386.5	457.0
387.5	372.0
388.0	362.0
388.0	388.0
388.5	433.5
388.3	442.7
389.5	415.0
389.5	424.0
389.5	452.0
390.5	367.0
390.0	377.5
390.0	394.0
390.0	405.0
391.7	356.7
391.3	456.3
391.0	462.0
392.5	410.0
392.3	419.3
392.0	438.0
392.3	447.7
393.7	362.3
393.0	372.5
393.5	382.0
393.5	388.0
393.0	428.5
394.5	433.0
395.0	442.8
395.0	404.5
395.7	414.7
396.0	367.0
396.5	377.0
396.0	424.0
396.0	452.5
396.0	459.5
397.0	358.5
397.5	438.0
398.3	353.3
398.5	372.0
398.5	387.0
398.3	399.7
398.5	409.5
398.5	419.5
398.5	428.5
399.0	447.0
400.0	382.0
400.5	433.0
400.0	456.0
401.5	362.0
401.5	367.0
401.3	396.7
401.5	405.0
401.5	414.5
401.0	442.0
402.5	356.5
402.5	376.0
402.0	424.0
402.5	451.5
403.0	391.5
403.0	460.5
404.5	386.0
404.0	400.0
404.7	409.7
404.5	419.0
404.5	429.0
404.5	437.5
405.0	371.0
405.0	446.0
406.5	360.0
406.7	380.7
406.5	395.5
407.0	365.5
407.0	404.5
407.5	433.5
407.5	442.0
407.3	455.7
408.7	354.7
408.5	375.0
408.0	415.0
408.7	423.3
409.0	390.5
409.0	450.5
409.5	461.0
410.7	369.7
410.0	385.0
410.5	400.0
410.5	409.0
410.7	428.3
411.5	445.5
412.0	359.5
412.5	379.5
412.0	419.0
412.0	438.0
413.0	365.0
413.0	395.0
413.5	404.5
413.5	455.0
414.5	374.0
414.7	413.7
414.5	432.5
415.0	389.5
415.0	424.0
415.5	450.0
415.0	460.5
416.0	384.0
416.7	399.3
416.7	442.7
417.0	357.0
417.0	363.0
418.0	368.5
417.0	409.0
417.5	437.0
418.0	378.5
418.0	418.5
418.5	428.0
419.0	394.0
419.0	404.5
419.7	453.7
420.0	353.5
420.7	413.7
420.7	441.7
420.0	448.0
421.0	382.5
421.3	388.3
421.5	422.5
421.0	433.0
421.0	460.0
422.0	359.0
422.0	399.0
422.5	409.0
423.0	364.5
424.5	378.0
424.0	394.0
424.5	403.5
424.5	428.0
424.5	437.5
425.7	355.3
425.0	456.0
426.0	384.0
426.3	390.3
426.0	450.0
427.0	360.5
427.0	397.5
427.5	461.0
428.0	422.5
428.0	433.0
429.5	365.5
429.0	371.0
429.5	381.0
430.5	376.0
430.5	404.0
431.3	356.7
431.0	387.0
431.5	393.5
431.0	428.0
431.0	438.0
431.5	448.0
431.5	453.0
432.5	362.0
432.5	398.5
432.0	418.0
432.0	457.5
434.0	367.5
434.5	379.0
435.0	408.0
434.5	433.0
435.0	373.0
435.0	423.0
435.0	447.5
436.0	353.0
436.5	383.5
436.0	389.5
436.5	395.5
436.0	402.0
436.3	413.7
437.0	358.5
437.5	419.0
437.3	428.3
437.0	439.0
437.0	461.0
438.5	364.0
438.5	455.0
439.5	370.0
439.5	376.0
439.7	443.7
440.5	433.0
440.5	449.0
441.0	355.5
441.0	380.5
441.5	387.0
441.7	392.7
441.0	399.0
441.0	410.5
442.0	404.5
442.0	416.0
442.5	422.5
443.0	360.5
443.0	439.0
443.0	459.0
444.0	366.5
444.5	372.5
444.5	428.5
445.7	377.7
445.0	446.0
445.5	452.0
446.0	383.0
446.5	395.0
446.5	400.0
446.0	407.5
446.7	412.7
446.5	434.0
447.5	357.0
447.0	389.0
447.0	418.5
447.5	463.5
448.5	424.0
448.5	441.0
449.0	364.5
449.0	457.0
450.5	430.0
450.0	447.0
451.5	385.0
451.0	403.5
451.5	415.0
451.5	436.0
452.0	355.0
452.0	360.5
452.0	391.5
452.0	397.5
452.0	409.5
452.5	452.0
453.5	420.0
453.0	461.5
454.5	366.0
454.5	426.0
454.0	442.0
455.5	372.0
456.5	381.5
456.0	388.0
457.0	414.3
456.0	447.0
456.0	456.0
457.0	357.0
457.0	376.0
457.0	394.0
457.0	400.5
457.0	407.0
457.0	431.0
457.5	437.5
459.0	362.0
459.0	421.5
459.0	451.0
459.5	461.0
460.3	354.3
460.3	368.3
460.3	385.3
460.5	446.0
461.5	373.0
461.3	381.3
461.5	390.0
461.5	412.0
461.0	426.0
462.0	396.5
462.7	402.7
462.8	435.6
462.0	441.0
462.5	455.5
463.5	359.0
463.7	430.7
463.7	364.7
464.3	407.7
464.0	416.5
465.0	392.5
465.7	422.3
465.0	450.0
466.0	370.0
466.5	382.0
466.0	387.5
466.5	459.0
467.0	444.5
468.0	363.5
469.2	374.6
468.0	398.0
468.0	412.5
468.0	439.0
468.5	463.0
469.0	357.5
470.0	427.5
469.0	433.0
469.5	454.5
470.7	402.7
471.0	421.8
471.5	379.0
471.0	385.5
471.0	417.0
471.5	449.0
471.7	460.7
472.0	367.5
472.5	408.0
473.7	361.7
473.3	442.7
474.0	356.0
474.5	372.0
474.0	398.0
474.0	437.0
475.0	413.0
476.0	425.0
475.0	431.5
475.0	457.0
476.7	376.7
476.5	388.5
476.5	403.5
477.5	366.0
477.0	382.5
477.5	393.0
477.3	418.3
477.0	452.0
479.0	360.5
479.0	409.0
479.7	423.7
479.0	435.0
480.5	355.0
480.0	399.0
480.7	439.7
480.5	459.5
481.3	370.3
481.5	379.5
481.5	414.0
481.7	427.7
482.0	385.0
483.0	390.5
483.0	404.0
483.5	419.5
483.0	455.0
484.7	359.3
484.0	365.0
484.0	375.5
484.0	395.0
485.0	409.0
485.5	424.0
485.0	443.0
486.7	354.3
486.0	430.0
486.0	436.0
487.0	370.0
487.7	380.7
487.5	387.0
487.0	399.5
488.5	393.0
488.5	404.5
488.0	415.0
488.5	453.5
488.5	459.5
489.3	363.7
489.5	375.0
490.0	420.5
490.5	426.5
490.0	441.0
490.0	446.5
491.0	358.5
491.7	410.7
491.0	433.0
492.5	396.5
493.0	353.0
493.5	370.0
493.0	384.0
493.0	390.0
493.0	401.5
493.0	416.0
494.0	378.0
494.5	423.0
494.7	450.7
494.0	456.5
494.0	462.5
495.0	362.5
495.5	444.0
496.3	428.3
496.5	438.0
497.0	356.0
497.5	405.5
497.0	432.5
498.5	367.5
498.0	382.0
498.5	388.0
498.5	399.0
498.3	410.3
498.7	418.7
499.0	393.0
500.0	362.0
500.3	453.3
500.5	459.5
501.5	378.0
501.0	424.0
501.0	447.5
502.0	372.0
502.7	407.7
502.3	429.3
502.3	435.3
502.0	441.5
503.5	355.0
503.3	402.3
503.0	414.0
504.0	366.5
504.5	383.5
504.0	390.0
504.0	396.0
506.0	360.5
506.0	462.5
507.7	377.3
507.0	410.0
507.5	426.0
507.5	432.5
507.5	444.5
507.5	450.0
507.5	456.0
508.5	372.0
508.5	438.0
509.5	355.0
509.3	365.3
509.0	387.0
509.0	399.0
509.0	404.5
510.5	393.0
510.7	413.7
511.5	460.0
512.0	360.0
512.0	381.0
513.0	423.0
513.5	429.0
513.5	448.0
513.0	454.0
514.0	369.0
514.0	376.0
514.5	397.0
514.0	409.0
514.5	416.5
514.0	435.0
514.5	441.0
515.5	386.0
515.5	391.0
515.0	403.0
516.5	356.0
517.3	362.3
518.0	373.0
518.0	463.0
519.3	406.3
519.5	413.0
519.5	419.5
519.0	426.0
519.0	432.0
519.7	437.7
519.0	444.5
519.0	451.0
519.5	457.0
520.0	394.0
520.0	400.0
521.5	358.0
521.3	382.3
521.3	388.3
522.5	376.5
523.8	363.0
523.5	369.5
524.5	353.5
524.7	422.7
524.5	429.0
524.5	447.5
525.7	397.7
525.0	409.5
525.5	416.0
525.0	435.0
525.0	441.5
525.0	454.0
527.0	385.0
527.0	391.5
527.0	459.0
528.7	358.7
528.5	373.0
528.0	379.0
529.0	366.0
529.5	450.5
530.5	426.0
530.5	432.0
530.3	438.3
530.0	445.0
531.0	401.0
531.0	407.0
531.5	413.0
531.5	419.5
531.5	463.0
532.5	388.5
532.0	395.0
532.0	456.5
534.0	363.0
533.5	376.0
533.0	382.5
534.5	356.0
534.5	368.5
535.5	435.0
536.0	441.0
536.7	460.7
537.5	403.5
537.0	409.5
537.0	416.0
537.5	421.5
537.0	428.0
538.0	373.0
538.0	380.0
538.0	385.5
538.0	392.0
538.5	397.5
539.7	456.3
540.5	354.0
540.5	360.0
540.0	366.0
541.0	432.0
542.5	407.0
542.5	413.0
542.0	425.0
542.0	438.0
543.0	376.0
543.3	382.3
543.5	394.5
543.0	443.5
543.0	462.5
544.5	400.0
544.0	418.5
544.0	449.0
544.0	455.0
545.0	364.0
545.0	370.0
546.0	358.0
547.0	434.5
548.5	380.0
548.0	392.5
548.5	422.0
548.0	427.5
548.7	440.3
549.0	397.0
549.5	403.0
549.0	409.0
549.0	416.5
549.0	446.0
549.0	459.0
550.3	361.3
550.0	374.5
550.0	452.5
551.0	368.0
551.5	384.0
551.3	389.3
552.0	355.5
552.0	431.0
552.5	437.0
553.5	413.0
553.7	425.3
554.5	419.5
555.5	378.5
555.0	393.5
555.0	400.0
555.0	406.5
556.3	365.7
556.5	372.5
556.5	386.5
556.0	442.0
556.5	448.5
556.3	461.3
557.0	359.5
558.0	353.0
558.0	433.5
558.0	455.0
559.5	439.0
560.7	396.7
561.0	421.5
561.7	376.3
561.5	383.0
561.3	390.3
561.0	403.0
561.0	409.5
561.0	416.0
562.0	357.0
562.0	363.5
562.0	370.0
562.0	444.5
562.7	457.7
563.5	427.0
563.0	451.0
564.3	434.7
566.5	399.0
566.7	405.7
566.7	412.7
566.5	419.5
566.7	440.7
567.0	373.5
567.5	386.0
568.0	356.0
568.0	367.0
568.0	380.0
568.3	392.3
568.0	446.5
570.3	360.8
569.0	425.0
569.0	430.5
569.5	436.0
569.5	452.5
571.0	458.0
572.5	402.5
572.0	409.0
572.5	416.0
572.0	442.5
573.5	370.0
573.5	377.0
573.5	383.0
573.5	389.0
573.0	396.0
573.5	421.0
574.0	355.5
574.5	427.0
574.5	364.0
574.8	432.0
575.0	447.5
576.5	454.0
578.5	359.0
578.5	386.5
578.0	393.5
578.0	406.0
578.5	460.0
579.7	379.3
579.7	399.3
579.5	412.0
580.0	418.5
579.5	435.0
580.5	365.0
580.7	372.7
580.0	425.5
580.0	442.5
580.7	450.7
582.0	391.0
583.7	455.7
583.5	463.5
584.7	355.7
584.0	384.0
584.3	395.7
584.3	406.7
584.3	438.3
585.5	362.5
585.0	377.5
585.0	415.0
585.0	422.0
586.5	369.0
586.0	434.5
586.0	444.0
587.0	390.0
587.5	427.0
587.0	450.0
587.5	461.0
588.7	401.3
588.5	420.5
589.5	361.0
590.5	354.5
590.0	374.0
590.0	381.0
590.7	406.7
590.3	412.7
590.5	439.0
591.5	366.5
591.5	386.5
591.0	432.5
592.0	393.0
592.5	455.0
593.7	398.7
593.0	418.5
594.6	424.8
593.0	463.0
594.5	358.5
595.0	353.0
595.7	403.7
597.4	437.9
597.0	370.5
596.0	378.0
596.0	390.5
596.3	395.3
596.5	410.0
596.5	449.5
597.5	363.0
597.0	384.0
597.0	415.0
597.0	430.0
598.5	456.0
599.7	409.7
600.0	356.0
600.0	399.0
600.5	420.0
600.0	462.5
601.5	443.0
602.0	381.0
602.0	426.0
602.0	434.0
602.7	450.7
603.3	360.3
603.5	366.0
603.0	373.0
603.0	387.0
603.0	394.5
603.7	404.7
603.0	415.0
604.5	379.0
605.0	353.5
605.5	430.0
605.5	439.0
605.0	457.5
606.5	359.0
606.7	410.7
606.5	421.0
607.0	399.0
607.0	463.0
608.7	376.7
608.5	384.0
608.5	391.0
608.0	445.5
609.5	370.0
609.0	415.5
609.0	435.0
609.5	453.0
611.4	356.8
610.0	363.0
610.3	460.7
611.3	404.3
611.0	427.5
612.0	388.0
613.5	380.5
613.3	397.7
613.0	420.0
613.5	432.5
613.0	440.5
613.5	457.0
614.5	374.5
614.0	448.5
614.5	463.0
615.5	367.0
615.0	409.0
615.5	425.0
617.0	385.0
616.0	392.5
617.7	360.3
618.5	354.5
618.0	402.5
618.5	430.0
618.0	436.0
618.5	444.0
619.0	454.0
619.5	371.5
619.7	396.7
619.0	413.5
620.0	421.0
620.5	460.0
622.0	365.0
622.5	378.0
622.3	449.7
623.5	358.5
623.0	426.5
623.7	432.7
624.0	383.5
624.5	389.5
624.5	417.5
625.0	396.0
625.5	438.5
626.0	456.5
627.5	369.0
627.5	412.0
627.7	423.3
627.0	444.5
628.7	362.7
628.7	429.7
629.6	460.6
629.0	356.0
629.7	386.3
629.5	451.0
630.5	380.5
630.0	405.0
630.7	417.7
632.0	392.8
633.0	366.5
633.0	456.0
634.0	360.5
634.0	398.5
634.0	412.0
635.5	353.5
636.0	451.0
637.5	403.5
637.0	430.0
638.5	378.0
638.0	418.5
638.8	463.3
639.0	364.0
640.3	371.8
640.3	411.8
640.5	358.0
642.3	382.3
642.0	424.0
643.7	400.3
643.4	430.2
644.7	376.3
644.0	407.0
644.0	450.0
645.0	461.5
646.0	362.5
647.5	357.0
73.7	470.3
73.0	534.0
73.3	542.7
73.0	563.5
74.7	504.7
75.0	483.5
75.7	511.0
75.0	517.0
75.0	527.0
75.7	548.7
75.0	570.5
76.0	476.5
77.2	557.6
78.5	468.5
78.0	538.5
79.5	488.0
79.0	522.5
79.5	553.0
80.0	529.5
81.5	549.0
82.0	482.5
82.5	560.0
83.0	544.0
84.5	465.0
84.5	515.5
84.5	566.5
85.0	525.5
86.5	520.0
86.5	553.0
87.5	531.5
88.0	470.0
88.3	481.7
88.7	546.7
90.0	475.0
90.0	539.0
91.3	514.3
91.7	571.3
92.5	493.0
93.5	550.5
92.5	565.5
93.3	468.3
94.3	479.3
94.0	486.5
94.0	556.5
95.0	535.0
95.0	544.0
96.3	472.3
96.3	508.3
97.3	515.3
98.0	466.0
98.5	562.5
98.3	569.3
99.0	477.5
99.0	491.0
100.5	484.5
100.5	547.0
100.3	553.3
101.3	519.7
101.0	532.5
101.7	539.7
102.7	469.7
102.0	525.5
103.3	504.7
103.7	513.3
104.0	566.0
105.3	495.3
105.5	558.0
105.5	572.5
106.5	489.5
107.7	482.7
108.0	509.0
107.3	535.3
107.5	543.0
107.0	550.0
108.4	469.3
108.7	518.7
108.5	528.5
109.5	502.0
111.7	475.3
112.0	487.8
112.0	561.0
112.0	495.5
112.5	515.5
112.5	568.5
113.5	468.5
113.5	548.0
114.0	523.5
114.3	531.3
114.0	555.0
115.0	481.5
115.5	538.0
116.5	509.5
117.5	475.5
117.0	501.0
118.5	493.5
118.0	519.5
118.5	544.5
119.7	465.7
119.7	533.3
119.7	557.7
120.0	514.0
120.5	551.0
120.5	565.0
120.5	572.0
121.5	485.5
121.7	505.3
122.5	472.0
122.5	526.0
122.0	541.5
124.0	497.0
124.5	562.0
125.5	467.0
125.7	512.3
125.0	519.5
126.0	556.5
127.3	569.3
128.6	484.4
128.0	491.0
128.5	540.0
129.7	532.3
129.5	547.0
129.5	553.0
129.7	561.7
130.3	470.3
131.2	499.2
131.7	476.7
131.5	513.5
131.5	520.0
131.0	525.5
132.3	465.3
133.0	573.5
134.5	489.0
134.5	566.0
135.0	482.0
136.0	537.0
135.5	544.0
135.5	551.0
135.0	558.0
136.5	476.0
136.5	495.0
136.7	529.7
137.0	470.0
137.5	503.0
138.5	523.0
139.0	510.0
139.3	517.3
139.5	569.5
140.5	466.0
141.5	485.0
141.0	548.0
141.3	555.3
141.0	562.0
143.0	471.5
142.7	477.7
142.7	492.3
143.5	499.0
143.5	534.0
143.8	541.3
144.3	513.3
145.0	505.0
145.5	520.0
145.3	527.3
145.5	559.0
146.5	552.0
146.3	572.3
147.5	566.5
148.5	475.0
148.3	481.3
148.0	488.0
149.0	495.5
150.0	509.3
149.8	537.6
150.5	502.0
150.0	544.5
150.5	555.0
151.5	516.5
151.3	524.3
151.0	531.5
151.0	561.0
154.5	471.0
154.0	484.5
155.4	550.9
154.0	572.0
155.5	477.0
155.0	492.0
155.7	497.7
156.5	505.5
156.7	512.3
156.0	533.5
156.5	542.5
156.0	564.5
157.5	464.0
157.5	557.5
158.5	519.5
158.0	526.5
160.5	482.0
160.3	488.3
160.0	501.0
161.5	475.0
161.3	537.7
161.0	569.5
162.7	494.7
162.7	548.7
162.7	562.3
163.0	516.5
163.5	530.5
164.3	469.7
164.7	502.7
164.0	509.0
165.5	485.0
166.0	537.5
165.7	543.3
165.0	555.5
166.0	523.5
168.3	474.7
168.0	480.0
168.0	567.5
169.0	491.5
169.5	498.0
169.0	515.5
169.0	550.0
170.5	468.0
170.5	505.0
170.5	561.0
171.5	485.0
172.0	512.0
171.5	531.0
173.0	519.5
173.0	525.5
173.7	573.3
174.7	493.0
174.0	555.0
175.0	473.0
175.3	566.7
176.7	480.3
176.0	501.0
176.5	507.0
176.0	548.5
177.7	535.3
177.5	561.0
178.0	466.5
178.0	514.5
178.5	528.0
179.5	488.0
179.0	522.0
179.5	542.5
180.0	471.5
180.0	494.5
180.5	573.0
181.5	554.5
182.0	477.0
182.0	504.0
182.0	532.5
182.3	547.7
184.0	484.0
183.0	510.0
183.0	567.0
184.6	466.2
184.0	499.0
184.0	518.0
185.5	491.5
185.5	524.5
185.0	539.0
186.5	559.5
187.7	531.7
188.5	474.5
188.5	480.0
188.7	546.3
188.3	552.7
189.3	505.3
189.5	513.0
189.5	566.0
189.5	573.0
190.5	468.0
190.5	520.0
192.0	486.0
191.7	492.3
191.0	537.0
192.0	526.5
193.3	560.7
194.5	473.0
194.0	479.0
194.5	542.0
195.5	496.0
195.0	502.5
195.3	509.7
195.5	548.0
196.3	516.7
196.7	533.3
197.0	566.0
196.7	571.3
197.0	465.5
197.0	522.5
198.3	490.7
199.5	483.0
199.0	527.5
200.5	477.0
200.7	499.7
201.0	538.5
200.5	559.0
201.5	471.0
201.5	545.0
202.3	505.3
202.0	512.5
202.5	552.0
203.5	465.5
204.0	519.5
203.5	571.0
204.5	487.5
204.5	494.0
205.0	527.0
205.5	533.0
206.5	481.5
206.0	497.5
206.3	563.3
207.5	475.5
207.7	502.3
207.5	509.5
207.0	541.0
207.5	557.0
208.7	549.3
209.0	464.0
209.0	470.0
209.5	516.0
211.0	492.0
210.0	523.0
210.5	536.0
210.0	569.5
211.5	486.0
211.5	529.5
212.5	480.0
212.0	499.0
212.5	543.5
213.3	561.7
214.0	474.0
214.0	505.0
214.5	510.5
214.5	537.0
214.5	555.0
215.0	467.0
216.0	519.0
216.7	525.7
216.5	548.0
216.5	569.0
218.0	489.5
217.5	532.5
218.0	483.5
218.0	495.5
219.5	472.0
219.5	478.0
219.5	502.0
219.5	524.0
220.5	539.0
220.5	553.0
220.5	560.0
221.0	508.0
221.5	515.5
222.0	467.0
222.0	567.0
222.0	574.0
223.0	545.0
224.0	481.5
224.7	486.7
224.5	492.5
224.5	521.0
225.0	528.5
225.3	535.3
226.0	476.0
226.0	498.0
226.5	505.0
226.5	511.5
226.5	551.0
227.5	464.0
227.5	541.0
227.5	557.0
227.5	570.0
228.0	470.5
229.5	524.0
228.5	563.0
229.7	517.3
230.0	487.0
230.5	493.0
231.7	480.7
231.5	530.0
231.0	546.5
232.5	474.0
232.0	500.5
232.0	536.5
233.5	507.5
233.7	552.7
234.5	468.0
235.5	513.5
235.0	559.5
235.5	566.0
235.5	573.0
237.3	490.6
236.0	496.5
236.0	544.0
237.3	484.7
237.0	519.5
237.5	526.5
237.5	533.0
238.5	472.5
238.5	478.0
238.5	503.5
239.0	549.3
239.5	539.0
240.5	465.0
240.0	509.5
241.0	495.5
241.5	500.0
241.5	516.0
241.0	556.0
241.5	562.0
242.0	569.0
243.3	470.3
243.5	522.0
243.5	545.0
244.5	476.0
244.0	483.0
244.5	490.0
244.0	505.5
244.5	530.0
246.5	512.0
246.5	552.0
247.0	496.0
247.7	558.7
247.5	565.5
248.0	518.5
249.0	572.0
249.5	502.5
249.5	526.0
249.5	543.0
250.3	467.3
250.3	479.7
250.0	485.5
252.0	532.0
251.7	549.3
252.0	473.0
252.5	491.0
253.3	509.3
253.0	562.0
254.3	498.7
254.0	515.5
255.5	478.0
255.0	522.0
255.0	538.0
255.5	556.0
255.5	569.0
256.5	468.0
256.0	488.0
256.5	503.5
256.0	544.5
258.5	483.0
258.5	494.0
259.0	529.5
259.0	551.0
259.0	563.0
260.0	473.0
260.3	512.3
260.0	535.0
260.5	574.0
261.5	499.0
261.3	518.7
261.5	526.0
262.0	479.0
262.0	489.0
262.5	505.0
262.7	556.7
263.5	468.0
263.7	544.7
263.5	568.5
265.0	484.0
265.5	494.0
265.5	510.0
265.5	538.5
266.0	473.5
266.5	516.0
266.3	562.7
267.0	551.0
268.5	489.0
268.5	500.0
268.5	574.0
269.5	469.0
270.0	479.0
270.3	505.7
270.0	545.5
270.5	557.0
271.5	495.5
271.5	568.0
272.0	484.0
272.5	512.0
272.0	532.5
273.3	464.7
274.0	474.8
273.5	518.0
273.5	539.5
274.0	501.0
274.7	524.7
274.0	552.0
274.5	563.0
275.3	573.7
276.0	491.5
276.5	546.5
277.5	470.0
277.5	480.0
277.0	507.5
278.5	497.0
278.0	530.5
278.5	557.0
279.7	485.7
279.0	514.0
280.0	536.0
279.0	568.5
280.5	465.5
280.5	476.0
280.5	503.0
280.5	520.0
280.0	541.0
281.0	551.5
282.5	492.0
282.0	526.0
282.0	563.0
282.5	574.0
283.5	509.0
284.0	471.0
284.0	481.5
284.0	497.5
284.3	532.3
284.0	547.0
285.3	515.3
285.5	556.0
286.7	465.7
286.5	487.0
286.0	568.0
287.5	505.0
287.5	522.0
287.0	539.0
288.5	477.0
289.0	562.0
289.5	493.0
289.7	527.7
290.0	544.5
289.5	551.0
290.5	482.0
290.0	499.5
290.0	510.5
291.5	534.0
292.0	517.0
292.5	556.5
293.0	488.0
293.3	568.3
294.0	477.5
294.0	504.5
294.0	523.5
294.0	539.5
296.0	494.0
296.0	546.0
297.2	552.4
296.3	574.3
299.2	475.2
297.0	484.0
297.0	513.0
297.0	529.0
297.3	563.3
298.0	465.0
299.0	519.0
298.7	535.3
299.0	500.5
299.3	541.7
300.5	470.0
300.0	479.5
300.0	489.5
300.5	507.0
301.0	548.5
300.7	557.7
300.3	569.3
302.0	496.0
302.0	525.0
303.3	485.3
303.3	543.7
303.5	564.0
304.3	465.7
304.3	475.3
304.0	502.5
304.0	513.0
304.0	531.5
305.5	519.0
305.5	538.0
305.5	553.0
306.0	491.0
307.0	471.0
307.0	481.0
307.5	508.0
307.5	558.5
307.0	570.0
308.5	544.5
309.5	487.0
309.0	497.0
309.0	524.0
309.5	564.0
310.5	466.0
311.0	529.0
310.5	534.0
311.0	550.0
311.5	503.0
311.0	514.0
312.0	476.5
313.0	471.0
313.0	492.0
313.5	520.0
313.0	539.0
313.0	554.5
315.0	568.8
315.0	482.0
315.0	509.0
316.0	498.5
316.0	526.0
316.0	545.0
316.3	561.7
317.0	467.0
317.5	488.0
317.0	516.0
317.0	533.5
317.7	550.7
318.7	472.7
319.2	573.6
319.5	504.0
319.5	556.0
320.0	478.0
320.5	494.0
320.7	510.7
320.0	540.0
321.0	522.0
321.0	529.0
322.0	483.5
322.5	546.0
322.0	566.5
323.0	468.0
323.5	500.0
323.5	516.0
323.0	535.5
324.5	474.0
324.7	489.7
324.5	560.0
325.5	506.0
326.3	525.3
326.5	541.5
326.0	571.5
327.5	464.5
327.0	479.5
327.7	495.7
327.0	531.0
327.0	553.5
328.7	512.7
328.3	519.7
328.5	548.0
329.7	469.7
329.0	485.0
329.0	565.5
330.0	501.0
330.0	535.5
330.5	559.0
331.5	475.0
332.0	491.0
332.5	506.5
332.3	529.3
332.5	543.0
333.7	523.7
333.5	570.5
334.0	465.5
334.0	480.5
334.5	497.0
334.0	517.0
334.0	553.5
334.5	564.0
335.5	512.0
336.5	471.5
336.5	486.0
336.5	538.5
337.5	477.0
337.0	502.0
337.5	533.5
337.5	548.5
337.5	558.5
338.3	492.7
338.5	527.5
339.5	569.0
340.5	467.0
340.3	515.3
340.0	521.0
340.0	543.5
341.0	482.0
341.0	508.5
342.0	553.5
342.5	473.5
342.0	488.0
342.0	563.0
343.0	497.0
343.5	503.5
343.7	531.3
343.0	537.5
344.5	548.0
345.0	478.0
345.0	525.5
346.0	558.5
345.3	568.3
346.5	468.5
346.5	484.0
346.0	513.0
346.0	519.0
346.0	542.0
348.0	501.0
347.5	574.0
348.5	473.5
348.8	489.3
348.0	507.0
349.0	496.0
349.0	553.0
350.5	530.0
350.5	536.0
351.5	547.0
351.0	480.0
351.5	517.0
352.0	524.0
351.0	542.0
352.7	485.3
352.0	563.5
352.0	569.5
353.0	469.0
353.5	505.0
354.0	475.0
354.0	493.0
354.5	511.0
354.0	557.5
355.0	499.0
355.3	540.7
355.5	552.0
356.5	464.0
356.0	534.0
356.5	574.0
357.7	471.3
357.0	481.0
357.7	521.3
358.0	527.5
358.7	547.3
358.0	567.0
360.7	486.6
359.5	492.0
359.0	503.0
359.5	515.0
359.0	561.5
360.0	476.5
360.5	509.0
360.0	537.5
360.3	556.7
361.0	467.5
362.5	481.5
362.5	497.0
362.0	532.0
363.0	542.5
363.5	525.5
363.3	571.7
364.5	472.0
364.0	519.0
364.0	552.5
365.7	491.3
365.7	513.3
365.5	565.5
366.5	477.0
366.5	501.5
367.5	468.0
367.3	507.3
367.5	530.0
367.3	536.7
367.0	547.5
367.7	559.3
368.0	485.5
370.2	517.6
369.0	523.5
370.0	496.0
370.0	553.0
371.0	473.0
371.0	481.0
371.3	511.7
371.0	542.5
371.0	570.5
372.0	490.5
373.7	506.3
373.7	527.7
373.3	536.3
373.7	564.3
374.5	467.5
374.5	500.5
374.0	547.5
375.0	559.0
375.3	477.3
375.0	485.5
375.5	521.5
376.5	495.0
376.5	553.5
377.5	472.5
377.5	532.0
377.0	541.5
378.5	490.0
378.5	510.5
378.5	516.0
378.3	569.7
379.0	481.5
380.5	505.0
380.0	526.0
380.0	537.0
381.0	467.0
381.5	476.5
381.0	500.0
381.0	547.0
382.5	557.5
381.0	563.5
382.5	520.0
383.3	485.3
383.5	494.5
383.5	514.5
383.5	531.0
384.0	541.0
385.0	472.0
385.0	481.0
385.5	504.0
385.5	509.0
385.5	551.5
386.5	525.0
386.5	569.0
387.0	490.0
387.0	499.0
387.0	536.0
388.0	562.5
388.5	467.5
388.3	476.7
388.5	519.0
388.0	545.5
389.5	530.0
389.3	574.3
390.0	484.5
390.5	494.5
390.0	513.5
390.0	557.0
390.7	567.7
391.0	540.0
392.3	472.3
392.5	501.0
392.0	507.5
392.5	524.0
392.5	551.0
393.0	479.0
393.5	489.5
393.5	534.0
394.3	467.7
395.0	518.0
395.0	544.5
395.5	556.0
395.0	562.0
396.3	484.3
396.5	495.0
396.5	529.0
397.0	512.0
397.0	569.5
398.5	464.5
398.3	473.7
398.5	479.5
399.5	490.0
399.0	500.0
399.5	523.5
399.0	536.0
399.5	549.0
400.0	564.5
401.3	517.7
401.5	530.5
401.5	543.0
402.0	469.0
402.0	484.5
402.0	559.0
403.3	494.3
403.5	511.5
404.7	499.7
404.5	538.0
405.7	489.3
405.5	554.0
406.0	465.5
406.7	521.3
406.5	548.0
406.5	564.5
406.0	570.0
407.7	479.7
407.0	533.5
408.0	470.0
408.3	508.3
408.0	515.5
408.3	527.3
408.5	542.0
409.5	485.0
409.5	496.0
409.7	558.7
410.5	475.0
410.0	502.5
411.3	490.3
411.7	512.7
411.7	552.3
412.0	466.0
412.5	538.0
413.7	471.3
413.5	531.0
413.0	546.0
413.0	569.0
414.3	479.3
414.5	499.5
414.7	506.7
414.0	518.0
414.5	525.0
415.0	485.0
415.5	494.0
415.3	541.7
415.0	562.5
417.0	469.5
417.0	476.5
418.0	557.5
417.0	572.5
418.0	535.5
419.0	465.0
419.0	492.5
420.5	546.3
419.8	552.4
420.3	481.3
421.0	487.3
420.0	503.0
420.7	519.7
420.7	525.3
420.0	530.5
420.3	540.3
420.0	567.5
421.7	497.3
421.5	508.5
422.3	470.3
423.5	562.0
424.5	466.0
424.5	535.0
424.5	572.0
425.0	476.0
425.3	491.3
425.5	556.5
427.0	481.0
426.0	500.0
427.3	510.8
426.0	522.5
426.0	541.0
427.0	504.5
427.5	517.0
427.5	529.0
428.0	497.0
428.5	545.5
428.7	551.3
428.3	567.7
429.5	471.5
430.7	489.3
431.7	464.7
431.0	477.5
431.0	535.0
431.5	561.0
432.3	494.7
433.0	500.5
432.0	525.0
433.5	484.5
433.3	506.3
434.7	512.6
433.0	541.0
434.0	519.0
434.5	530.0
434.7	548.3
434.5	555.0
434.0	573.0
435.3	468.3
435.5	566.0
436.5	474.0
436.5	490.0
437.5	536.0
438.0	481.0
438.0	496.0
438.5	526.0
439.5	502.5
439.7	542.7
439.3	560.3
440.0	508.5
440.0	520.5
440.0	570.5
441.0	465.0
441.0	470.5
441.5	487.0
441.5	514.5
441.0	549.0
441.7	553.7
442.0	476.0
442.0	531.0
443.7	498.7
443.5	544.0
444.5	481.5
444.5	525.0
444.0	538.0
444.0	564.5
445.0	505.5
445.5	571.0
446.0	518.5
447.0	470.0
448.0	476.0
447.5	511.0
447.0	558.0
448.0	487.0
448.0	534.0
448.0	550.5
449.5	500.0
449.0	544.0
449.0	574.0
450.0	482.0
450.0	528.5
450.0	567.5
451.5	506.5
451.0	517.0
451.0	523.0
451.5	539.0
452.5	468.0
452.5	474.0
453.0	555.5
452.5	562.0
454.5	490.0
454.5	496.0
454.0	512.5
454.0	533.0
455.0	479.0
455.0	484.5
455.5	550.0
455.5	572.0
456.0	502.0
456.5	520.0
456.5	526.5
456.5	544.0
458.0	465.5
457.5	471.0
457.5	508.0
457.5	566.5
458.7	537.3
459.0	560.3
459.3	554.3
460.0	475.5
460.5	493.0
461.2	498.6
460.3	513.3
461.0	481.0
461.5	487.0
461.0	531.0
462.7	504.7
462.7	547.7
463.5	518.0
463.0	524.0
463.7	541.7
463.5	571.0
464.0	465.0
465.0	471.0
465.5	535.0
465.5	564.5
466.5	477.0
466.7	558.3
467.5	483.0
467.5	489.0
467.7	528.7
467.7	551.7
468.5	501.0
469.7	507.6
468.8	516.6
469.5	547.0
470.0	468.0
470.0	523.0
470.5	540.0
471.5	534.0
471.3	562.3
471.5	569.0
472.3	473.3
472.0	556.0
473.0	479.0
473.0	485.5
474.5	514.0
474.3	527.3
475.5	464.0
475.0	489.5
475.5	503.5
475.0	550.5
476.7	498.3
476.3	520.3
476.5	538.0
476.0	544.0
477.0	469.5
477.7	481.7
477.5	509.0
477.0	555.0
477.0	573.0
478.0	475.5
478.5	560.0
478.5	566.0
479.7	493.7
479.0	531.5
480.5	487.0
480.5	504.0
480.0	524.5
481.0	514.0
481.5	549.5
483.0	464.5
482.5	543.0
483.0	471.0
483.5	509.0
484.2	518.8
483.5	537.0
483.0	555.5
484.3	477.3
484.0	499.0
484.0	562.5
485.0	483.0
486.5	568.0
487.0	489.0
487.3	524.3
487.7	530.7
488.7	473.7
488.0	506.0
488.3	546.3
488.5	558.0
489.3	466.7
489.3	494.3
489.0	512.0
489.5	541.5
489.3	551.7
490.7	478.7
490.0	501.0
491.7	518.7
491.0	536.0
491.0	564.0
492.0	485.0
492.5	571.0
493.5	557.0
494.0	490.0
494.0	506.5
494.0	525.0
494.0	548.0
495.5	468.0
495.3	474.7
495.5	531.0
495.0	542.0
496.5	496.0
496.5	513.0
497.0	482.0
497.7	536.7
497.5	553.0
497.7	560.3
498.5	519.0
498.0	567.0
499.0	547.0
499.5	573.0
500.5	465.0
500.3	471.3
500.3	488.7
500.0	501.0
500.5	526.0
501.5	477.5
501.5	508.0
503.0	542.7
503.0	495.5
503.0	532.0
503.5	556.5
504.3	483.7
504.5	514.0
504.0	550.0
504.5	563.0
505.7	473.7
505.5	502.5
505.0	521.5
505.5	537.5
505.0	570.0
506.5	468.0
506.3	488.3
508.5	509.0
508.0	527.0
509.0	478.5
510.3	492.3
510.5	517.0
510.3	533.3
510.0	546.0
510.3	553.3
510.5	566.0
511.0	483.0
511.0	540.0
512.0	466.0
512.0	472.0
512.0	498.0
512.0	559.0
512.0	572.0
513.7	513.7
513.0	522.5
514.0	487.0
514.5	505.0
515.5	528.0
515.0	564.0
516.0	477.0
516.0	493.0
516.7	548.7
517.5	482.5
517.5	510.0
518.6	517.0
517.5	555.0
517.0	569.5
519.0	499.0
520.3	488.3
520.7	523.7
520.0	560.0
521.0	479.5
521.0	567.0
522.5	504.0
523.0	484.5
523.0	494.0
523.5	513.0
523.5	530.0
523.7	536.3
523.5	547.5
525.5	466.5
525.5	472.5
525.7	518.7
525.5	555.0
525.0	571.0
527.0	489.0
526.0	499.5
526.5	562.0
527.0	507.0
528.5	532.0
528.7	568.7
529.5	544.5
530.5	476.5
530.0	495.0
530.5	513.0
530.0	524.5
531.5	470.0
531.0	538.5
531.5	574.5
532.3	550.3
532.5	558.0
533.0	482.0
533.5	500.0
534.3	518.3
534.5	528.0
534.7	564.3
535.5	535.0
536.0	493.0
536.0	506.0
537.7	466.7
538.2	540.6
537.5	547.0
538.0	485.5
538.0	523.5
538.5	554.0
538.0	571.0
539.5	495.0
539.7	511.7
541.5	480.0
541.0	500.5
541.7	530.3
542.3	489.7
542.7	558.7
542.7	566.7
544.3	468.8
543.5	507.0
543.0	537.0
543.0	550.0
544.7	525.7
544.5	573.5
545.0	475.0
545.0	543.0
546.7	484.3
546.0	496.0
546.5	513.5
547.3	555.7
548.0	562.5
548.5	502.0
548.0	547.5
549.0	480.0
549.5	531.5
550.5	465.0
550.0	491.0
550.5	568.5
551.0	471.5
551.0	519.0
552.0	477.0
552.0	508.0
552.5	538.0
552.5	552.0
553.3	496.3
553.0	526.0
553.5	545.5
554.0	483.5
555.5	514.0
555.5	557.5
557.0	467.5
556.0	564.0
557.0	474.0
557.3	490.7
557.0	502.5
557.3	519.3
557.0	532.0
557.3	570.3
559.5	480.0
559.5	538.5
560.5	497.0
560.0	508.5
560.5	551.5
560.0	562.0
561.5	526.0
561.3	546.3
562.5	471.0
562.7	534.0
563.0	514.0
563.5	557.0
563.5	567.0
564.0	477.5
564.0	492.0
564.5	502.0
565.5	521.0
566.0	530.5
566.3	560.7
567.7	508.3
567.5	538.5
567.5	553.0
567.0	572.5
568.5	468.0
568.7	474.7
570.7	480.7
570.0	515.5
570.7	526.3
570.7	557.7
571.5	488.0
571.0	544.0
571.0	566.5
572.0	502.5
573.0	465.0
573.8	531.0
573.3	550.7
574.3	510.3
574.5	522.0
575.0	471.0
575.7	477.3
575.3	539.3
575.0	572.0
576.0	484.0
576.5	491.0
577.5	545.0
577.5	558.5
577.0	565.0
578.0	497.5
578.7	515.3
579.5	467.0
579.5	504.0
579.0	526.5
580.5	474.0
580.7	553.3
582.0	480.5
581.3	533.3
581.7	563.7
581.0	569.0
582.0	487.0
582.0	510.0
582.0	574.5
583.5	493.5
583.7	521.3
585.0	470.0
585.5	528.5
585.0	550.0
586.5	500.0
586.5	543.5
586.0	558.5
587.5	475.5
587.3	483.3
587.0	507.0
587.5	515.0
587.5	567.5
589.0	534.7
589.5	467.0
589.0	555.0
590.7	488.3
590.5	520.0
591.0	526.5
592.5	472.0
593.0	478.7
592.0	496.5
593.0	504.0
593.0	511.5
593.5	561.0
594.7	571.7
595.0	484.5
595.7	523.7
595.3	554.3
596.5	491.5
596.3	536.3
597.0	468.0
598.0	529.5
599.0	474.0
599.5	486.5
599.5	498.5
599.0	506.0
600.0	512.0
599.7	518.3
599.0	542.5
599.5	566.0
600.0	559.0
601.5	480.0
601.0	534.5
601.0	573.0
603.0	525.0
603.3	546.3
604.0	468.5
604.5	494.0
605.6	476.8
605.0	487.0
605.5	530.5
605.0	538.0
605.0	552.5
607.7	506.7
607.5	564.0
608.3	472.3
608.0	482.5
608.5	514.0
608.5	522.0
608.5	545.0
609.5	490.0
609.0	556.5
611.4	533.8
612.0	527.5
611.3	539.3
612.0	550.0
612.0	468.5
612.0	503.0
613.5	476.0
613.0	495.0
613.0	510.5
613.0	518.0
614.7	483.3
614.5	543.5
614.0	568.0
615.5	554.5
616.5	473.0
616.5	491.0
616.5	500.0
616.0	523.5
617.5	549.0
617.5	573.0
620.3	467.2
618.0	516.0
618.5	539.0
619.0	479.5
620.7	495.7
620.7	560.3
621.0	544.5
623.0	472.8
622.5	485.0
622.5	549.5
623.0	523.5
623.5	540.0
623.5	570.5
624.5	554.5
625.5	479.0
625.5	490.0
625.0	516.5
626.5	465.0
627.4	535.8
627.0	544.5
627.5	550.0
627.0	559.5
628.0	496.5
629.0	484.0
629.5	529.0
630.0	522.0
631.0	515.5
631.8	541.3
631.3	555.7
632.3	489.0
633.0	464.5
633.5	548.0
635.7	476.7
635.0	533.0
636.0	483.0
636.3	503.7
636.7	519.7
636.5	526.5
637.0	539.5
637.5	554.0
638.7	489.7
638.0	544.5
639.5	567.0
641.0	496.0
641.5	479.5
641.5	486.0
642.0	467.5
642.0	537.5
643.6	502.0
643.7	507.3
643.0	524.0
643.5	530.0
645.0	492.5
645.7	516.7
645.0	549.5
647.5	563.0
648.3	479.3
648.0	486.5
648.0	534.5
649.5	527.5
651.5	474.0
651.3	491.7
654.0	483.5
656.0	478.5
121.5	590.0
153.7	578.3
159.5	584.0
160.0	576.5
165.5	582.0
165.5	588.5
165.0	616.0
167.0	574.5
167.3	609.7
171.5	579.5
172.5	587.0
179.3	592.7
179.0	612.0
182.5	606.0
184.3	599.7
199.0	604.0
202.0	578.5
206.5	616.0
207.0	584.0
207.5	604.0
208.5	577.0
210.0	596.0
211.0	589.0
213.7	582.7
213.5	616.0
214.0	601.0
215.0	575.5
217.0	594.0
220.3	614.3
221.5	600.0
224.0	592.5
227.5	577.0
227.7	613.7
228.5	584.0
230.5	598.0
236.5	586.5
238.0	593.0
242.0	582.0
243.5	575.5
243.0	589.0
244.5	596.0
248.5	586.0
250.0	579.5
250.5	592.5
251.5	600.0
251.5	606.5
254.0	575.5
254.5	587.0
257.5	581.0
262.5	588.0
262.5	610.0
264.5	580.5
264.0	602.5
267.5	614.0
269.0	585.5
269.5	592.0
269.5	599.5
269.5	607.0
272.0	580.0
276.7	583.7
276.0	610.0
277.3	590.3
282.0	607.5
282.3	614.3
283.5	585.5
283.0	600.0
284.5	593.0
288.5	605.0
290.0	575.0
290.3	612.3
291.7	585.7
295.5	592.0
295.7	604.7
297.0	580.0
297.3	611.3
298.0	598.0
300.0	586.0
302.3	575.3
302.5	605.5
303.0	593.0
303.0	613.5
305.7	580.7
305.5	600.0
306.5	610.5
307.5	587.0
310.5	575.5
310.5	616.0
311.0	592.0
311.3	605.7
314.5	599.0
315.5	586.5
315.3	611.3
318.5	592.0
319.3	605.7
322.0	599.5
323.0	612.0
326.5	605.5
330.3	599.7
331.5	576.5
331.0	611.0
333.5	594.0
334.5	588.0
335.5	605.0
337.0	581.5
338.3	599.7
339.7	611.3
340.5	575.5
341.5	593.0
343.0	604.5
345.0	580.5
347.5	599.5
348.5	592.5
348.5	611.0
349.7	585.7
351.7	604.7
352.5	616.0
353.5	598.5
355.0	591.0
356.3	610.3
358.5	585.0
360.0	603.3
361.7	578.7
361.0	615.0
362.5	590.0
364.5	609.0
365.5	583.5
368.5	577.0
369.0	614.0
371.0	589.5
371.7	607.7
372.7	582.7
375.5	576.0
375.5	594.0
376.5	612.0
377.5	587.0
379.5	580.5
383.0	575.0
383.5	586.0
384.0	610.0
387.0	580.5
388.5	615.5
389.7	585.7
390.5	609.0
394.0	580.5
394.7	596.3
396.5	616.0
399.3	603.7
401.6	576.8
400.0	583.5
400.5	591.0
403.0	615.5
403.5	608.0
407.3	587.3
407.5	602.0
410.5	574.5
415.0	605.0
415.5	612.5
417.5	578.5
419.5	595.0
420.5	588.0
421.0	601.5
422.5	614.0
428.5	611.0
429.0	603.5
430.3	616.3
433.3	594.3
435.3	578.3
436.5	614.5
441.0	583.0
442.8	610.4
444.0	603.0
445.0	588.0
448.3	614.3
450.5	606.0
451.5	599.0
452.0	586.0
454.5	579.0
456.5	611.0
457.3	603.7
459.0	584.0
461.0	578.0
461.0	597.0
462.5	614.0
468.5	576.5
472.0	606.5
474.5	612.5
479.5	587.5
516.5	611.5
528.0	606.0
556.0	595.0
561.0	613.5
569.3	578.3
579.0	586.5
590.0	578.0
599.5	586.5
606.0	600.5
608.0	608.4
609.5	616.0
611.5	595.5
615.0	613.2
613.5	602.5
625.0	586.0
634.0	586.0
83.6	189.4
83.6	169.7
93.6	219.8
91.6	225.3
88.5	229.8
89.8	214.6
84.3	216.0
76.0	307.6
76.0	293.4
158.6	196.3
78.4	363.9
73.6	374.3
74.6	343.2
84.7	128.6
92.6	125.4
91.9	119.2
100.9	122.3
108.2	118.9
120.3	128.2
136.5	122.0
135.1	129.6
143.1	129.9
144.5	123.4
122.0	121.3
123.7	114.7
131.7	114.0
128.2	119.6
129.2	126.5
137.2	109.2
140.3	104.7
144.8	111.3
152.8	112.7
153.1	106.4
146.5	103.3
118.9	107.5
100.6	106.8
91.2	105.1
97.4	100.2
106.4	102.6
107.5	111.3
113.3	106.8
118.9	100.2
112.0	99.5
103.3	95.7
112.0	93.3
125.8	100.9
115.4	114.7
156.9	119.2
159.7	111.6
161.7	104.7
155.5	100.9
169.3	103.3
173.5	108.2
169.7	123.7
165.9	129.2
178.3	120.6
187.0	124.1
187.0	117.5
179.4	113.3
181.1	106.8
188.0	110.2
194.2	114.0
193.5	106.1
193.9	121.0
201.1	116.8
208.1	113.0
208.7	122.3
215.0	128.9
299.6	266.1
134.1	102.3
125.1	94.7
118.5	92.6
132.0	95.7
163.8	97.4
171.4	98.1
176.6	101.9
187.0	103.3
181.1	98.1
188.0	97.8
199.8	103.3
194.2	99.5
200.4	95.7
192.8	93.3
206.0	100.2
206.7	106.4
213.6	103.0
220.1	116.1
221.2	107.5
220.8	100.6
212.9	95.0
228.1	104.7
225.7	111.3
225.7	122.3
238.1	116.1
244.7	115.4
234.0	110.2
239.8	109.2
235.7	103.7
247.1	109.2
254.4	106.4
249.5	121.3
254.7	126.8
257.5	121.0
252.6	114.0
259.2	112.0
263.7	118.5
271.0	116.1
265.8	111.6
271.6	108.2
277.5	113.3
276.8	120.3
275.1	126.5
283.4	125.1
283.1	117.8
283.4	110.6
288.9	122.0
289.6	127.9
296.2	126.1
303.1	128.9
297.2	119.9
290.3	115.8
296.2	112.7
302.4	115.8
290.0	107.5
222.2	162.4
228.4	166.6
302.8	108.9
309.0	110.6
308.3	103.3
315.9	106.8
316.9	114.0
314.2	121.0
319.7	122.7
324.9	129.2
325.2	117.2
328.0	123.7
332.8	128.2
323.8	110.9
138.6	219.5
144.5	218.8
220.1	314.2
223.3	310.7
229.1	312.4
198.4	292.7
239.2	284.4
252.6	271.6
279.3	275.4
283.7	273.0
264.0	331.8
282.7	335.6
288.2	336.6
294.5	337.3
259.6	333.9
254.4	332.5
139.6	98.1
148.9	97.1
143.8	91.6
136.5	89.8
155.9	93.0
176.3	92.3
166.9	90.5
184.9	90.2
220.8	93.0
228.1	98.1
237.1	96.4
230.2	91.9
223.6	87.1
207.0	90.5
126.5	87.8
106.4	88.8
86.7	97.8
83.3	104.0
78.1	117.5
78.1	110.2
74.6	104.4
76.4	98.5
83.3	91.6
94.7	92.6
97.8	86.0
89.8	86.0
190.1	165.5
197.3	162.1
198.0	168.0
250.9	138.9
243.0	102.6
244.8	96.8
237.9	89.2
232.0	83.3
246.2	90.2
250.0	101.6
252.7	94.3
257.6	99.9
263.1	104.7
269.3	102.3
259.6	91.2
264.1	97.4
277.3	105.1
285.6	103.3
269.3	94.0
283.5	96.8
275.9	91.9
275.5	98.8
297.0	104.0
291.1	98.8
303.5	101.3
298.0	96.8
290.7	91.6
304.6	94.0
310.9	96.4
315.8	100.6
322.0	104.0
329.2	105.4
331.3	113.3
338.2	114.7
333.7	121.0
341.7	121.0
341.7	127.2
350.0	123.7
345.8	116.5
342.4	109.9
336.2	106.1
332.0	100.2
324.4	98.5
320.3	94.7
314.4	89.8
306.8	87.4
298.8	88.8
284.0	88.1
323.0	87.8
327.9	93.0
335.8	94.0
339.3	100.2
347.2	101.9
348.2	108.9
352.7	116.8
359.3	117.8
357.6	123.7
371.5	127.5
374.6	121.6
370.8	116.8
364.6	114.4
355.6	110.9
354.2	105.1
352.8	99.2
344.2	95.0
332.1	88.1
341.4	89.2
350.8	92.3
358.7	93.6
356.3	87.4
359.0	100.9
360.8	106.4
367.7	108.9
374.3	110.9
381.2	120.6
386.0	126.1
391.9	124.4
398.4	124.8
405.0	125.8
410.5	127.5
410.9	121.3
406.4	119.2
400.5	119.6
394.3	119.6
388.1	119.9
385.0	114.7
378.1	114.4
392.2	113.7
373.2	105.7
366.6	103.0
364.2	97.8
371.5	99.2
370.1	93.6
363.9	89.8
387.7	108.9
380.5	109.2
379.1	104.4
398.1	114.0
403.6	114.0
409.9	113.0
415.4	117.5
421.3	120.6
422.3	115.1
416.8	110.6
411.2	106.4
428.5	118.9
432.7	123.0
435.4	128.2
443.4	128.6
449.9	129.2
457.9	129.9
454.8	124.4
446.8	123.7
444.1	117.2
436.1	116.1
451.0	118.5
462.4	124.8
458.9	119.2
469.3	126.1
466.2	119.6
472.8	121.3
476.9	127.2
485.5	128.2
481.7	122.3
478.6	115.1
485.5	116.8
489.7	121.6
492.5	128.9
499.7	128.2
508.0	129.2
496.3	122.3
502.8	122.3
506.6	115.8
510.8	122.7
514.6	129.6
519.8	124.8
514.6	118.5
526.7	124.4
530.5	129.6
533.2	124.1
533.2	116.8
527.7	118.9
521.5	118.2
526.0	112.7
514.9	111.3
520.8	106.8
507.3	110.9
511.5	105.7
492.8	115.8
499.7	116.5
499.0	109.9
490.0	110.9
490.4	105.7
482.8	109.5
479.3	104.0
471.7	107.5
471.4	113.0
439.2	110.6
433.0	110.2
423.3	108.2
417.8	103.3
404.7	107.5
395.3	108.5
391.2	104.0
384.3	103.0
378.7	99.9
377.4	94.0
385.7	91.9
385.7	97.1
399.8	103.7
394.6	99.2
392.2	93.6
406.7	100.9
413.7	98.1
401.6	94.0
397.1	89.2
410.5	92.6
425.4	100.9
421.3	96.4
430.2	105.7
438.9	103.3
433.0	99.9
428.9	93.3
445.5	110.6
457.2	113.7
451.7	108.9
446.5	104.0
464.8	113.3
464.1	106.8
458.6	104.4
471.4	101.9
453.1	99.5
443.7	97.8
464.5	99.5
477.9	97.4
485.9	98.8
495.9	99.5
458.9	94.3
449.6	92.6
437.5	92.6
470.3	94.0
483.1	91.9
490.7	94.0
502.8	103.3
509.7	98.8
503.2	95.4
497.6	90.5
516.3	93.6
517.0	100.2
530.1	105.4
524.9	101.3
523.9	95.4
531.9	97.4
533.9	110.2
540.5	114.7
541.5	122.0
538.1	129.2
546.0	129.2
551.6	124.4
554.3	129.9
548.8	118.2
547.1	112.0
540.5	108.2
535.7	101.9
542.6	100.2
540.8	94.7
529.8	90.5
480.7	164.2
474.1	186.3
417.1	287.2
353.2	280.6
358.0	278.9
291.3	214.3
295.1	217.7
448.2	167.6
490.7	276.8
489.7	281.0
486.2	284.1
494.9	271.0
482.4	273.0
485.2	268.9
444.6	189.4
438.3	190.1
485.0	161.4
518.5	186.6
579.0	198.0
595.9	285.8
605.3	242.6
635.0	250.9
560.0	125.1
556.5	118.2
553.8	110.9
549.3	105.4
552.7	99.9
548.6	94.7
560.7	112.0
564.8	118.2
567.6	125.4
575.2	127.9
582.8	128.6
589.0	123.4
596.3	126.5
601.8	122.0
595.2	117.8
606.0	116.8
610.1	124.1
604.2	128.6
613.6	117.2
621.9	117.8
626.0	126.8
632.9	123.4
634.6	129.2
640.5	125.8
646.7	138.9
631.9	140.7
622.6	139.6
621.2	145.5
644.7	158.6
648.5	154.5
648.1	164.8
642.3	191.8
647.5	186.6
642.7	198.7
572.9	119.9
580.5	121.3
585.7	115.1
577.4	113.7
569.4	112.3
558.3	104.7
566.0	105.4
562.8	99.2
571.8	99.5
573.9	105.7
583.2	107.5
592.2	110.9
590.5	103.7
581.2	100.9
598.8	105.4
600.5	111.6
588.4	96.4
576.3	94.3
567.7	94.0
557.7	94.0
562.8	88.5
572.9	88.8
583.9	89.5
417.7	88.8
593.9	89.8
596.4	98.1
607.8	107.5
615.0	109.5
604.0	101.3
602.2	93.6
613.0	101.9
609.2	96.1
618.8	97.1
615.4	92.3
607.8	88.5
629.5	117.2
621.9	110.6
622.3	103.3
630.2	99.9
625.4	93.0
630.2	108.5
636.8	103.3
637.5	112.0
645.4	118.9
638.2	118.9
646.5	112.7
645.1	105.1
636.8	95.0
633.0	89.2
645.1	97.8
649.6	126.1
545.9	185.6
519.6	199.8
515.5	201.9
504.1	206.0
509.6	204.0
551.4	219.2
604.0	210.9
606.0	216.7
589.1	215.4
593.6	212.3
637.8	216.7
645.1	216.1
635.1	208.5
647.2	238.2
636.1	228.5
650.3	255.5
649.2	246.5
642.0	267.7
640.6	272.8
641.6	278.0
638.5	302.6
639.9	296.4
630.2	327.2
627.5	374.9
633.7	373.6
640.3	436.8
631.6	434.4
634.4	425.1
636.5	385.3
640.6	389.8
639.6	396.0
624.0	402.2
623.3	408.8
541.8	389.3
546.2	386.5
525.2	403.1
509.3	418.3
504.4	420.4
403.2	478.5
403.8	474.3
394.5	574.5
407.7	580.1
413.9	583.5
413.2	590.4
407.7	594.9
413.5	597.7
401.4	598.0
423.6	577.6
428.7	576.6
421.8	582.8
428.4	583.5
426.7	596.3
421.5	608.1
425.6	590.8
431.2	589.1
435.3	585.9
439.8	590.8
441.9	597.7
435.6	600.5
438.8	606.0
433.6	608.1
442.2	575.9
447.1	580.4
465.7	510.6
478.9	446.0
484.0	449.1
538.6	446.7
534.5	449.1
538.0	452.2
558.0	426.6
582.5	430.8
574.9	437.7
553.9	456.3
431.5	413.1
426.0	412.4
428.4	408.3
425.3	417.3
420.4	373.4
423.9	369.2
425.3	373.7
450.5	369.6
451.2	379.6
450.9	374.8
461.2	377.5
465.4	376.5
496.5	374.1
517.2	379.3
519.3	367.2
559.7	332.6
563.2	336.7
562.8	304.9
564.2	300.8
569.4	306.3
574.9	307.7
599.8	309.1
592.9	325.0
591.5	329.8
583.6	324.0
520.7	474.3
525.2	477.8
517.9	469.1
522.7	461.5
539.3	472.2
536.2	476.7
527.6	483.3
532.4	488.1
626.4	564.9
614.7	561.1
648.2	455.3
634.4	439.7
634.0	445.6
640.3	444.6
630.6	475.7
629.2	470.2
636.5	470.2
642.0	474.0
647.5	470.2
639.2	457.0
628.5	503.7
618.8	505.4
620.9	510.2
624.0	501.3
627.8	510.2
608.8	498.2
604.0	502.6
616.8	531.7
622.6	530.6
633.7	508.5
638.5	513.0
647.5	542.0
592.9	541.4
582.2	538.9
560.1	486.1
565.3	484.3
567.7	497.8
571.8	494.4
576.7	578.0
584.3	581.8
598.1	579.0
606.4	570.4
629.2	578.7
620.6	579.4
611.2	574.9
611.9	581.1
607.8	587.0
616.8	587.3
603.3	593.9
605.0	577.3
603.6	582.8
590.8	547.6
597.4	548.3
562.1	464.6
567.0	461.9
595.3	443.2
591.2	447.0
518.6	532.0
515.8	536.5
516.5	543.4
522.4	541.4
545.9	520.6
541.1	518.2
561.1	576.3
634.4	495.4
592.6	584.2
586.3	589.1
593.9	592.5
596.7	599.8
587.4	597.0
581.8	593.5
573.9	592.2
570.8	585.9
563.2	591.1
562.8	583.9
556.3	580.8
552.1	575.9
555.2	588.0
569.1	595.3
564.2	596.7
560.1	600.1
561.8	606.3
568.4	601.8
568.0	608.4
574.9	608.1
575.3	601.8
581.8	601.5
583.2	609.4
590.5	605.3
599.8	606.7
602.2	613.9
592.9	612.6
593.9	619.5
586.3	617.0
579.1	616.7
573.2	614.3
569.1	617.4
562.1	620.2
572.2	622.6
583.2	622.2
601.9	620.9
610.2	622.6
617.4	619.8
620.9	607.4
619.9	596.0
628.2	593.2
625.1	601.5
632.7	602.2
627.5	607.7
632.3	613.2
623.3	614.3
627.5	618.4
635.4	561.4
637.2	576.6
642.0	582.1
643.4	587.3
637.8	592.5
641.0	600.8
632.3	565.9
631.3	572.5
643.0	558.3
637.1	608.1
646.8	608.1
641.6	616.1
635.4	620.9
623.3	625.1
616.4	629.5
631.6	627.5
484.9	574.6
492.5	577.0
500.1	579.1
505.7	575.6
506.7	581.5
513.6	578.4
519.5	575.3
526.1	577.7
520.2	581.2
527.1	585.3
532.6	581.5
538.5	578.0
546.8	579.8
540.2	583.6
534.0	587.7
528.5	599.1
526.8	592.6
519.8	603.6
515.0	599.1
521.2	595.7
533.7	594.6
547.8	586.7
540.9	591.2
548.9	593.3
541.6	600.2
534.7	602.2
548.9	600.2
554.4	603.6
547.8	607.4
539.9	608.5
533.0	611.2
530.6	617.4
539.5	614.7
555.8	609.5
554.8	617.1
547.8	614.3
547.8	622.3
555.4	622.6
563.0	625.7
590.7	625.1
601.1	627.1
607.3	630.6
520.5	588.8
514.7	585.3
513.3	592.2
508.1	587.4
504.3	592.2
508.8	597.1
498.4	595.0
498.4	600.5
513.3	605.4
505.3	604.7
508.8	611.6
501.9	610.9
498.4	606.7
486.3	609.2
480.8	606.4
480.8	612.6
487.0	616.8
492.9	612.3
498.1	617.1
505.0	617.1
512.2	616.8
519.2	618.1
525.4	621.3
537.8	620.6
532.3	624.4
532.3	630.2
539.2	626.8
548.9	628.5
557.9	631.3
572.4	629.5
580.0	627.8
566.2	633.0
503.3	586.0
497.4	586.7
492.2	583.6
477.3	579.4
484.9	581.5
472.8	582.9
467.0	582.5
452.1	591.5
446.6	595.0
458.0	591.5
463.9	588.8
468.0	593.6
471.5	588.1
476.3	593.3
482.5	593.6
486.7	588.1
493.6	591.2
489.8	595.7
490.8	602.6
467.7	609.5
470.4	617.4
462.8	607.1
465.9	601.9
471.8	598.8
484.2	600.2
477.7	599.5
508.4	622.6
517.8	624.7
510.9	629.9
525.4	627.1
518.1	632.0
526.1	633.0
543.3	632.3
523.6	612.6
500.5	623.0
502.2	629.9
493.2	620.6
494.6	627.5
485.6	623.7
487.0	630.9
478.7	626.1
478.0	618.8
470.8	624.0
464.9	627.5
471.1	631.3
479.8	633.3
397.7	505.8
403.6	505.8
421.9	514.1
417.0	512.0
426.4	485.4
442.6	492.0
448.8	493.4
466.1	495.1
472.3	495.1
433.6	442.6
423.6	445.0
428.1	442.9
293.3	467.4
295.4	471.6
289.8	471.9
249.4	408.7
270.5	411.8
265.6	389.0
277.7	397.3
282.9	396.6
307.8	390.4
304.7	387.6
296.8	387.3
299.9	391.1
317.8	390.7
322.3	390.4
276.0	596.0
276.0	603.3
290.5	598.4
279.8	579.4
288.5	580.1
312.3	581.2
318.9	580.1
325.1	577.7
322.3	585.3
329.2	582.5
327.2	587.7
325.8	593.3
341.3	586.3
353.4	579.1
254.6	527.6
246.3	536.6
189.6	497.9
256.0	594.3
262.9	595.7
258.4	604.7
360.3	596.4
368.0	595.3
368.0	602.2
373.8	600.2
378.7	605.0
382.1	592.2
388.0	591.5
381.1	598.8
385.2	604.0
393.2	602.2
388.7	597.1
395.3	588.8
381.4	616.1
374.9	619.2
366.6	620.6
383.8	622.3
391.5	621.3
399.7	622.3
410.5	617.8
418.8	619.9
407.4	624.7
413.6	629.2
425.3	621.9
434.7	621.9
443.3	618.8
444.0	625.4
435.7	627.1
419.8	627.1
428.8	629.5
449.9	621.9
455.7	617.4
464.4	621.3
457.5	625.1
450.9	628.9
441.6	632.0
397.0	609.8
409.4	610.2
237.5	599.8
230.9	589.8
235.8	579.4
244.8	603.6
228.5	605.0
219.9	608.1
212.3	609.5
178.4	581.2
185.3	578.7
182.2	585.7
190.9	585.0
193.6	578.7
198.5	585.0
219.2	586.7
221.6	581.5
236.8	605.7
235.4	612.6
256.2	611.9
239.6	618.1
232.0	620.9
226.5	620.6
230.9	626.4
219.9	621.6
211.6	622.3
224.0	627.1
216.1	627.5
207.4	629.5
201.2	628.5
203.6	621.9
194.7	622.3
197.8	617.4
203.3	610.5
195.0	610.9
191.5	605.0
188.1	592.2
203.3	591.2
195.3	591.2
193.3	597.7
202.3	597.4
177.0	600.5
171.2	594.6
173.9	606.4
162.5	595.7
155.3	596.7
157.3	590.8
152.5	584.6
146.6	579.1
141.4	574.9
138.3	579.4
144.5	585.7
138.0	587.4
187.7	610.9
188.8	617.4
187.7	624.4
193.6	630.2
247.2	620.9
245.1	611.2
251.0	614.7
256.2	618.5
262.1	616.8
269.3	619.9
275.5	618.5
262.1	623.0
252.7	624.7
257.9	629.5
238.9	624.4
247.2	628.2
239.2	631.6
273.8	625.1
281.8	622.6
288.7	619.2
296.3	617.1
295.2	624.0
287.6	626.1
281.8	630.2
266.9	628.5
295.6	631.3
303.9	628.2
303.5	620.2
310.1	622.6
318.7	617.8
317.7	625.4
311.1	630.2
321.8	630.6
327.0	626.4
323.9	622.6
328.1	617.1
335.7	616.1
332.9	621.6
336.4	627.5
331.2	630.6
341.2	622.3
345.0	616.4
350.2	624.0
357.8	621.9
364.0	627.5
355.7	629.5
372.7	625.7
401.3	628.9
387.9	627.1
380.9	627.8
393.4	630.9
345.0	628.9
149.6	591.5
142.4	594.6
148.2	598.4
153.8	603.6
161.0	602.9
168.3	601.9
125.8	576.0
115.4	574.2
109.9	576.7
104.3	579.4
98.1	577.0
82.9	574.9
88.8	560.8
78.4	565.6
81.5	583.6
90.2	577.7
87.4	583.6
94.0	583.2
99.5	583.9
95.3	593.6
92.6	599.5
89.5	591.2
81.9	591.5
101.9	591.2
101.9	598.8
97.1	602.9
101.2	607.4
107.1	603.3
106.4	612.6
115.0	606.4
114.4	599.5
108.8	594.6
107.1	586.3
118.5	579.1
125.1	584.3
111.2	582.5
117.8	584.6
113.7	590.5
130.3	588.4
132.0	581.5
195.2	554.5
172.4	537.3
172.8	543.1
147.5	606.7
151.3	611.6
160.3	609.8
157.2	617.4
161.4	622.3
135.1	615.7
143.0	614.0
124.0	609.5
125.1	617.4
118.2	619.9
110.9	620.9
116.8	626.4
125.4	625.7
133.4	623.0
141.0	621.9
149.3	619.2
155.1	624.4
147.9	626.4
153.1	630.2
140.6	629.2
132.7	630.6
122.3	632.0
170.7	621.3
180.0	619.9
172.8	614.0
166.9	627.1
160.3	628.2
175.2	626.8
98.5	615.0
93.3	608.8
88.1	603.6
84.6	607.1
81.9	612.6
77.4	605.4
87.4	596.4
81.5	600.5
73.9	597.1
89.5	613.6
103.3	619.9
98.8	626.1
92.9	621.3
85.0	619.5
89.8	627.8
107.8	628.2
127.5	594.6
134.8	594.3
142.4	601.6
120.2	596.4
132.0	609.5
139.2	608.1
120.6	603.6
135.1	602.2
128.5	602.2
114.7	614.0
86.7	488.5
75.6	578.0
83.6	536.6
88.8	507.9
85.3	502.7
78.8	499.6
80.8	508.2
97.1	527.6
92.6	521.0
90.5	526.9
97.8	500.6
91.5	502.7
105.0	476.1
147.5	468.4
121.3	479.4
126.8	477.7
82.2	474.2
87.7	496.0
81.2	494.6
133.4	508.1
127.5	505.0
124.4	535.4
168.3	450.3
173.8	447.2
141.0	404.0
146.8	403.3
255.4	396.4
260.9	398.5
164.8	250.0
307.4	307.1
291.5	312.6
297.1	313.3
301.9	310.6
307.4	311.6
305.7	317.1
300.2	317.1
298.8	321.6
294.0	322.7
349.6	309.2
352.0	312.3
347.2	325.1
342.0	325.1
327.8	308.5
321.6	313.7
324.7	362.4
322.6	357.9
350.0	339.6
345.5	339.6
377.3	347.2
383.1	319.6
376.9	318.9
379.7	300.6
373.8	291.9
370.7	295.4
386.2	280.5
381.7	281.9
368.6	268.1
363.8	267.0
395.9	335.1
339.9	349.6
343.0	346.2
345.8	350.3
347.9	344.4
358.6	336.5
348.2	354.1
345.5	359.0
351.3	360.0
327.1	372.1
332.0	374.2
322.3	384.5
327.1	382.8
323.3	400.8
392.1	399.4
398.3	391.5
395.2	394.6
359.6	367.6
364.1	369.3
414.6	315.8
413.9	320.3
399.4	296.8
398.7	302.6
398.3	307.5
402.5	309.9
406.6	312.3
433.2	307.8
437.0	236.6
441.9	238.3
365.8	166.8
360.0	167.5
388.7	160.9
394.2	162.6
399.7	164.0
283.6	369.3
278.4	371.4
276.3	366.9
285.3	356.2
216.2	331.0
209.6	332.0
201.3	330.3
192.7	330.6
213.8	341.7
380.4	338.9
385.6	338.6
394.2	325.1
388.3	324.1
470.9	391.5
165.0	361.8
169.5	358.4
239.7	424.4
239.7	459.3
248.0	451.7
184.0	459.3
265.3	532.7
269.4	527.8
268.0	522.3
123.5	186.9
130.4	188.0
