     x      y
45.5	121.0
48.0	128.5
51.5	116.0
52.5	123.0
56.0	129.5
60.0	110.5
62.5	123.0
64.5	130.0
66.0	116.0
71.5	124.5
74.5	110.0
74.0	117.5
76.0	130.0
80.7	113.7
80.3	122.3
84.0	130.5
86.5	118.0
89.0	112.0
89.5	124.0
95.0	117.0
96.0	109.5
98.5	125.0
102.0	112.5
103.7	119.7
106.0	126.5
109.0	113.5
111.0	121.0
113.7	127.3
117.0	114.0
119.5	121.0
121.5	108.0
122.0	127.5
124.5	115.0
127.3	122.3
130.0	109.5
130.5	128.5
133.0	116.0
135.5	123.0
138.5	111.0
139.0	128.5
143.7	123.7
146.0	112.0
148.7	118.3
157.0	120.5
159.5	126.5
161.0	107.0
163.0	114.5
167.5	129.0
169.0	109.5
171.0	116.5
173.0	123.5
175.5	130.5
176.7	110.7
180.0	118.0
183.0	126.0
185.0	112.5
187.5	120.0
190.3	106.3
191.5	126.0
193.5	113.0
195.5	120.0
200.0	127.0
208.0	127.0
223.0	120.0
226.0	128.0
227.0	115.0
233.0	129.5
234.5	115.5
236.7	122.7
274.3	130.3
332.0	120.0
332.0	127.0
333.7	112.3
339.5	117.0
339.3	124.3
367.5	129.0
386.5	130.5
394.5	130.0
419.0	120.0
449.0	128.0
458.0	111.5
463.5	125.5
470.0	120.0
472.0	127.5
478.0	121.0
482.3	114.7
486.0	122.5
500.7	121.7
509.0	124.0
521.0	122.5
523.5	130.0
532.0	129.0
536.5	123.0
563.0	124.0
574.5	106.0
574.5	113.0
576.0	121.0
578.0	129.5
592.0	112.3
599.0	115.5
600.5	124.5
605.8	113.0
606.3	119.3
608.5	127.0
612.5	113.5
613.5	121.0
616.7	127.7
621.5	122.0
628.4	119.6
45.7	140.7
45.5	189.5
45.0	226.5
45.0	239.0
46.0	153.5
47.0	178.5
47.5	211.5
48.0	166.5
49.7	146.7
49.5	195.0
49.5	220.5
50.6	159.8
50.0	183.5
50.0	201.0
51.0	135.0
51.0	232.5
52.3	172.3
52.0	240.0
53.0	189.5
53.0	207.0
53.0	214.5
53.3	226.3
54.5	141.0
54.0	153.5
55.5	179.0
58.0	166.3
57.0	220.5
57.5	237.0
58.5	147.0
58.0	159.0
58.7	185.3
58.3	200.3
59.0	193.0
59.3	213.7
59.0	230.0
60.5	207.0
60.5	224.5
61.0	135.5
61.0	173.0
62.0	154.0
63.5	180.0
64.0	142.0
64.7	160.7
64.7	197.3
64.5	240.0
65.3	219.3
65.0	233.5
66.3	167.7
66.0	188.5
66.5	204.0
66.5	211.5
66.0	227.0
67.0	148.0
68.5	175.0
69.7	134.7
69.3	155.3
70.5	194.0
71.7	181.7
71.0	237.0
72.3	142.3
72.0	162.5
72.0	200.0
72.5	223.0
72.5	230.0
73.0	208.0
73.0	215.5
74.5	169.0
74.3	188.7
75.0	149.5
76.5	176.0
76.5	241.0
77.0	235.0
78.0	136.5
78.3	156.3
78.0	196.0
79.0	183.0
79.0	203.5
79.5	211.0
79.0	218.5
79.5	226.0
80.0	163.5
81.7	142.7
82.5	170.5
82.0	189.5
82.0	233.0
82.5	239.0
83.7	150.7
84.5	177.0
85.0	159.0
85.0	195.5
85.0	207.0
85.5	214.5
86.0	201.0
86.5	222.0
87.5	137.5
87.0	184.0
87.0	228.5
88.0	165.0
88.5	235.0
89.5	190.5
90.5	144.0
90.3	171.3
91.7	211.7
92.7	150.7
92.7	178.7
92.8	197.6
92.0	205.0
92.7	218.3
93.0	131.5
93.3	158.3
93.5	225.0
94.3	231.7
95.3	165.3
95.0	185.0
95.7	238.3
96.0	138.5
96.0	191.5
98.5	145.0
98.0	173.0
98.5	201.5
98.5	215.0
99.0	208.0
99.3	221.3
100.3	152.3
100.0	228.0
101.0	132.5
101.0	159.5
101.3	180.7
101.5	235.0
103.0	166.5
103.0	188.5
103.0	195.5
104.0	139.5
105.0	203.5
105.5	211.0
105.0	218.0
106.0	174.0
106.0	224.0
106.5	230.5
107.0	146.0
107.3	154.3
107.5	237.0
108.5	161.0
108.5	179.5
109.0	133.5
109.5	193.0
110.5	168.0
110.0	186.0
110.5	199.5
111.7	213.7
112.0	139.5
112.0	206.5
112.5	220.0
112.3	226.3
112.7	232.7
113.5	174.5
115.3	145.3
115.7	151.7
115.0	162.5
115.7	180.7
116.0	196.0
117.0	133.5
117.0	187.5
118.0	169.5
118.0	202.5
118.5	209.5
118.7	215.7
118.5	235.0
119.0	157.0
119.0	222.5
119.3	228.7
120.5	140.0
121.7	163.7
121.0	175.5
123.0	146.0
123.5	152.0
123.0	181.5
123.5	199.0
124.5	187.0
124.0	205.5
124.5	238.0
125.7	133.7
125.3	193.3
125.0	212.5
125.5	219.0
125.5	225.0
125.0	231.5
126.0	158.0
126.5	170.5
128.0	141.0
128.0	164.5
128.3	177.3
130.0	147.5
130.5	184.0
130.5	239.0
131.5	154.0
131.5	190.0
131.5	196.0
131.3	202.7
131.0	209.0
131.0	234.0
132.5	160.0
132.0	215.0
132.0	221.5
132.0	227.5
133.3	135.3
134.0	167.0
134.5	173.5
135.5	180.0
136.5	142.5
137.3	149.3
137.5	186.0
137.5	193.0
137.3	199.3
137.0	237.0
138.7	156.7
138.0	206.0
138.5	212.0
138.0	218.5
138.5	225.0
138.5	231.0
139.3	163.3
140.5	136.0
140.5	170.0
141.0	241.0
142.0	176.0
143.0	182.0
144.7	140.3
144.3	146.3
144.5	153.0
144.0	189.0
144.0	196.0
144.5	202.0
144.5	208.0
144.7	214.7
144.5	228.0
144.5	235.0
145.3	159.7
145.5	166.0
145.0	221.0
146.0	132.0
147.0	241.5
148.0	171.5
149.0	178.0
150.5	137.0
150.0	185.0
150.5	192.0
150.5	199.0
151.0	143.5
151.5	150.0
151.5	205.0
151.0	218.0
151.0	224.5
151.0	231.0
151.7	237.3
152.0	156.5
152.5	164.5
152.0	211.0
154.0	131.5
155.0	173.5
155.6	181.2
156.5	188.0
157.7	139.7
157.0	195.0
157.3	201.3
157.5	208.0
157.5	214.5
157.3	220.7
157.0	227.5
157.5	234.0
158.0	146.5
158.5	153.0
158.5	160.0
158.0	240.0
159.7	166.7
160.5	178.5
161.5	134.0
162.5	173.0
162.7	184.7
163.0	191.0
163.5	198.0
163.5	204.5
163.0	223.0
163.5	230.0
164.5	141.0
164.0	210.5
164.0	217.0
164.0	236.5
165.5	148.0
165.5	155.0
166.0	161.5
167.0	167.5
169.5	136.0
169.3	179.3
169.0	187.0
169.5	213.5
169.5	220.0
169.0	227.0
169.7	233.3
170.0	194.0
170.5	200.5
170.7	207.3
170.0	239.0
171.7	172.7
172.0	143.5
173.0	150.8
172.5	158.0
173.0	165.5
175.5	138.0
175.0	183.0
175.5	217.0
175.0	224.0
175.0	230.0
176.0	190.0
176.0	236.0
177.0	176.0
177.0	196.5
177.0	203.0
178.3	169.3
178.0	210.0
179.5	147.5
179.5	162.0
180.0	155.0
180.0	227.0
181.5	133.5
181.5	216.0
181.0	232.0
182.0	140.5
182.0	180.5
182.3	221.7
182.0	238.0
183.5	172.5
183.7	187.3
183.0	193.0
183.0	199.5
183.0	205.5
185.5	159.0
185.5	211.0
186.0	151.5
186.0	165.5
186.0	228.0
187.0	145.0
187.3	177.3
187.5	217.0
187.0	234.5
188.0	130.5
188.5	184.0
188.5	202.0
188.0	240.0
189.0	137.5
189.0	223.0
190.0	191.0
191.0	161.0
191.3	171.7
192.0	196.5
191.0	207.5
192.5	212.5
193.0	154.5
193.0	179.5
193.0	229.5
193.0	236.0
194.5	142.0
194.5	148.0
194.0	218.5
195.5	133.5
195.0	165.5
195.0	186.0
195.5	202.0
195.0	224.0
197.0	175.5
197.0	192.0
197.5	208.0
198.0	159.0
199.5	170.0
199.5	181.5
199.3	232.7
199.0	238.0
200.0	139.0
200.0	152.5
200.3	197.3
200.0	214.5
200.3	220.7
200.0	227.0
202.3	164.3
202.5	187.0
203.0	146.0
203.5	176.0
203.5	203.0
205.0	133.5
205.5	158.0
205.0	192.0
205.5	230.0
205.0	237.0
206.7	140.7
206.3	209.3
206.0	217.0
206.3	223.7
207.0	170.0
207.0	181.5
207.5	198.0
208.0	151.5
210.0	163.0
210.5	175.5
210.0	187.0
211.0	203.5
211.0	214.0
211.5	227.0
211.0	233.5
211.5	239.5
212.5	138.0
212.0	145.0
212.5	192.5
212.3	220.3
213.0	131.0
213.5	169.0
214.5	157.0
214.0	180.5
215.5	151.5
215.0	198.0
215.0	209.0
216.7	186.7
217.0	163.5
217.7	174.7
217.5	224.0
217.0	235.0
218.5	141.0
218.5	203.0
218.0	215.0
218.0	241.0
220.7	134.3
220.5	147.0
220.5	169.0
220.7	180.7
220.5	191.5
221.3	155.3
221.5	230.0
222.5	209.0
222.3	219.3
223.0	161.5
223.0	198.0
224.7	185.7
224.0	236.0
225.0	174.0
225.0	225.0
226.0	141.5
226.5	203.0
226.0	214.0
227.5	149.0
227.0	167.5
227.5	191.5
228.0	134.5
228.5	156.0
228.5	180.0
228.3	230.3
229.0	219.5
229.0	239.5
230.5	162.0
230.0	208.0
231.0	197.0
232.0	174.0
232.5	185.5
232.0	225.0
232.5	235.0
233.0	138.0
233.5	145.0
233.5	168.0
233.0	214.0
234.5	152.0
234.0	203.0
235.0	192.0
236.3	158.3
236.5	209.0
236.0	219.5
236.0	230.0
236.0	240.0
237.3	179.3
238.5	165.0
238.0	198.0
239.5	134.5
239.0	172.0
239.0	225.0
239.0	235.0
240.5	141.0
240.7	147.7
240.0	185.5
240.7	203.7
240.0	214.0
242.0	154.5
242.3	192.3
242.5	230.0
243.5	161.0
243.0	219.5
243.0	239.5
244.0	208.5
245.0	167.5
245.5	174.0
245.7	180.7
245.0	198.5
245.7	224.7
246.7	186.7
246.5	214.0
246.0	234.5
247.0	137.0
248.0	150.5
248.0	204.0
249.0	143.5
249.7	157.7
249.0	193.5
249.0	230.0
249.5	239.5
250.0	219.5
252.0	164.0
251.5	199.0
251.0	209.0
252.0	133.5
252.0	170.0
252.5	176.5
252.7	182.7
252.7	224.7
253.5	189.0
253.0	235.0
254.0	214.0
255.5	139.0
255.0	146.5
255.0	153.0
255.5	195.0
255.0	204.0
256.0	219.5
256.0	230.0
256.0	240.0
257.5	159.0
258.0	132.0
258.7	165.7
258.5	172.0
259.0	179.0
259.5	185.0
259.0	209.5
259.5	214.5
259.0	225.0
259.0	235.0
260.5	150.5
260.5	191.0
261.0	144.0
261.5	197.0
262.5	203.5
262.5	220.0
262.5	230.0
262.5	240.0
263.0	137.0
265.0	130.5
265.5	161.5
265.5	168.0
265.5	174.5
265.5	181.0
265.5	215.0
266.0	187.0
266.0	225.0
266.0	235.0
267.5	148.0
267.0	155.0
267.0	193.5
267.5	199.5
267.0	208.5
269.0	141.5
269.0	220.0
269.0	230.5
269.0	240.5
270.0	135.0
270.0	203.0
271.5	184.0
272.5	164.0
272.5	171.0
272.7	177.7
272.0	190.5
272.5	214.0
272.5	235.0
273.0	197.0
273.0	225.0
274.5	145.0
274.0	151.5
274.0	157.5
274.0	208.0
275.5	138.0
275.5	220.0
276.0	202.0
276.0	231.0
276.0	240.0
277.5	187.0
278.3	181.3
278.5	215.5
279.0	174.5
279.3	211.3
279.0	226.0
279.0	235.5
280.5	134.0
280.5	141.0
280.5	148.0
280.5	161.0
280.3	167.3
280.5	193.0
281.0	154.5
281.5	199.0
281.3	205.3
282.5	221.0
282.5	231.0
282.0	241.0
284.0	187.0
285.0	180.5
285.0	215.0
285.5	236.0
286.3	168.7
286.5	209.0
286.0	226.0
287.6	130.2
287.0	137.0
287.3	144.3
287.5	150.5
287.7	157.7
287.0	163.5
287.0	175.0
287.0	196.5
287.5	203.0
289.5	191.0
289.5	220.0
289.5	231.0
289.0	241.0
291.7	141.7
291.5	179.0
291.0	184.5
291.5	214.0
292.7	200.3
292.0	207.0
292.0	236.0
293.0	173.5
293.0	225.0
294.0	134.5
294.5	147.0
294.5	154.0
294.0	161.0
294.0	167.0
294.5	194.5
296.0	188.0
296.0	218.5
296.0	231.0
297.5	181.0
297.0	211.0
298.0	140.0
298.0	204.5
299.3	198.7
299.5	226.0
299.0	236.5
300.7	158.3
300.0	165.0
300.0	173.5
301.3	132.3
301.0	152.0
301.3	192.3
302.7	145.7
302.5	186.0
302.0	215.0
302.5	221.0
302.5	231.5
302.5	241.5
303.0	209.0
304.7	138.7
304.3	179.7
305.5	169.0
305.0	203.0
306.5	175.0
306.5	197.0
306.0	226.5
306.0	237.0
307.0	162.0
307.0	218.0
308.7	149.7
308.0	155.5
308.0	191.0
309.3	184.7
309.0	212.5
309.0	231.5
310.7	135.3
310.0	143.0
310.0	206.5
310.0	222.0
311.5	179.0
311.5	201.0
312.5	227.0
312.5	237.0
313.5	166.0
313.0	172.5
313.0	195.0
313.0	216.5
314.7	159.7
315.0	153.0
315.3	189.7
315.0	211.0
315.5	232.5
316.0	147.0
316.7	183.7
316.5	205.0
316.0	222.0
317.5	132.0
317.5	139.5
318.0	199.5
318.5	216.0
318.5	227.0
319.7	170.3
319.0	177.5
319.0	237.0
320.0	193.5
321.5	157.0
321.0	163.5
321.0	210.0
322.3	150.3
322.0	187.5
322.0	221.5
322.0	232.0
323.5	143.5
323.3	204.3
324.0	136.5
324.0	181.5
325.5	175.0
325.0	198.5
325.0	215.5
325.0	227.0
326.0	237.0
327.5	161.0
327.5	168.0
327.0	192.5
327.5	210.0
328.3	154.3
328.5	221.0
329.5	147.0
329.0	186.0
329.0	232.0
330.5	141.0
330.5	204.0
331.0	134.0
331.0	180.0
331.5	197.0
331.5	215.0
332.0	226.5
332.5	237.0
333.0	173.5
333.5	191.0
334.5	158.0
334.0	165.0
334.5	209.0
335.3	151.3
335.0	220.5
335.0	232.0
336.7	144.7
336.0	184.5
336.0	201.0
337.5	138.0
338.5	131.5
338.0	179.0
338.5	195.5
338.5	205.0
338.0	214.5
338.3	226.7
338.0	237.0
339.5	168.0
340.7	161.7
340.5	174.0
341.5	155.0
341.0	190.0
341.5	209.5
341.0	220.0
341.0	233.0
342.5	148.5
343.0	184.0
343.0	200.0
343.5	224.0
343.7	238.7
344.5	142.0
344.0	214.5
345.0	135.5
345.0	178.0
345.5	229.0
346.5	166.0
346.5	172.0
346.5	194.5
346.0	205.0
347.0	159.0
347.5	220.0
348.5	153.0
348.0	189.0
348.5	210.5
348.3	234.3
350.0	146.0
350.5	183.0
350.5	200.0
350.0	225.5
350.0	240.0
351.5	140.0
351.7	176.3
352.0	133.0
352.7	169.7
352.0	206.0
352.0	215.5
353.0	163.5
353.5	194.0
353.5	222.0
353.7	229.7
354.0	156.5
354.5	236.0
355.5	187.0
356.0	150.0
356.0	211.0
356.0	241.0
357.3	143.7
357.5	181.0
357.0	204.0
357.7	218.3
358.5	138.0
358.0	174.0
358.3	198.3
359.0	161.5
359.0	225.0
360.7	131.7
360.3	167.3
360.0	192.0
360.0	231.0
361.0	155.0
361.5	208.5
361.0	237.0
362.0	214.0
363.7	178.7
363.0	185.0
363.5	203.0
363.5	221.0
364.0	149.0
365.5	161.0
365.0	172.0
365.0	197.5
365.0	227.0
366.5	142.0
366.0	233.0
367.5	136.0
367.0	192.0
367.5	217.0
368.5	154.5
368.5	167.0
368.0	238.5
369.5	181.5
369.5	223.0
370.7	201.7
371.3	147.7
371.3	173.3
371.0	188.0
371.0	229.0
372.0	212.5
373.3	160.3
373.0	196.0
373.0	234.5
374.5	132.5
374.7	140.3
374.7	178.3
374.0	218.0
374.3	240.3
375.0	207.0
376.0	154.0
376.0	167.0
376.0	185.0
376.0	224.0
377.7	191.3
378.0	202.0
378.0	213.0
378.0	230.0
379.0	147.0
379.0	173.5
380.7	135.3
380.5	180.0
380.0	219.0
380.0	236.0
381.0	161.0
381.5	197.5
381.0	208.5
382.0	186.0
382.0	225.0
383.5	141.0
383.0	153.5
383.5	168.0
384.5	192.0
384.5	214.0
384.0	231.5
385.0	175.5
385.0	203.0
386.0	238.0
387.0	181.5
387.0	220.5
388.0	147.5
388.0	158.5
388.3	187.7
388.5	198.0
388.5	209.0
388.5	227.0
389.0	136.5
389.5	164.5
390.5	171.0
390.0	233.5
391.7	192.7
392.5	142.0
392.7	153.3
392.0	177.5
392.5	203.0
392.0	215.0
392.7	238.7
393.7	185.3
393.5	222.0
395.5	160.0
395.0	228.5
396.7	136.7
396.0	197.5
396.0	208.5
396.7	234.3
397.0	148.0
397.3	166.7
397.7	173.7
398.5	180.0
398.5	192.0
398.3	219.3
399.0	214.0
399.7	239.7
400.0	155.0
400.0	186.0
400.5	203.0
400.5	225.0
401.0	142.5
401.0	230.5
402.3	132.3
403.0	162.0
403.5	197.0
403.5	209.5
404.3	148.3
404.0	169.0
404.5	177.0
404.5	235.0
405.3	183.7
405.5	190.0
405.0	216.5
406.0	137.0
406.0	223.0
407.0	154.5
407.5	229.0
407.0	240.5
408.5	206.5
409.0	143.0
409.0	200.5
410.5	167.0
410.5	173.5
410.5	194.0
410.3	212.3
411.0	132.0
411.5	149.0
411.0	160.5
411.0	181.0
411.7	187.7
411.0	235.0
412.5	218.0
412.7	224.3
414.0	137.5
414.0	154.5
414.5	211.0
414.0	231.0
414.3	240.3
415.0	204.0
416.7	143.7
416.5	198.0
417.5	164.5
417.0	171.5
417.0	178.0
417.5	191.5
418.7	132.3
418.7	158.3
418.0	185.0
418.5	221.0
418.0	227.0
418.0	236.0
419.7	151.3
419.5	215.0
420.5	208.5
421.0	241.0
422.8	138.0
422.0	202.0
422.0	232.0
423.5	169.0
423.0	175.5
423.5	196.0
424.5	145.0
424.7	155.3
424.0	188.5
424.0	225.5
425.5	162.5
425.0	219.0
426.5	132.0
426.0	181.5
426.5	213.0
426.0	236.5
427.5	207.0
428.5	231.0
429.0	150.0
429.3	174.7
429.0	200.5
430.0	139.0
430.5	168.0
430.3	193.7
430.3	224.7
431.3	156.3
431.3	186.7
432.7	211.3
432.0	218.0
433.0	145.5
433.0	162.5
433.5	180.0
433.3	236.7
435.2	132.4
434.7	205.3
435.5	230.0
436.0	151.5
436.0	174.0
436.0	198.5
437.7	139.7
437.5	167.0
437.5	192.0
437.0	223.0
438.0	159.0
438.0	185.5
438.7	216.3
439.5	241.0
440.7	209.7
440.7	234.7
441.3	146.3
441.0	178.5
441.5	203.0
442.7	152.3
442.0	171.5
442.5	228.0
443.5	133.5
443.3	164.7
443.3	196.7
444.3	190.3
444.5	221.0
445.5	141.0
445.5	159.0
446.3	183.3
446.0	214.5
446.0	239.0
447.5	208.0
447.5	232.5
448.7	148.3
448.0	176.5
449.0	170.0
449.7	201.3
449.5	226.0
450.5	163.0
450.5	195.0
451.7	135.7
451.0	155.5
451.0	219.5
452.5	181.0
452.0	188.0
453.0	212.5
453.0	237.0
454.5	174.0
454.5	230.5
455.0	143.5
455.0	206.0
456.0	167.0
456.5	199.0
456.0	224.0
457.5	130.5
457.0	151.5
457.3	159.3
458.5	185.5
458.0	192.5
458.0	217.5
459.3	178.3
459.5	235.0
460.0	138.5
460.0	210.0
461.0	228.5
462.5	145.0
462.7	164.7
462.5	171.5
462.0	204.0
463.0	157.5
463.0	222.0
464.3	151.7
464.3	182.3
464.0	197.0
464.0	215.0
465.5	190.0
465.5	233.5
465.0	240.0
466.0	133.0
468.5	140.5
468.0	176.5
468.0	209.0
468.3	227.7
469.3	155.7
469.5	162.5
469.0	169.0
469.0	202.0
470.0	183.5
470.0	216.5
471.0	147.5
471.0	195.5
471.7	233.7
472.5	239.0
473.0	223.0
474.3	135.3
474.3	173.7
474.5	188.0
474.5	206.0
474.0	212.0
475.7	152.7
475.5	180.5
475.5	229.0
476.0	159.5
476.5	166.5
476.0	200.0
477.0	142.5
477.7	193.7
477.0	217.5
478.5	236.0
480.0	148.5
480.0	211.0
480.0	223.5
481.5	204.0
482.5	136.5
482.3	155.7
482.0	170.0
482.0	177.5
482.3	184.3
482.7	197.7
482.5	230.0
483.0	162.5
483.5	191.0
483.5	217.5
485.7	144.3
486.7	207.7
486.5	224.5
486.5	236.0
488.5	131.5
488.0	152.0
488.0	174.0
488.0	200.5
488.0	213.0
489.0	159.0
489.0	166.5
489.5	181.0
489.0	187.5
489.5	194.0
490.0	230.5
491.3	218.3
491.0	241.5
492.0	139.0
493.5	147.0
493.3	224.3
494.0	204.0
494.0	211.0
494.0	236.0
495.5	162.0
495.0	197.0
496.5	154.0
496.0	170.0
496.0	177.0
496.0	184.0
496.3	190.3
497.7	134.3
497.7	228.7
498.5	222.0
498.5	241.0
499.5	215.0
499.5	235.0
500.0	140.5
500.0	207.5
501.5	148.0
501.5	166.5
501.0	201.0
502.5	159.5
502.5	194.0
503.0	173.0
503.0	180.0
503.0	187.0
505.3	136.7
505.5	219.5
505.5	226.0
505.0	232.0
505.0	239.0
506.5	152.5
506.0	212.0
507.5	143.5
507.0	205.0
508.0	165.0
508.0	198.0
509.0	176.5
509.0	184.0
509.0	191.0
511.0	132.5
511.0	158.0
511.7	223.7
511.5	231.0
511.5	237.0
512.0	216.0
513.7	139.3
513.5	170.0
513.5	202.0
513.0	209.0
514.5	188.5
515.5	195.0
516.0	163.0
516.0	183.0
517.5	134.0
517.5	176.0
517.0	241.0
518.5	155.0
518.0	213.5
518.5	220.5
518.0	227.5
518.5	234.0
519.0	206.5
520.7	168.7
520.5	188.0
520.7	199.7
521.0	140.0
523.7	148.3
523.0	161.5
523.5	182.0
524.0	193.5
524.5	212.0
524.5	225.0
524.0	238.0
525.0	203.5
525.5	218.0
525.7	231.3
526.3	175.7
527.3	155.3
528.0	135.5
528.0	167.5
528.0	188.0
529.8	142.0
529.3	199.7
530.5	207.5
530.7	235.7
531.5	181.5
531.7	193.7
531.0	215.0
531.3	221.3
531.5	229.0
532.0	149.0
532.5	162.0
534.0	205.0
534.0	174.5
535.0	136.0
536.0	156.0
535.3	187.7
535.7	212.3
537.0	168.5
537.0	198.5
537.7	225.7
537.0	239.0
538.0	142.5
538.5	182.0
538.3	218.0
538.0	232.0
540.5	193.5
541.0	149.5
541.0	163.0
541.0	175.0
541.0	205.5
542.7	136.3
543.0	188.0
543.0	236.0
544.5	156.5
544.3	213.3
544.0	229.0
545.0	169.0
545.7	181.3
545.0	200.0
545.0	221.0
546.0	142.5
547.3	130.7
548.5	163.0
548.0	193.5
548.0	206.5
548.5	240.5
549.0	149.5
549.7	175.3
549.5	226.0
550.5	136.0
550.0	188.0
550.7	214.3
550.3	233.3
552.5	157.0
552.0	200.5
553.3	143.3
553.5	182.5
553.0	220.5
554.0	170.0
554.0	194.0
555.0	207.5
555.0	239.0
556.3	162.7
556.0	227.5
557.0	150.5
557.5	176.0
557.7	188.3
557.0	215.0
558.3	136.7
558.0	233.0
559.0	203.0
560.0	221.0
561.5	144.0
561.0	157.5
562.2	170.4
561.0	196.5
561.5	237.0
562.0	182.5
562.0	208.5
563.3	227.3
564.7	131.3
565.0	150.5
565.7	163.3
565.7	202.7
565.0	215.0
566.0	177.0
566.0	190.0
567.0	221.5
567.0	233.0
568.5	240.0
569.5	157.0
569.5	196.0
569.0	209.5
570.5	143.0
570.7	170.7
570.5	228.0
571.7	133.7
571.0	183.5
572.0	216.0
573.5	150.5
573.0	202.5
574.5	164.0
574.0	190.0
574.5	223.0
574.0	234.5
575.0	177.5
576.0	210.0
577.0	196.5
578.0	145.0
578.0	157.0
578.5	170.5
578.7	184.7
578.0	229.5
579.0	216.5
580.0	204.0
581.2	238.4
581.3	222.7
582.0	151.0
582.3	163.7
582.0	192.0
583.5	178.0
584.7	143.3
584.0	210.5
584.7	230.7
585.0	198.5
586.0	156.0
586.7	169.7
586.5	186.0
586.5	217.0
587.5	205.0
589.7	149.3
589.0	223.5
590.7	175.3
590.0	193.5
590.0	236.5
591.0	162.5
592.0	139.5
592.0	182.5
592.5	200.5
592.0	211.5
592.0	230.0
595.7	133.3
595.3	188.3
595.5	241.0
596.5	147.0
597.5	194.5
597.0	227.0
597.0	234.0
598.0	175.0
599.3	163.3
600.0	207.5
600.3	182.7
600.5	200.5
600.5	215.0
602.0	222.0
602.5	237.5
603.0	157.0
603.0	169.5
603.5	190.0
603.0	229.5
604.0	133.0
604.0	148.5
605.0	177.0
606.0	196.5
607.0	163.0
608.0	140.5
608.5	184.0
608.0	204.0
608.5	211.0
608.3	218.3
608.5	233.0
609.0	154.5
609.5	226.0
609.0	241.0
610.0	170.5
611.5	147.5
611.0	191.0
613.0	134.5
613.5	160.0
613.0	178.0
613.5	199.0
614.3	207.3
614.5	222.0
615.0	166.0
615.0	215.0
615.0	229.0
615.0	236.5
616.5	141.0
616.0	153.0
616.0	185.5
619.5	160.0
619.0	173.0
620.0	147.5
620.0	193.0
621.0	133.5
621.0	180.5
621.0	211.5
621.0	219.0
621.5	226.0
621.7	239.7
622.5	200.0
622.0	232.5
623.7	154.3
623.7	167.3
624.5	141.0
625.5	187.0
627.5	161.0
627.5	174.0
627.3	206.7
627.0	221.5
628.0	148.0
628.5	194.0
44.5	285.0
45.5	279.0
46.0	245.0
46.5	272.0
47.3	251.7
47.0	310.0
47.0	316.5
47.5	323.0
47.3	343.7
48.5	258.0
48.0	265.0
48.0	330.5
48.0	337.0
49.3	295.3
49.5	301.5
50.0	288.0
50.0	350.0
51.5	282.0
52.0	247.0
52.5	276.0
52.7	339.3
53.0	269.0
53.0	320.0
53.5	327.0
54.5	254.0
54.0	306.5
54.0	313.0
55.0	262.0
55.5	299.0
55.5	333.5
55.0	345.0
56.0	292.0
57.0	286.0
58.0	243.0
58.5	249.0
58.3	279.3
58.5	322.0
58.5	351.0
59.0	272.5
59.0	339.0
60.0	266.0
60.0	309.5
60.5	316.0
60.3	328.3
61.0	259.0
61.7	296.3
61.0	303.0
62.0	290.0
62.5	346.0
63.0	253.0
63.0	334.0
64.0	246.5
64.0	283.0
65.7	269.7
65.0	276.5
65.0	322.5
66.0	312.0
66.0	339.5
66.0	352.5
67.0	263.0
67.0	294.0
67.0	300.5
67.3	306.3
67.7	328.7
68.3	256.7
69.0	287.5
69.0	317.5
69.0	344.5
70.5	243.5
70.0	250.0
70.5	334.5
71.0	273.5
71.0	281.0
71.5	350.0
72.5	298.0
72.0	311.0
72.0	323.0
73.0	266.5
73.5	340.0
74.0	260.0
74.0	292.0
74.5	329.0
75.0	254.0
75.7	285.7
75.0	304.0
75.7	345.3
76.0	247.5
76.5	276.5
76.0	317.5
77.5	335.0
78.7	263.7
78.0	270.5
78.3	297.3
78.3	323.7
78.0	351.5
79.0	311.5
80.0	290.5
80.0	341.0
81.0	257.5
81.0	279.5
81.5	306.0
81.0	329.5
82.5	244.5
82.0	251.0
82.0	319.0
82.0	347.0
83.0	285.0
83.0	301.0
84.0	267.5
84.5	315.0
84.0	335.5
84.0	352.5
85.0	275.0
85.0	294.5
85.5	325.0
86.5	310.0
86.0	342.0
87.0	255.0
87.0	262.0
87.0	288.0
88.0	248.0
88.0	280.5
88.5	304.0
88.5	330.5
88.5	348.0
89.0	241.5
89.0	320.0
90.0	269.0
90.7	298.3
90.5	336.5
91.5	314.0
92.5	258.0
92.0	275.0
92.0	292.0
93.5	264.0
93.0	286.0
93.0	308.0
93.0	325.5
93.0	343.0
94.0	251.5
95.5	280.0
95.5	302.5
95.5	319.0
95.7	331.7
95.0	349.5
96.5	245.0
97.0	270.0
97.0	296.0
97.5	312.5
97.0	338.0
98.5	260.0
98.5	290.0
99.0	284.0
99.5	322.5
99.0	344.5
100.5	254.0
100.0	275.0
100.3	306.7
100.3	327.3
101.0	265.0
101.0	351.0
102.5	248.0
102.3	300.7
102.0	317.0
103.3	241.7
103.0	280.5
103.5	294.0
103.0	333.0
103.3	339.3
104.0	270.0
104.3	310.7
104.5	346.0
105.0	258.5
105.0	287.0
105.0	322.5
107.0	276.0
108.0	252.0
108.0	265.0
108.0	299.0
108.5	305.0
108.0	316.5
108.0	352.5
109.3	281.3
109.7	291.7
109.0	328.0
109.3	334.3
109.3	340.7
110.5	270.5
110.7	310.7
110.0	346.5
111.5	258.5
111.5	321.5
113.0	276.0
113.0	286.5
113.0	296.0
114.0	265.0
114.5	302.0
114.0	315.0
114.5	350.0
115.0	253.5
115.0	331.0
115.0	337.5
115.0	343.0
116.0	281.0
116.5	291.0
116.0	308.0
116.0	325.5
117.0	270.5
117.7	319.3
118.0	249.0
118.0	259.0
119.0	297.0
120.0	276.0
120.0	286.0
120.0	313.0
120.7	334.3
120.5	347.0
121.3	244.7
121.5	265.0
121.0	303.0
121.5	328.0
121.0	341.0
122.5	254.0
122.7	291.7
122.5	323.0
123.0	281.0
123.5	308.0
123.3	317.7
124.0	271.0
125.0	260.0
125.5	297.5
125.3	350.7
126.5	249.0
126.5	338.5
126.0	344.5
127.5	244.0
127.0	277.0
127.0	286.5
127.0	313.0
127.0	332.0
128.0	266.0
128.0	303.0
128.0	325.5
129.7	254.7
129.0	292.0
129.5	319.5
130.0	282.0
131.0	271.0
131.0	308.5
131.5	342.0
131.5	348.5
132.0	261.0
132.0	297.5
132.0	336.0
133.0	276.5
133.0	287.0
133.7	313.7
133.0	330.0
134.0	323.0
135.0	244.0
135.0	250.0
135.0	266.0
135.0	303.5
135.7	318.3
136.5	255.5
136.5	282.0
136.0	292.5
136.5	346.0
136.0	352.0
137.5	272.0
137.7	308.7
137.7	333.3
137.0	340.0
139.0	261.5
139.0	298.0
139.0	327.0
140.0	277.0
140.0	287.5
140.5	314.5
140.5	321.0
141.0	246.0
141.5	252.0
141.5	267.0
141.5	349.5
142.0	303.0
142.3	343.7
143.0	258.0
143.5	282.0
143.0	292.5
143.7	331.3
143.0	337.5
144.0	272.5
144.5	308.5
145.5	262.0
145.7	297.7
146.5	287.5
146.0	312.5
146.0	318.0
146.0	324.5
147.0	248.0
147.0	277.5
147.5	347.0
148.0	254.5
148.0	267.5
148.0	341.5
149.0	303.0
149.0	330.0
149.0	336.0
150.5	272.5
150.0	283.0
150.0	293.0
151.0	262.0
151.0	308.5
152.0	315.0
152.0	321.0
152.5	351.0
153.0	244.0
153.5	250.0
153.0	277.5
153.5	288.5
153.5	298.0
153.3	326.7
153.5	345.0
154.0	256.5
154.0	267.0
154.0	332.5
154.0	339.0
155.7	303.7
156.5	283.0
157.0	261.5
157.0	272.5
157.0	293.5
157.0	310.5
157.5	317.0
158.0	323.0
159.0	246.0
159.5	252.0
159.5	277.5
159.0	329.0
159.0	335.5
159.3	341.7
159.0	347.5
160.3	257.7
160.0	288.0
161.0	266.0
161.0	299.0
161.5	306.0
163.0	272.0
163.0	282.0
163.0	313.0
163.0	319.0
164.0	293.0
164.0	326.0
164.0	333.0
164.5	338.5
164.7	344.7
164.5	352.0
165.0	242.5
165.0	248.5
165.0	261.0
166.0	255.0
166.0	277.0
166.3	287.3
167.5	267.0
167.0	302.5
167.5	309.0
168.3	296.7
168.3	321.3
168.0	330.0
169.5	281.0
169.0	315.5
169.0	347.0
170.0	273.0
170.0	335.5
171.0	245.0
171.0	291.0
171.0	325.0
171.0	341.5
172.0	251.0
172.0	257.0
172.0	263.0
172.3	275.7
172.0	352.0
173.5	285.0
173.0	305.5
173.5	311.0
174.0	269.0
174.0	300.0
174.0	320.5
174.0	331.0
175.5	295.0
175.0	347.0
176.5	242.0
176.0	279.5
176.0	316.0
176.0	336.5
177.5	248.0
177.5	265.0
177.3	289.7
177.7	325.3
178.0	253.5
178.3	259.3
178.0	274.0
178.7	308.7
178.5	342.0
178.0	352.5
180.0	284.0
180.0	304.0
180.5	320.0
180.0	331.5
181.0	269.0
181.5	293.5
181.0	298.5
181.5	313.5
182.0	278.5
182.5	337.0
182.0	347.5
183.0	244.5
183.7	325.7
184.0	250.0
184.0	263.0
184.0	288.0
185.3	256.3
185.0	273.0
185.7	282.3
185.0	309.0
185.5	343.0
186.0	303.0
186.5	331.0
187.3	291.3
187.0	297.5
187.0	315.5
187.0	321.0
189.0	267.5
188.3	277.3
188.0	348.0
189.0	246.5
189.0	261.5
189.0	337.5
190.5	285.0
190.0	325.5
191.0	252.0
191.0	306.0
192.0	273.5
192.5	295.0
192.0	300.5
192.0	313.0
192.7	331.7
192.0	343.0
193.3	257.3
193.5	289.5
193.0	320.0
194.0	242.0
194.5	263.0
194.0	279.5
194.3	348.3
195.5	248.0
195.0	338.0
196.0	269.5
196.0	326.0
197.5	253.5
197.0	285.0
197.0	303.0
197.0	309.0
197.0	315.5
198.0	275.0
198.3	291.3
198.0	297.5
198.5	333.0
198.0	343.5
199.0	259.5
199.0	321.5
200.5	243.5
200.5	265.0
200.5	348.5
201.0	280.5
201.5	338.5
202.0	248.5
202.0	270.0
202.0	327.5
203.5	254.0
203.0	287.0
203.5	300.0
203.0	305.5
203.0	311.0
204.0	276.0
204.0	293.0
204.0	317.0
204.5	333.0
204.3	344.7
204.3	352.3
205.0	323.0
206.0	259.5
207.0	243.5
207.0	265.5
207.0	282.5
207.0	339.0
208.5	250.0
208.0	271.5
208.7	301.7
208.5	307.0
208.5	313.0
208.0	329.0
209.0	288.5
209.0	295.5
209.5	319.0
210.0	255.0
210.5	277.0
210.0	334.0
210.0	344.0
210.5	349.0
211.0	324.5
212.0	261.0
213.0	245.5
213.0	267.0
213.0	282.5
213.5	329.5
213.0	339.0
214.5	251.0
214.0	293.0
214.0	298.5
214.0	304.0
214.0	309.5
215.0	273.0
215.0	315.5
215.0	321.0
215.0	344.0
216.0	257.0
216.3	287.3
216.5	334.0
217.5	263.0
217.0	278.0
217.5	325.0
217.5	349.0
219.0	247.0
219.0	268.5
219.5	296.0
219.5	307.0
219.5	329.5
219.0	339.0
220.0	253.0
220.0	283.0
220.0	301.5
220.0	313.0
220.5	319.5
221.5	274.0
221.0	344.5
222.0	258.5
222.7	334.3
223.5	264.5
223.5	279.0
223.0	288.0
223.0	324.5
224.0	243.0
224.0	349.0
225.0	249.0
225.5	270.0
225.0	293.5
225.0	304.5
225.0	315.0
225.0	339.5
226.5	254.0
226.0	299.5
226.0	310.0
226.3	329.7
227.0	284.0
227.0	320.0
227.5	345.0
228.0	260.0
228.0	275.0
228.5	335.0
229.0	289.0
230.0	245.0
230.0	265.5
230.5	280.0
230.5	304.5
230.5	314.5
230.0	325.0
230.3	339.7
231.0	250.5
231.0	294.5
232.5	256.0
232.0	271.0
232.5	285.0
233.0	299.5
233.5	310.0
233.0	320.0
233.0	329.5
233.0	345.0
234.5	261.5
234.0	276.0
234.0	335.0
235.0	290.0
236.0	247.0
236.5	305.0
236.5	315.0
236.0	325.0
236.0	340.0
236.0	350.0
237.0	266.5
237.0	281.0
237.0	295.0
238.0	252.0
238.0	272.0
239.0	257.5
239.0	286.0
239.5	301.0
239.5	310.0
239.0	330.0
239.0	344.5
240.5	277.0
240.0	320.0
240.0	335.0
241.0	244.0
241.5	262.0
241.5	291.0
242.3	249.3
242.5	268.0
242.5	315.0
242.7	325.3
242.5	349.0
243.0	282.0
243.5	297.0
243.0	305.0
243.0	340.0
244.0	255.0
244.5	273.0
245.0	287.0
245.5	300.5
245.5	310.0
245.5	320.5
246.5	244.0
246.0	344.5
247.0	264.5
247.0	278.5
247.5	293.0
248.5	305.0
248.5	337.5
248.5	348.5
249.0	249.5
249.0	259.5
249.0	269.0
249.0	283.5
249.0	315.0
249.0	326.0
250.5	299.0
251.0	274.0
251.7	288.7
251.5	320.5
251.0	343.0
252.5	244.0
252.0	254.0
252.5	264.5
252.0	310.0
252.3	331.3
253.0	279.0
254.0	294.0
254.0	304.0
254.7	314.7
254.0	338.0
254.0	348.0
255.0	249.5
255.3	269.3
255.7	283.7
255.0	325.0
256.0	259.0
257.5	274.5
257.0	299.0
257.7	309.3
257.5	319.5
257.0	343.0
258.5	245.0
258.7	254.3
258.5	264.5
258.0	289.0
258.5	329.0
258.0	333.5
258.0	352.5
259.5	279.0
260.5	294.0
260.5	304.0
260.5	314.0
260.5	338.5
260.5	348.0
261.0	270.0
261.0	323.5
262.0	250.0
262.0	259.5
262.0	284.0
262.5	333.0
263.5	274.5
263.5	299.0
263.5	309.0
263.0	344.0
263.7	351.7
264.5	265.0
264.0	289.0
264.0	319.0
265.5	245.0
265.0	255.0
265.0	328.0
266.0	279.5
266.5	303.5
267.0	269.5
267.0	294.0
267.0	314.0
267.5	323.0
267.0	338.5
267.5	348.5
268.0	260.0
268.3	284.3
268.5	333.0
268.5	343.5
269.0	250.0
269.7	274.7
269.5	298.5
269.5	309.0
270.5	289.0
270.0	318.0
271.5	255.0
271.0	265.0
272.3	245.3
272.0	279.5
272.5	303.5
273.0	270.0
273.0	293.5
273.3	313.3
273.5	336.0
273.5	341.5
273.0	347.0
274.0	260.0
274.5	284.5
274.0	323.5
274.0	330.0
275.0	250.5
275.5	298.5
276.0	275.0
276.0	308.5
276.7	318.3
277.0	265.0
277.0	289.0
277.5	350.5
278.5	246.0
278.0	255.5
278.5	279.5
278.5	303.5
278.3	327.3
278.5	339.0
278.0	345.5
279.5	270.0
279.0	293.5
279.0	322.5
279.0	333.5
280.0	313.5
281.0	260.5
281.0	284.0
281.5	298.5
282.0	251.0
282.0	275.0
282.0	308.0
283.3	265.3
283.7	318.3
283.5	336.5
283.0	342.0
283.0	348.0
284.5	255.5
284.0	289.0
284.0	324.5
284.0	330.5
285.0	246.0
285.0	280.0
285.0	294.0
285.0	303.0
286.0	271.0
286.0	312.0
287.0	260.0
287.5	298.0
288.5	251.0
288.0	284.5
288.0	339.5
288.0	345.5
288.0	351.0
289.5	265.0
289.5	275.0
289.0	306.5
289.5	316.0
289.0	322.0
289.0	327.5
289.0	333.0
290.5	290.0
291.7	246.7
291.0	256.0
291.5	301.5
292.0	280.0
292.5	311.0
293.0	336.5
293.5	343.0
293.5	349.0
294.0	261.0
294.5	271.0
294.5	286.0
294.5	319.0
294.7	324.7
294.0	331.0
295.0	252.0
295.0	305.5
296.0	241.5
296.7	266.3
296.0	276.0
296.5	291.0
296.5	314.0
298.5	257.0
298.0	281.5
298.0	300.5
298.0	334.5
298.3	339.7
298.0	346.0
299.0	247.0
299.0	309.5
299.3	318.3
299.0	328.5
299.0	352.0
300.7	262.3
300.0	271.0
300.5	286.0
301.0	295.5
301.5	323.0
301.5	342.0
302.0	252.0
302.5	276.0
302.5	290.5
302.0	304.5
302.5	314.0
302.8	332.6
303.3	266.3
303.5	347.5
304.7	257.3
304.5	281.5
304.0	337.5
305.5	247.0
305.0	299.5
305.0	309.0
305.3	318.3
305.0	328.0
306.5	271.5
307.0	262.0
307.0	287.5
307.0	293.5
307.0	342.0
307.0	352.0
308.0	252.5
308.0	304.0
308.5	314.0
308.0	323.0
308.0	333.0
309.0	242.0
309.0	277.0
310.7	256.7
310.0	267.0
310.0	282.5
310.5	299.0
310.0	338.0
310.0	347.0
311.0	309.0
311.0	318.0
311.0	329.0
312.0	247.0
312.0	291.5
313.5	261.5
313.0	271.5
313.5	287.0
313.5	295.0
313.0	343.0
313.5	351.0
314.7	281.3
314.0	304.0
314.0	313.5
314.0	323.5
314.0	334.0
315.5	242.0
315.0	252.0
315.0	347.0
316.0	276.0
316.0	339.0
317.0	266.5
317.0	291.0
317.0	299.5
317.0	309.0
317.0	318.5
317.0	329.0
318.5	247.0
318.0	256.5
319.5	271.5
319.0	286.0
319.0	344.0
319.0	350.0
320.5	262.0
320.3	280.3
320.0	304.0
320.0	314.0
320.3	323.3
320.0	334.0
321.0	294.5
321.5	339.5
322.5	242.0
322.0	252.0
322.0	276.0
323.5	267.0
323.5	299.0
323.0	309.0
323.0	318.5
323.3	328.3
324.5	257.0
324.0	284.0
324.0	289.5
324.0	345.0
325.5	247.0
325.0	351.0
326.0	272.5
326.0	304.0
326.0	314.0
326.0	324.0
326.0	334.0
327.5	262.5
327.0	279.0
327.0	294.5
327.0	339.0
328.0	252.0
328.5	328.0
329.0	242.0
329.5	285.0
329.5	300.0
329.0	309.0
329.0	319.0
329.0	347.0
330.0	268.5
330.7	290.3
330.7	342.7
331.0	257.5
331.3	274.3
331.3	314.3
331.5	333.0
331.0	351.5
332.5	247.0
332.5	305.0
332.0	324.0
332.5	337.0
333.0	280.0
333.0	295.5
334.0	264.0
334.7	309.7
334.5	319.0
334.0	347.0
335.0	252.0
335.0	285.5
335.0	328.0
335.5	341.0
336.0	270.0
336.0	301.0
336.7	314.3
337.0	258.0
337.5	276.0
337.5	291.0
337.0	334.0
337.5	350.5
338.7	247.3
338.3	305.8
338.5	323.0
339.0	281.5
339.5	296.5
339.5	345.0
340.0	262.0
340.0	266.5
340.7	311.3
340.5	328.5
340.5	339.0
341.8	252.4
341.5	287.0
341.5	302.0
341.0	317.5
341.5	351.5
342.0	272.0
343.5	292.0
343.0	334.0
344.0	257.5
344.0	277.5
344.0	307.5
344.0	323.0
344.5	347.5
345.5	263.0
345.0	298.0
345.0	342.0
346.5	268.0
346.0	283.0
346.0	313.5
346.0	328.5
347.5	303.0
347.0	319.0
348.5	253.0
348.0	273.5
348.0	288.0
348.0	351.0
349.5	259.0
349.5	293.5
349.5	309.0
349.0	334.0
350.5	245.0
350.0	279.0
350.0	324.0
350.0	346.0
351.5	264.0
351.0	299.0
351.3	314.3
351.5	340.0
352.5	269.5
352.0	284.5
352.7	249.7
353.5	304.0
353.0	329.0
353.0	350.5
354.5	255.0
354.5	275.0
354.0	289.5
354.0	320.0
355.3	294.3
355.7	309.7
355.0	335.0
355.0	345.0
356.0	260.5
356.0	280.0
356.3	324.7
357.5	246.0
357.5	266.0
357.0	300.0
357.5	315.5
357.3	340.3
358.0	285.5
358.5	349.0
359.0	251.0
359.0	271.0
359.7	290.3
359.0	330.0
360.5	256.5
360.0	305.5
360.0	320.5
361.0	276.5
361.0	296.0
361.5	311.0
361.0	336.5
361.0	344.5
362.0	262.0
362.0	281.5
362.7	325.7
363.0	242.5
363.5	267.0
363.0	301.0
363.5	316.0
363.3	340.3
364.0	248.0
364.0	286.0
364.7	331.7
365.0	273.0
365.3	291.3
365.7	306.7
365.0	348.5
366.0	253.5
366.7	258.3
366.3	321.3
367.0	277.5
367.0	297.0
367.3	311.7
367.5	337.0
368.0	263.0
368.5	268.5
368.3	282.7
368.5	303.0
368.0	327.0
368.0	342.5
369.5	244.0
369.3	317.3
370.5	250.0
370.0	287.0
370.5	333.0
370.5	348.0
371.5	273.0
371.3	292.3
371.5	323.5
372.3	255.3
372.5	266.5
372.7	278.7
372.0	308.0
373.0	261.0
373.0	297.5
373.5	313.5
373.0	338.0
374.5	284.0
374.3	319.3
374.5	328.0
374.0	343.5
376.3	246.3
376.0	289.0
376.5	334.0
376.7	348.7
377.5	252.0
377.3	269.3
377.5	275.0
377.5	294.0
378.5	258.0
378.0	264.0
378.5	300.0
378.0	305.5
378.5	311.0
378.5	316.5
378.3	323.3
378.5	339.0
379.5	280.0
381.0	242.0
380.7	285.7
380.7	344.3
381.0	329.0
382.7	253.3
382.5	290.5
382.5	350.0
383.5	248.0
383.0	265.0
383.0	271.0
383.5	296.0
383.5	302.0
383.5	319.0
383.0	335.0
384.0	276.5
384.0	308.0
384.0	313.0
384.5	325.0
385.5	259.0
385.0	340.0
386.0	282.0
386.7	330.7
386.0	346.0
387.5	268.0
387.5	287.0
388.5	244.0
388.5	253.0
388.5	292.5
388.7	298.7
388.0	351.5
389.5	263.5
389.0	273.5
389.0	304.5
389.5	309.5
389.0	315.5
389.5	321.5
389.3	327.3
389.0	335.5
390.5	341.0
391.0	278.5
392.0	248.5
392.7	258.7
392.5	284.0
392.0	347.0
393.0	269.0
393.0	289.5
393.5	301.0
393.0	331.5
394.0	295.0
394.5	312.5
395.3	244.3
395.0	254.5
395.3	274.3
395.5	306.0
395.0	319.0
395.3	325.3
395.0	337.0
396.0	264.0
396.0	343.0
397.5	349.0
398.5	250.0
398.0	280.0
398.3	286.3
398.5	298.5
399.0	259.5
399.0	269.0
399.5	292.0
399.5	309.5
399.0	328.5
399.0	333.5
400.0	316.0
400.5	322.0
401.0	275.0
401.0	339.0
402.5	245.0
402.0	255.0
402.0	264.0
402.5	306.0
402.0	345.0
403.0	350.5
404.7	278.7
404.0	284.0
404.7	289.7
404.0	312.0
404.0	330.0
405.5	260.5
405.0	296.5
405.0	318.5
405.5	325.0
405.5	335.5
406.0	250.0
406.7	341.7
406.5	347.0
407.7	275.7
407.3	302.3
408.5	308.0
408.0	352.0
409.0	256.0
409.5	314.5
409.0	331.0
410.7	245.7
410.0	281.0
410.3	286.7
410.3	292.3
410.0	321.0
411.0	262.5
411.5	298.0
411.7	336.3
411.3	347.3
412.0	269.5
412.0	326.5
413.0	251.0
413.0	304.0
413.5	310.0
414.5	277.0
414.0	342.0
414.0	352.5
415.0	316.0
415.0	332.0
416.0	257.0
416.0	283.0
416.5	289.0
416.5	294.5
416.0	322.0
417.0	246.5
417.0	263.0
417.0	300.0
417.3	347.7
418.5	267.5
418.5	273.5
418.5	306.0
418.5	328.0
418.0	337.0
419.0	311.5
420.5	252.0
420.0	318.0
420.5	342.5
421.0	279.5
421.0	332.5
422.0	285.0
422.5	291.0
422.3	296.7
422.7	302.7
422.0	323.0
423.0	258.0
423.0	313.0
423.0	348.0
424.0	247.0
424.0	264.5
424.0	270.5
424.7	276.7
424.0	308.5
424.5	328.5
424.0	338.0
426.5	253.0
426.3	343.3
427.7	281.7
427.7	287.7
427.7	293.7
427.5	318.0
427.5	324.0
427.0	333.5
428.0	242.0
428.0	300.0
428.0	306.0
429.5	261.5
429.5	274.5
429.3	312.3
429.0	348.0
430.0	267.5
430.7	328.7
430.0	338.5
431.0	248.5
431.0	256.0
432.5	291.0
433.5	278.0
433.0	297.0
433.7	303.3
433.0	322.0
433.0	344.0
434.0	243.0
434.0	310.0
434.0	316.5
434.0	333.5
435.0	271.5
435.0	349.5
436.0	259.5
436.0	265.5
436.3	282.3
436.7	327.3
436.0	339.0
437.0	253.0
437.5	288.0
438.0	247.5
438.5	276.0
438.3	294.7
438.5	344.5
439.0	300.5
439.0	307.5
439.0	314.0
439.0	321.0
440.0	333.0
441.5	258.0
441.0	269.0
441.0	350.0
442.5	263.0
442.0	327.0
442.5	339.0
443.5	252.0
443.5	280.0
443.0	286.0
443.5	292.0
443.5	345.0
444.0	298.0
444.5	304.5
444.5	311.0
445.0	246.0
445.0	273.5
445.0	317.0
446.0	323.0
447.7	265.7
447.0	330.0
447.3	349.3
448.0	257.5
448.0	336.0
448.3	342.3
449.0	284.0
449.0	290.0
449.5	296.0
449.5	302.0
449.3	307.3
450.0	250.5
450.0	278.0
450.5	313.0
451.5	244.0
451.0	272.0
451.0	319.5
452.0	326.0
452.7	332.7
452.5	351.0
453.5	266.5
453.5	339.0
454.0	260.5
454.0	345.0
455.0	254.5
455.5	282.0
455.0	288.0
455.0	294.5
455.0	301.5
455.0	308.5
456.5	248.0
456.5	276.0
456.5	315.0
457.7	270.7
457.0	321.5
457.0	328.0
458.0	242.0
458.5	335.0
459.0	264.5
459.3	342.3
459.5	349.0
460.0	258.5
461.7	252.7
461.5	280.5
461.0	286.5
461.0	292.5
461.0	298.5
461.0	305.0
461.5	311.5
462.0	318.0
462.5	324.5
463.5	246.0
463.0	274.5
463.0	331.5
463.3	338.3
464.0	268.5
464.0	346.5
466.5	257.0
466.0	262.5
466.0	290.0
466.5	302.0
466.5	308.0
467.0	285.0
467.0	295.5
467.5	315.0
467.5	321.0
468.5	251.0
468.7	279.3
468.0	328.0
468.0	342.0
469.0	273.5
469.0	335.0
469.0	349.0
470.0	244.5
470.3	267.3
471.5	291.0
472.0	261.0
472.0	298.0
472.5	305.0
472.5	312.0
473.5	255.0
473.0	284.5
473.0	318.5
473.3	324.7
473.7	331.7
474.0	278.0
474.0	338.5
474.0	345.0
475.0	249.5
475.0	272.0
475.0	351.0
477.0	243.5
477.5	266.0
478.0	289.0
478.5	295.0
478.0	301.5
478.0	308.5
479.0	260.0
479.5	276.0
479.0	282.5
479.0	315.0
479.0	322.0
479.0	328.0
479.0	335.0
480.0	254.0
480.0	341.0
480.5	347.0
481.5	248.0
482.0	270.0
484.0	242.0
484.0	264.5
484.0	280.0
484.0	286.0
484.0	292.0
484.0	298.5
484.0	305.0
484.0	311.5
484.5	318.0
485.5	259.0
485.0	324.0
485.0	331.0
485.5	338.0
485.7	344.3
486.0	350.5
487.0	253.0
487.0	275.0
488.5	293.5
489.0	247.0
489.0	270.0
489.5	315.0
490.3	281.3
490.5	288.0
490.5	302.0
490.0	308.0
490.7	320.7
490.0	328.0
490.5	335.0
491.0	264.0
491.0	341.0
491.7	347.3
492.7	258.3
493.0	275.0
493.5	297.0
494.5	252.0
494.3	311.7
495.7	291.7
496.0	246.0
496.0	269.0
496.3	305.7
496.3	317.3
496.0	324.0
496.0	331.0
496.3	337.3
497.0	287.0
497.0	343.5
497.5	350.0
498.0	263.5
498.0	280.5
498.5	300.0
499.5	257.0
501.3	251.3
501.0	274.5
501.0	293.5
501.0	311.0
501.0	327.5
502.5	322.0
502.0	334.0
502.0	340.0
503.0	245.0
503.0	268.5
503.0	305.0
503.0	346.5
504.5	287.0
505.0	262.5
505.0	281.0
505.0	299.0
505.0	316.0
507.0	256.0
507.5	274.5
507.5	310.0
507.0	328.5
508.0	249.0
508.5	293.0
508.0	335.5
508.0	341.5
508.7	349.7
509.5	304.0
509.0	321.5
510.0	243.0
510.5	268.0
511.5	286.0
511.5	316.0
512.3	261.3
512.0	280.0
512.5	298.0
512.7	328.3
513.7	254.3
513.5	339.0
513.3	345.3
514.5	273.5
514.3	309.7
515.5	247.5
515.0	291.5
515.3	321.7
516.0	334.0
517.0	265.5
517.7	284.3
517.0	303.0
518.5	316.0
519.5	278.5
519.3	296.7
519.0	327.5
519.5	348.0
521.0	251.5
520.7	258.7
520.3	271.7
520.5	309.5
520.0	340.5
522.0	289.5
522.0	321.5
522.5	333.0
523.0	245.0
523.5	266.0
524.0	304.0
525.7	276.3
525.0	283.0
525.0	314.5
525.7	345.3
525.0	351.5
526.7	270.3
526.0	295.0
526.0	327.0
527.5	255.0
527.0	261.0
527.0	309.0
527.0	339.0
528.3	248.3
529.5	289.0
529.0	320.5
529.7	332.7
530.0	242.0
530.0	301.0
531.5	266.0
531.0	351.0
532.0	272.5
532.5	279.0
532.0	314.0
532.0	344.0
533.5	284.5
533.5	295.0
533.0	307.0
533.0	326.5
533.7	337.3
534.5	252.0
534.0	259.0
535.5	246.0
536.7	289.7
536.0	319.5
537.0	269.0
537.0	300.5
538.0	275.0
538.0	331.5
538.5	344.0
538.0	351.5
539.5	263.0
539.0	281.0
539.0	308.5
539.0	325.0
540.3	256.7
540.0	314.5
540.0	338.0
541.5	250.0
541.5	288.0
541.5	295.0
542.0	243.0
543.7	268.7
543.0	302.5
543.0	321.0
544.5	328.0
544.5	349.5
545.0	276.5
545.0	283.0
545.0	342.5
546.5	261.0
546.0	309.5
546.0	334.5
547.0	247.0
547.0	254.5
547.0	292.5
548.5	298.5
548.0	316.5
549.5	272.5
549.7	286.7
549.5	323.0
550.5	305.0
550.5	330.0
551.0	346.0
552.5	259.0
552.0	265.0
552.0	280.0
552.0	337.5
553.0	252.0
553.0	293.5
553.5	311.0
554.0	245.5
555.5	270.0
555.0	318.5
556.5	276.0
556.0	288.5
556.0	300.0
556.7	325.7
557.5	342.0
557.3	349.3
559.0	257.0
558.3	282.3
558.0	333.5
559.5	263.5
559.0	306.0
560.0	244.5
560.0	250.5
560.0	294.5
560.0	314.5
562.5	277.0
562.5	288.0
562.0	321.5
563.0	345.0
563.5	352.0
564.0	270.5
564.5	301.0
564.0	329.0
564.0	337.0
565.0	309.0
566.5	254.0
566.0	265.0
566.3	282.3
566.0	293.5
567.5	247.0
567.0	317.0
568.5	259.5
568.5	324.0
569.5	275.5
569.0	340.5
569.5	348.0
570.0	287.0
570.5	298.5
570.5	305.0
570.0	333.5
571.5	270.0
572.5	264.0
572.0	312.0
573.5	281.0
574.5	257.0
574.8	293.6
574.0	319.0
574.3	243.3
574.5	250.0
575.5	325.5
575.5	344.0
575.0	352.0
576.3	274.7
576.3	337.3
577.3	300.3
577.3	307.3
577.5	332.0
578.5	287.0
579.0	268.0
579.7	313.7
580.5	246.0
580.0	261.5
580.5	280.5
581.0	253.5
581.7	320.7
582.0	347.5
583.0	273.5
583.0	327.5
583.5	334.0
583.0	341.0
584.0	293.5
584.5	301.0
585.7	286.3
585.3	308.3
586.5	266.0
587.7	251.3
587.5	258.5
587.7	279.3
587.0	315.5
588.5	243.5
588.7	322.7
588.5	352.0
589.0	337.5
589.0	344.5
590.5	273.5
590.3	297.7
590.0	330.5
591.3	291.3
591.5	303.5
592.7	285.3
592.5	310.5
593.5	268.0
595.5	279.0
595.7	340.7
595.5	348.0
596.0	325.0
596.0	333.0
597.3	297.7
598.0	273.0
598.7	290.7
598.5	306.0
599.0	284.0
600.3	266.3
600.3	312.7
601.0	252.5
601.0	260.0
602.5	245.0
602.3	278.3
602.3	320.3
602.0	344.5
602.0	352.5
603.7	294.7
603.0	336.5
604.5	327.0
605.0	271.5
605.0	287.0
605.3	301.3
606.0	308.0
607.3	257.3
607.3	264.7
608.0	314.0
608.7	348.7
609.5	249.0
609.5	278.0
609.0	340.5
610.0	292.0
610.6	322.8
610.0	332.0
611.7	298.7
612.0	271.5
613.3	261.7
613.0	284.0
613.0	306.5
614.5	255.0
614.5	351.5
615.0	315.5
615.7	336.7
615.0	344.0
616.0	243.5
616.3	266.3
616.0	329.0
617.0	250.0
617.0	278.5
618.3	292.3
619.5	299.0
619.3	322.7
620.0	260.5
620.0	272.0
620.0	305.5
620.3	311.7
621.5	284.5
621.5	341.0
621.5	348.0
622.5	254.0
623.0	246.5
623.7	266.3
623.0	333.5
624.5	318.0
625.0	278.0
626.5	291.5
626.7	300.7
626.5	307.5
626.5	326.0
627.7	344.7
628.5	259.5
628.5	271.5
628.0	352.0
44.5	413.0
44.5	462.0
45.5	354.5
46.0	389.0
46.5	395.0
46.0	419.5
46.0	437.5
47.0	377.5
47.3	401.3
48.5	426.0
48.0	443.5
48.5	451.0
49.0	360.5
49.0	366.5
49.5	408.0
50.0	384.0
50.0	457.5
51.5	372.5
51.0	415.0
51.0	433.0
52.0	391.0
53.0	356.0
53.0	397.0
53.5	421.0
53.5	439.0
54.0	378.5
54.5	403.0
54.5	445.5
55.5	362.0
55.7	409.7
55.0	427.5
55.5	452.0
56.5	368.0
56.0	385.5
57.0	459.0
58.5	374.0
58.5	392.0
58.0	415.5
58.0	434.0
60.5	357.5
60.7	380.7
60.0	399.0
60.0	422.5
60.5	448.0
61.5	405.0
61.7	441.3
62.0	364.0
62.5	429.0
63.5	370.0
63.0	387.0
63.5	410.5
63.5	453.5
63.0	460.5
65.0	376.0
65.0	394.0
65.0	416.5
65.0	435.5
66.5	400.0
67.3	359.3
67.0	382.5
67.0	423.0
67.0	447.5
68.5	406.0
69.0	365.5
69.7	371.7
69.0	389.0
69.5	429.5
69.5	441.0
69.0	463.0
70.0	412.0
70.0	457.0
71.0	378.0
71.5	395.0
72.5	355.5
72.0	418.0
72.0	435.0
72.0	451.5
73.0	384.0
73.0	401.0
74.3	361.3
74.0	424.0
75.5	367.5
75.5	374.0
75.5	407.0
75.0	446.0
75.0	462.5
76.0	390.0
76.0	429.5
76.5	440.5
76.7	456.3
77.5	379.5
77.0	413.0
78.5	396.0
78.0	435.0
79.5	357.0
79.0	419.0
80.5	385.0
80.0	402.0
80.0	450.5
81.0	363.5
81.0	375.0
81.0	425.0
82.0	408.0
82.5	444.5
82.0	463.0
83.0	370.0
83.5	390.5
83.5	414.0
83.0	431.5
83.0	438.0
84.5	380.5
84.0	456.0
85.0	397.0
86.0	359.0
86.0	421.0
87.5	365.0
87.0	376.5
87.0	403.0
87.0	450.5
88.5	409.0
88.0	427.0
88.0	440.5
88.0	462.0
89.0	385.5
90.3	354.3
90.0	372.0
90.0	391.5
90.5	415.0
90.0	434.0
90.0	445.5
91.5	398.0
91.0	456.0
92.0	361.0
92.0	379.5
92.0	422.0
93.5	404.0
94.5	367.0
94.0	428.0
94.0	439.5
94.0	450.5
95.7	385.7
95.5	410.5
95.0	462.0
96.0	393.0
97.0	356.0
97.0	374.0
97.3	416.7
97.0	434.0
97.0	445.0
98.0	399.5
98.0	456.5
99.0	362.0
99.0	380.0
99.0	423.0
100.5	390.0
100.3	405.3
100.5	439.5
101.0	369.0
101.0	428.5
101.0	450.5
101.5	462.0
102.0	411.5
103.0	357.0
103.5	375.0
103.0	395.0
104.0	385.0
104.3	417.3
104.0	434.0
104.0	445.0
105.0	363.5
105.0	400.5
105.5	423.0
105.0	456.0
106.5	407.0
107.5	370.0
107.5	380.0
107.0	390.0
107.0	429.0
107.5	439.0
108.5	413.0
108.0	450.5
108.3	461.7
109.0	359.0
109.0	396.0
110.5	425.0
111.0	365.0
111.0	375.0
111.0	385.0
111.0	402.0
111.0	419.0
111.0	434.0
111.0	444.5
111.5	456.0
113.3	391.3
114.0	408.0
114.0	355.5
114.0	361.0
114.5	370.0
114.0	414.0
114.0	429.0
114.5	439.0
114.5	450.0
115.0	380.0
115.0	397.5
116.3	423.7
116.0	461.0
117.0	365.0
117.0	402.5
117.3	433.7
118.0	375.0
118.5	386.0
118.0	418.0
118.0	444.0
119.5	353.0
119.3	359.7
119.0	393.0
119.0	455.0
120.0	412.0
120.0	428.5
121.5	369.5
121.5	399.0
121.5	439.0
122.0	380.0
122.5	406.0
122.5	423.0
122.0	449.5
123.5	389.5
123.0	460.5
124.0	357.0
124.0	364.0
124.5	417.0
124.0	433.5
125.0	374.0
125.0	444.0
125.5	454.5
126.0	384.5
126.5	401.5
126.5	428.0
127.5	395.5
127.0	411.0
128.5	368.0
128.0	438.5
129.0	361.0
129.0	379.0
129.5	406.0
129.0	422.5
129.0	449.0
129.5	460.0
130.0	390.0
130.5	433.5
130.5	355.0
131.5	373.5
131.0	416.5
131.5	443.5
132.0	400.5
132.5	428.0
132.5	454.5
133.3	364.7
133.0	384.5
134.5	395.0
134.0	411.0
135.5	358.5
135.5	368.5
135.5	378.5
135.0	422.0
135.0	438.0
135.5	449.0
136.0	405.0
136.0	459.5
137.0	389.0
137.5	416.0
137.0	432.5
138.5	399.5
138.5	443.0
139.5	362.5
139.0	373.0
139.5	384.0
139.0	426.5
139.0	454.0
140.0	410.0
141.7	356.3
141.0	394.5
141.5	420.5
141.0	437.5
142.0	367.5
142.0	378.5
142.0	405.0
142.0	448.0
143.5	432.0
143.0	459.0
144.0	389.0
144.0	414.5
144.5	425.0
145.0	362.0
145.0	373.0
145.0	399.0
145.5	443.0
146.5	353.0
146.0	383.5
146.0	409.0
146.0	454.0
147.5	419.5
148.5	367.0
148.0	394.0
148.7	403.7
148.0	437.0
149.0	357.5
149.0	378.5
149.0	430.0
149.0	449.0
150.0	388.5
150.3	413.7
150.0	459.5
151.5	362.0
151.7	372.3
151.5	398.0
151.0	424.0
152.0	383.0
152.5	408.0
152.0	444.0
152.5	454.0
153.5	433.0
154.5	366.5
154.0	393.0
154.0	419.0
155.0	357.0
155.0	378.0
155.0	403.0
155.5	428.5
155.5	439.0
155.5	449.0
156.0	387.5
156.7	413.3
156.3	459.3
157.5	372.0
157.5	397.5
158.0	353.0
158.0	362.0
158.7	382.3
158.5	408.0
158.0	423.0
158.5	443.5
159.5	433.0
159.0	454.0
160.0	392.0
161.5	357.0
161.0	366.5
161.0	377.0
161.0	402.5
161.0	418.0
161.3	448.7
162.0	428.0
162.0	438.0
163.7	381.3
163.0	387.0
163.0	412.5
163.0	460.0
164.0	372.0
164.0	397.0
164.0	422.5
164.5	443.0
165.0	362.0
165.0	407.0
165.0	433.0
165.0	454.0
166.5	392.0
167.0	367.0
167.0	377.0
167.0	401.5
167.0	417.0
167.5	427.5
167.5	448.0
168.0	357.0
168.0	438.0
169.0	382.0
169.5	411.5
169.0	459.0
170.0	372.0
170.5	387.5
170.0	397.0
170.5	406.0
170.5	422.5
171.0	362.0
171.0	432.5
171.7	442.7
171.5	453.0
173.5	367.0
173.0	377.0
173.0	401.5
173.5	417.0
173.0	463.5
174.3	357.3
174.7	382.7
174.0	392.0
174.0	427.5
174.5	437.5
175.0	407.0
175.0	447.0
175.3	457.3
176.5	372.0
177.5	362.0
177.0	387.5
177.0	397.0
177.5	412.0
177.0	422.5
178.0	432.0
178.0	442.0
178.5	452.0
178.5	462.0
179.0	377.5
179.0	402.0
180.7	357.7
180.3	367.3
180.5	392.0
180.0	417.5
181.5	383.0
181.0	407.0
181.0	427.0
181.5	437.0
182.0	447.0
182.0	457.0
183.0	372.5
183.0	397.5
183.0	413.0
183.0	422.0
184.5	353.0
184.0	362.5
184.0	388.0
184.5	432.5
184.5	442.0
184.5	463.0
185.5	378.0
185.3	402.3
185.0	452.0
186.7	392.7
186.0	417.5
187.0	358.0
187.0	367.5
187.0	408.0
187.0	427.0
188.0	383.0
188.0	437.0
188.0	447.0
188.0	457.5
189.3	373.3
189.0	397.5
189.5	413.0
190.0	363.0
190.5	388.0
190.0	422.0
190.3	431.7
191.0	353.5
191.0	403.0
191.0	442.0
191.0	452.0
191.0	463.0
192.0	378.5
192.7	393.3
192.3	417.7
193.0	368.5
193.7	408.7
194.0	359.0
194.0	384.0
194.0	426.5
194.0	436.5
194.0	447.0
194.7	457.3
195.0	399.0
195.0	414.0
196.7	363.7
196.0	374.0
196.5	389.0
197.3	353.3
197.0	404.0
197.0	421.0
197.0	431.5
197.0	441.5
197.0	452.0
198.0	379.0
198.5	394.5
198.7	462.3
199.3	368.3
199.0	410.0
200.5	384.5
200.5	400.0
200.0	426.0
200.0	436.0
200.0	446.5
201.0	357.5
201.0	416.0
201.0	457.0
202.7	363.3
202.0	374.0
202.0	390.0
203.0	405.5
203.5	421.0
203.0	431.0
203.0	441.0
203.5	451.5
204.5	395.5
204.5	411.0
205.0	369.0
205.0	379.0
205.0	462.0
206.0	359.0
206.5	385.0
206.5	401.0
206.5	436.0
206.0	446.0
207.0	416.5
207.0	426.0
207.0	456.0
208.7	363.7
208.0	374.0
208.0	391.0
208.5	406.0
209.0	354.5
209.5	431.0
209.5	440.5
210.0	396.0
210.7	411.7
210.0	421.5
210.0	451.0
211.5	359.0
211.0	369.0
211.0	379.5
211.0	461.0
212.0	386.5
212.0	401.5
212.7	435.3
213.0	426.5
213.0	445.5
213.5	456.0
214.5	364.0
214.0	374.0
214.0	391.5
214.5	406.5
214.0	416.0
215.0	354.0
215.5	382.5
215.5	397.0
216.0	421.5
216.0	431.0
216.0	440.5
216.0	450.5
217.0	370.0
217.7	387.3
217.0	411.5
217.3	460.7
218.0	359.0
218.0	378.5
218.5	402.0
219.0	417.0
219.0	426.0
219.0	436.0
219.0	445.0
219.7	454.7
220.5	364.0
220.0	392.5
220.5	407.0
221.7	353.7
221.0	374.0
221.0	383.0
222.0	398.0
222.0	421.5
222.5	431.0
222.7	449.7
223.5	369.5
223.0	412.5
223.0	440.5
223.0	459.0
224.0	359.0
224.0	378.5
224.0	388.0
224.0	403.0
225.5	454.0
226.0	393.0
226.0	408.0
226.0	417.0
226.0	426.0
226.0	435.5
226.0	445.5
227.0	364.0
227.0	374.0
227.0	383.5
228.3	398.3
228.0	463.0
229.5	359.0
229.5	403.5
229.0	413.0
229.0	421.0
229.0	431.0
229.5	440.0
230.0	369.0
230.5	379.0
230.0	388.5
230.0	450.5
230.0	457.5
231.5	408.0
232.5	354.0
232.5	394.0
232.5	416.5
232.0	425.5
232.0	445.0
233.0	364.0
233.5	374.0
233.0	435.0
234.0	384.0
234.0	399.5
234.0	461.0
235.3	411.3
235.5	440.0
235.0	455.0
236.0	359.0
236.0	369.0
236.0	389.5
236.3	405.7
236.0	421.0
236.0	430.5
236.3	449.7
237.0	379.5
238.5	395.5
238.5	416.0
238.0	444.5
239.5	354.0
239.0	364.0
239.5	374.0
239.0	401.0
239.0	425.5
239.0	435.5
240.0	385.0
240.0	459.0
241.5	391.0
241.0	411.0
241.7	430.7
241.0	453.0
242.0	369.0
242.0	405.5
242.5	420.0
242.5	441.0
242.5	447.0
243.0	359.0
243.0	379.0
244.0	400.0
244.5	425.5
244.0	463.0
245.0	364.0
245.0	373.5
245.0	395.0
245.0	415.0
245.0	435.5
245.0	457.0
246.0	353.5
246.7	383.3
246.0	388.5
246.0	409.0
246.5	451.5
247.5	368.5
247.5	430.0
247.7	445.3
248.0	404.0
249.0	358.5
249.5	364.0
249.0	378.0
249.0	398.0
249.0	419.0
249.5	424.5
249.0	440.0
250.0	392.5
250.5	413.0
250.0	461.0
251.0	373.0
251.5	387.5
251.5	434.0
251.5	455.0
252.0	353.0
252.0	407.0
252.3	449.7
253.0	368.0
253.0	382.5
253.0	402.0
253.5	444.0
254.5	363.0
254.0	396.5
254.5	422.0
254.0	428.5
255.5	358.0
255.0	377.0
255.3	416.3
255.0	439.0
256.0	391.0
256.0	459.0
257.0	372.0
257.0	386.5
257.0	411.0
257.5	434.0
257.7	448.3
257.3	453.7
258.0	405.0
259.0	366.5
259.0	381.0
259.0	400.0
259.5	425.5
259.0	443.0
260.0	361.5
260.0	394.5
260.0	420.0
261.0	376.0
261.0	462.5
262.0	356.5
262.5	370.5
262.0	390.0
262.0	414.5
262.0	438.5
262.7	451.7
262.0	457.0
263.3	385.3
263.0	409.0
263.5	433.5
263.5	446.5
264.5	365.0
264.0	403.5
264.5	428.0
265.0	380.0
265.0	398.0
265.3	422.7
266.5	359.5
266.5	417.5
266.7	442.3
267.0	374.5
267.5	412.0
267.5	455.0
268.0	354.5
268.0	369.5
268.0	437.0
268.5	449.0
268.0	460.0
269.0	384.0
269.7	401.7
269.0	407.0
269.3	431.3
270.0	364.0
270.7	378.7
270.5	396.0
270.7	426.3
271.5	421.0
271.5	445.0
272.7	352.7
272.0	358.5
272.0	373.5
272.0	391.0
272.0	415.5
272.5	453.0
272.5	463.5
273.7	367.7
273.0	410.0
273.7	434.7
273.0	440.0
274.5	405.0
274.5	458.0
275.0	383.0
275.3	399.3
275.3	429.7
275.0	448.5
276.5	377.5
276.5	394.0
276.5	424.5
277.5	356.5
277.0	362.0
277.0	372.0
277.5	413.5
277.0	419.0
277.0	443.0
278.5	438.0
278.0	453.0
278.5	462.0
279.0	366.5
279.0	408.0
279.5	433.0
280.5	381.0
280.0	403.0
281.5	397.0
281.0	428.0
281.0	447.5
281.5	457.0
282.5	370.0
282.0	376.0
282.0	392.5
282.5	417.5
282.0	422.5
283.0	353.5
283.0	359.5
283.5	364.5
283.0	412.0
283.0	442.0
284.5	389.0
284.5	406.0
284.0	437.0
284.5	451.5
285.7	383.7
285.5	400.5
285.0	461.0
286.7	378.7
286.5	394.5
286.0	432.0
286.5	446.0
287.3	367.3
287.0	373.0
287.5	421.0
287.0	426.5
288.0	356.5
288.3	362.3
288.7	409.7
288.0	415.0
288.5	440.5
288.0	456.0
290.0	389.5
290.7	398.7
290.0	404.0
290.0	435.5
290.7	450.7
291.3	377.3
291.7	430.3
291.5	460.0
292.5	425.0
292.5	445.0
293.5	354.0
293.0	360.0
293.0	366.0
293.0	372.5
293.0	394.5
293.5	413.0
293.0	419.0
294.7	407.3
294.0	440.0
294.0	454.5
295.5	401.5
296.5	378.0
296.0	434.0
296.5	449.5
297.3	390.7
297.0	396.5
297.5	422.5
297.5	459.0
298.0	357.5
298.0	363.0
298.0	417.0
298.0	428.5
298.5	444.0
299.0	411.5
300.3	382.3
300.0	405.0
300.5	438.5
300.5	453.5
301.0	372.5
301.0	400.0
302.5	377.5
302.0	425.0
302.0	433.5
302.7	448.3
303.5	355.5
303.0	361.5
303.0	394.5
303.0	420.0
304.0	367.5
304.0	386.5
304.0	408.5
304.0	414.5
304.5	443.0
304.5	458.0
305.0	402.5
305.0	429.0
306.5	379.5
306.5	438.0
306.7	452.7
307.5	359.0
307.0	374.0
307.5	398.0
307.5	423.5
308.5	364.5
308.5	412.5
308.5	462.0
309.0	368.5
309.0	383.0
309.0	406.5
309.0	418.0
309.0	433.0
309.0	447.5
310.7	442.3
311.5	378.0
311.0	402.0
311.0	428.0
311.0	457.0
312.0	356.5
312.5	361.0
312.0	371.5
312.0	396.0
312.0	413.0
313.7	365.7
313.0	422.5
313.0	437.5
313.5	452.0
314.0	386.0
314.6	406.2
315.3	417.7
315.0	432.0
315.0	447.0
315.5	461.5
316.5	355.0
316.3	375.3
316.0	380.5
316.5	394.0
317.0	370.5
317.0	400.0
317.5	412.0
317.0	427.0
317.0	441.5
318.0	360.0
318.3	389.3
318.0	456.5
319.5	384.5
319.5	422.0
319.0	436.5
319.5	451.5
320.3	365.3
320.0	375.5
320.0	406.5
321.7	355.3
321.0	431.0
321.0	446.5
322.0	393.5
322.5	401.0
322.0	416.5
322.0	461.0
323.7	360.7
323.0	370.5
323.5	380.0
323.5	411.0
323.5	426.0
323.0	440.5
324.0	388.0
324.7	397.7
324.0	455.0
325.0	435.0
326.5	365.5
326.0	375.0
326.0	406.5
326.0	421.0
326.0	450.5
327.5	356.0
327.5	384.0
327.3	392.3
327.5	416.0
327.0	445.0
328.0	401.5
328.0	429.5
329.5	360.5
329.3	370.3
329.7	411.3
329.0	439.5
329.0	459.5
330.0	379.0
330.5	388.5
330.5	396.5
330.0	425.0
331.0	406.0
331.0	434.0
331.0	454.5
332.7	365.7
332.5	374.5
332.0	420.0
332.7	443.7
332.5	449.0
333.7	355.7
333.0	384.0
333.5	393.0
333.5	401.0
334.5	415.0
334.0	429.0
335.0	410.0
335.0	439.0
335.0	458.5
336.0	361.0
336.0	370.0
336.0	379.0
336.0	388.5
336.5	397.5
336.0	405.0
336.3	423.7
337.3	433.7
337.5	444.5
337.0	453.0
339.0	355.5
339.0	365.5
339.0	374.5
339.0	384.0
339.0	393.0
339.0	402.0
339.5	418.5
339.5	428.5
339.0	463.0
340.0	413.0
341.7	360.3
341.0	407.0
341.0	438.5
341.3	448.3
341.5	457.5
342.0	370.0
342.0	379.0
342.0	388.5
342.5	398.0
342.0	423.5
343.5	433.0
344.5	365.0
344.0	443.0
344.0	453.0
345.0	355.5
345.0	374.0
345.0	384.0
345.0	393.0
345.0	403.0
345.7	409.3
345.0	414.5
345.7	428.3
345.5	462.0
346.7	419.7
347.5	360.0
347.5	378.5
347.0	438.0
347.0	447.5
348.0	369.5
348.0	388.5
348.0	397.0
348.0	424.5
349.5	432.5
349.0	457.0
350.5	355.5
350.5	374.0
350.5	383.5
350.0	401.5
350.0	406.5
350.3	442.3
351.0	364.5
351.5	393.0
351.0	412.0
351.0	416.5
351.0	452.0
352.5	422.0
352.5	427.5
353.5	359.5
353.3	378.3
353.0	437.0
353.7	446.3
353.0	461.5
354.0	369.5
354.0	388.5
354.0	398.0
355.5	403.5
355.5	408.0
355.5	432.0
355.0	456.0
356.0	354.5
356.5	373.5
356.0	383.5
356.7	413.7
356.7	441.7
357.0	364.0
357.5	394.0
357.0	419.0
357.0	424.0
357.5	451.0
359.0	359.0
359.5	368.5
359.0	378.5
359.0	388.0
359.5	399.5
359.0	427.5
359.5	437.0
359.3	460.7
360.5	405.0
360.3	445.7
361.0	410.0
361.5	432.0
361.5	455.0
362.0	354.0
362.5	363.5
362.0	373.0
362.0	383.5
362.5	391.5
362.0	415.5
362.5	421.5
362.7	440.3
363.5	396.0
364.5	426.5
364.5	450.0
365.0	358.5
365.5	368.5
365.0	378.5
365.0	401.5
365.0	459.5
366.0	387.5
366.0	406.5
366.3	435.7
367.5	383.0
367.0	412.0
367.5	418.0
367.0	445.0
368.0	353.0
368.5	364.0
368.0	373.5
368.0	392.5
368.0	423.0
368.5	430.5
368.5	455.5
369.0	398.0
369.0	440.0
369.0	462.5
370.5	378.5
371.3	358.7
371.0	383.5
371.0	403.0
371.7	408.7
371.0	450.0
372.0	369.0
372.0	388.5
372.0	414.0
372.0	426.0
372.5	435.0
373.5	353.0
373.5	420.0
373.0	444.0
374.0	374.0
374.0	394.0
374.0	459.0
375.5	358.5
375.0	364.0
375.0	399.0
375.5	430.0
375.0	439.0
375.0	453.5
376.0	379.0
376.0	405.0
377.0	384.5
377.0	410.0
377.5	415.5
377.7	424.7
377.0	447.5
378.0	369.5
378.0	390.0
378.5	441.5
379.0	354.0
379.5	375.0
379.5	395.5
379.5	435.0
379.5	463.0
380.0	360.0
380.0	401.0
380.0	419.5
380.0	457.0
381.5	365.5
381.0	380.5
381.5	406.5
382.0	386.0
382.0	429.0
382.0	451.5
383.0	371.0
383.0	412.5
383.7	423.7
383.0	445.0
384.5	355.5
384.0	391.5
384.5	439.5
385.0	376.0
385.0	397.5
385.0	460.0
386.0	361.5
386.5	382.0
386.0	402.5
386.0	418.0
386.0	434.0
386.7	454.7
387.5	367.0
387.0	408.0
387.5	449.0
388.0	387.5
388.0	428.0
389.7	357.3
389.0	372.5
389.0	393.0
389.0	413.0
389.0	443.0
390.5	378.0
390.0	399.0
390.0	422.5
390.5	437.5
391.5	363.0
391.0	458.5
392.0	383.5
392.0	404.0
392.0	417.0
392.0	432.0
393.0	368.5
393.5	389.0
393.5	409.0
393.5	447.0
393.0	452.5
394.0	353.0
394.7	394.3
394.0	426.5
395.3	358.3
395.0	374.0
395.0	441.5
396.0	379.0
396.0	399.5
396.0	421.0
396.0	436.0
396.5	462.0
397.5	405.0
397.3	456.7
398.7	354.7
398.0	364.0
398.0	384.5
398.0	415.0
398.0	431.0
399.0	369.5
399.0	390.0
399.5	410.0
399.5	445.5
399.0	451.5
400.5	395.5
400.0	425.0
400.5	440.0
401.3	360.3
401.0	375.0
402.5	380.5
402.0	401.0
402.5	419.0
402.5	434.0
402.5	461.0
403.0	366.5
403.0	406.0
403.5	455.5
404.0	356.0
404.0	386.0
404.3	413.3
404.0	429.0
405.0	392.0
405.5	443.5
405.0	449.5
406.0	362.0
406.0	397.0
406.0	423.0
407.0	376.0
407.3	408.7
407.5	438.0
408.7	367.7
408.0	382.0
408.0	403.0
408.5	432.5
409.0	388.0
409.5	393.0
409.0	417.5
409.7	453.7
409.0	459.0
410.0	357.0
411.0	372.5
410.7	426.7
410.5	447.5
411.0	398.0
411.5	412.5
412.0	363.0
412.7	406.7
412.5	421.5
412.0	442.0
413.0	378.0
413.5	384.0
413.0	435.5
414.5	389.5
414.0	463.5
415.0	368.0
415.0	401.5
415.0	430.0
415.7	451.3
415.0	457.0
416.0	395.0
416.5	446.0
417.0	358.0
417.5	374.0
417.0	410.5
417.0	424.0
418.7	363.7
418.5	385.5
418.0	440.0
419.0	380.0
419.0	405.0
419.0	434.0
420.0	353.0
420.3	390.3
420.5	455.0
420.0	461.0
421.0	369.0
421.0	398.5
421.5	413.5
421.5	428.5
422.0	358.5
422.5	443.5
422.0	449.5
423.5	374.5
423.5	385.0
423.0	408.0
423.0	423.0
424.5	364.0
424.5	393.5
424.0	437.5
425.5	354.0
425.5	379.5
425.0	403.0
425.3	417.7
426.0	459.0
427.0	369.5
427.7	389.3
427.5	398.0
427.5	412.0
427.5	447.0
427.0	453.0
428.5	359.0
428.0	427.5
428.7	434.3
428.5	441.0
429.0	374.5
429.0	384.0
429.3	406.7
430.5	365.0
430.0	422.0
431.0	354.0
431.5	379.0
431.5	394.0
431.0	462.0
432.0	401.0
432.0	416.5
432.5	456.0
433.0	370.5
433.5	388.0
433.7	410.7
433.0	431.5
433.5	444.0
433.0	450.0
434.0	360.0
434.0	426.0
434.3	437.3
435.7	382.7
435.5	405.0
436.5	365.0
436.0	376.0
436.7	398.7
436.0	420.5
437.5	355.0
437.3	392.7
437.0	460.0
438.0	415.0
438.7	429.7
438.7	447.3
438.0	453.0
439.0	371.0
439.0	409.0
439.5	434.5
439.0	441.0
440.0	360.0
440.0	386.5
440.5	425.0
441.0	403.0
442.0	375.5
442.0	381.0
442.5	397.5
442.0	419.5
442.7	456.3
442.0	463.0
443.0	365.0
443.5	391.5
443.5	413.5
444.0	355.0
444.5	437.0
444.3	443.7
444.0	450.0
445.5	371.0
445.0	407.5
445.0	430.5
446.5	360.0
446.0	385.5
446.0	424.0
447.0	402.0
448.0	376.0
448.5	396.0
448.0	418.0
448.7	453.7
448.0	460.0
449.0	366.0
449.5	390.5
449.0	412.0
450.0	355.0
450.5	381.0
450.5	434.0
450.0	440.5
450.0	447.0
451.0	406.0
451.0	428.0
452.0	371.0
452.5	400.0
452.0	422.0
453.0	361.0
453.0	386.5
453.7	456.7
453.0	463.0
454.3	376.7
454.5	393.5
454.5	416.0
455.5	366.0
455.0	410.0
455.0	450.5
456.5	382.0
456.5	425.0
456.0	431.5
456.0	438.0
456.0	444.0
457.0	355.0
457.0	404.5
458.0	371.5
458.5	388.0
458.0	398.0
459.5	360.5
459.0	420.0
459.0	459.5
460.0	377.5
460.0	414.0
460.0	453.5
461.0	393.5
461.3	408.3
461.0	429.0
461.5	435.0
462.0	366.0
462.0	402.5
462.0	441.5
462.5	448.0
463.0	354.0
463.0	383.0
463.5	463.0
463.3	423.3
464.7	371.7
464.0	398.5
464.5	457.0
465.5	360.5
465.0	389.0
465.0	417.0
465.5	432.5
466.5	405.0
467.0	378.0
467.5	394.0
467.7	427.3
467.0	438.0
468.0	411.0
468.0	444.5
469.5	355.0
469.5	367.0
469.5	384.0
469.5	422.0
469.0	461.0
470.0	400.0
470.0	454.5
471.0	361.0
471.0	373.0
471.0	390.0
471.0	433.0
472.5	379.0
472.0	406.0
472.0	416.5
472.5	449.0
473.0	438.0
474.7	394.7
474.0	427.0
474.5	443.5
474.7	459.3
475.7	387.3
475.0	400.5
475.0	411.0
476.0	357.0
476.5	363.5
476.0	369.5
476.5	375.5
476.0	421.5
476.5	454.0
477.0	382.0
477.5	432.0
478.0	405.0
479.0	416.0
479.7	436.7
479.0	448.0
480.3	391.7
480.0	397.5
480.0	426.0
481.0	354.0
481.5	360.0
481.7	366.7
481.0	411.0
481.0	442.0
481.3	458.3
482.0	372.5
482.0	379.0
482.0	385.5
483.0	421.0
483.7	431.7
483.0	452.0
484.5	406.0
485.5	401.0
485.5	463.0
486.5	363.5
486.5	389.0
486.0	395.0
486.0	416.0
486.0	438.0
486.0	445.0
487.0	357.0
487.5	369.0
487.7	375.7
487.0	382.5
487.0	427.0
487.5	456.0
488.0	410.5
489.5	450.0
490.5	404.0
491.3	398.7
491.0	432.5
491.5	461.0
492.0	353.5
492.0	360.0
492.5	386.0
492.0	393.0
492.5	414.5
492.0	440.0
493.0	366.0
493.0	373.0
493.0	379.5
494.3	425.3
494.5	446.0
495.0	452.5
495.0	408.5
496.7	402.3
496.7	458.7
497.5	357.0
497.5	396.0
497.0	419.5
497.5	429.0
498.5	363.0
498.3	369.3
498.5	376.0
498.0	390.0
498.0	435.0
499.0	383.0
499.5	442.0
500.0	413.0
501.3	406.7
501.0	448.0
502.5	400.0
502.0	424.0
502.5	454.0
503.0	353.0
503.7	417.7
503.5	431.0
503.0	461.0
504.0	359.5
504.0	366.5
504.0	373.0
504.0	379.5
504.0	386.5
504.0	393.0
504.5	437.0
506.0	411.0
506.3	443.3
507.0	404.0
507.0	450.0
508.0	427.0
508.3	457.3
509.0	356.0
509.0	363.0
509.5	370.0
509.3	397.3
509.0	421.0
510.0	376.0
510.0	383.5
510.0	390.0
510.5	415.0
510.0	432.5
511.0	438.5
512.0	409.0
512.0	452.5
513.3	402.7
514.0	353.0
514.0	359.5
514.0	445.5
515.5	366.0
515.5	373.0
515.5	393.0
515.5	419.0
515.0	425.5
515.0	458.5
516.0	380.0
516.0	386.5
516.5	432.0
517.5	412.5
518.0	398.5
518.0	406.0
518.0	440.0
518.8	452.0
520.3	355.3
520.5	362.0
521.5	369.0
521.0	376.5
521.0	428.0
521.5	446.0
521.0	459.0
522.0	383.0
522.5	389.0
522.0	416.0
522.0	422.0
523.0	395.5
523.0	434.0
524.0	402.0
524.0	409.0
525.3	373.3
525.0	440.0
525.0	452.5
526.7	379.7
527.0	357.5
527.5	363.5
527.5	419.0
527.0	426.5
528.0	385.5
528.5	392.0
528.7	446.3
528.7	459.3
529.0	369.0
529.7	398.3
529.0	412.0
529.5	433.5
530.0	405.5
531.5	362.5
531.5	375.0
532.5	440.5
532.5	453.0
533.3	381.3
533.0	422.0
533.7	428.7
534.0	356.5
534.0	388.0
534.0	415.5
535.5	369.5
535.5	395.0
535.7	401.7
535.0	408.5
535.5	448.0
535.5	459.0
537.0	435.0
538.3	362.7
538.5	376.0
539.0	383.0
539.5	424.5
539.0	441.5
539.7	453.7
540.7	368.7
540.0	390.0
540.7	405.3
540.0	411.5
540.0	418.0
540.0	430.0
543.0	356.5
542.0	447.0
543.5	459.5
544.5	394.0
544.5	435.0
545.5	379.0
545.0	386.5
545.5	400.5
545.7	414.7
545.7	421.7
545.0	441.5
546.0	364.5
546.0	372.0
546.3	407.3
546.0	428.0
546.7	453.3
549.0	446.5
550.5	353.0
550.5	389.5
550.5	397.0
550.5	432.0
551.0	360.0
551.5	368.0
551.3	375.3
551.0	382.5
551.7	425.3
551.0	438.5
551.0	459.0
552.7	403.7
552.0	411.5
552.0	418.5
553.7	451.7
556.5	386.0
556.0	392.0
556.5	398.5
556.0	444.0
557.5	356.0
557.0	363.5
557.0	371.0
557.0	378.0
558.0	429.8
557.7	436.3
558.5	408.0
558.5	415.5
558.0	422.5
558.3	456.3
560.3	401.7
560.5	449.0
562.0	381.5
562.0	389.0
562.0	395.0
562.5	441.5
562.5	462.0
563.3	359.3
563.4	366.8
563.0	374.0
564.0	427.0
564.5	434.0
565.0	412.5
565.0	419.5
566.3	405.3
566.3	453.8
567.5	399.0
568.0	378.0
568.0	385.0
568.0	392.5
568.5	445.5
569.3	355.7
569.0	363.0
569.3	370.3
570.3	431.3
570.0	438.5
571.5	416.5
571.3	424.3
571.0	460.0
572.5	409.0
573.5	389.0
573.7	395.7
574.5	382.0
574.0	402.5
574.7	451.7
574.7	375.7
575.3	358.3
575.0	364.5
575.3	443.3
576.5	436.0
577.5	421.0
577.5	428.5
579.2	413.6
578.7	458.3
579.7	406.7
580.0	370.5
580.5	386.0
580.5	400.0
581.0	362.0
581.3	378.3
581.0	393.0
581.3	446.3
581.5	452.5
582.0	355.0
582.7	439.7
583.7	432.7
584.0	425.0
584.0	463.5
585.5	417.5
587.0	366.5
586.3	410.7
586.5	456.5
587.0	374.5
587.5	382.0
587.5	396.5
587.5	403.5
588.0	359.0
588.0	389.0
588.0	449.5
590.5	429.0
590.5	436.5
590.5	443.0
591.0	422.5
591.5	462.0
593.3	370.3
593.5	415.0
593.0	454.5
594.7	363.3
594.7	400.3
595.0	356.0
596.0	433.0
596.0	447.5
598.3	439.8
598.0	426.0
598.5	460.0
599.0	374.0
600.5	404.5
600.0	412.5
601.0	381.5
601.5	389.0
601.3	396.3
601.0	419.5
601.0	453.0
602.0	360.0
602.5	367.5
603.0	432.0
603.5	445.5
605.0	375.0
606.5	425.5
607.0	400.5
607.0	408.5
607.0	416.5
607.0	438.5
607.0	458.0
608.5	364.0
608.7	385.7
608.0	392.5
608.5	451.0
609.5	356.0
609.5	379.0
609.5	432.0
610.0	371.0
611.0	444.0
612.8	420.4
612.0	463.0
613.5	405.0
613.3	412.7
614.7	388.7
614.0	396.5
614.3	427.7
614.0	436.5
614.5	456.0
615.0	360.0
615.3	374.3
615.3	381.3
616.0	367.0
616.0	449.0
617.7	442.7
620.5	401.0
620.5	409.5
620.5	417.0
620.0	424.0
620.5	460.5
621.7	355.7
621.5	371.0
621.5	378.0
621.7	385.3
621.0	392.5
621.0	432.5
621.3	453.3
622.3	363.7
623.0	439.0
623.5	446.5
626.7	457.7
627.5	382.0
627.5	413.5
627.0	420.5
628.3	359.3
628.3	367.3
628.0	389.5
628.3	397.3
628.0	405.5
628.0	428.5
44.5	567.5
45.7	540.7
46.0	468.5
46.0	519.5
47.0	486.5
48.5	512.0
48.5	548.0
49.0	475.5
49.3	492.7
49.3	504.7
49.0	555.5
50.0	530.0
50.0	562.0
51.5	464.0
51.7	482.3
51.5	573.5
52.0	499.0
52.0	524.0
52.0	535.5
53.5	470.0
53.7	517.3
53.4	542.2
54.3	488.7
54.5	549.0
55.5	510.0
55.7	567.3
56.0	477.0
56.5	503.5
56.0	555.0
57.0	495.0
57.5	561.0
58.0	466.0
58.6	484.8
58.0	530.5
58.5	537.0
59.5	522.5
60.0	472.5
60.5	515.0
60.5	545.0
60.7	572.3
61.5	508.0
62.3	499.7
62.5	552.5
62.3	565.7
63.0	479.5
63.5	491.5
64.5	467.5
64.5	533.5
65.0	526.5
65.0	540.0
66.0	485.5
66.0	519.0
66.0	558.5
67.0	474.0
67.7	505.3
67.0	512.0
67.0	546.5
67.3	570.7
68.7	498.0
70.5	480.0
70.0	552.5
70.0	564.5
71.7	468.7
71.0	491.5
71.5	529.0
71.5	535.0
72.0	516.5
72.5	523.0
72.0	540.5
73.5	485.5
73.7	503.3
73.0	509.5
73.0	558.0
74.5	474.0
75.5	496.0
75.3	546.3
75.0	569.5
77.0	552.5
78.3	468.7
78.0	479.5
78.0	490.0
78.5	513.5
78.5	539.5
78.0	563.5
79.5	501.0
79.0	519.5
79.5	526.0
79.0	532.5
80.0	574.0
81.0	507.5
82.0	474.0
82.0	485.0
82.0	558.0
83.0	496.0
83.7	568.3
84.0	543.5
84.0	551.0
85.0	468.0
85.5	479.0
85.7	490.3
85.0	515.5
85.0	537.0
86.0	502.5
86.5	522.0
86.0	529.5
87.0	562.5
88.7	473.7
89.0	484.5
89.3	510.7
89.3	555.7
90.0	497.0
90.5	541.5
90.0	548.0
91.7	468.3
91.8	534.0
91.0	569.0
92.5	490.0
92.5	504.0
92.5	516.0
92.0	526.5
93.0	479.0
94.5	561.5
96.0	473.5
96.7	485.3
96.0	498.0
96.0	510.0
96.0	521.5
96.0	553.0
97.3	538.7
97.3	546.7
98.5	468.0
98.0	492.5
98.0	570.5
99.7	503.3
99.5	527.0
100.0	479.0
100.0	516.0
100.0	533.5
100.0	565.0
101.5	542.5
101.0	558.0
102.7	473.3
102.5	509.0
102.3	521.3
103.0	484.0
103.0	498.0
103.0	552.0
104.0	491.0
105.0	467.0
105.7	537.7
105.0	569.0
106.0	530.0
106.5	546.0
107.0	479.0
107.0	517.5
107.5	524.5
107.0	563.0
108.0	504.5
108.0	511.0
108.5	557.0
109.0	472.0
109.5	485.5
109.3	497.7
111.0	491.0
111.7	534.3
111.5	541.5
111.0	551.0
112.7	466.7
112.5	568.5
113.0	476.5
113.5	508.0
113.0	514.5
113.0	521.5
113.7	528.3
113.7	545.3
114.7	482.3
114.0	562.0
115.5	495.5
115.0	502.0
116.7	471.7
116.0	556.0
117.0	488.5
117.7	574.3
118.0	538.0
118.5	550.5
119.5	518.0
119.5	524.5
119.0	531.0
119.5	544.5
119.0	567.0
120.0	466.0
120.0	477.0
120.5	512.0
121.5	483.0
121.5	499.0
121.0	505.5
121.3	560.7
122.0	493.5
123.5	555.0
124.0	471.5
124.0	572.5
125.0	488.0
125.5	528.0
125.3	534.3
125.5	541.0
125.0	548.0
126.5	477.5
126.5	509.0
126.0	515.0
126.0	521.5
126.0	566.0
127.0	466.0
127.5	502.5
129.0	483.5
129.0	494.5
130.5	559.0
130.5	571.5
131.0	472.0
131.5	489.0
131.5	538.0
131.7	544.7
131.0	551.5
132.5	512.5
132.0	519.0
132.0	525.0
132.0	531.5
133.0	465.0
133.3	478.7
134.7	498.7
134.0	506.0
134.0	566.0
135.0	484.5
136.5	493.0
137.0	469.5
137.5	541.0
137.5	548.0
137.0	554.5
138.0	516.5
138.0	522.0
138.0	534.5
138.0	572.5
139.0	475.0
139.5	481.0
139.3	487.3
139.0	510.0
139.0	528.0
139.0	561.5
140.3	464.7
140.5	503.0
142.0	496.5
142.0	567.5
143.0	470.5
143.7	537.7
143.3	544.7
143.3	556.3
144.3	490.7
144.0	514.0
144.3	519.7
144.3	531.7
145.5	477.0
145.3	484.3
145.3	507.7
145.0	525.0
145.0	550.5
145.0	574.0
146.5	464.5
146.3	562.3
147.0	501.0
149.5	470.0
149.0	517.0
149.0	542.0
149.7	568.7
150.0	494.0
150.0	528.0
150.0	535.0
151.0	482.0
151.7	488.3
151.0	511.5
151.0	522.0
151.5	555.0
152.0	475.5
152.0	506.0
152.0	548.0
153.5	465.0
153.0	499.5
153.3	562.7
155.0	516.0
155.0	540.5
156.5	471.0
156.5	485.0
156.0	533.0
156.0	570.5
157.0	478.5
157.7	491.7
157.5	497.0
157.5	504.0
157.5	527.0
158.0	510.0
158.0	551.5
158.5	558.0
159.5	465.0
159.0	521.0
159.0	564.0
160.0	545.0
161.0	537.5
162.5	469.5
162.0	475.0
162.5	482.0
162.0	488.0
162.0	501.5
162.0	514.5
162.0	531.0
163.0	569.5
164.3	495.7
164.7	507.7
164.0	525.0
164.5	561.5
165.5	549.0
165.0	555.0
166.7	465.3
166.0	519.0
166.7	542.3
167.7	472.3
167.0	490.5
167.5	536.0
168.5	479.0
168.0	485.0
168.0	500.5
168.5	512.5
169.3	529.7
169.5	566.0
169.0	572.5
170.5	524.0
170.5	558.5
171.0	507.0
171.5	552.0
172.5	495.0
172.0	517.5
173.0	470.0
173.0	540.0
173.0	546.5
174.0	476.0
174.3	482.7
174.0	489.0
174.0	501.5
175.7	528.3
175.0	534.0
175.5	569.0
176.0	511.5
176.0	563.0
177.0	523.0
177.0	556.0
178.5	498.5
178.0	505.0
178.5	517.0
178.3	550.3
179.0	467.0
179.5	473.0
179.0	492.5
179.0	544.0
180.0	479.0
180.5	486.0
180.0	538.5
181.5	533.0
181.5	573.0
182.0	526.5
182.7	567.3
183.0	509.0
183.5	515.0
183.0	521.0
183.5	554.0
183.0	561.0
184.0	503.0
185.0	469.0
185.0	481.0
185.7	490.3
185.0	496.5
185.7	542.3
185.0	548.0
186.0	475.0
187.5	530.5
187.3	536.7
188.0	485.5
188.0	524.0
188.7	557.3
188.5	571.0
189.5	507.0
189.3	512.7
189.0	518.5
189.0	565.0
190.5	469.0
190.5	501.0
190.5	551.0
191.0	480.0
191.5	495.0
191.7	545.3
192.5	489.0
193.5	474.0
193.0	528.0
193.0	539.5
194.0	522.5
194.0	562.0
195.0	484.0
195.5	511.0
195.5	517.0
195.0	534.0
196.0	467.0
196.0	505.0
196.5	556.0
196.5	568.0
197.3	478.3
197.5	493.5
197.0	499.5
197.5	550.0
198.7	543.3
199.7	472.3
199.0	488.0
199.0	527.0
200.3	537.7
201.0	515.0
201.0	521.0
201.0	561.5
201.5	573.0
202.5	467.0
202.0	483.0
202.0	509.0
202.0	532.5
203.3	497.3
203.0	503.0
203.0	555.0
204.5	478.0
204.0	492.5
204.5	549.0
204.7	566.7
205.5	542.0
206.3	487.7
206.0	527.0
207.0	472.0
207.0	513.0
207.0	520.0
207.5	535.0
208.0	507.0
208.3	559.7
208.0	571.5
209.0	466.5
209.0	482.5
209.0	500.0
209.7	553.3
210.0	494.0
211.5	477.0
211.7	540.3
211.0	547.0
212.5	516.0
212.0	523.0
212.5	529.0
212.0	564.5
213.5	471.5
213.0	487.5
213.5	510.5
214.0	504.5
214.0	535.0
214.7	570.3
215.5	466.0
215.5	482.0
215.0	498.5
215.5	558.5
216.5	492.5
216.0	551.5
217.0	545.0
218.0	476.0
218.0	520.0
218.5	538.5
218.5	565.5
219.0	486.5
219.7	502.7
219.5	508.0
219.0	514.0
219.0	526.0
219.0	532.0
220.0	470.0
220.0	573.5
221.0	497.0
222.0	464.5
222.5	492.0
222.5	549.0
222.0	555.5
222.7	561.3
223.0	481.0
224.0	475.0
224.5	518.0
224.0	542.5
224.0	567.5
225.0	487.0
225.5	501.0
225.0	506.0
225.0	512.0
225.0	524.0
225.0	530.0
225.0	536.0
226.0	469.0
227.0	573.5
228.0	496.0
228.0	553.0
229.0	478.0
229.7	484.3
229.0	546.0
229.0	558.5
230.5	515.0
230.5	520.5
230.5	533.0
230.3	564.7
231.0	472.5
231.0	491.0
231.7	502.3
231.0	508.5
231.0	527.0
231.5	540.0
232.5	467.0
233.0	550.0
233.0	571.0
234.7	487.3
234.5	497.0
235.0	482.0
235.5	523.0
235.0	555.5
236.0	476.0
236.0	512.0
236.0	535.0
236.0	545.0
236.5	561.5
237.5	470.5
237.5	529.0
238.5	465.0
238.5	492.0
238.5	501.0
238.0	517.0
238.0	567.5
239.0	506.5
239.7	540.3
239.5	551.0
240.3	486.7
241.0	480.0
241.5	523.0
242.0	474.0
242.0	497.0
242.3	557.3
243.5	468.5
243.0	511.5
243.0	535.0
243.7	546.3
243.0	564.0
245.5	484.0
245.0	491.5
245.5	504.0
245.0	517.0
245.5	529.0
245.0	570.5
246.5	478.0
246.5	540.5
247.0	552.5
248.0	472.5
248.0	522.0
249.0	466.5
249.0	498.0
249.0	513.0
249.7	534.3
249.5	559.0
249.5	565.5
250.0	487.5
250.0	508.0
250.0	545.5
251.5	482.0
252.0	493.0
252.7	502.7
252.5	518.0
252.7	528.3
253.0	476.0
253.5	539.5
253.5	550.5
253.0	570.0
254.0	470.0
254.5	512.5
255.0	464.0
255.5	563.5
256.5	486.5
256.0	497.5
256.0	523.0
256.5	534.0
256.5	544.5
256.0	556.5
257.5	479.5
257.0	507.0
257.0	574.0
258.7	473.7
258.7	517.3
258.5	528.0
260.0	569.0
260.0	468.0
260.5	502.0
260.0	550.5
261.5	512.0
261.0	539.0
261.0	561.0
262.0	483.5
262.0	489.5
262.0	523.0
262.5	533.0
262.5	545.5
263.5	477.5
263.7	496.3
263.0	555.5
264.0	507.0
265.0	471.5
265.0	517.5
265.0	527.5
265.0	566.0
266.0	465.5
266.5	486.5
266.5	550.0
267.5	501.0
268.0	481.0
268.7	491.3
268.0	512.0
268.5	523.0
268.7	532.3
268.5	538.0
268.0	544.0
268.0	560.5
268.5	572.0
269.0	475.0
270.0	555.0
271.0	469.0
271.3	483.7
271.5	497.0
271.0	506.5
271.7	517.3
272.3	527.7
272.7	548.3
272.0	566.0
273.0	479.0
274.0	487.5
274.5	512.0
274.0	542.0
274.3	559.7
275.0	473.5
275.0	502.0
275.7	534.7
275.5	571.5
276.5	468.0
276.5	493.0
276.0	523.0
276.5	553.0
277.0	483.0
278.3	507.7
278.5	517.0
278.5	528.5
279.0	478.0
279.0	498.0
279.0	547.0
279.0	565.5
280.5	540.0
281.0	472.0
281.0	488.0
281.0	558.0
282.0	503.0
282.0	512.5
282.0	523.0
282.5	572.5
283.0	467.0
283.0	492.5
283.0	534.0
283.0	552.0
284.0	482.5
285.5	477.0
285.0	517.5
285.5	528.0
285.0	545.0
285.5	563.0
286.0	498.0
286.0	507.5
287.0	471.5
287.0	488.0
287.7	539.3
287.7	556.3
287.0	568.0
289.0	465.5
289.0	503.0
289.0	512.5
289.0	523.0
289.5	572.5
290.0	482.0
290.0	493.0
290.0	533.5
290.0	550.0
291.0	475.5
292.0	517.5
292.0	544.0
292.5	562.0
293.0	470.0
293.5	487.5
293.0	498.0
293.0	508.0
293.0	528.0
294.5	538.0
294.0	555.5
294.5	568.0
295.3	464.3
295.5	479.0
295.7	512.7
295.0	522.0
296.5	492.5
296.0	503.0
297.0	483.5
297.0	549.0
298.0	474.0
298.0	532.5
299.7	468.3
299.5	498.0
299.5	508.0
299.0	517.0
299.5	527.0
299.0	543.0
299.0	559.0
299.5	564.0
300.0	488.0
301.0	478.5
301.0	521.5
301.0	554.0
301.0	570.0
302.3	463.7
302.7	512.7
302.0	537.0
303.5	483.0
303.0	493.0
303.0	503.0
303.5	548.0
304.0	473.0
305.0	518.0
305.0	531.0
305.5	542.5
306.5	468.0
306.5	488.0
306.5	498.0
306.0	508.5
306.0	524.5
306.0	560.0
306.5	567.0
307.0	478.0
307.7	553.3
309.5	473.0
309.5	503.5
309.0	513.5
309.0	536.5
309.5	547.0
310.0	483.0
310.0	493.0
311.5	520.0
311.0	542.0
312.5	467.0
312.5	498.0
312.5	509.0
312.0	527.0
312.0	563.5
312.5	570.0
313.7	477.7
313.0	488.0
313.0	557.0
314.0	532.5
314.7	551.3
315.0	471.5
315.5	513.5
316.5	483.0
316.0	493.5
316.0	503.5
316.5	523.5
316.0	538.0
316.0	545.0
318.0	560.5
319.5	473.0
319.0	498.5
319.0	518.0
319.0	529.0
319.0	566.5
319.0	572.0
320.0	466.5
320.0	478.5
320.0	488.0
320.0	508.5
320.0	555.0
321.0	535.0
321.5	541.0
321.5	548.0
322.7	492.7
322.7	523.7
323.5	483.0
323.0	503.0
323.0	513.5
324.5	562.5
325.0	471.0
325.0	498.0
325.7	530.3
325.0	568.5
326.0	476.5
326.3	487.3
326.5	508.0
326.0	518.5
326.5	545.0
327.0	465.0
327.3	537.3
327.0	551.0
327.5	557.0
328.5	525.0
329.5	482.5
329.0	492.0
329.5	502.5
330.5	513.0
331.0	470.5
331.7	497.3
331.5	542.0
331.7	567.3
331.5	573.5
332.0	478.0
332.0	520.0
332.7	532.3
332.5	548.0
332.3	560.3
333.0	464.5
333.0	487.5
333.0	506.5
333.7	554.3
335.0	525.5
335.7	538.3
336.0	474.0
336.5	482.0
336.0	493.0
336.0	516.0
337.5	468.5
337.0	500.0
338.0	510.5
338.0	545.0
338.0	569.5
340.0	477.5
339.5	488.0
339.0	521.0
339.0	530.5
339.5	551.0
339.0	557.5
339.0	564.0
340.5	505.0
340.7	535.7
341.5	495.0
342.0	473.0
342.0	526.0
342.7	541.3
343.5	467.0
343.0	483.0
343.0	515.5
344.0	500.5
344.0	509.5
344.0	572.5
345.5	491.0
345.0	531.0
345.0	567.5
346.3	477.7
346.0	521.0
346.0	548.0
346.0	554.5
346.3	560.7
347.0	536.0
348.0	471.5
348.5	487.0
348.5	496.0
348.0	505.0
348.0	542.0
349.5	511.0
349.0	526.5
350.0	466.0
351.0	482.0
351.0	516.5
351.0	532.0
351.0	571.0
352.5	476.0
352.0	501.0
352.0	552.0
352.5	564.0
353.5	491.0
353.0	522.0
353.5	539.0
353.0	545.5
353.0	558.0
354.0	470.5
354.0	506.5
355.5	486.0
355.5	512.0
355.5	527.5
356.0	496.0
357.0	466.0
357.5	480.5
357.0	517.5
357.0	534.0
357.0	569.5
358.5	474.5
358.0	502.0
358.3	522.7
358.0	549.5
358.7	561.7
359.0	543.0
359.0	555.0
360.7	490.7
360.0	508.0
361.5	470.0
361.5	538.0
362.0	484.5
362.5	497.0
362.5	526.0
362.0	531.5
362.0	567.0
363.0	465.0
363.0	478.5
363.0	513.0
363.0	519.5
363.0	573.0
364.0	503.0
364.3	549.3
365.3	556.3
366.0	509.0
366.0	542.5
366.5	562.5
367.5	474.5
367.5	487.0
367.5	523.0
367.5	530.0
367.0	535.0
368.0	468.5
368.0	481.0
368.0	493.0
368.0	516.5
368.5	569.0
369.5	499.0
370.3	505.3
371.0	512.0
371.3	545.3
371.0	551.5
372.0	539.0
372.0	558.0
373.5	465.5
373.0	471.5
373.0	477.5
373.5	483.5
373.0	520.5
373.0	527.0
373.0	532.5
373.0	565.0
374.0	490.0
375.0	495.5
375.5	501.5
375.5	572.0
376.5	509.0
376.0	515.5
377.5	548.5
377.5	554.0
378.7	480.3
378.0	522.5
378.7	529.7
378.0	536.0
378.0	542.5
378.0	560.0
379.0	468.5
379.0	474.5
379.0	486.0
379.0	566.5
380.0	492.0
381.0	497.5
381.5	503.0
383.5	508.0
383.0	513.5
383.3	519.7
383.5	569.5
384.5	466.0
384.0	471.5
384.0	477.5
384.5	483.5
384.5	526.0
384.3	532.3
384.3	538.7
384.0	545.0
384.5	551.0
384.0	556.5
384.0	563.0
385.0	488.5
386.0	494.0
387.5	499.5
388.3	504.7
389.3	469.3
389.0	474.0
389.5	480.0
389.0	510.5
389.0	516.5
389.5	572.5
390.5	464.0
390.0	486.0
390.0	522.5
390.5	529.0
390.7	535.3
390.7	541.7
390.5	548.0
390.5	554.0
390.0	560.5
390.0	566.5
391.7	490.7
392.7	495.7
393.7	501.7
394.0	476.5
394.5	507.0
394.5	513.0
395.3	467.7
395.0	472.0
395.6	488.2
395.0	519.5
396.0	482.5
396.0	525.5
396.3	531.7
396.5	551.0
396.0	557.0
396.5	563.0
396.0	569.0
397.0	538.0
397.0	544.0
398.0	492.5
399.7	472.3
399.5	498.0
400.0	478.0
400.0	503.5
400.0	510.0
400.0	516.0
401.5	466.5
401.0	522.5
402.0	488.5
402.0	528.5
402.0	535.0
402.5	541.0
402.0	559.0
402.0	566.0
403.0	547.0
403.0	553.5
403.0	571.5
404.0	482.5
405.7	493.7
405.5	506.0
405.3	512.3
406.5	470.5
406.0	476.5
406.0	500.0
406.0	518.5
407.5	465.0
407.5	525.0
407.5	562.0
408.0	487.0
408.0	531.0
408.5	537.5
409.0	544.0
409.5	550.5
409.5	568.0
410.0	481.0
410.5	515.5
410.0	556.5
411.3	474.7
411.5	497.0
411.5	503.0
411.0	509.0
412.5	469.0
412.5	491.0
413.0	521.0
413.0	527.5
414.5	534.0
414.7	561.3
415.0	485.0
415.0	540.5
415.5	547.0
416.5	479.0
416.0	513.5
416.0	554.0
416.0	569.5
417.5	473.0
417.0	507.0
418.5	467.0
418.5	495.0
418.0	501.0
418.7	523.7
419.7	517.7
419.0	530.0
420.0	489.0
420.5	536.0
420.5	559.0
421.5	483.0
421.0	543.0
421.7	565.7
422.0	511.0
422.5	549.5
422.0	572.0
423.0	476.5
423.5	505.0
423.3	554.7
424.5	465.0
424.0	471.0
424.0	499.0
424.0	526.5
425.0	493.0
425.0	521.0
426.0	538.0
427.0	487.0
427.0	531.5
427.7	544.7
427.7	560.7
428.0	481.0
428.5	509.0
428.0	516.0
428.0	568.0
428.7	574.7
429.5	474.5
429.0	502.0
430.0	468.5
430.0	524.5
430.0	552.0
431.0	496.0
431.7	535.7
432.0	490.5
433.0	485.0
433.0	512.0
433.3	529.7
433.5	547.0
433.7	563.7
434.0	479.0
434.5	506.0
434.3	540.3
434.5	557.0
435.0	472.0
435.5	517.5
435.0	570.0
436.0	466.0
436.0	500.0
436.0	524.0
438.0	488.5
438.0	494.0
438.0	534.0
438.3	551.3
439.5	476.0
439.3	510.3
439.0	544.5
439.5	561.5
440.0	482.0
440.5	528.0
440.5	573.0
441.5	470.0
441.5	504.0
441.0	521.0
441.0	567.0
442.5	498.0
442.5	539.0
442.5	557.0
443.3	515.3
444.3	486.3
444.5	492.0
444.5	546.0
445.0	477.5
445.0	532.0
446.0	509.0
446.5	551.5
447.5	466.0
447.0	526.0
447.0	562.5
447.0	573.5
448.0	472.0
448.0	483.0
448.5	502.5
448.0	541.0
449.0	519.5
449.7	535.7
450.0	496.0
450.5	557.0
450.5	568.0
451.5	477.0
451.0	489.0
451.0	513.5
451.5	529.5
451.0	546.0
453.5	470.0
453.0	507.0
453.5	523.5
454.7	482.7
454.0	540.5
454.0	551.0
454.0	562.5
455.5	500.0
455.0	574.5
456.5	512.0
456.0	517.5
456.5	534.0
457.5	476.0
457.0	494.5
458.0	465.5
458.0	488.0
458.0	528.0
458.0	545.0
458.0	556.5
458.5	568.0
459.3	506.7
460.0	470.5
461.0	482.0
461.5	521.5
461.0	539.5
461.7	550.7
461.5	562.0
462.0	514.0
463.0	492.5
463.0	499.5
463.0	533.5
463.0	573.5
464.5	527.5
465.0	475.5
465.0	486.5
465.3	544.3
465.5	556.0
465.5	567.0
466.5	468.0
466.0	506.0
467.0	481.0
467.5	518.0
468.0	511.5
468.3	561.7
469.5	496.0
469.0	524.0
469.5	531.5
469.5	539.0
469.5	551.0
470.5	472.0
470.0	489.5
470.5	502.0
470.0	572.0
471.5	483.5
472.0	477.0
472.0	508.5
472.0	545.0
473.0	466.0
473.0	515.0
473.0	557.5
473.0	566.0
474.5	521.0
475.5	492.5
475.0	527.5
475.0	534.5
476.3	498.3
476.5	542.0
477.5	472.5
477.3	479.3
477.0	486.5
477.0	505.0
477.0	550.0
477.5	569.0
478.0	511.0
479.5	465.0
479.0	562.5
480.0	517.0
480.5	524.0
480.0	556.0
481.5	531.0
481.7	537.7
482.0	495.0
482.0	501.5
482.7	544.7
482.0	573.0
483.0	476.0
483.0	483.0
483.0	489.5
484.0	507.0
484.5	513.0
484.5	551.0
485.0	470.0
485.0	558.5
485.0	566.0
486.5	520.0
487.0	527.0
487.7	533.7
488.0	498.0
488.0	541.0
488.5	572.0
489.0	480.0
489.0	486.0
489.0	492.0
489.3	503.7
489.5	547.0
490.5	467.0
490.0	474.0
490.0	510.0
490.0	554.5
491.7	515.7
491.0	561.5
492.5	522.5
492.0	567.5
493.0	529.5
494.5	477.5
494.0	484.0
494.5	536.0
495.5	490.0
495.5	543.0
495.0	574.5
496.0	470.5
496.0	550.0
496.5	557.0
497.5	464.5
497.0	505.0
497.5	511.5
498.0	518.5
498.5	564.0
499.5	480.5
499.3	525.3
500.5	486.0
500.0	532.0
501.5	475.0
501.5	539.0
501.0	570.5
502.0	493.5
502.5	500.0
502.0	545.5
503.0	468.0
503.5	507.0
503.7	552.7
504.0	514.0
504.5	560.0
505.5	521.0
506.0	481.5
506.5	488.5
506.0	527.5
506.0	567.0
507.0	534.0
508.3	470.3
508.0	541.0
508.0	574.0
509.5	476.0
509.5	495.0
509.0	504.0
509.3	547.7
510.0	464.0
510.0	510.0
511.0	516.5
511.0	555.0
512.0	483.0
512.3	523.3
512.0	562.0
513.5	500.0
513.0	530.0
513.5	569.0
514.0	470.5
514.5	489.0
514.0	536.5
515.7	505.7
515.0	544.0
516.0	476.5
516.3	512.3
516.5	550.5
517.0	464.0
517.5	495.0
518.5	519.0
518.7	525.7
518.3	557.3
519.0	483.0
519.0	532.0
519.5	564.5
520.5	501.5
520.0	539.0
521.0	470.5
521.0	571.0
522.0	489.5
522.5	508.0
522.0	546.0
523.0	477.0
523.7	552.3
524.7	464.7
524.5	496.0
524.0	514.5
525.3	521.3
525.0	528.0
525.5	535.0
526.5	484.0
526.0	541.5
526.0	559.5
527.3	471.3
527.5	502.5
527.0	567.5
528.7	490.7
529.5	509.0
529.3	547.3
530.5	477.0
531.7	465.7
531.5	524.5
531.6	531.2
531.5	539.5
531.0	555.5
532.5	497.0
532.5	516.5
532.3	562.3
533.3	484.3
534.0	569.5
535.0	472.0
535.3	503.7
536.5	491.0
536.5	550.0
537.0	522.0
538.0	478.0
538.0	510.0
538.0	535.5
538.0	543.0
538.0	557.0
539.0	465.5
539.0	528.5
539.0	565.5
540.0	485.0
540.0	498.0
541.5	517.0
541.5	574.0
542.5	472.5
543.0	504.0
543.0	547.0
544.0	479.0
544.0	492.0
544.5	532.5
544.5	560.0
545.5	510.0
545.0	524.5
545.0	540.5
546.0	553.5
546.0	567.0
547.5	466.5
547.5	486.0
547.0	499.0
548.0	473.5
548.7	516.7
549.3	573.3
550.7	504.7
550.5	529.5
550.3	546.3
551.0	479.5
551.0	492.5
551.0	537.5
551.0	559.5
553.0	523.0
554.0	471.5
554.0	486.5
554.5	499.0
554.5	511.0
554.0	553.0
554.0	567.0
555.3	464.3
556.5	541.0
557.7	560.7
557.5	573.0
558.0	478.5
558.5	506.0
558.0	518.0
558.5	526.5
558.0	533.5
558.0	547.5
559.5	492.5
560.5	468.5
560.0	486.0
561.3	554.3
561.5	567.0
562.5	474.0
562.7	500.3
562.0	512.0
563.0	543.0
564.0	481.0
564.5	523.0
564.7	536.7
564.5	573.0
565.5	529.5
565.5	549.0
565.5	561.0
566.0	487.5
566.5	507.0
566.0	517.0
567.5	494.5
568.0	467.5
569.0	475.5
569.0	554.5
569.5	567.5
571.0	501.8
570.0	541.5
571.0	482.0
571.0	522.0
572.5	489.0
572.7	514.3
572.3	534.7
572.5	574.0
573.5	508.5
573.0	560.5
574.0	471.5
574.0	548.0
575.5	494.0
576.5	465.0
576.0	528.5
576.7	566.7
577.5	541.5
577.5	554.0
578.0	478.0
578.0	485.0
578.5	522.5
579.5	499.0
579.5	516.5
580.0	510.5
580.7	534.3
580.5	572.5
581.5	470.0
581.5	492.0
581.0	547.5
581.0	560.5
583.5	504.0
584.0	528.0
584.7	567.3
585.0	484.0
585.7	514.7
585.3	540.7
585.0	553.5
586.5	476.0
586.5	521.0
587.5	497.5
587.0	509.0
588.0	560.0
589.5	468.5
589.0	533.5
589.0	547.0
589.0	574.5
590.5	489.0
592.0	526.8
592.3	481.3
592.0	503.5
592.5	554.5
592.3	567.7
593.0	513.0
593.3	540.3
595.2	494.2
597.0	466.8
596.7	548.3
596.0	574.5
597.7	487.3
598.0	507.0
597.0	533.5
597.0	561.5
599.5	479.5
599.0	500.0
600.3	522.7
600.5	568.5
601.7	514.7
601.3	543.7
601.0	555.5
602.0	472.5
602.7	493.3
602.7	536.7
603.0	529.5
604.5	465.0
604.5	484.5
604.0	562.5
605.0	505.5
605.5	549.5
607.0	477.5
607.5	499.0
607.5	518.5
607.5	570.5
608.5	526.0
608.5	542.0
609.5	470.0
609.0	490.5
609.0	511.0
609.5	534.0
611.5	483.0
611.7	561.7
612.5	504.0
613.5	548.0
614.0	475.5
614.0	496.5
614.7	515.7
614.7	529.7
615.0	555.0
615.0	522.5
615.0	569.5
617.0	542.3
617.5	468.0
617.0	488.5
617.5	508.5
619.5	480.5
619.0	501.5
619.0	535.5
620.7	563.3
621.0	494.5
621.8	513.8
621.0	527.5
621.5	549.0
622.0	474.0
623.0	520.8
624.5	486.0
624.5	505.5
624.5	570.0
625.0	557.0
626.0	466.5
626.3	498.3
626.3	542.7
627.5	478.5
628.0	491.5
628.5	563.5
48.0	588.0
48.0	596.5
49.5	580.5
49.3	609.7
53.5	603.5
54.0	594.0
55.0	587.0
57.0	579.0
57.0	608.0
59.3	599.7
60.7	592.3
61.3	584.7
64.0	607.0
65.5	578.0
67.0	589.5
67.5	596.0
69.0	602.5
71.0	610.0
72.3	583.7
73.0	576.5
74.0	592.0
75.0	598.5
76.7	605.3
77.5	613.0
79.3	588.3
80.0	580.5
81.0	594.5
82.5	601.5
84.7	608.3
87.0	576.0
87.0	589.5
88.7	598.3
92.0	583.5
92.0	611.5
94.5	576.0
95.7	598.3
99.0	582.5
100.5	594.0
100.0	612.0
102.7	576.3
103.0	588.0
104.3	600.0
107.5	582.5
107.5	611.5
108.3	593.7
111.7	600.3
112.0	587.5
115.5	581.0
115.0	612.0
116.3	594.7
120.3	587.7
124.5	580.5
127.0	600.0
128.3	588.7
130.0	605.5
131.5	578.0
134.5	601.0
138.0	607.5
139.7	579.3
141.5	586.0
144.5	592.5
147.0	580.0
149.0	587.0
152.3	575.7
152.3	593.7
153.5	582.0
155.5	600.0
157.0	577.0
156.7	588.3
160.0	594.5
162.5	576.0
163.0	602.0
167.5	584.0
171.0	602.5
175.5	585.0
178.5	603.0
179.5	580.0
184.0	585.0
184.0	617.5
187.0	604.0
189.5	596.0
191.0	588.0
220.0	598.5
229.0	608.5
233.5	578.0
234.0	602.0
236.5	609.5
239.5	574.5
244.0	593.5
246.5	600.5
250.3	576.7
251.5	596.0
251.3	613.7
253.5	602.5
257.7	591.3
258.0	581.0
258.5	597.5
263.7	575.3
263.3	587.7
269.5	585.0
270.5	578.0
270.5	592.0
271.0	598.0
276.5	588.0
277.5	595.5
278.5	578.0
278.5	603.0
278.5	610.0
281.0	617.5
286.0	578.5
290.0	594.0
291.5	607.0
292.5	578.0
294.0	589.5
297.5	575.0
301.0	579.5
301.5	588.0
302.7	597.7
305.5	604.0
306.0	574.5
310.0	588.0
312.0	604.5
313.3	576.3
315.0	583.5
317.5	589.0
319.7	579.3
324.5	574.5
330.0	585.5
331.0	601.5
334.0	580.0
334.5	608.0
334.0	615.0
337.0	585.0
340.0	590.5
343.0	596.5
347.3	591.7
348.5	577.0
352.3	581.3
352.7	587.3
354.5	592.0
354.5	609.0
356.5	576.0
356.5	616.0
358.0	598.5
360.5	605.0
362.0	611.0
363.5	579.0
363.0	592.5
365.0	585.0
365.5	599.5
368.3	612.3
369.5	575.0
370.0	594.5
376.5	591.0
377.0	578.0
377.0	584.5
377.0	597.5
381.5	603.0
382.5	594.0
383.0	575.5
383.0	587.5
388.5	599.0
389.3	578.7
389.3	591.7
395.5	595.0
395.5	602.0
395.5	616.0
396.5	575.0
396.0	581.5
396.0	588.5
403.0	577.0
403.0	584.0
403.0	591.0
408.0	613.5
409.5	574.5
409.5	587.0
409.0	594.0
410.0	581.0
415.5	596.0
416.0	576.0
416.0	589.5
417.0	604.0
422.0	593.0
422.5	599.5
423.0	578.5
423.0	586.0
426.0	605.0
428.0	591.5
429.7	581.3
433.0	603.0
434.5	615.5
435.0	577.0
435.0	595.0
436.5	583.5
438.5	608.0
440.0	600.5
442.0	578.5
444.5	584.5
446.0	591.0
446.5	603.5
447.0	611.0
450.5	580.0
451.0	586.5
453.0	593.0
453.0	614.5
454.7	606.7
455.0	599.5
457.0	583.0
457.7	589.7
461.5	594.5
461.7	602.7
461.0	610.5
463.5	585.5
467.3	579.3
467.5	607.0
468.0	597.5
469.5	589.0
474.5	582.0
474.5	605.5
476.0	575.5
480.0	592.5
481.0	580.0
484.0	598.0
486.5	584.0
488.0	577.5
490.5	602.0
492.7	588.3
494.0	581.5
497.0	600.5
503.0	583.0
504.5	596.5
507.5	589.0
507.0	617.5
511.0	601.5
512.7	594.7
514.5	587.5
515.5	575.5
518.3	599.7
520.5	592.5
523.0	578.0
525.5	597.0
528.0	574.5
530.0	581.5
531.0	603.5
533.3	596.3
534.5	576.0
535.3	588.7
536.5	609.0
538.0	581.5
538.3	601.7
540.0	594.0
542.5	587.0
543.3	607.3
545.5	580.0
545.0	599.5
547.0	592.5
550.0	586.0
551.5	606.0
552.5	599.0
553.5	579.0
555.0	592.0
557.0	585.5
559.0	598.0
561.0	579.5
563.3	592.7
565.0	585.5
566.0	600.5
566.5	608.0
568.7	580.3
571.0	588.5
571.3	596.3
573.0	603.5
576.0	582.5
577.5	591.5
579.0	598.5
579.5	606.5
580.5	615.0
583.0	579.0
583.5	586.0
584.7	593.3
586.0	601.0
587.7	608.7
589.0	617.5
590.0	582.0
591.5	588.5
592.0	595.5
593.5	603.0
597.5	582.0
599.0	589.5
602.5	606.0
603.0	576.0
604.0	613.5
605.0	584.0
606.5	591.5
609.0	599.0
610.7	577.7
610.7	607.7
612.3	585.3
615.0	593.0
616.3	602.3
618.5	609.0
619.0	577.0
621.0	584.0
621.7	596.7
624.0	590.0
624.0	603.5
627.0	578.0
628.0	612.0
594.6	248.3
593.9	255.2
593.3	262.1
595.3	168.8
595.3	155.7
598.8	141.9
594.6	219.3
594.6	318.1
593.9	379.0
594.6	385.9
594.6	393.5
593.9	408.0
593.9	473.7
593.3	520.0
114.0	107.5
106.8	106.4
99.5	102.6
89.8	104.4
81.9	106.4
73.6	102.6
69.5	97.8
66.0	102.6
60.1	103.7
52.9	103.0
51.8	109.5
67.7	109.5
58.0	117.5
85.4	99.9
78.8	97.1
80.9	91.2
87.4	93.3
93.0	98.5
101.3	94.7
95.0	90.9
106.1	100.2
108.2	93.6
113.3	99.9
121.0	100.2
116.5	94.3
124.8	94.3
128.2	89.2
132.7	97.1
127.9	102.3
135.5	105.1
141.0	99.2
144.8	105.7
155.5	113.7
153.1	106.8
149.3	98.8
146.5	92.3
136.9	91.2
157.9	100.6
155.5	93.3
165.9	101.3
163.5	95.0
171.1	94.7
174.9	103.0
175.9	89.2
168.0	88.8
183.9	88.1
186.6	94.3
179.7	96.4
182.8	105.1
189.4	100.2
195.3	93.3
196.6	100.9
199.1	107.5
204.6	99.9
202.5	93.6
192.5	88.1
201.1	113.7
205.3	119.6
207.0	107.5
211.2	114.4
213.9	121.0
217.7	126.5
219.1	115.4
223.3	109.5
215.3	109.2
219.1	103.3
212.2	103.7
211.2	96.1
218.1	96.1
231.9	108.5
230.9	102.3
224.3	99.2
230.2	95.0
223.6	91.6
208.4	90.2
141.3	117.2
150.7	125.4
164.8	122.0
117.5	241.6
112.3	238.8
110.6	245.0
230.2	121.6
236.7	98.5
239.5	104.7
240.2	110.6
243.0	117.5
244.7	124.1
246.1	129.9
239.2	127.9
252.6	126.5
249.5	119.2
255.7	118.9
259.6	125.4
263.0	114.4
248.8	113.0
244.3	100.6
251.9	100.2
246.8	106.8
255.7	105.4
256.4	112.0
336.8	242.6
262.8	120.6
268.7	125.8
270.4	119.6
270.1	112.0
262.5	107.1
270.1	105.4
261.1	101.3
257.6	95.7
248.0	94.3
241.4	91.6
267.7	98.1
266.6	91.2
276.6	115.8
276.3	123.0
281.8	126.8
283.2	119.6
283.6	111.6
276.0	107.8
275.3	100.9
283.2	104.7
274.6	93.6
281.5	97.8
290.1	109.5
290.1	101.9
289.8	116.1
288.7	123.4
296.4	121.0
295.0	127.9
303.6	124.8
297.0	113.0
289.8	94.7
282.5	90.2
297.4	97.4
306.7	98.8
304.3	90.2
294.6	88.5
297.4	105.4
303.3	118.2
306.0	104.7
304.6	110.6
311.2	115.8
312.2	108.5
310.5	122.3
317.1	125.8
309.5	128.9
318.5	118.5
325.0	122.0
324.7	129.2
327.1	115.4
320.2	111.6
321.2	104.7
314.3	100.2
322.6	97.4
312.2	93.3
327.5	108.9
328.8	100.9
335.8	104.7
339.9	110.9
347.2	109.5
346.8	115.8
345.4	122.3
345.1	128.9
352.7	126.8
353.0	118.9
359.6	123.7
359.6	116.8
354.1	112.0
356.8	105.1
349.9	103.0
342.0	103.0
335.4	97.8
345.8	97.4
328.5	93.3
320.9	90.9
339.6	93.0
355.5	98.1
361.0	109.9
365.5	115.8
366.2	122.7
374.5	124.4
380.3	127.9
370.0	110.6
372.4	117.2
382.8	112.7
380.7	120.6
376.5	107.1
387.9	124.8
389.7	117.8
390.7	109.9
399.0	113.3
395.2	120.6
400.7	125.4
404.2	118.5
411.8	118.5
408.0	124.8
415.9	126.1
423.2	125.4
386.2	104.0
366.5	103.7
363.1	97.1
374.1	99.9
371.4	92.3
382.1	96.8
391.7	96.1
395.2	102.3
402.5	107.1
408.3	111.3
402.1	99.5
427.6	119.6
431.7	125.4
435.9	118.9
439.7	126.5
444.9	120.6
444.9	113.0
451.8	115.1
454.5	122.0
460.8	117.5
466.3	112.3
473.6	113.3
438.3	112.0
430.4	112.3
422.8	113.7
415.5	110.9
410.3	104.4
414.1	97.4
418.3	104.4
425.2	107.8
424.8	101.3
433.1	105.7
432.8	99.2
442.8	105.1
440.7	99.2
451.1	107.8
450.1	98.8
407.5	93.0
423.1	94.0
457.3	102.6
456.6	95.4
464.9	98.5
436.2	93.6
446.3	92.3
290.0	269.6
373.3	302.8
402.7	301.0
479.4	128.6
493.6	127.2
493.3	119.6
489.8	114.7
485.7	109.2
464.2	106.4
471.8	107.1
472.2	100.2
478.4	101.6
477.7	108.9
502.2	128.9
516.1	126.8
514.0	118.9
497.8	113.3
486.3	101.9
493.3	108.2
494.3	101.3
488.8	96.1
480.5	95.4
472.2	94.3
464.2	91.6
502.2	107.8
506.4	115.4
506.0	101.6
498.1	96.4
505.0	94.3
512.3	96.8
513.7	104.4
509.5	109.2
515.4	112.0
521.9	114.7
522.3	107.1
520.6	99.9
528.5	111.6
527.8	121.6
534.4	115.1
536.1	107.8
529.2	104.4
527.5	97.8
519.5	93.0
536.5	100.2
534.0	94.0
544.4	99.5
543.0	106.1
547.2	109.9
541.3	114.4
539.6	129.9
543.7	122.7
550.6	122.7
556.2	128.9
565.2	138.2
570.0	126.5
584.9	124.1
583.5	117.2
591.8	126.8
591.1	119.9
583.8	109.9
568.6	109.2
560.0	111.6
547.2	116.5
553.4	114.0
556.5	118.5
567.9	117.8
553.1	105.1
553.1	98.5
561.3	103.7
561.7	97.1
569.0	99.9
542.3	92.3
550.6	91.9
558.2	90.9
566.9	92.6
582.1	102.6
576.9	97.4
573.8	90.5
584.9	94.7
590.0	105.1
591.4	97.8
596.6	108.2
343.3	244.3
345.7	248.5
432.4	285.5
404.8	271.0
407.2	266.5
599.5	99.2
605.0	105.1
613.6	105.4
608.1	97.8
596.4	92.6
580.8	88.1
604.3	91.9
621.6	105.4
620.2	114.4
576.3	138.2
587.0	132.4
582.5	136.5
626.1	128.2
630.9	136.5
516.9	145.8
512.0	149.3
540.4	398.5
424.9	431.7
419.7	418.2
415.3	416.2
490.3	421.0
466.8	450.7
494.8	497.7
404.5	371.2
346.1	337.7
459.8	578.4
501.7	576.6
510.0	580.8
517.2	581.5
523.1	585.3
528.6	590.1
478.5	587.0
486.1	591.8
492.3	595.6
499.9	590.8
600.5	597.7
595.0	611.2
597.1	619.5
605.0	623.0
598.8	627.4
590.5	625.4
593.9	632.6
611.6	616.0
621.3	616.4
617.4	624.0
609.8	629.2
602.9	636.1
584.3	629.9
576.7	629.9
581.5	623.0
574.2	620.5
572.5	611.9
566.3	616.4
562.5	623.0
569.1	625.4
569.8	632.6
580.5	637.1
588.4	637.5
559.3	605.3
558.6	612.2
549.9	614.0
541.6	616.0
547.5	621.6
555.5	619.5
555.5	627.1
547.5	629.2
540.6	623.3
539.9	629.2
534.0	624.3
532.0	630.9
534.7	616.0
529.9	610.9
521.6	612.6
523.3	605.7
516.4	607.4
509.2	610.2
503.6	604.3
501.2	611.9
496.0	607.7
487.7	609.8
482.5	604.6
476.0	598.4
466.0	615.3
472.2	612.9
480.1	611.5
477.7	616.7
477.4	622.6
472.2	619.5
466.0	622.3
459.4	618.8
453.5	622.3
458.4	626.8
472.9	627.1
465.6	629.9
481.5	628.5
485.0	616.7
493.6	614.0
490.8	619.8
498.8	618.8
484.6	623.3
496.7	625.7
489.5	628.1
504.3	624.3
511.9	623.0
516.1	615.7
520.2	620.5
527.5	617.4
525.7	625.7
517.5	629.2
509.5	629.5
501.6	631.9
492.6	634.4
523.3	634.0
562.0	630.2
447.5	597.7
258.1	492.0
401.5	598.1
410.2	601.2
414.3	612.2
421.9	611.2
430.6	610.5
427.5	616.7
419.5	618.1
424.3	623.6
432.3	623.0
441.3	615.3
447.2	619.5
439.2	621.9
446.1	626.4
438.9	628.5
431.3	629.5
438.9	635.7
446.5	633.7
452.3	630.9
459.3	634.7
475.5	635.4
411.9	619.2
409.8	607.4
402.2	605.3
401.2	611.9
395.0	608.1
388.4	605.3
388.4	612.9
371.8	601.9
367.3	606.7
374.9	608.1
382.5	610.2
376.6	615.0
370.4	620.2
363.2	618.5
355.6	623.0
363.5	624.7
371.5	627.1
378.7	621.9
383.2	618.8
389.8	620.5
384.6	626.4
378.4	631.2
404.3	618.8
397.4	623.0
391.9	627.4
387.0	635.4
406.7	625.0
416.0	625.0
400.5	630.2
411.9	631.9
422.6	629.9
428.1	635.0
429.2	597.7
433.0	588.0
440.2	591.2
416.4	582.2
383.4	581.8
389.7	584.9
370.7	581.1
370.7	587.7
345.4	584.6
337.8	575.3
341.6	580.4
358.6	582.2
359.3	588.0
349.6	614.0
341.6	618.8
342.6	612.9
340.2	606.7
347.5	607.1
346.4	601.5
350.6	597.0
353.7	602.2
337.8	601.5
336.4	596.0
327.4	580.4
322.2	585.3
332.6	591.2
326.0	590.8
329.8	596.0
320.9	594.6
312.9	594.3
307.7	582.2
295.6	583.6
290.1	583.6
287.7	588.4
281.8	583.9
275.6	582.5
264.5	581.1
282.2	590.5
283.9	598.1
285.3	605.7
286.3	612.2
290.8	600.8
296.3	596.0
298.7	603.9
294.2	613.6
300.8	609.5
307.4	611.5
306.0	592.9
309.1	599.1
317.1	600.1
324.7	600.5
319.8	606.4
326.7	606.4
322.2	612.2
314.3	611.9
302.2	615.7
318.1	617.4
326.7	617.4
320.9	623.3
311.9	620.5
288.4	619.5
296.7	621.6
305.3	622.6
309.8	627.8
317.8	630.2
334.0	621.6
328.1	625.4
348.2	623.6
339.5	626.1
353.4	629.9
331.9	631.2
259.7	429.7
300.0	627.1
305.2	633.0
295.2	631.9
291.0	626.1
282.4	623.6
275.1	624.0
272.7	617.4
266.1	615.3
270.3	611.5
270.6	605.3
265.1	601.9
264.4	595.0
259.9	604.6
255.8	609.1
264.4	608.8
259.2	614.7
248.2	606.7
243.3	611.9
240.9	605.0
239.5	598.4
235.4	594.6
229.2	597.0
230.9	590.1
231.2	583.6
239.2	581.1
238.1	588.4
244.7	576.6
250.6	588.4
255.1	584.9
248.2	581.8
244.0	586.3
267.9	621.6
261.0	622.3
263.4	628.5
269.9	628.8
277.9	629.2
285.5	630.2
280.7	636.8
273.4	635.7
345.6	631.9
254.0	620.2
255.1	627.4
244.4	618.5
247.8	624.0
231.9	616.0
222.2	612.6
225.7	619.8
238.8	618.8
234.0	623.0
240.9	626.4
247.8	632.3
228.1	627.1
235.4	631.2
217.8	618.5
220.5	625.0
223.6	633.0
210.5	620.5
212.9	613.3
208.1	605.3
214.6	605.3
222.6	605.3
212.9	597.7
206.4	598.1
198.4	596.3
195.6	590.8
202.5	591.2
198.1	584.9
192.5	581.1
186.3	577.0
193.9	574.6
199.8	579.1
205.3	583.6
206.4	577.3
212.9	575.6
212.6	581.8
217.1	578.0
227.1	578.4
220.5	581.8
225.0	586.0
222.2	592.2
217.4	586.3
215.7	592.9
210.8	587.0
208.8	592.5
176.3	574.6
171.4	578.4
109.9	575.9
161.4	583.2
164.9	590.5
168.0	597.0
170.8	589.1
175.2	595.6
178.7	591.5
185.6	591.5
182.5	597.4
134.1	583.9
136.9	591.5
131.3	594.6
123.1	593.9
148.6	598.1
145.5	608.1
141.0	599.8
151.0	605.3
158.7	607.1
166.3	608.4
174.6	609.8
181.8	609.5
177.0	617.1
169.4	614.3
170.8	621.6
179.7	624.7
193.9	601.9
200.8	603.6
188.0	611.2
194.6	608.1
205.0	610.9
197.4	615.0
191.5	618.8
203.6	617.8
198.1	623.0
188.7	625.7
206.4	627.1
214.0	631.2
196.0	630.9
206.4	635.7
182.5	633.0
172.8	628.5
161.4	614.0
164.5	621.6
154.2	611.5
147.2	616.4
127.2	610.5
122.0	614.3
118.9	618.5
128.6	619.5
137.2	624.7
143.1	621.6
155.2	617.8
149.3	623.6
157.6	623.6
161.1	628.8
144.1	628.5
113.0	606.4
105.8	605.7
98.2	605.3
90.6	603.9
95.4	588.0
92.3	592.9
84.7	582.5
121.3	606.4
118.9	600.8
151.4	632.6
167.6	633.7
122.4	624.7
129.6	629.2
110.6	618.5
102.7	618.1
94.7	618.1
99.2	625.0
107.5	625.4
115.1	627.1
122.4	633.3
103.7	632.6
91.6	624.7
86.4	617.8
78.1	621.2
83.7	627.4
93.7	633.3
76.0	629.2
69.8	625.0
70.9	618.5
54.3	615.3
56.3	622.3
63.3	628.8
61.9	613.3
64.3	620.5
69.8	634.4
83.0	636.1
47.7	617.8
47.4	626.4
55.0	631.9
62.2	638.9
40.8	622.3
42.2	612.6
43.6	604.6
141.4	613.3
133.4	613.3
136.9	618.1
216.1	230.1
219.6	291.3
270.1	327.2
244.5	334.5
230.0	349.3
226.9	354.5
367.9	206.6
366.5	211.4
267.7	388.4
265.9	393.2
273.5	387.4
278.4	389.4
280.5	386.0
311.6	390.8
307.4	392.9
308.1	387.7
302.6	390.1
297.7	385.6
293.6	386.7
290.1	383.6
294.3	381.8
296.7	371.1
298.8	367.7
290.5	295.4
295.7	297.2
245.9	330.7
