     x      y
90.7	158.7
90.0	174.5
90.0	189.5
90.0	240.0
91.0	146.0
91.5	210.0
91.0	223.0
91.0	232.0
93.3	197.0
95.3	152.3
95.5	164.5
95.3	183.3
95.0	216.5
96.5	203.0
98.0	229.0
98.0	236.0
99.0	158.3
98.5	172.0
98.5	190.5
99.7	145.7
99.0	209.0
99.5	222.0
100.0	178.0
101.3	197.3
103.0	216.5
103.3	152.3
103.0	165.5
104.0	233.3
104.0	185.0
104.3	203.3
106.0	227.3
106.0	239.5
106.0	172.5
106.0	192.0
106.5	210.0
107.5	159.0
108.7	179.3
109.7	145.7
109.0	199.0
109.5	221.0
110.7	166.3
111.7	186.7
111.5	214.5
112.0	206.0
112.7	234.3
113.0	152.5
114.0	227.0
114.3	174.3
114.0	194.0
117.0	160.0
116.5	200.5
117.3	181.3
117.0	219.5
118.5	146.5
118.7	167.7
119.5	188.5
119.0	207.0
119.0	213.0
119.5	231.0
119.0	238.0
121.3	153.3
122.5	175.5
122.5	195.5
122.5	224.0
124.5	139.0
124.7	161.3
124.5	217.0
125.0	202.5
126.0	132.0
126.3	147.3
126.0	182.5
126.0	210.0
126.3	235.3
127.5	169.5
128.0	190.5
128.0	228.5
129.0	155.5
130.0	198.0
130.3	221.3
131.3	176.7
131.5	240.5
132.0	141.5
132.0	206.0
132.5	214.0
133.0	134.0
133.0	163.0
133.7	184.3
133.5	233.5
134.0	149.5
135.3	226.3
136.0	192.0
137.5	157.0
137.0	171.5
137.5	200.5
137.5	219.0
138.0	207.0
139.0	143.5
139.5	180.0
139.5	240.0
141.7	136.7
141.0	164.0
141.0	188.0
141.0	231.5
142.3	150.7
142.0	212.5
142.5	225.0
143.0	195.5
144.3	169.7
144.5	204.0
145.5	176.0
145.0	219.0
145.5	236.0
146.0	144.5
146.5	158.0
146.5	183.5
147.0	130.5
147.3	241.3
148.7	190.7
148.5	210.0
148.0	229.5
149.5	164.5
150.0	138.5
150.3	151.3
150.5	198.0
150.5	216.0
151.0	172.0
151.0	223.0
152.3	178.3
152.7	204.3
153.3	235.3
154.0	131.5
154.0	145.0
154.0	185.0
154.5	229.0
155.5	159.0
155.5	192.0
155.5	211.0
157.7	152.3
157.5	166.0
157.5	173.0
157.5	218.0
158.3	138.3
159.5	180.0
159.0	200.0
159.5	224.5
160.0	232.0
161.5	187.0
161.0	206.5
161.0	238.0
162.3	132.3
163.5	145.5
163.0	169.0
163.5	194.0
163.5	213.0
165.0	154.5
165.5	162.0
165.5	175.0
165.5	220.0
166.0	138.5
166.5	181.5
166.5	201.0
166.3	227.3
167.0	234.5
168.7	208.3
168.0	241.0
169.5	188.0
171.0	143.5
171.0	150.5
171.0	169.0
171.0	195.0
172.3	157.3
172.5	176.5
172.5	215.5
172.5	223.0
173.3	134.3
173.5	202.0
173.0	230.0
174.5	163.0
174.5	182.5
174.0	237.0
176.5	209.0
177.0	189.0
178.7	141.7
178.0	150.5
178.0	168.5
179.3	195.3
179.5	220.5
179.5	227.0
180.0	157.5
180.0	175.5
180.0	214.5
180.0	234.0
180.5	240.5
181.0	135.5
181.5	203.0
183.2	163.4
182.5	182.5
183.5	146.0
184.5	151.5
184.3	189.3
185.5	170.0
186.5	196.0
186.0	209.5
186.0	217.0
186.5	224.0
186.5	230.5
186.5	237.0
187.5	158.0
187.5	177.0
189.5	132.5
189.5	202.5
190.0	144.5
190.5	165.0
190.0	184.0
192.5	152.0
192.0	190.0
193.0	214.0
193.3	138.3
193.7	172.3
193.0	208.0
193.3	220.3
193.0	227.5
193.0	234.0
193.5	240.0
194.5	197.0
195.5	159.5
196.5	179.0
197.3	130.3
197.0	185.5
197.5	204.0
198.5	145.5
198.5	166.0
199.5	153.0
199.0	192.5
199.5	237.0
200.0	210.0
200.0	223.0
200.0	230.0
201.0	216.5
202.0	136.5
202.0	173.5
202.0	199.0
204.3	159.3
204.0	188.0
204.5	206.0
205.0	150.5
205.3	180.7
206.0	130.5
206.0	142.5
206.5	168.0
206.0	194.0
206.5	212.0
206.7	232.7
206.5	239.5
207.5	226.0
208.0	219.0
209.3	175.7
209.0	200.0
210.0	135.0
210.0	188.0
211.3	155.3
211.5	162.5
211.5	207.0
212.0	147.5
212.7	194.3
213.5	140.5
213.5	182.0
213.7	222.7
213.0	236.0
214.0	171.0
214.0	214.0
214.5	229.0
216.3	201.3
217.5	151.0
217.0	158.5
217.5	177.0
217.0	189.0
218.5	165.5
218.0	208.0
218.0	239.0
219.7	142.7
219.0	219.0
220.0	135.0
220.5	183.0
220.0	195.5
221.0	214.0
221.0	225.0
221.0	232.5
222.5	161.5
222.0	171.5
223.5	154.5
223.0	202.0
224.0	189.5
225.0	147.5
225.0	177.5
225.3	208.7
225.0	239.0
226.0	140.5
226.5	167.0
226.5	228.0
227.0	196.5
227.0	215.5
228.0	132.0
228.0	184.0
229.0	160.0
229.5	222.0
229.0	234.0
230.5	152.5
230.0	172.5
230.0	203.0
231.0	190.5
231.5	240.0
232.3	145.3
232.3	210.3
233.0	137.5
233.0	165.5
233.5	229.0
234.5	177.5
234.3	184.7
234.0	197.0
235.5	158.0
235.0	217.0
237.0	151.0
237.3	170.3
237.0	204.5
237.0	223.5
237.3	236.7
239.0	190.0
239.3	211.7
240.8	136.3
240.0	144.5
240.0	163.5
240.5	182.0
240.7	229.7
241.0	198.0
242.0	155.5
242.0	175.5
242.0	217.5
243.3	206.3
244.5	169.0
244.0	224.5
244.0	237.5
245.0	149.0
245.0	193.0
246.0	141.5
246.0	187.0
247.0	161.5
247.7	180.3
247.3	230.3
248.0	135.5
248.0	199.0
249.0	213.0
248.0	220.0
249.5	154.0
249.3	173.7
250.0	207.0
250.7	236.3
251.0	166.5
251.0	191.5
251.0	225.0
252.0	147.5
253.0	140.0
253.5	185.0
253.5	202.0
254.0	159.5
254.3	178.3
254.0	230.0
255.7	171.3
255.0	219.0
255.0	241.0
256.0	196.0
256.5	207.5
257.0	152.5
257.0	235.0
258.0	165.0
258.3	189.3
258.5	224.0
259.5	145.0
259.0	213.0
260.0	176.0
260.0	201.5
261.0	158.5
261.0	182.5
261.5	230.0
261.0	239.5
262.5	195.0
262.5	218.0
263.0	170.0
263.5	207.0
264.0	151.5
265.5	224.0
265.0	235.5
266.7	144.3
266.5	164.0
266.5	176.0
266.0	188.0
267.0	200.0
267.5	213.0
268.5	157.5
268.5	230.0
269.5	182.0
269.5	206.0
270.0	170.0
270.0	193.5
270.0	219.0
271.8	138.0
271.0	151.0
272.0	225.0
272.0	236.5
273.5	145.0
273.0	163.5
273.7	175.7
273.5	187.0
273.3	199.3
273.3	210.3
275.7	156.7
275.0	215.5
275.5	231.0
276.7	204.7
277.5	169.5
277.5	181.0
277.0	193.0
277.0	221.0
278.5	150.0
279.0	135.5
279.5	226.0
279.0	237.0
280.0	142.5
280.0	162.5
280.0	210.0
281.0	175.0
281.0	186.5
281.0	199.0
282.5	216.0
282.5	231.0
283.0	155.5
284.0	168.5
284.7	180.7
284.5	205.0
285.0	193.0
285.0	222.0
286.0	132.0
286.0	148.5
286.0	236.0
286.5	241.5
287.3	162.3
287.5	211.0
288.0	175.0
288.5	199.0
288.0	228.0
289.0	186.5
290.0	144.0
290.0	217.0
291.0	155.5
291.0	168.0
291.7	233.3
292.7	136.7
292.5	181.0
292.0	192.5
292.0	205.0
292.5	223.0
292.0	238.5
294.3	149.3
294.5	211.0
295.0	162.0
295.5	199.0
295.5	229.0
296.0	174.5
297.0	143.5
297.0	186.0
297.0	217.5
297.0	241.0
298.0	235.0
299.0	138.0
299.0	155.0
299.0	167.5
299.7	192.7
299.0	205.5
299.3	223.7
300.0	180.5
301.0	212.0
302.5	149.0
302.7	161.3
302.0	200.5
302.0	230.0
303.0	174.5
303.0	218.5
304.0	142.5
304.5	186.5
304.0	237.5
306.0	135.0
306.3	154.7
306.5	168.0
306.0	195.0
306.0	208.0
306.5	224.0
307.0	180.0
307.5	214.5
308.7	202.3
308.0	231.0
309.7	148.3
310.0	161.5
310.5	174.0
310.0	191.0
310.3	236.7
311.0	140.5
311.5	219.0
312.0	185.5
313.5	133.0
313.0	167.5
313.0	197.5
313.7	210.0
313.0	226.0
314.0	155.5
315.0	179.5
315.5	233.0
316.0	145.5
316.0	239.5
317.0	161.5
317.0	173.5
317.0	191.0
318.7	138.7
318.0	203.0
318.0	221.5
319.5	151.0
319.0	185.0
319.5	197.0
319.0	215.0
319.0	228.5
320.0	167.0
320.5	209.0
322.5	157.5
322.0	178.5
322.0	236.0
323.0	144.5
323.5	191.0
324.7	171.7
324.3	218.3
324.0	225.0
324.5	231.0
325.0	199.5
325.0	205.0
326.5	151.5
326.7	164.3
326.0	184.0
326.0	212.0
327.0	136.0
327.0	241.0
328.5	177.0
329.0	196.0
329.0	235.5
330.6	144.2
330.0	157.5
330.5	189.0
330.5	222.0
330.5	229.0
331.5	208.5
331.0	216.0
332.0	170.5
332.5	202.0
333.0	131.5
333.7	151.3
333.0	182.5
334.5	163.5
334.5	239.0
335.0	138.0
335.5	233.0
336.0	176.0
336.0	194.5
336.3	219.3
336.0	226.0
337.5	144.5
337.5	213.0
338.0	157.5
338.5	188.0
338.0	206.0
339.5	169.0
340.0	132.0
341.0	151.0
341.0	181.5
341.0	200.0
341.5	237.5
342.0	138.5
342.7	217.7
342.0	224.0
342.0	230.5
343.0	163.0
343.0	193.0
344.0	175.0
344.0	211.5
345.3	144.3
345.5	157.0
345.5	187.0
346.0	205.5
347.3	132.7
347.7	168.3
347.5	198.0
347.0	234.5
348.5	151.0
348.5	181.0
348.5	221.5
348.0	228.0
349.0	216.0
349.5	239.5
350.0	139.5
350.0	191.5
351.0	161.5
351.3	210.7
352.5	146.0
352.5	174.5
352.0	203.0
352.7	185.7
353.0	233.0
354.0	155.0
354.5	196.5
354.0	225.0
355.7	132.7
355.0	168.0
355.0	179.5
355.0	218.0
356.5	240.0
357.0	139.5
357.0	190.0
357.0	207.5
358.5	148.0
358.5	161.0
358.0	229.5
359.0	201.5
360.0	184.0
360.0	213.0
360.3	223.7
360.0	235.0
361.5	155.0
361.0	175.5
362.0	167.5
362.0	195.0
363.0	134.0
363.5	142.5
363.5	207.0
363.0	218.0
363.5	241.0
364.5	189.0
364.3	229.3
365.3	149.3
365.5	160.0
366.0	201.0
367.0	172.5
367.0	182.5
367.0	213.5
367.0	224.0
367.0	235.0
369.3	138.0
369.0	194.5
370.0	146.0
370.0	154.5
370.0	166.5
370.5	177.5
370.0	207.0
370.0	218.5
370.5	229.5
370.0	241.0
372.0	188.5
373.0	160.5
373.0	200.0
373.7	213.3
374.5	172.0
374.0	224.0
374.0	236.0
375.0	183.0
376.0	134.0
376.7	141.7
376.5	149.0
376.5	194.0
376.5	207.0
377.5	155.0
377.0	219.0
377.5	231.0
377.0	241.5
378.0	166.0
378.3	177.3
379.7	188.3
380.7	199.7
380.0	213.0
380.7	224.7
381.0	159.5
381.5	236.5
382.0	172.0
382.0	182.5
383.7	136.7
383.5	144.5
383.0	206.0
384.3	152.7
384.0	219.0
384.0	230.5
385.3	165.7
385.0	193.0
385.3	212.7
386.5	178.0
387.0	201.0
387.5	224.5
389.0	133.0
389.7	147.7
389.0	158.5
389.5	172.0
389.0	184.5
389.3	207.7
389.0	239.0
390.3	140.3
390.5	216.0
391.5	196.5
391.0	232.5
392.5	153.0
393.0	165.5
393.3	178.3
393.0	221.5
394.0	190.0
394.5	203.0
394.0	227.0
395.5	147.0
395.0	210.5
395.5	237.0
396.0	159.0
396.7	171.7
397.8	135.0
397.3	140.3
397.0	184.0
397.0	216.5
398.0	196.0
399.3	152.7
399.5	207.0
399.0	231.5
400.3	165.3
400.0	223.5
401.0	178.0
401.5	189.5
402.0	130.5
402.5	145.5
402.3	201.7
402.5	213.0
402.0	237.5
403.7	158.3
403.5	218.5
404.5	171.0
404.5	228.0
405.4	137.8
405.0	183.5
406.0	196.0
406.5	233.0
407.3	151.7
407.0	208.0
408.0	164.0
408.0	177.5
408.0	222.5
409.5	189.0
409.3	238.3
410.0	130.5
410.7	144.7
410.0	201.5
410.0	215.5
411.5	170.5
412.0	157.5
412.0	228.0
413.5	183.0
413.0	195.5
413.7	209.3
413.5	233.0
414.0	137.5
414.3	176.3
414.5	221.5
415.5	150.5
416.0	163.5
416.5	202.5
417.5	131.0
417.0	189.5
417.5	216.0
417.0	239.0
418.0	227.5
419.0	144.5
420.0	156.5
420.0	170.5
420.0	178.5
420.0	196.5
420.0	209.5
420.5	233.5
421.0	222.0
422.5	135.5
422.0	185.0
423.5	162.5
423.0	203.0
423.5	239.0
424.0	150.0
424.5	192.0
424.0	215.5
424.5	228.0
425.0	175.0
426.7	142.7
427.5	156.0
427.0	181.0
427.5	198.0
427.5	209.0
427.3	222.7
427.5	234.0
428.0	168.5
428.7	186.7
429.6	135.2
430.7	217.3
430.3	239.7
431.5	148.5
431.5	162.5
431.7	174.7
431.0	228.0
432.0	193.0
433.7	205.3
433.0	212.0
434.7	142.3
434.0	181.5
434.3	198.3
434.0	223.0
434.0	234.0
435.0	168.5
436.7	133.7
436.0	155.5
437.0	187.5
437.5	240.0
438.0	175.5
438.5	217.0
438.0	228.5
439.3	149.7
439.5	162.5
439.0	210.0
440.0	194.5
440.0	202.5
441.5	182.0
441.0	234.5
442.5	169.0
442.0	223.5
443.5	156.0
444.5	144.0
444.5	189.0
444.0	213.0
445.0	200.0
445.5	229.5
445.0	240.5
446.0	175.0
446.3	206.7
446.0	218.5
447.5	150.5
447.3	163.3
448.7	182.7
448.0	195.0
449.5	137.5
449.0	235.5
450.5	170.0
450.0	212.5
450.0	224.0
451.0	201.0
452.0	132.0
452.3	144.3
452.5	157.5
452.0	188.5
452.0	241.5
453.7	176.7
453.5	207.0
453.5	230.0
454.5	195.5
454.0	218.5
455.0	164.5
456.5	151.5
456.3	183.7
456.0	236.0
457.0	138.0
457.7	201.7
457.0	213.0
457.3	224.7
458.5	171.0
459.5	159.0
459.3	189.7
460.0	144.5
461.0	178.5
461.0	195.5
461.0	207.5
461.0	219.5
462.5	166.0
462.0	230.5
463.0	237.0
464.3	151.3
464.0	201.0
464.5	213.0
465.0	173.0
465.0	186.5
465.5	225.0
466.5	136.0
466.5	160.0
467.0	193.0
467.7	218.3
468.5	180.5
468.0	206.5
468.7	235.3
470.5	167.0
470.0	229.0
471.0	155.5
471.0	200.5
472.7	147.7
472.0	174.5
472.0	222.5
473.5	140.5
473.5	187.0
473.0	215.0
474.0	194.5
474.3	240.7
475.5	161.0
475.0	207.5
475.0	233.5
476.5	180.5
477.5	200.0
477.0	227.0
478.0	154.0
478.5	174.0
478.0	220.0
479.0	192.0
479.7	213.3
480.4	139.8
480.0	147.5
480.5	166.0
480.5	239.0
481.0	185.5
481.5	206.0
482.0	232.0
483.0	159.5
483.5	179.0
483.5	225.0
484.0	198.5
485.0	152.5
485.5	172.0
485.5	191.0
485.7	217.7
487.0	211.3
487.0	145.5
487.3	237.3
488.0	137.0
488.0	165.5
488.5	184.5
488.5	230.0
489.0	204.0
490.0	158.5
490.7	177.3
490.7	196.3
491.0	223.0
492.8	150.8
492.5	216.0
493.7	142.7
493.0	170.5
493.5	241.0
494.5	190.0
494.0	209.0
494.3	234.7
495.5	163.5
495.5	202.0
496.5	135.5
496.3	183.7
496.5	227.5
497.7	156.7
497.5	221.0
498.5	176.5
498.0	195.5
499.0	214.0
500.5	169.0
500.5	239.5
501.7	142.3
501.5	149.5
501.0	207.0
501.5	232.5
502.0	189.0
502.5	200.0
503.0	162.0
503.5	182.0
503.3	225.3
504.0	134.0
505.7	154.7
505.0	218.0
506.0	175.0
506.5	211.5
507.5	195.5
507.5	204.0
507.0	237.0
508.0	139.5
508.0	147.0
508.4	167.8
509.0	188.5
509.0	230.0
510.5	160.5
510.7	180.3
510.5	223.0
511.5	133.0
512.0	216.0
512.0	241.0
513.0	153.5
513.5	172.5
513.5	209.0
514.5	193.5
514.5	201.0
514.0	234.0
515.5	147.0
515.7	165.7
516.3	139.3
516.7	185.7
516.0	228.0
517.3	221.3
518.5	158.5
518.5	178.0
518.5	238.0
519.0	214.0
520.0	151.0
520.7	198.7
521.0	170.5
522.0	206.0
522.5	192.5
522.5	226.0
522.3	232.7
523.7	142.7
524.5	163.0
524.0	184.5
524.0	218.5
524.5	240.0
525.5	211.5
526.5	149.0
526.0	155.5
526.0	176.5
527.0	200.0
528.3	136.3
528.7	168.7
529.5	188.5
529.0	223.0
529.3	229.3
530.0	144.5
530.5	182.0
530.0	205.5
530.0	216.5
530.7	235.7
531.3	195.3
533.5	151.5
534.0	160.5
533.5	175.5
533.0	211.0
535.0	130.5
535.3	200.3
535.7	225.7
536.0	190.5
536.0	218.0
536.0	232.5
536.5	240.0
537.5	138.0
537.0	168.0
538.3	181.7
538.5	206.0
539.3	146.0
539.7	194.3
540.3	154.3
541.5	161.5
541.5	175.5
541.3	212.7
542.0	221.5
542.0	228.5
543.0	189.0
543.5	201.0
543.0	235.5
544.3	168.3
546.0	181.0
547.0	149.0
547.0	194.5
547.3	208.3
548.5	216.0
548.5	224.0
548.5	239.0
549.5	134.5
549.3	157.3
549.7	174.3
549.0	231.5
550.5	187.5
550.5	200.5
552.5	166.0
553.7	142.7
554.0	180.0
554.5	205.0
554.0	211.5
555.7	151.7
555.5	173.0
555.0	193.0
555.0	219.5
555.5	227.0
556.5	234.0
557.3	136.8
558.0	160.5
557.0	241.5
558.0	186.0
559.5	199.5
560.0	207.0
560.5	216.0
561.0	168.0
561.3	177.3
562.3	149.3
562.0	192.0
562.0	223.0
562.7	230.3
562.7	237.7
563.5	131.5
563.5	141.5
565.0	155.5
565.0	184.5
565.7	196.7
566.5	163.0
566.0	211.5
567.5	171.0
567.5	203.5
568.3	219.3
568.5	227.0
568.7	239.7
569.0	178.0
569.5	190.0
570.6	137.2
572.3	157.3
573.0	167.8
572.5	196.5
572.0	208.5
573.5	131.0
573.0	184.0
573.0	215.5
575.0	222.5
575.3	229.3
575.5	237.0
576.7	151.7
576.5	203.0
577.5	174.0
577.0	190.5
578.0	138.5
579.7	159.7
579.0	211.0
580.5	218.0
581.5	181.5
581.5	198.0
581.5	225.0
582.0	131.5
582.3	146.3
582.0	167.5
582.3	233.3
584.5	204.5
584.5	241.0
585.7	139.7
585.0	154.5
585.7	174.7
585.0	190.5
586.3	212.3
587.5	219.5
588.0	161.5
589.7	133.7
589.5	198.0
589.5	227.0
590.5	147.0
590.8	234.4
591.7	168.7
591.5	183.0
591.3	206.3
591.8	213.4
593.3	191.7
594.5	155.5
594.5	176.0
594.7	221.7
595.0	140.0
595.5	162.5
596.7	199.7
597.0	134.5
597.5	186.0
597.7	207.7
597.0	228.5
598.5	237.0
599.3	147.3
600.3	171.3
600.5	216.0
602.0	179.5
602.5	193.5
603.7	155.7
603.5	163.5
603.3	223.3
603.5	232.0
604.0	201.5
604.3	210.3
606.0	133.5
606.5	185.5
609.0	237.0
608.0	146.5
608.7	216.7
609.5	178.0
609.7	197.3
609.5	229.0
610.5	169.5
610.3	204.3
611.7	160.7
611.0	222.5
613.3	153.3
614.5	210.0
614.7	231.7
615.5	217.0
616.5	198.0
617.0	224.5
616.7	239.7
617.7	146.7
617.0	166.5
618.2	175.0
619.5	159.5
619.0	204.5
621.0	234.0
622.3	152.3
622.5	181.5
622.5	189.0
623.5	167.5
623.0	210.5
623.7	218.7
624.5	175.0
624.5	197.0
625.5	228.0
625.0	240.5
626.5	144.0
626.5	158.0
628.0	203.5
630.5	164.5
630.0	171.5
630.0	179.0
630.8	186.4
631.0	210.0
630.5	234.0
631.5	217.0
631.7	224.7
632.0	150.5
634.0	240.0
635.3	143.3
635.0	156.5
637.5	191.0
637.5	208.0
637.3	230.3
638.7	182.7
638.5	222.0
639.0	175.5
639.5	215.0
640.5	166.0
641.0	149.0
642.5	157.5
643.7	235.7
644.0	141.5
644.3	204.3
645.5	179.0
645.5	186.5
645.0	194.0
646.5	171.0
646.3	211.3
646.3	227.3
647.5	163.0
647.3	218.3
650.5	147.5
650.5	154.0
651.7	231.7
651.5	239.0
652.0	183.0
652.3	192.0
652.3	200.7
653.5	175.0
653.5	208.0
653.7	222.7
654.3	160.3
654.5	215.0
655.7	166.7
658.5	189.5
658.5	228.5
659.3	196.3
659.5	205.0
660.0	178.5
660.3	235.7
661.5	171.5
662.7	212.3
662.0	220.0
665.0	184.0
666.5	156.0
666.0	193.0
666.0	224.5
668.5	217.5
667.3	239.3
668.0	175.0
668.5	201.0
668.7	208.7
668.0	232.0
669.0	164.5
89.2	313.6
89.5	339.0
90.0	259.5
90.0	266.5
90.5	273.0
90.3	280.3
91.5	253.0
91.5	307.0
91.5	332.0
92.0	351.0
92.5	286.0
92.0	293.5
93.0	325.5
93.5	300.0
94.0	246.5
94.3	318.7
95.5	257.0
95.5	344.0
96.5	263.5
96.0	311.5
97.2	337.4
97.3	269.3
97.5	276.0
98.5	283.0
98.5	290.0
98.5	330.5
99.0	242.5
99.0	297.0
99.5	304.0
100.5	252.0
100.5	324.0
100.5	349.5
101.0	317.0
102.0	259.0
102.7	342.7
103.0	267.0
103.0	311.5
104.5	273.0
104.5	279.5
104.5	287.0
104.3	335.3
105.3	293.3
105.5	300.0
105.7	328.7
106.5	247.0
106.5	306.0
107.5	348.5
108.0	254.5
108.7	261.7
108.5	320.0
110.5	269.0
110.5	283.0
110.7	311.7
110.0	341.5
111.5	276.0
111.5	290.0
111.5	297.5
111.5	333.0
112.5	304.0
112.5	325.0
113.3	242.3
114.0	250.0
115.0	257.5
115.0	317.5
115.0	347.5
116.0	265.0
116.5	287.0
116.0	339.0
117.0	280.5
117.7	293.7
117.5	310.5
117.3	330.3
118.5	273.0
119.0	300.5
120.0	246.5
120.5	260.0
120.0	323.0
121.3	335.7
121.0	343.0
122.5	253.0
122.0	316.5
123.0	266.5
123.0	278.5
123.5	288.0
123.0	349.5
124.5	242.0
124.3	309.3
124.7	328.7
125.0	295.0
126.5	273.0
126.5	302.0
127.3	247.3
127.0	260.0
127.5	284.0
127.5	321.0
128.0	337.0
129.0	314.0
129.0	344.5
130.5	253.0
130.5	278.0
130.0	290.5
131.0	266.0
131.0	297.5
131.5	306.5
131.3	351.3
132.7	325.7
133.5	319.0
133.5	332.0
134.5	272.0
134.5	284.0
134.3	340.3
135.3	246.3
135.0	259.5
135.5	301.0
136.7	294.7
136.0	313.0
137.0	347.0
138.5	266.0
138.7	277.7
138.5	289.0
139.0	253.0
139.0	306.5
139.0	328.5
139.0	335.5
140.0	322.0
141.0	282.5
141.5	342.0
142.5	260.0
142.0	299.5
142.5	316.5
143.0	247.0
143.0	271.5
143.5	311.0
144.0	293.0
144.5	349.0
146.5	254.0
146.5	266.0
146.0	286.0
146.7	304.7
146.5	335.0
147.0	278.0
147.0	328.0
148.7	297.7
148.0	322.0
148.0	342.5
150.0	247.5
150.0	260.0
150.7	271.7
150.0	315.5
151.0	290.5
151.5	309.5
152.5	283.0
152.3	347.3
153.5	254.0
153.3	302.7
153.0	333.0
153.0	339.5
154.0	265.5
154.3	326.7
155.5	242.0
155.0	276.5
155.0	296.0
155.0	320.0
157.0	248.0
157.0	259.5
157.0	288.0
157.5	313.5
158.0	270.5
158.5	307.0
158.3	351.3
159.0	281.5
159.0	300.0
159.0	337.0
159.0	344.0
160.5	293.0
160.5	324.5
160.0	331.0
161.0	253.5
161.0	265.0
162.5	245.0
162.7	275.7
162.0	318.0
163.5	259.0
163.5	287.0
163.5	304.0
165.0	310.0
165.7	269.3
165.3	329.3
165.0	351.0
166.7	280.7
166.0	298.0
166.0	336.5
166.3	344.3
167.7	248.7
167.7	292.3
167.0	322.0
168.3	255.3
168.0	315.0
169.0	263.0
169.7	274.7
170.5	286.0
170.0	304.5
170.7	339.3
171.3	326.3
171.0	333.0
171.0	350.5
173.0	269.0
173.5	279.5
173.3	291.3
173.3	298.7
173.5	311.0
174.0	244.0
174.5	251.5
174.0	318.0
174.0	344.0
175.0	258.0
175.7	264.7
176.5	284.5
176.0	305.0
176.5	324.0
177.0	274.0
177.7	330.7
177.0	337.0
178.5	349.0
179.0	295.0
180.5	247.0
180.5	289.0
180.5	301.0
180.5	308.0
180.5	314.0
180.7	343.3
181.0	254.0
181.0	261.5
181.7	268.7
181.0	279.0
181.5	320.0
183.0	326.5
183.7	332.7
184.0	284.5
185.3	274.3
185.7	291.3
185.0	338.0
185.5	349.0
186.0	297.5
186.5	304.0
186.5	310.0
187.3	243.3
187.0	250.0
187.5	257.0
187.3	264.3
187.3	316.3
188.5	280.0
188.0	322.0
188.0	343.0
189.7	327.7
190.0	270.0
190.5	286.5
191.0	333.0
192.5	260.0
192.5	276.0
192.0	293.0
192.5	300.0
192.0	339.5
192.7	346.7
193.5	247.0
193.5	253.0
193.0	306.0
193.0	313.0
194.0	320.0
195.0	265.0
195.5	282.0
196.5	289.0
196.0	327.5
197.0	271.5
197.0	335.0
197.7	341.7
198.0	257.5
198.0	295.5
198.3	302.3
198.5	309.0
198.3	347.3
199.0	315.5
200.0	243.5
200.5	250.0
200.5	277.0
200.0	321.5
202.5	262.0
202.0	268.5
202.0	284.0
202.5	332.0
203.5	291.0
203.0	326.5
203.3	338.3
203.5	351.0
204.0	255.5
204.0	297.5
204.7	304.7
204.0	311.0
204.0	345.0
205.0	317.5
206.5	273.0
206.7	279.7
207.0	246.0
208.5	252.0
208.5	266.0
208.0	286.5
208.0	322.5
208.5	335.0
209.0	259.0
209.5	314.0
209.0	329.0
209.0	341.0
209.0	348.0
210.0	293.5
210.0	301.0
210.5	308.0
212.5	282.0
213.0	242.5
213.5	249.0
213.5	269.0
213.5	276.0
213.5	319.0
213.5	338.0
214.5	256.0
214.5	288.0
214.7	325.7
214.0	345.0
215.0	262.0
215.0	298.5
215.0	311.5
215.0	332.5
215.0	351.5
216.5	305.0
217.0	293.0
217.3	339.7
218.5	316.0
219.0	252.0
219.0	271.0
219.0	281.5
219.7	328.3
219.5	346.0
220.5	245.0
220.5	265.0
220.0	299.5
220.0	322.0
221.0	258.0
221.5	276.0
221.0	288.0
221.0	311.0
221.3	334.3
222.0	351.5
223.0	294.0
223.5	305.5
223.5	339.5
224.5	269.5
224.5	317.0
225.0	250.5
225.5	278.5
225.7	283.7
225.5	329.0
226.0	262.5
226.0	346.0
227.0	300.0
227.5	323.0
228.0	245.0
228.5	256.0
228.0	289.0
228.0	311.0
228.5	334.0
229.0	274.0
230.0	267.0
230.0	295.0
230.5	305.0
230.0	340.5
231.7	279.7
231.0	317.0
231.3	347.3
232.0	250.0
232.5	285.0
232.3	328.3
233.0	261.0
234.7	270.7
234.0	291.0
234.0	299.0
234.0	310.5
234.3	322.7
235.5	244.0
235.0	255.5
235.0	334.0
235.7	342.7
236.0	275.5
237.5	266.0
237.0	304.5
237.0	316.5
237.5	349.0
238.0	281.0
238.5	287.0
239.0	249.5
239.0	294.0
239.0	338.5
240.0	260.0
240.0	300.0
240.0	309.5
240.5	321.0
240.0	327.0
241.5	254.0
241.5	271.0
241.5	345.0
242.0	243.5
243.0	334.0
243.0	276.5
243.5	283.0
243.0	315.0
243.3	350.3
244.0	265.5
244.0	289.0
244.5	296.0
244.0	304.0
245.7	320.3
245.5	340.0
246.7	249.3
246.0	258.5
246.7	309.7
246.0	330.0
248.0	271.5
248.7	278.7
248.0	346.0
249.0	243.5
249.0	285.0
249.0	292.0
249.0	299.0
249.0	315.0
249.0	325.0
250.5	264.0
250.7	304.7
250.0	334.5
250.0	351.5
252.0	258.0
252.0	320.0
252.7	329.7
252.5	341.0
253.0	252.0
253.5	275.0
253.0	309.5
254.7	246.3
254.5	282.0
254.5	288.5
254.5	347.0
255.0	269.0
255.0	295.0
255.0	300.0
255.5	315.0
255.5	325.0
256.5	336.0
257.0	263.0
257.5	304.5
258.0	257.0
258.5	277.5
258.5	320.0
259.5	251.0
259.0	285.5
259.0	331.0
259.0	342.0
260.5	273.0
260.5	292.0
260.0	309.0
260.0	348.0
261.0	245.0
261.5	281.5
261.0	298.0
262.5	267.0
262.0	314.5
262.0	325.5
263.0	261.0
263.0	337.0
264.5	287.0
264.0	304.0
264.5	344.0
265.0	254.5
265.0	277.5
265.0	320.0
266.5	249.0
266.0	292.5
266.0	309.0
266.0	331.0
266.5	351.5
267.5	272.5
267.5	282.0
267.5	298.0
268.0	242.0
268.0	264.0
268.5	325.0
268.5	340.5
269.0	314.0
270.0	258.5
270.0	288.0
270.0	303.5
270.0	335.5
270.5	346.0
271.0	268.0
271.0	277.5
271.0	319.5
272.5	247.0
272.5	253.0
272.0	293.5
272.5	330.0
273.5	273.0
273.0	309.0
273.0	351.5
274.0	283.0
274.0	299.0
274.5	314.5
274.5	324.0
274.5	340.5
275.0	242.0
275.0	262.5
276.5	278.0
276.5	288.5
276.5	303.0
276.0	346.5
277.5	268.0
277.0	318.5
277.0	334.0
278.0	256.5
278.7	328.3
279.0	250.0
279.0	294.5
279.0	313.0
279.0	350.5
280.0	273.5
280.0	283.0
280.5	344.5
281.0	243.5
281.3	263.7
281.0	307.0
281.0	323.0
281.0	339.0
282.0	300.5
282.5	333.0
283.0	289.0
283.0	317.0
284.5	253.0
284.0	259.0
284.3	269.3
284.0	278.0
284.5	327.0
285.0	247.5
285.5	295.0
285.0	311.0
285.0	349.0
286.5	284.0
286.5	306.0
286.0	343.0
287.0	321.5
287.0	337.5
288.7	273.7
288.5	331.0
289.0	262.5
289.0	289.5
289.0	300.0
289.0	316.0
290.7	250.3
290.0	256.5
290.0	268.0
290.0	279.5
291.5	244.5
291.0	310.0
291.0	326.0
291.0	341.0
291.0	346.5
292.0	295.0
292.5	335.5
293.0	284.5
293.0	305.0
293.0	320.5
294.5	271.0
294.5	276.0
295.5	259.5
295.0	265.5
295.0	290.0
295.0	299.5
295.0	314.5
295.0	330.0
295.0	351.5
296.5	247.0
296.0	253.0
296.0	340.0
297.5	280.0
297.0	309.0
297.0	324.5
297.3	345.7
298.5	286.0
298.5	295.0
298.5	319.0
298.5	334.5
299.0	304.0
300.5	269.0
300.0	274.5
300.5	329.0
301.0	257.0
301.0	263.0
301.0	299.5
301.0	313.5
301.0	340.0
301.5	350.0
302.0	250.5
302.7	290.3
302.5	323.0
303.0	244.5
303.0	283.5
303.0	308.0
304.5	278.0
304.0	333.5
304.0	344.5
305.0	303.0
305.0	318.0
306.5	267.0
306.0	272.5
306.0	297.0
306.0	328.0
307.7	254.3
307.0	261.0
307.0	287.0
307.0	313.0
307.0	339.0
307.5	349.0
308.5	307.0
308.5	322.5
309.5	242.0
309.0	248.0
309.0	281.5
309.7	291.7
309.5	333.0
310.3	301.7
310.5	317.5
310.5	343.5
311.0	276.0
312.0	264.5
312.0	271.0
312.7	296.3
312.5	312.0
312.0	327.0
313.0	258.5
313.0	286.0
313.0	338.0
313.5	348.0
314.0	252.0
314.0	306.0
314.5	322.0
315.3	245.7
315.0	280.0
316.0	291.0
316.0	316.5
316.0	332.0
316.5	342.5
317.0	268.5
317.0	300.5
318.0	262.0
318.0	275.0
318.0	311.0
318.0	326.5
319.0	255.5
319.0	285.0
319.3	295.3
319.0	337.0
319.7	347.3
320.5	305.0
320.0	321.0
321.5	243.0
321.0	250.0
321.3	279.7
322.0	266.0
322.0	290.0
322.5	299.5
322.0	315.0
322.0	331.5
322.5	342.0
323.0	270.5
324.0	260.5
324.5	285.0
324.0	310.0
324.5	325.5
325.5	254.0
325.0	275.0
325.5	336.0
325.5	347.0
326.0	295.0
326.5	304.0
326.0	320.0
327.5	248.0
327.5	280.0
328.0	266.0
328.5	289.5
328.5	314.0
328.3	330.7
328.5	341.5
328.0	352.0
329.5	299.0
329.7	323.7
330.0	260.0
330.0	271.5
330.0	308.5
331.0	284.0
331.5	336.5
331.0	346.5
332.5	244.0
332.0	254.0
332.3	277.7
332.5	294.0
332.5	303.5
332.0	318.0
333.0	327.0
333.5	352.0
334.0	266.0
334.5	313.0
335.5	249.0
335.5	289.0
335.5	298.5
335.5	322.0
335.0	332.0
335.0	342.0
336.6	259.8
336.0	272.5
337.0	283.0
337.0	307.5
337.0	347.0
338.7	263.3
338.5	303.0
338.0	317.0
338.5	327.0
338.0	337.0
339.3	243.7
339.0	254.0
339.0	278.0
339.5	294.0
340.0	268.5
340.5	343.0
341.0	312.0
341.5	333.0
342.5	283.0
342.5	288.0
342.0	299.0
342.0	322.0
343.0	249.0
343.0	258.5
343.0	273.5
343.5	305.0
343.0	349.0
344.5	327.5
344.0	338.5
345.7	264.3
345.0	317.0
346.0	243.5
346.5	269.0
346.0	278.0
346.0	293.5
347.0	254.0
347.0	309.5
347.5	344.0
348.0	283.5
348.0	299.5
348.5	322.0
348.0	333.5
349.5	260.0
349.5	314.5
350.0	249.5
350.3	273.3
350.0	289.0
350.0	305.0
350.5	328.5
350.0	339.0
352.5	266.0
352.5	279.0
352.0	294.5
352.0	318.0
353.0	245.0
353.0	255.0
353.0	309.5
353.5	343.0
354.7	299.7
354.3	324.3
355.0	284.0
355.5	314.5
355.3	330.3
356.7	250.7
356.5	261.0
356.5	274.0
356.5	290.0
357.0	304.5
357.7	348.3
358.5	295.0
358.0	320.0
359.3	245.7
359.7	256.7
359.5	279.0
359.0	310.0
359.5	326.0
359.5	343.0
361.0	285.5
361.0	300.0
361.5	316.0
361.0	332.5
363.0	252.0
363.0	262.5
363.0	290.5
363.0	306.0
363.0	338.0
363.5	347.5
364.5	274.0
364.0	321.5
365.0	268.0
365.5	280.0
365.0	296.0
365.0	311.0
365.5	328.0
365.0	342.5
366.0	247.0
366.5	258.0
367.0	286.5
367.0	301.5
367.5	317.0
367.0	334.0
367.0	352.5
368.3	339.3
369.5	264.0
369.0	291.5
369.0	307.0
369.5	323.0
369.5	346.0
370.0	253.0
370.0	275.5
371.0	281.5
371.0	297.0
371.0	312.5
371.3	329.3
372.5	270.0
372.0	351.5
373.0	247.5
373.0	259.0
373.0	287.0
373.0	302.5
373.0	318.5
373.0	335.0
374.5	325.0
374.0	341.0
375.0	292.5
375.0	308.0
375.3	347.3
376.0	253.5
376.5	265.0
376.0	276.0
376.5	314.0
377.5	282.5
377.0	298.0
377.0	330.5
377.5	336.5
378.0	320.0
379.5	248.0
379.0	259.0
379.0	271.0
379.5	288.0
379.0	304.0
379.5	343.0
380.5	309.5
380.0	326.0
381.0	294.0
381.7	332.3
381.7	348.3
382.3	253.3
382.0	278.0
382.3	315.3
383.0	266.0
383.0	299.5
383.0	339.0
384.0	242.5
384.0	283.5
384.0	322.0
385.5	259.0
385.0	290.0
385.0	305.0
385.0	328.0
385.0	344.5
386.0	273.0
386.5	311.0
387.0	247.5
387.5	296.0
387.0	334.0
387.5	350.0
388.5	264.0
388.5	280.0
388.0	317.0
389.0	253.0
389.5	285.5
389.0	340.0
390.5	291.5
390.0	301.0
390.0	323.5
390.5	346.0
391.0	269.0
391.0	306.5
391.0	329.5
392.0	246.0
392.5	258.0
392.5	276.0
392.0	312.5
393.5	336.0
393.0	352.5
394.7	283.3
394.0	296.5
394.0	319.0
394.7	341.7
395.7	252.3
395.0	264.0
395.0	290.0
396.0	303.0
396.0	325.5
396.0	348.5
397.0	242.0
397.5	268.5
397.5	309.0
398.5	272.5
398.5	315.0
399.5	258.0
399.0	278.0
399.5	344.0
400.0	248.0
400.0	294.0
400.0	321.0
400.0	338.0
401.0	283.0
401.0	288.0
401.5	300.0
402.0	264.0
402.5	306.0
402.0	326.0
403.5	253.0
403.5	312.0
404.0	269.0
404.0	317.0
404.0	347.5
405.0	243.0
405.0	274.5
405.7	279.7
405.0	335.5
405.0	341.5
406.0	258.5
406.3	285.7
406.0	291.5
406.5	322.0
406.0	329.0
407.0	296.5
408.5	248.0
408.0	302.5
409.5	265.0
409.0	309.0
409.0	315.0
409.0	351.0
410.5	254.0
410.5	271.0
410.5	326.5
410.0	332.5
410.0	345.0
411.0	277.0
411.0	282.0
411.0	288.5
411.0	338.5
412.7	259.7
412.5	320.5
413.0	244.0
413.0	293.5
413.3	299.7
414.0	305.5
414.7	311.7
415.0	316.0
415.0	331.0
415.5	342.5
415.0	349.5
416.0	249.5
416.3	268.7
416.5	274.0
416.5	280.0
416.0	285.5
417.0	263.0
417.0	326.0
417.0	336.5
418.5	256.0
419.5	290.0
419.0	296.0
419.0	302.5
419.0	320.5
420.0	244.5
420.3	308.7
420.5	314.5
420.5	331.0
420.5	347.0
421.7	284.3
421.0	341.5
422.5	250.5
422.5	272.0
422.5	278.0
422.3	335.7
423.0	260.5
423.0	266.0
423.5	326.0
424.7	299.3
424.5	304.5
425.0	293.0
425.5	320.5
425.5	345.0
425.0	351.0
426.5	256.0
426.5	288.0
426.3	314.7
426.5	331.5
426.5	339.5
427.0	245.0
427.5	282.0
427.0	309.0
428.0	270.0
428.3	275.7
429.5	263.0
430.0	251.0
430.5	296.5
430.0	303.5
430.0	325.5
430.5	349.0
431.5	286.0
431.5	319.5
431.0	343.0
432.0	313.0
432.0	331.5
432.0	337.5
433.0	257.0
433.5	280.0
433.5	291.0
433.0	308.0
434.0	245.5
434.0	268.0
435.0	301.0
436.0	274.0
436.3	347.7
437.7	251.7
437.0	263.0
437.0	286.0
437.0	295.5
437.5	317.0
437.5	323.0
437.5	329.0
437.5	335.0
437.0	341.0
438.5	305.5
438.3	311.3
440.3	257.3
440.0	269.0
440.0	280.0
440.7	290.7
441.0	246.0
441.5	300.5
441.0	351.5
442.5	345.0
443.5	263.5
443.5	274.5
443.0	315.0
443.0	320.5
443.5	327.0
443.0	333.0
443.0	339.0
444.0	252.0
444.0	285.5
444.0	295.5
444.0	307.5
447.0	258.0
447.0	269.0
447.0	280.0
447.5	291.0
447.5	302.0
447.0	349.5
448.0	247.0
448.0	312.0
448.0	324.5
448.7	336.3
448.5	343.0
449.0	318.0
449.0	330.5
450.7	264.3
450.0	274.5
450.0	296.5
451.0	253.0
451.0	286.0
451.0	307.5
451.5	352.5
452.5	346.5
453.0	323.0
454.0	258.5
454.0	270.0
454.0	280.0
454.0	291.0
454.0	302.0
454.0	313.0
454.5	329.0
454.3	340.7
455.0	247.5
455.0	335.0
457.5	265.0
457.0	275.0
457.0	285.5
457.0	297.0
457.5	308.0
457.0	319.0
457.0	350.0
458.0	253.5
458.3	343.7
459.3	242.7
459.0	325.5
460.5	291.5
460.3	302.7
460.5	314.0
460.5	331.5
460.0	337.5
461.0	259.0
461.0	270.5
461.5	281.0
463.5	309.0
463.0	348.5
463.5	320.5
464.5	248.0
464.0	254.0
464.0	265.0
464.5	286.5
464.0	298.0
465.0	276.0
465.5	327.5
465.0	336.0
465.5	342.0
466.5	314.5
467.5	270.5
467.7	292.3
467.0	304.0
468.0	242.0
468.0	259.0
468.5	281.0
469.0	321.0
469.7	332.3
469.5	348.0
470.0	253.0
470.0	309.5
471.0	265.0
471.0	275.5
471.3	287.3
471.0	298.0
472.0	337.5
471.5	343.5
472.0	247.0
472.0	327.0
473.0	304.0
474.0	259.0
474.5	270.0
474.0	315.0
474.0	321.0
475.0	281.0
475.0	293.0
475.3	348.7
476.7	252.3
476.5	309.0
476.0	332.0
477.5	264.5
477.5	299.0
477.0	342.5
478.5	276.0
478.0	287.0
478.0	326.0
479.7	246.3
479.3	303.7
479.5	337.0
480.3	258.7
480.0	319.5
481.5	270.0
481.5	293.0
481.0	313.0
481.0	348.0
482.0	282.0
482.0	330.5
483.7	251.7
483.5	307.0
483.5	342.0
484.5	264.5
484.7	300.3
484.0	324.5
485.0	276.0
485.0	287.5
485.5	336.0
486.5	245.0
486.0	318.0
487.0	258.0
487.5	347.5
488.5	270.0
488.3	281.3
488.0	293.5
488.0	312.0
488.0	330.5
490.0	252.5
490.7	264.3
490.5	299.0
490.5	305.0
490.3	323.3
490.0	341.0
491.5	287.0
491.7	352.7
492.5	276.0
492.5	335.5
493.0	247.0
493.5	258.0
493.0	317.0
494.0	293.5
494.5	311.0
494.5	329.0
494.0	346.5
495.0	281.5
496.5	270.0
496.5	341.0
497.7	252.3
497.0	263.0
497.0	299.0
497.0	322.5
498.0	287.5
498.0	305.0
498.5	334.0
498.5	352.0
499.5	276.0
500.3	246.7
500.0	316.5
500.7	328.7
500.5	346.0
501.7	257.7
501.0	293.0
501.5	311.0
502.0	282.5
502.5	300.0
503.0	264.5
503.5	322.0
503.0	339.5
504.5	271.0
504.5	306.0
504.5	351.0
505.0	288.5
506.5	245.0
506.3	251.3
506.0	278.0
506.5	328.0
506.0	334.0
507.0	295.0
507.0	318.0
507.0	344.5
508.0	258.5
508.5	284.0
508.0	311.5
509.5	266.5
509.0	301.0
509.5	339.0
511.0	273.0
511.0	290.0
511.0	306.0
511.5	324.5
511.5	332.0
511.5	350.0
512.5	248.0
513.0	254.5
513.5	279.5
513.5	296.0
513.7	317.3
513.7	343.7
514.5	261.0
515.5	303.0
515.0	311.0
516.0	268.0
516.0	285.0
516.0	336.5
517.5	275.0
517.0	329.0
518.3	244.3
518.0	291.5
518.0	348.5
519.5	251.0
519.5	323.0
520.5	257.5
520.0	297.0
520.5	309.0
520.0	315.5
520.0	342.5
521.5	264.0
521.0	281.0
522.5	270.0
522.0	303.0
522.0	336.5
523.7	286.7
524.0	276.5
524.0	329.5
524.5	348.0
525.5	319.0
526.0	248.0
526.0	293.0
526.5	312.5
527.3	253.7
527.5	261.0
527.0	299.0
527.5	306.0
527.0	342.0
528.0	268.0
528.5	275.0
528.5	281.5
528.5	324.0
528.0	335.0
531.0	243.0
531.5	289.0
531.5	329.0
531.0	347.0
532.0	296.0
533.0	302.5
533.0	309.0
533.0	316.0
533.7	322.3
533.5	341.0
534.0	257.0
534.0	264.5
534.5	271.5
534.3	335.3
535.3	278.7
535.0	351.5
536.5	285.0
538.0	291.5
538.5	298.5
538.5	312.0
538.5	346.0
539.0	253.0
539.0	305.5
539.0	318.5
539.0	326.0
539.5	332.5
539.0	340.0
540.0	261.0
540.5	268.0
541.0	274.0
542.0	281.0
543.0	243.0
543.5	288.5
543.5	350.5
544.5	250.0
544.0	295.0
544.5	302.0
544.7	308.7
544.0	316.0
544.5	337.0
544.0	344.0
545.5	257.0
545.5	323.0
545.5	330.0
546.0	264.0
546.5	271.0
547.5	277.0
547.5	284.5
550.5	246.0
550.0	291.0
550.7	304.7
550.0	312.5
550.3	319.3
550.5	341.0
550.0	348.0
551.5	261.0
551.0	297.5
551.3	326.7
551.0	334.5
552.7	267.7
552.5	281.0
553.0	254.0
553.0	274.0
553.3	287.3
555.7	351.7
556.5	294.0
556.5	308.5
556.3	316.3
556.0	345.0
557.0	248.0
557.5	258.0
557.0	301.5
557.0	323.5
557.0	331.0
557.0	338.0
558.5	264.0
558.5	277.0
559.3	270.3
559.5	283.0
559.0	289.0
561.3	252.7
561.5	349.0
562.5	335.0
562.5	342.0
563.7	245.7
563.5	292.0
563.0	298.5
563.0	305.5
563.0	313.5
563.3	320.3
563.0	328.0
564.3	259.3
565.5	265.0
565.3	278.3
565.0	285.5
567.5	271.0
567.5	346.0
568.7	251.7
568.0	332.0
568.3	339.3
569.5	303.0
569.5	310.0
569.0	317.0
569.0	324.5
570.5	289.0
570.0	296.0
571.0	261.0
571.5	282.0
573.5	268.0
573.7	275.3
573.7	336.7
573.7	350.3
574.0	343.0
574.3	328.3
575.5	253.0
575.5	306.5
575.0	314.5
575.0	321.0
577.0	300.0
577.5	286.0
577.5	293.0
578.0	260.0
579.5	247.0
579.7	265.7
579.5	272.0
579.0	279.5
579.7	347.7
580.7	311.3
580.5	325.0
580.0	339.5
581.0	332.0
582.5	255.0
582.7	297.7
582.5	305.0
583.5	290.0
583.3	317.3
584.5	277.0
584.0	283.5
585.7	262.7
585.7	350.7
586.0	269.5
586.5	336.0
586.0	343.0
587.0	248.0
587.0	302.0
587.0	311.0
587.0	323.0
587.5	330.0
588.5	294.5
589.7	255.7
590.2	274.4
590.5	281.0
590.5	288.0
591.2	306.4
590.7	318.0
591.7	347.7
592.3	267.7
592.5	326.0
592.5	339.5
593.0	243.0
593.0	261.0
593.5	299.0
593.7	332.7
595.0	249.0
595.8	292.6
595.7	312.7
596.0	279.5
597.5	256.0
597.5	305.0
598.5	273.0
598.5	286.0
598.5	320.0
599.7	265.7
599.5	328.0
599.0	342.5
599.0	350.5
600.5	243.0
600.5	334.0
601.5	298.0
602.0	250.5
603.0	279.0
603.0	315.5
604.0	291.5
604.7	304.7
604.5	324.0
605.0	259.5
605.0	347.5
606.0	272.5
606.0	339.5
607.0	245.0
607.7	284.7
607.0	331.5
608.3	310.3
609.5	252.0
609.0	266.0
609.0	298.5
609.5	317.5
611.5	278.5
611.7	291.3
611.5	305.0
611.3	324.3
611.7	350.7
612.0	259.0
612.3	336.7
612.3	343.3
613.0	245.5
613.5	272.0
615.2	284.6
614.0	330.0
615.5	298.0
616.3	311.3
617.5	253.0
617.0	266.0
618.0	318.0
617.7	348.3
619.0	341.0
619.0	259.5
619.5	291.5
620.0	304.5
619.3	325.7
619.7	333.7
620.0	245.5
621.0	277.5
621.7	271.3
623.0	284.5
624.0	298.0
624.8	251.6
624.3	265.7
624.0	313.0
624.0	321.5
624.5	329.0
625.5	337.5
625.5	345.5
626.0	259.0
626.5	277.0
629.0	246.0
628.5	305.0
629.0	271.0
629.5	318.5
631.0	283.0
630.3	350.7
631.5	256.0
631.0	264.5
631.5	325.0
631.0	333.0
632.3	311.3
633.5	343.0
634.3	276.7
636.5	270.0
636.7	336.7
637.5	248.0
637.5	317.0
638.0	329.0
637.3	350.3
638.5	255.5
638.5	263.0
638.5	297.5
639.0	311.0
641.0	282.5
641.5	323.0
641.0	342.5
642.0	276.0
643.5	288.5
644.3	243.3
644.7	295.7
645.5	335.0
645.0	258.5
645.7	301.3
645.7	349.3
646.0	315.0
646.5	328.0
647.0	281.0
648.5	308.0
649.8	274.6
649.3	294.7
650.5	263.0
650.5	287.0
650.0	322.0
650.3	341.3
651.5	302.5
653.5	268.5
653.0	246.0
654.0	313.3
653.5	334.0
653.7	347.7
655.0	326.7
655.0	280.5
657.0	261.5
656.0	293.0
657.0	307.3
658.5	274.0
658.5	332.0
658.0	340.0
659.5	300.0
659.0	320.0
660.7	257.3
660.7	285.3
661.0	346.5
662.7	266.3
663.0	293.3
662.7	312.3
663.5	279.0
663.5	326.0
663.7	333.3
665.5	299.5
665.0	305.0
665.0	341.0
666.5	262.0
666.3	272.7
667.0	317.7
667.0	255.0
668.5	337.5
669.0	330.5
669.0	346.0
670.5	266.5
670.7	322.7
89.5	370.0
90.5	358.0
90.0	381.0
91.0	393.0
92.5	418.5
94.0	363.5
93.0	375.5
93.7	430.7
94.0	387.0
94.5	443.0
94.0	449.0
95.3	399.3
96.5	411.5
97.0	424.0
96.5	456.0
97.7	356.7
97.5	369.0
97.5	381.0
97.5	437.0
98.5	393.0
99.5	405.0
99.7	417.7
100.5	375.0
100.7	431.7
100.5	450.0
101.5	363.0
101.7	386.7
102.5	399.0
102.5	443.0
102.7	462.3
104.5	356.0
104.5	369.0
104.8	380.8
104.0	411.5
104.5	423.0
104.5	437.0
105.0	455.5
105.5	393.0
107.5	375.0
107.5	405.0
107.5	430.0
107.3	448.3
108.0	362.5
108.3	417.7
109.5	386.5
110.0	398.5
110.5	442.0
110.0	460.5
111.0	355.0
111.0	369.0
111.7	411.3
111.5	424.0
112.5	381.0
112.7	453.7
113.5	393.0
113.5	404.5
114.7	429.3
114.5	436.0
115.0	361.5
115.0	375.0
115.5	417.0
115.3	447.3
116.5	423.0
117.0	387.0
117.3	399.3
118.3	368.3
118.0	440.5
118.5	458.0
119.0	355.5
119.5	380.5
120.0	407.0
120.0	433.5
120.7	451.7
122.0	361.5
122.5	374.5
122.3	393.3
122.0	413.0
122.5	419.5
122.5	427.0
122.5	445.0
125.0	439.0
125.3	368.3
125.3	386.7
126.0	356.5
127.0	380.3
126.5	410.0
126.0	457.0
127.5	423.0
127.0	432.0
128.0	449.5
129.0	363.0
129.0	416.5
130.0	374.0
130.0	406.0
130.0	443.5
130.5	462.0
130.5	391.0
131.5	428.0
132.0	368.5
132.5	436.0
133.5	358.0
133.0	385.0
133.7	400.3
133.7	411.7
133.0	455.5
134.5	379.0
134.5	422.5
135.0	449.0
136.7	365.7
136.0	373.0
136.3	395.3
136.5	417.0
137.5	406.0
137.7	428.7
137.0	441.5
138.3	389.7
138.5	460.5
139.0	353.0
139.5	383.5
140.0	359.5
140.5	411.5
140.5	454.0
142.0	370.5
141.0	377.0
141.0	400.0
141.3	423.3
141.0	434.5
142.0	447.5
144.3	363.3
144.0	394.5
144.5	405.0
144.3	417.3
144.0	441.0
145.5	356.0
145.0	388.0
145.7	459.3
146.0	381.5
146.5	411.5
146.0	428.0
147.5	375.0
147.5	453.5
148.5	368.0
148.7	400.3
148.0	435.0
148.5	447.0
149.5	422.0
150.5	361.0
150.0	393.5
151.5	353.5
151.3	386.3
151.5	407.5
151.5	441.0
152.5	380.0
152.5	415.0
152.0	431.5
153.5	373.0
153.0	459.0
155.0	366.0
155.5	398.0
155.0	426.0
155.0	447.5
156.7	358.7
156.5	391.0
156.5	405.0
156.5	452.5
157.5	384.0
157.0	420.0
157.0	437.0
158.5	377.0
158.7	413.3
159.0	370.5
160.0	443.3
160.3	400.7
160.0	431.0
160.0	457.5
161.0	364.5
162.5	425.0
163.0	357.5
163.5	382.0
163.0	388.0
163.5	395.0
163.0	449.5
164.0	375.0
164.3	418.7
164.0	437.0
164.0	462.0
165.5	406.0
165.0	412.0
166.0	369.0
166.3	400.3
166.5	455.5
167.5	431.5
167.0	444.0
168.0	363.0
169.3	356.7
169.5	378.5
169.5	391.0
170.0	384.5
170.7	416.7
170.5	438.0
170.5	461.0
171.0	373.5
171.5	397.0
171.5	410.0
171.0	423.0
171.0	449.5
172.3	403.3
173.0	368.0
173.7	431.3
174.5	362.0
174.5	444.0
174.0	456.0
175.5	463.5
176.5	356.0
176.3	380.3
176.0	387.0
177.0	373.5
177.0	393.0
177.5	400.0
177.5	414.0
177.3	419.7
177.0	426.0
177.0	436.5
178.0	407.0
178.0	451.0
180.0	367.5
180.5	441.5
180.0	458.5
181.5	361.5
181.0	431.0
182.0	377.0
182.5	383.0
182.5	389.5
182.5	447.5
183.3	354.7
183.0	396.0
183.3	411.3
184.0	372.0
184.0	403.0
184.5	418.0
184.5	425.0
184.5	437.0
184.5	454.0
186.0	366.5
186.7	460.3
187.0	443.0
188.0	360.5
188.5	378.5
188.7	391.7
188.0	408.5
188.5	431.0
189.0	385.0
189.0	398.0
189.3	414.3
189.7	420.7
190.5	353.5
190.5	372.0
190.0	449.0
191.5	438.0
191.5	456.0
192.0	403.5
192.5	426.0
193.0	365.5
194.5	359.0
194.5	383.0
194.7	388.7
194.5	393.5
194.0	410.0
194.3	444.3
194.0	462.0
195.0	376.5
195.5	416.0
195.7	432.7
196.5	353.0
196.5	399.0
197.5	370.0
197.0	422.0
197.0	450.5
198.3	428.3
199.3	363.3
199.7	386.7
199.0	405.0
199.0	439.5
199.0	457.0
200.5	380.0
200.0	393.0
200.5	411.0
201.0	357.0
201.5	446.0
202.0	374.5
202.0	417.5
202.0	434.0
203.0	399.5
203.0	424.0
204.0	368.0
204.7	389.7
204.0	452.0
205.5	385.0
205.3	406.3
205.0	430.0
205.5	458.0
206.0	361.0
206.5	413.0
206.5	442.0
207.0	379.0
207.0	394.0
207.5	436.0
208.5	355.0
208.3	372.3
208.0	401.0
208.0	419.0
209.0	448.5
210.0	366.0
210.0	425.5
211.5	389.0
211.0	454.5
211.0	461.0
212.0	358.5
212.5	377.0
212.0	383.0
212.5	396.0
212.0	408.5
212.0	432.0
213.0	402.5
213.0	415.0
213.0	439.0
214.5	370.0
214.3	445.3
215.0	363.5
215.0	421.5
216.5	428.0
216.0	451.5
217.5	379.5
217.5	386.5
217.5	458.0
218.0	357.0
218.5	374.0
218.5	392.0
218.5	398.0
218.0	405.0
218.3	411.3
218.5	435.0
219.5	417.0
220.0	441.0
221.0	363.0
221.7	369.3
221.3	423.7
221.5	448.0
222.5	383.0
223.5	401.0
223.0	430.5
223.0	454.0
224.0	358.5
224.3	376.3
224.5	389.0
224.5	395.0
224.0	407.5
224.5	437.0
224.5	460.0
225.0	413.5
226.5	365.0
226.0	419.5
226.0	443.5
227.0	353.0
227.0	426.5
227.7	449.7
228.5	371.0
228.0	382.0
229.0	399.0
229.0	404.5
229.0	433.5
229.3	455.3
230.0	359.5
230.0	393.0
230.7	409.7
231.0	376.5
231.0	387.0
231.0	415.5
231.5	422.0
231.0	439.5
231.3	461.3
232.0	366.0
232.5	446.0
233.5	354.0
233.0	429.0
234.0	382.0
234.0	403.0
234.5	451.5
235.5	360.0
235.0	371.5
235.0	397.5
236.0	392.0
236.5	435.0
236.0	457.0
237.0	376.0
237.0	412.5
237.0	418.5
237.0	424.5
237.5	442.0
238.0	367.0
238.0	386.0
238.0	407.0
238.0	463.5
239.3	355.3
239.7	428.7
239.5	448.0
240.0	381.0
240.0	401.5
241.5	372.0
241.0	396.0
241.0	454.0
242.0	361.0
242.5	417.0
242.5	423.0
242.5	438.0
242.5	459.5
243.0	390.0
243.0	411.0
243.5	432.0
244.5	367.0
244.5	406.0
244.5	444.0
245.0	378.0
245.0	384.0
246.0	356.0
246.0	400.0
246.0	427.5
246.0	450.0
247.0	394.0
248.0	362.0
248.0	373.0
248.7	415.7
248.0	421.0
248.0	437.5
248.0	456.0
249.3	388.7
249.5	410.0
249.0	462.0
250.3	431.3
251.0	368.0
251.0	383.0
251.0	404.0
251.0	441.5
251.5	447.0
252.0	357.5
252.0	377.0
252.5	398.5
252.0	426.0
253.5	363.0
253.5	453.0
254.0	392.5
254.5	414.0
254.0	420.0
254.5	436.0
254.5	459.0
255.5	353.0
255.0	372.0
255.5	387.5
256.0	408.5
256.5	443.5
257.0	366.0
257.0	382.0
257.0	402.5
257.0	430.5
258.7	359.3
258.0	397.0
258.0	424.0
258.7	449.7
259.0	376.5
260.5	391.0
260.0	412.0
260.0	418.5
260.0	439.5
260.0	455.5
260.5	462.5
261.5	354.0
261.0	370.5
261.0	386.0
261.3	406.3
262.0	427.5
263.0	364.5
263.0	380.5
263.0	401.0
263.0	434.0
263.0	445.0
264.0	395.0
265.0	358.5
265.5	375.0
265.0	416.0
265.0	422.0
265.0	451.0
265.0	459.5
266.0	410.0
267.0	369.0
267.0	440.0
268.3	399.3
268.0	405.0
268.0	428.5
269.0	363.0
269.5	380.0
269.3	392.7
269.0	446.0
269.0	455.5
270.0	413.0
270.5	418.0
270.0	435.0
271.0	357.0
271.5	374.0
271.5	424.0
271.0	462.0
272.0	389.0
272.0	409.0
272.5	451.0
273.5	368.0
273.5	384.0
273.7	403.3
273.0	441.0
274.0	430.0
275.5	362.0
275.5	378.0
275.7	446.3
276.7	393.3
276.5	399.0
276.0	413.5
276.0	420.0
276.5	436.0
276.0	457.5
277.0	356.0
277.5	372.0
278.7	387.3
278.5	408.0
278.0	426.0
279.0	366.0
279.0	442.0
279.0	452.0
280.0	382.0
280.7	403.3
280.0	416.0
280.3	431.3
281.0	360.5
281.5	376.0
281.0	461.0
282.0	397.0
282.0	412.0
282.0	422.5
282.5	437.0
282.5	447.0
283.0	354.5
283.0	370.5
283.0	391.0
283.0	456.5
284.5	428.0
285.0	365.0
285.0	386.0
285.5	407.5
285.5	418.0
285.7	451.7
286.0	380.5
286.0	401.0
286.0	441.5
287.0	358.5
287.3	374.7
287.5	395.0
287.5	434.0
287.3	461.3
288.5	413.0
288.0	424.0
289.0	353.0
289.0	369.0
289.0	389.5
289.0	447.0
289.0	457.0
290.5	384.5
291.0	363.0
291.5	379.0
291.0	398.5
291.0	403.5
291.5	419.0
291.0	429.5
291.7	452.3
292.0	408.5
292.0	441.5
293.0	357.0
293.0	373.5
293.0	463.0
294.7	367.7
294.5	388.5
294.0	394.0
294.5	414.0
294.0	424.5
294.0	436.0
294.5	447.0
295.0	458.0
296.5	362.0
296.0	383.0
296.0	400.0
296.5	430.0
297.0	377.5
297.5	405.5
297.7	410.3
297.0	419.0
298.5	372.0
298.5	391.5
298.0	441.5
298.0	452.5
299.0	356.0
299.5	425.0
299.0	463.0
300.5	366.5
300.3	386.7
300.5	414.0
300.0	435.5
301.0	381.5
301.0	396.5
301.0	448.0
301.0	457.5
302.5	361.0
302.5	376.0
302.5	402.0
302.7	419.7
302.0	439.0
303.0	408.5
303.0	429.0
304.3	370.7
304.5	391.5
304.3	442.7
304.0	453.0
305.0	355.0
305.5	414.5
305.5	424.5
305.3	462.7
306.5	365.0
306.7	380.3
306.0	386.0
306.0	435.0
306.3	447.7
307.0	397.5
308.0	359.5
308.0	375.0
308.0	404.0
308.5	420.0
308.0	429.5
308.0	440.5
309.0	410.0
309.0	458.0
310.5	369.5
310.5	390.5
310.5	452.0
311.0	354.0
311.0	384.5
311.0	415.5
311.5	424.5
311.0	435.0
311.7	445.3
312.0	364.0
312.5	378.5
312.5	396.0
313.0	401.0
313.7	406.3
313.5	440.0
313.0	463.0
314.3	358.3
314.7	373.7
314.7	411.3
314.0	420.5
314.0	430.0
315.0	457.0
316.5	369.0
316.0	382.5
316.5	387.5
316.7	451.3
317.0	353.0
317.0	392.5
317.0	416.0
317.3	425.7
317.0	435.0
318.0	363.5
318.5	378.0
318.0	398.5
318.5	404.0
318.0	445.5
319.5	410.0
319.0	462.5
320.0	358.0
320.5	373.0
320.0	421.0
320.0	430.5
320.5	456.0
321.3	383.3
321.5	389.0
321.0	440.0
322.0	352.5
322.0	368.0
322.0	394.0
322.5	415.5
322.5	450.0
323.5	378.0
323.5	426.0
323.0	434.5
324.0	363.0
324.0	405.0
324.0	445.0
324.0	460.0
326.0	357.5
326.0	372.5
326.3	385.3
326.0	411.0
326.0	421.0
326.5	439.0
326.0	453.5
327.3	391.7
327.7	397.3
327.0	432.0
328.5	377.5
328.5	416.0
328.5	449.0
328.5	463.5
329.5	362.0
329.0	367.5
329.5	402.0
329.0	427.0
329.5	458.0
330.0	407.0
331.0	357.0
331.5	372.5
331.7	382.7
331.0	412.0
331.0	443.5
332.0	388.5
332.5	394.0
332.0	421.0
332.0	437.0
332.5	452.5
333.3	431.3
334.0	364.0
334.7	368.7
334.5	377.5
334.0	399.5
334.5	404.5
334.5	461.5
335.5	410.0
335.3	416.3
335.3	426.3
335.5	448.0
336.0	358.0
336.3	386.7
336.0	456.0
337.0	372.0
337.0	391.0
337.5	422.0
337.0	442.0
338.0	382.0
338.7	395.7
338.0	436.0
339.0	353.0
339.0	365.0
339.5	401.5
339.7	430.3
340.7	377.3
340.5	407.0
340.5	459.0
341.3	359.3
341.5	369.0
341.0	387.5
341.0	413.5
341.0	419.0
341.0	425.0
341.0	452.5
342.5	440.0
342.0	446.5
343.5	373.0
343.0	392.5
344.5	354.5
344.5	364.5
344.5	383.0
344.0	398.0
344.0	434.5
344.5	463.0
345.5	404.0
345.0	429.0
346.3	377.7
346.0	417.5
346.0	423.5
346.0	456.5
347.5	359.5
347.5	388.0
347.0	410.0
347.0	444.5
347.0	450.0
348.0	370.5
348.5	394.0
348.0	438.0
349.5	433.0
349.5	461.0
350.0	355.0
350.0	365.0
350.5	382.5
350.0	400.0
350.5	415.0
351.0	375.0
351.5	406.0
351.0	421.0
351.0	427.0
351.5	455.5
352.0	442.5
353.0	360.0
353.0	370.0
353.0	389.5
353.5	411.0
353.0	447.5
354.5	379.0
354.0	396.0
354.5	452.5
354.7	461.7
355.7	354.3
355.5	402.0
355.5	417.5
355.0	431.5
355.0	437.5
356.0	365.0
356.7	374.3
356.0	424.0
357.0	407.5
357.5	443.0
358.0	393.0
358.5	413.5
358.0	457.0
359.0	359.0
359.5	369.0
359.7	379.3
359.0	428.5
359.0	448.0
360.0	398.0
360.5	434.5
360.5	462.5
361.3	353.3
361.0	403.5
361.0	419.5
362.0	364.0
362.0	374.0
362.0	383.5
362.0	409.5
362.5	439.5
362.0	453.0
363.0	390.0
363.0	424.0
364.0	415.0
364.5	429.5
364.0	444.0
364.3	458.3
365.0	358.0
365.0	369.0
365.5	379.0
365.0	395.0
365.5	406.0
366.0	385.5
366.5	401.0
366.0	449.0
367.5	363.0
367.3	410.7
367.0	420.0
367.0	434.5
367.7	454.7
367.0	463.5
368.0	374.0
369.0	391.0
369.0	425.5
369.0	440.5
370.5	396.5
370.5	406.0
370.0	416.0
370.0	445.5
371.5	357.0
371.0	368.0
371.5	378.5
371.0	430.5
371.0	460.0
372.3	401.7
372.5	421.0
372.0	450.5
373.0	387.0
373.0	411.5
373.5	436.0
374.0	363.0
374.0	373.0
374.0	456.0
375.7	392.3
375.7	416.3
375.0	426.5
375.0	442.0
375.5	447.0
376.5	368.0
376.0	383.0
376.0	398.0
376.0	407.0
377.0	353.0
377.5	378.0
377.5	431.5
377.5	461.5
378.0	358.0
378.5	402.0
378.7	421.3
378.0	451.5
379.0	388.0
379.0	412.0
380.0	363.5
380.0	373.5
380.3	396.7
380.0	437.5
380.7	443.7
381.3	382.3
381.0	416.0
381.0	426.5
381.0	456.0
382.6	354.2
382.0	368.5
382.5	392.0
382.0	407.0
383.5	377.0
383.5	431.5
384.0	359.5
384.5	387.0
384.5	402.5
384.5	421.0
384.0	461.0
385.0	412.0
385.0	447.0
386.5	366.0
386.5	372.0
386.0	397.0
386.7	426.3
386.5	436.0
386.0	441.0
386.5	455.5
387.0	382.0
387.5	417.0
388.0	355.5
388.0	392.0
388.0	407.5
389.5	376.5
389.5	432.0
389.0	450.5
390.5	362.0
390.0	402.0
390.5	412.5
390.0	422.0
390.7	445.3
390.0	460.0
391.0	386.5
391.5	396.0
392.0	367.5
393.0	381.0
393.7	417.3
393.0	427.5
393.0	455.0
394.0	390.5
394.0	408.0
395.0	358.0
395.0	376.0
395.5	400.0
395.0	449.0
396.5	385.5
396.5	413.0
396.0	423.0
397.0	364.0
397.5	370.5
397.3	394.7
397.0	432.5
397.0	443.5
397.0	459.0
398.0	354.0
398.3	404.7
398.5	438.0
399.0	380.5
399.0	418.0
399.5	428.0
399.0	454.0
400.0	390.0
400.5	408.5
401.5	360.0
401.0	375.5
401.0	399.5
401.5	449.0
402.0	366.0
402.5	385.0
402.0	423.0
402.5	433.0
403.0	353.5
403.3	370.7
403.5	394.5
403.0	413.0
403.0	443.0
403.0	458.0
404.0	404.0
405.0	380.0
405.0	418.0
405.5	427.5
405.0	438.0
405.0	453.0
406.0	389.5
406.5	447.5
407.0	363.0
407.0	375.0
407.0	399.5
407.0	409.0
407.0	462.5
408.0	357.5
408.7	369.3
408.5	384.5
408.5	433.0
409.5	394.5
409.5	414.0
409.0	422.5
409.0	443.0
409.0	457.0
410.0	404.0
411.0	379.0
411.5	447.5
411.0	452.0
412.5	365.5
412.0	389.0
412.5	409.0
412.3	418.3
412.0	428.0
412.0	438.0
413.0	361.0
413.0	374.0
413.0	399.0
413.0	461.0
414.0	355.0
414.0	383.5
415.8	369.6
415.3	393.7
415.7	413.7
415.0	423.0
415.0	433.5
415.0	443.5
415.5	456.0
416.0	404.0
417.5	365.0
417.0	378.5
417.0	450.0
418.5	359.0
418.0	388.0
418.5	408.5
418.5	418.5
418.0	428.0
418.3	438.7
419.5	353.0
419.0	373.5
419.0	399.0
419.5	460.0
420.5	383.5
421.3	368.7
421.0	393.5
421.5	413.5
421.5	423.0
421.5	433.5
421.3	444.3
421.5	454.5
422.0	404.0
423.7	357.3
423.0	363.0
423.0	378.0
424.0	388.0
424.5	398.0
424.5	408.0
424.5	418.0
424.0	428.0
424.5	439.0
424.0	449.5
425.5	373.0
426.0	459.0
427.0	367.5
427.0	383.0
427.0	393.5
427.5	403.5
427.5	413.0
427.5	423.0
427.5	434.0
428.0	444.0
428.0	454.0
429.5	355.5
429.0	362.0
429.3	377.3
430.0	388.0
430.5	398.0
430.3	408.3
430.5	418.0
430.0	428.0
430.5	449.0
431.0	439.0
432.0	372.0
432.5	382.5
433.0	365.5
433.0	393.0
433.0	403.0
433.5	413.0
433.0	423.0
433.3	433.7
433.0	458.5
434.0	359.5
434.5	443.5
434.3	453.7
435.0	353.5
435.0	377.5
435.7	388.3
436.0	398.0
436.3	407.7
436.7	417.7
436.0	428.0
436.0	448.5
437.0	463.0
438.5	363.0
438.0	372.5
438.3	383.3
439.0	393.0
439.0	403.0
439.0	412.5
439.5	423.0
439.0	433.5
439.5	458.0
440.0	357.0
440.5	452.0
441.0	378.0
441.0	446.0
442.0	388.0
442.5	398.0
442.3	407.7
442.5	417.5
442.0	428.5
443.0	367.5
443.7	372.7
444.3	361.7
444.0	463.0
445.0	383.5
445.5	393.0
445.3	402.7
445.5	422.5
445.0	433.5
445.0	456.5
446.0	355.5
446.0	412.5
446.0	444.0
446.0	450.0
447.0	378.0
448.5	365.5
448.0	388.0
448.5	398.0
448.7	407.7
448.7	417.3
448.0	428.0
448.0	438.5
450.0	359.0
450.0	372.5
450.7	432.3
450.5	461.0
451.0	383.0
451.5	393.0
451.7	402.7
451.7	422.7
451.7	448.3
451.0	454.0
452.0	412.5
452.0	442.5
453.5	368.0
453.5	378.0
453.0	437.0
454.5	362.5
454.5	388.0
454.5	428.0
455.0	397.5
455.0	407.5
455.0	417.0
456.0	357.0
456.0	373.0
456.7	458.7
457.5	383.0
457.7	433.3
457.5	446.5
457.5	452.5
458.0	392.5
458.0	402.5
458.5	412.5
458.0	422.0
458.3	440.3
459.0	367.5
460.0	378.0
460.5	427.0
461.0	361.5
461.0	388.0
461.0	397.5
461.5	407.0
461.0	417.5
462.0	355.0
462.5	460.0
463.0	372.0
463.0	431.5
463.0	449.5
463.5	455.0
464.0	382.5
464.0	392.5
464.0	402.0
464.5	412.5
464.7	422.3
464.0	437.0
464.0	443.5
465.0	367.0
465.3	376.7
467.5	354.0
467.0	360.5
467.0	388.0
467.3	397.7
467.0	428.0
468.0	408.0
468.0	417.5
468.8	458.0
468.5	463.0
469.0	433.5
469.5	440.0
469.5	446.0
469.0	452.0
470.0	371.0
470.7	377.3
470.0	382.5
470.0	392.5
470.7	402.3
470.5	413.0
471.0	364.5
471.5	423.0
472.5	358.0
473.5	353.0
473.5	387.5
473.5	429.0
474.5	381.5
474.0	397.0
474.0	408.0
474.0	418.0
474.5	454.0
475.0	435.0
475.0	442.0
475.0	448.5
475.0	459.5
476.0	368.0
476.0	375.0
476.5	392.0
477.5	361.0
477.0	402.0
477.0	413.0
478.5	425.0
479.0	354.5
479.2	385.8
479.5	397.0
479.5	419.0
480.3	407.7
480.0	431.5
480.5	438.0
481.0	372.0
481.3	379.3
481.0	444.5
481.0	451.0
481.0	456.0
481.0	462.5
482.0	366.0
482.5	392.0
483.3	402.7
483.5	414.5
484.0	360.0
484.0	376.0
484.7	387.3
484.0	421.5
484.5	428.0
485.3	353.7
485.7	434.3
486.3	371.3
486.5	382.0
486.0	397.5
486.5	407.5
486.5	441.0
486.5	447.0
487.0	453.0
487.0	459.0
488.0	365.0
489.0	392.5
489.0	412.0
489.0	418.5
490.0	359.0
490.0	376.0
490.0	402.5
490.0	424.5
490.5	430.5
491.0	386.5
491.0	437.0
492.0	370.0
492.0	444.0
492.0	450.0
492.5	456.0
492.5	462.5
493.5	381.0
493.0	397.0
493.5	407.5
494.0	364.0
495.0	391.5
495.0	414.0
495.0	420.5
496.0	358.0
496.5	375.0
496.0	427.0
497.0	386.0
497.0	434.0
497.3	440.7
498.0	403.0
498.0	446.5
498.0	452.5
498.0	459.0
499.0	369.5
499.0	410.0
500.5	363.0
500.0	380.5
500.0	397.0
500.5	416.5
500.5	423.0
501.0	390.5
502.7	357.3
502.0	430.0
502.5	437.0
503.0	375.0
503.0	385.0
503.5	456.0
504.5	406.5
504.0	443.0
504.0	449.5
504.0	462.5
505.3	368.7
505.0	401.0
506.5	395.0
506.0	412.5
506.0	419.0
506.5	425.0
507.3	362.3
507.5	381.0
507.7	432.3
508.0	388.5
509.0	356.0
509.5	446.0
510.0	374.5
510.7	403.7
510.0	440.0
510.0	453.0
510.0	459.5
511.5	367.5
511.7	399.3
511.5	409.0
511.5	415.0
512.0	421.0
512.0	427.5
513.5	361.5
513.0	392.5
513.0	433.5
514.5	379.0
514.0	385.5
516.0	355.0
516.0	373.0
516.5	437.0
516.0	443.5
516.0	450.0
516.0	456.5
516.0	463.0
517.0	404.0
518.0	417.5
518.0	366.5
518.0	397.5
518.0	411.0
518.0	424.0
518.0	430.0
519.5	360.5
519.3	390.7
520.0	384.0
521.7	354.3
521.0	377.5
522.5	371.0
522.7	407.3
522.7	440.7
522.0	447.0
522.0	454.0
522.0	460.0
523.0	401.5
523.5	414.0
523.0	434.0
524.5	365.0
524.0	395.0
524.0	420.0
524.0	426.5
525.5	388.0
526.5	359.0
526.5	382.0
527.5	375.5
528.5	353.0
528.5	369.0
528.5	405.0
528.5	411.0
528.5	444.5
528.5	451.0
528.5	457.0
528.0	463.5
529.0	399.0
529.5	417.0
529.3	430.3
529.0	437.0
530.3	392.7
530.0	423.5
531.7	364.3
532.5	379.0
532.0	386.0
533.0	358.0
533.3	372.7
533.7	408.7
533.5	441.0
534.5	403.0
534.0	460.0
535.5	397.0
535.5	414.0
535.5	428.0
535.0	435.0
535.5	447.0
535.0	454.0
536.0	390.0
537.8	368.6
537.0	421.0
538.0	362.0
539.5	356.0
539.0	376.0
539.0	383.0
539.5	440.0
541.0	408.0
540.0	457.5
541.0	394.5
541.0	401.0
541.0	432.5
541.5	451.0
542.0	388.0
542.3	414.3
542.5	426.0
542.5	463.0
543.5	365.0
543.5	372.0
543.5	420.0
544.5	445.0
545.0	358.5
545.0	379.0
545.7	438.3
546.0	384.5
546.0	456.0
547.5	391.0
547.5	398.0
547.5	404.0
548.7	410.7
548.0	431.5
549.0	354.0
549.3	423.7
549.5	450.0
550.5	417.0
551.0	374.5
551.0	443.5
551.0	461.5
552.0	380.5
552.0	386.5
552.0	437.0
553.0	394.0
553.0	400.0
553.3	454.7
554.5	358.0
554.0	406.5
554.0	428.5
555.5	370.5
555.0	413.5
556.0	421.5
556.0	448.0
557.5	377.0
557.7	383.3
557.5	442.0
558.0	389.5
558.5	397.0
558.0	435.0
558.5	459.0
559.5	362.0
559.5	428.0
560.7	367.7
560.0	403.0
560.5	409.5
561.0	356.0
561.0	415.5
561.5	454.0
562.5	372.5
562.5	393.5
563.5	421.5
563.5	440.0
564.5	386.5
564.0	433.0
565.3	379.3
565.5	427.0
566.0	399.0
566.0	405.5
566.3	459.3
567.5	353.0
567.5	360.0
567.7	366.7
567.0	452.0
568.0	392.0
568.0	412.0
569.5	373.0
570.7	384.3
570.3	417.3
570.0	437.5
571.3	401.7
571.0	424.0
571.0	431.0
573.7	357.3
573.0	378.0
573.0	395.5
573.5	407.5
573.5	448.0
573.0	454.5
573.5	462.0
574.0	364.0
575.0	389.3
575.5	413.0
575.5	435.0
575.0	442.0
576.7	420.3
576.0	427.5
577.5	383.0
577.3	401.7
579.5	458.0
580.0	355.5
580.0	376.0
580.0	395.5
580.8	445.4
580.0	452.0
581.0	408.5
581.5	415.5
581.7	431.3
582.0	370.0
582.5	389.0
582.7	423.7
582.0	438.0
584.5	364.0
584.0	401.0
585.5	382.0
586.7	356.7
586.5	461.0
587.0	375.5
587.5	412.0
587.0	448.5
587.0	455.0
588.0	406.0
588.5	420.0
588.3	434.3
588.3	441.3
589.7	396.3
589.0	427.0
590.3	368.7
590.7	388.7
591.0	361.5
593.0	354.0
593.0	381.5
594.6	401.6
593.5	445.5
593.0	452.0
593.5	459.0
594.5	374.0
594.5	416.0
594.0	424.0
594.0	431.0
594.5	438.0
595.0	394.0
595.5	408.5
597.5	359.0
597.0	366.0
597.5	386.5
599.5	379.0
599.5	463.0
600.5	420.5
600.5	428.0
600.5	435.0
600.3	442.3
600.5	449.0
600.5	456.5
601.7	371.7
601.5	405.5
601.3	413.3
603.2	390.8
602.7	398.3
603.0	356.5
604.5	364.0
604.5	384.0
606.0	454.0
605.5	461.0
606.0	377.0
606.5	432.0
607.5	410.0
607.5	417.0
607.0	425.0
607.0	438.5
607.5	446.5
608.7	370.3
608.7	402.3
609.5	395.0
610.0	358.5
610.3	388.3
611.0	382.0
612.5	458.5
613.5	364.0
613.5	421.0
613.5	429.0
613.5	436.0
613.5	443.0
613.3	450.3
614.0	376.0
615.0	406.5
614.7	414.3
615.0	399.0
616.5	356.0
617.0	369.5
617.7	383.3
617.3	391.3
618.0	454.5
618.5	461.5
619.5	426.0
619.5	447.5
620.5	411.0
620.0	440.0
621.5	376.0
621.7	403.3
621.5	419.0
622.3	361.7
622.7	369.3
622.5	432.5
623.5	354.0
623.7	395.7
624.5	388.5
625.3	458.3
626.3	381.3
626.3	425.7
626.5	451.0
628.0	408.0
627.3	414.3
627.0	438.0
627.5	444.5
628.5	374.0
628.5	400.5
629.0	359.0
629.5	366.5
629.7	420.3
630.5	393.0
630.0	431.0
632.5	386.0
632.0	462.0
633.5	413.0
633.3	447.7
633.5	455.0
634.5	357.5
634.0	379.0
634.7	425.3
635.7	406.7
635.0	438.5
637.3	364.3
637.7	391.7
638.0	419.0
638.0	432.0
639.0	384.5
639.5	453.0
639.5	459.5
640.5	412.5
640.5	445.5
642.0	356.5
641.5	377.5
643.0	370.0
642.0	405.0
644.0	397.0
643.0	424.0
644.7	363.3
644.3	437.3
645.0	383.0
645.0	390.0
645.7	417.7
646.5	430.0
646.0	451.5
646.5	458.0
647.3	375.3
648.5	403.0
648.3	410.3
649.3	443.3
650.3	355.3
650.0	423.0
651.5	368.0
651.5	395.5
653.0	381.0
652.3	388.3
652.0	435.5
652.5	463.0
653.8	374.4
653.0	416.0
653.5	449.0
653.5	456.0
654.5	361.0
655.3	408.7
655.0	428.0
656.5	442.5
658.0	353.5
657.5	400.5
657.5	421.0
658.5	374.0
659.7	367.7
659.0	393.0
660.5	380.0
660.5	386.0
661.0	435.0
660.8	450.0
660.3	459.7
662.7	360.3
662.5	406.0
663.0	414.5
663.3	427.7
664.0	441.5
665.3	352.7
665.0	398.0
666.5	375.0
666.5	384.5
666.5	391.0
666.7	420.3
666.5	455.0
667.3	367.3
668.7	409.3
669.0	358.5
669.5	435.0
670.3	447.7
670.7	461.3
93.0	546.5
93.5	521.0
93.5	528.0
95.0	476.5
94.7	498.3
94.5	536.5
95.3	469.7
96.3	484.3
97.0	511.5
98.5	492.5
98.3	505.3
99.8	475.3
100.5	482.0
100.0	520.0
101.3	527.3
101.3	543.3
102.0	469.0
102.0	498.5
102.5	535.5
103.7	488.3
104.3	480.3
104.3	508.3
105.5	515.0
105.0	557.5
106.5	550.0
108.0	474.5
107.5	495.0
107.5	522.0
108.5	467.5
108.0	503.0
108.0	530.0
109.3	542.3
111.5	483.0
111.0	536.0
112.5	490.5
112.5	510.0
113.5	517.5
113.5	555.0
114.0	471.5
114.5	498.5
116.5	465.5
116.5	525.0
117.0	505.5
117.3	533.3
117.7	540.7
118.3	478.3
118.0	485.5
119.5	493.5
119.3	512.3
121.3	471.3
122.0	500.5
122.0	519.5
122.3	546.3
122.0	554.0
123.7	463.7
124.0	482.5
124.7	529.7
124.5	538.0
125.5	507.5
125.5	574.0
126.5	476.0
127.0	495.0
127.5	566.5
128.5	469.0
128.5	514.0
128.5	522.0
129.5	551.0
129.0	559.0
130.0	501.0
131.0	543.0
131.5	481.0
132.5	487.5
132.3	529.3
133.5	474.0
133.7	508.7
133.5	535.0
133.7	571.7
135.0	495.0
135.5	564.0
136.0	467.5
137.3	515.3
137.3	556.3
138.3	479.3
138.0	501.5
139.5	490.0
139.7	526.7
139.5	548.0
140.5	540.0
141.0	472.5
141.5	533.0
141.5	569.5
142.0	508.5
143.5	466.0
143.0	496.0
143.0	520.5
144.0	484.5
144.3	561.3
145.5	553.5
146.5	478.0
146.0	502.5
146.0	514.5
146.5	545.0
147.0	529.0
148.3	574.8
148.3	471.3
148.0	490.5
149.7	508.3
149.5	536.0
150.5	496.5
150.5	522.0
151.0	464.5
151.3	483.3
151.0	565.5
153.5	502.5
153.0	551.0
154.0	476.5
154.5	529.0
154.7	542.7
154.5	560.0
155.5	470.0
156.2	488.6
155.0	514.5
156.5	572.5
157.5	495.0
158.0	464.0
158.5	482.0
158.5	522.0
159.0	534.5
159.0	555.0
160.5	548.0
161.0	501.5
161.3	566.7
162.0	475.5
162.5	541.0
163.3	468.3
163.0	487.0
163.5	515.0
163.5	528.0
164.0	494.0
164.0	560.5
165.7	507.7
167.0	553.0
167.7	480.7
168.0	473.0
168.0	500.5
168.0	521.5
168.5	532.0
168.5	546.0
168.7	572.7
169.5	488.0
169.3	538.3
169.7	565.7
170.0	467.5
171.0	515.0
172.0	494.5
172.0	557.5
173.0	476.5
173.5	526.5
174.0	508.0
174.3	550.3
176.0	482.5
175.7	501.7
175.3	542.3
176.5	471.0
176.5	520.0
177.5	489.0
177.3	570.3
178.5	562.5
179.3	513.3
180.3	477.3
180.0	495.0
180.3	531.3
180.0	555.0
181.5	507.0
182.5	465.5
182.3	524.7
182.0	547.0
183.0	484.5
183.5	539.0
184.5	472.0
184.5	500.0
184.7	518.7
186.0	491.5
186.7	512.3
186.3	560.3
186.5	568.5
187.5	479.0
188.0	530.0
188.0	552.5
189.0	467.5
189.0	505.0
190.5	523.0
190.0	544.5
191.0	485.5
191.0	497.5
191.7	516.3
192.0	473.5
192.0	537.0
193.5	564.0
194.0	510.0
194.7	557.7
195.0	480.0
195.0	492.5
196.3	468.3
196.5	503.0
196.3	529.3
196.5	550.0
197.5	522.0
198.5	486.0
198.0	515.5
198.0	542.5
198.3	570.3
199.0	475.5
200.7	562.7
201.3	463.3
201.5	492.0
201.0	499.0
201.7	507.7
202.5	481.5
202.7	555.7
203.0	470.0
203.5	525.5
204.7	513.3
204.7	518.7
204.0	533.0
204.5	548.0
205.3	540.7
206.0	476.0
206.0	487.5
207.0	465.5
207.0	495.5
207.5	502.0
207.0	568.5
209.5	482.0
209.0	509.0
209.5	560.5
210.5	471.0
210.5	523.0
211.0	516.0
211.0	529.5
211.7	536.7
211.0	552.5
211.7	574.7
213.5	477.0
213.0	491.0
213.7	498.7
213.7	545.7
214.7	465.7
214.5	566.0
215.0	505.5
216.5	482.5
216.5	512.0
217.0	519.5
217.5	533.0
217.7	540.7
217.5	559.0
218.0	471.5
218.5	526.0
219.0	487.5
219.3	494.3
219.0	550.5
219.3	573.3
220.3	478.3
220.7	500.7
221.0	465.5
221.7	508.3
222.5	515.5
222.0	565.5
223.7	522.7
223.5	545.0
224.5	473.0
224.0	484.0
224.3	529.7
224.0	536.5
224.5	559.0
225.5	490.5
225.5	552.0
226.5	572.5
227.0	467.0
227.5	479.0
227.0	497.0
227.0	504.5
228.5	511.5
229.7	533.3
230.3	485.7
230.0	519.0
230.0	526.0
230.3	541.3
230.0	564.5
231.0	548.0
232.0	473.5
232.7	501.3
232.3	556.7
233.0	467.0
233.7	507.7
234.5	480.5
234.0	571.0
235.3	490.3
235.7	514.3
235.7	529.3
236.0	537.0
236.7	543.7
237.0	497.0
237.0	521.5
237.5	551.0
238.5	470.0
238.0	486.0
238.5	503.5
238.0	564.5
239.0	476.0
240.0	509.0
240.5	557.0
241.5	482.0
241.5	492.0
242.0	526.5
242.5	533.5
242.5	571.5
243.5	466.0
243.3	499.3
243.3	515.3
243.5	541.0
243.3	546.3
244.5	472.5
244.5	552.0
245.5	487.0
245.5	564.0
246.0	477.5
246.0	522.0
248.5	494.0
248.0	529.5
248.0	558.0
249.5	469.0
250.5	482.0
250.5	501.0
250.0	517.0
250.3	536.3
250.3	543.3
250.0	550.0
250.5	569.0
251.0	475.0
252.5	524.0
253.0	489.0
253.5	562.0
254.0	507.0
255.0	465.5
255.5	496.0
255.0	513.0
255.0	530.5
255.5	555.5
256.0	472.0
256.7	539.3
256.0	547.5
257.0	478.5
257.0	519.0
257.0	574.0
258.0	485.0
258.5	502.0
258.0	567.5
259.0	526.0
260.0	491.0
260.3	508.3
261.0	469.0
261.7	514.7
261.0	532.0
261.0	560.5
262.5	475.0
262.5	497.5
262.7	545.3
262.0	552.5
263.5	481.0
263.5	521.5
263.5	539.0
263.7	574.7
265.0	486.5
265.7	503.7
265.5	528.0
265.0	567.5
266.5	466.0
266.5	493.0
267.5	471.5
267.0	510.0
268.5	499.0
268.0	517.5
268.5	534.0
268.3	556.7
269.0	477.5
269.0	541.5
269.0	548.5
269.7	563.3
270.5	483.0
270.0	523.5
270.5	571.5
271.0	489.0
273.0	468.5
273.0	495.0
273.0	506.5
273.5	513.0
273.5	530.0
274.0	474.0
274.0	501.0
274.5	553.5
275.0	519.0
275.5	537.5
275.0	545.5
276.0	479.0
276.0	560.5
276.5	567.5
277.3	464.3
277.5	485.0
278.7	470.7
278.3	491.7
278.0	525.0
279.0	497.5
279.5	504.0
279.7	510.3
280.0	515.0
281.0	475.5
281.0	531.5
281.0	542.5
281.3	549.3
282.0	520.0
282.0	557.0
283.0	467.0
283.0	481.5
283.0	564.0
283.5	571.0
284.0	488.0
285.0	494.0
285.0	500.5
285.7	524.7
286.0	473.0
286.0	507.5
286.3	537.7
287.0	515.5
287.5	531.0
287.7	545.7
288.7	478.3
288.5	552.5
289.5	484.5
289.3	559.3
290.0	468.0
290.5	491.0
290.0	566.5
290.5	574.0
291.0	497.0
292.0	503.0
292.0	510.0
292.5	522.0
292.0	527.5
292.5	535.0
293.0	474.0
293.0	541.5
294.5	481.0
294.0	516.5
294.5	548.5
295.0	555.5
295.7	562.7
296.0	468.5
296.0	487.0
296.5	493.0
297.7	499.7
297.0	532.0
297.0	569.5
298.7	477.3
298.0	506.0
298.5	538.0
299.0	513.0
299.7	519.7
300.5	473.0
300.0	526.0
300.5	544.0
301.5	483.0
301.0	551.5
302.3	489.7
302.0	558.5
302.5	566.0
303.0	468.0
303.0	496.5
303.3	533.3
303.3	572.7
304.5	478.0
304.0	502.5
304.5	509.0
305.0	516.0
305.5	523.0
305.0	539.5
306.6	546.8
307.0	472.5
307.0	487.5
307.0	493.5
307.0	529.5
307.5	554.5
309.0	467.0
309.0	482.0
309.0	561.0
309.5	568.5
310.0	499.0
310.0	505.0
310.3	535.3
311.0	477.0
311.0	512.0
311.5	519.0
311.5	542.0
312.0	492.0
312.0	525.5
313.5	471.0
313.0	550.0
314.0	486.0
314.0	557.0
315.0	531.5
315.0	564.5
316.0	480.5
316.0	509.5
316.7	571.3
317.0	497.0
317.0	503.5
317.0	516.0
317.5	523.0
317.0	538.0
318.0	468.0
318.0	475.0
318.0	545.5
319.0	491.0
320.5	485.0
320.0	552.5
321.3	528.3
321.0	560.0
322.0	479.0
322.5	501.0
322.0	507.0
322.0	512.0
322.0	534.5
322.0	566.5
323.0	472.5
323.0	518.0
323.5	541.0
324.0	467.0
324.0	495.0
324.0	573.5
325.0	489.0
325.0	524.5
325.0	547.5
326.3	482.7
326.5	555.0
327.0	531.5
327.5	562.0
328.0	477.0
328.0	506.0
328.0	513.0
329.5	471.5
329.0	499.5
329.0	537.0
329.3	568.3
330.0	493.0
330.0	520.0
331.0	487.0
331.0	526.5
331.0	543.5
331.7	550.7
332.0	466.5
332.3	481.7
333.5	510.0
333.3	557.3
334.5	476.0
334.0	503.5
334.0	533.5
335.0	497.5
335.0	516.5
335.0	564.0
336.0	470.0
336.0	491.0
336.0	523.0
336.5	539.5
336.3	571.3
337.7	464.3
337.0	486.0
337.5	529.0
338.5	508.0
338.0	546.0
338.0	552.5
339.0	480.0
340.7	474.3
340.0	501.5
340.5	559.0
341.5	496.0
341.0	513.5
341.5	520.0
341.5	566.0
342.0	469.0
342.3	489.7
342.0	526.5
342.0	534.5
343.5	484.0
343.0	541.5
343.3	573.7
344.0	549.0
345.0	479.0
345.0	509.0
346.5	517.0
346.3	555.3
347.0	472.5
347.7	494.3
347.7	524.3
347.5	531.0
347.0	561.5
348.7	488.3
348.5	537.5
348.5	568.5
349.5	544.0
350.0	467.0
350.0	482.5
351.0	477.5
351.3	508.7
351.7	514.3
351.5	550.5
353.0	472.0
353.0	498.5
353.0	521.0
353.0	557.5
354.0	492.5
354.0	527.5
354.0	534.0
354.5	564.5
355.5	486.5
355.5	540.0
356.5	467.5
356.5	481.0
356.0	504.5
356.0	571.5
357.0	476.5
357.5	511.0
357.5	546.0
359.0	495.5
359.5	518.0
359.5	524.0
359.0	553.5
360.0	472.5
360.5	490.0
360.5	502.0
360.0	530.0
361.0	536.0
361.0	560.5
361.5	567.0
362.0	484.0
362.7	542.3
363.0	468.0
363.5	478.0
363.0	507.5
363.0	574.0
364.0	498.0
364.0	513.5
364.7	548.7
365.5	493.5
365.5	520.0
365.5	555.5
366.0	473.5
366.5	526.0
367.0	488.0
367.0	503.5
367.5	532.0
367.0	562.5
368.5	483.0
368.0	538.0
368.0	569.0
369.0	469.0
369.0	509.5
369.5	544.5
370.0	499.0
370.3	515.3
370.5	551.0
371.0	478.0
371.0	493.5
372.0	521.5
372.3	557.7
373.0	472.5
373.0	488.0
373.0	504.5
373.0	527.5
373.3	564.3
374.5	466.5
374.0	533.5
374.5	571.0
375.0	483.0
375.7	499.3
375.0	511.0
375.0	540.0
376.0	547.0
377.5	477.0
377.7	493.3
377.0	517.0
377.3	553.7
378.7	523.3
379.0	471.0
379.7	487.3
379.0	506.0
380.0	530.0
380.0	561.0
380.5	567.0
381.5	466.0
381.5	482.0
381.5	513.0
381.0	536.0
381.0	542.5
382.0	500.0
382.0	549.5
382.3	572.7
383.5	476.0
384.0	493.0
384.0	519.0
384.0	556.0
385.7	486.7
385.0	507.5
385.5	525.5
386.0	470.5
387.0	532.5
387.0	545.5
387.0	565.5
388.0	465.0
388.0	481.0
388.0	502.0
388.5	514.0
388.7	539.3
389.0	497.0
389.0	551.5
389.0	573.5
390.0	475.0
390.5	491.0
390.7	558.3
391.0	507.0
391.0	521.0
392.0	470.0
392.0	528.0
393.0	485.5
393.7	501.3
393.0	546.5
394.0	464.5
394.5	479.5
394.0	534.5
394.0	562.0
394.5	569.0
395.3	495.7
395.3	511.7
395.0	553.0
396.5	474.0
396.5	517.0
396.0	541.0
397.0	490.0
398.5	469.0
398.0	506.0
398.0	523.0
399.0	484.0
399.5	500.0
399.0	530.0
399.5	549.0
400.7	463.7
400.3	557.3
400.0	565.0
401.0	478.5
401.7	494.3
401.0	536.5
402.0	512.0
402.7	571.3
403.0	473.5
403.0	519.0
403.0	543.5
404.0	489.0
404.0	505.5
404.0	525.0
405.0	468.0
405.7	483.3
405.0	551.0
406.0	499.0
406.0	531.5
406.0	564.0
407.5	478.0
407.5	538.0
408.0	493.5
408.5	509.0
408.5	557.0
409.5	472.5
409.0	515.0
409.5	545.0
410.0	488.5
410.0	521.0
410.5	570.0
411.0	467.0
411.5	483.0
412.0	504.0
411.0	527.0
412.0	498.0
412.5	533.5
412.0	552.0
413.5	477.0
413.3	563.7
414.0	493.0
414.0	540.0
415.5	471.0
415.0	510.0
416.5	488.0
416.0	516.5
416.0	546.5
416.3	557.7
417.5	465.5
417.5	482.0
417.3	499.7
417.0	522.5
418.0	529.0
418.0	569.5
419.5	475.5
419.0	534.5
419.3	552.3
420.7	494.3
420.0	505.5
420.5	541.0
421.0	512.0
421.5	563.5
422.0	470.0
422.0	485.5
422.0	547.0
423.0	518.5
423.5	524.5
424.0	557.0
424.0	464.5
424.0	480.0
424.3	489.7
424.5	501.0
425.0	530.5
425.7	537.3
425.5	569.0
426.5	508.0
427.0	475.0
427.0	495.0
427.0	544.0
427.3	551.7
428.5	469.0
428.5	485.5
428.0	514.0
428.5	562.5
429.0	520.5
430.3	463.7
430.0	527.0
430.3	574.7
431.0	480.0
431.5	491.0
431.5	498.5
431.5	504.0
431.0	533.5
432.0	539.5
432.7	546.7
432.0	555.0
433.5	474.0
433.0	510.0
433.0	568.5
435.0	469.0
435.0	485.0
435.0	494.0
435.0	517.0
435.5	523.0
435.5	562.0
437.5	479.0
437.5	500.0
437.0	529.5
437.5	536.5
437.0	573.0
438.5	543.0
438.0	550.5
438.3	556.7
439.0	490.0
439.0	506.0
440.0	473.5
440.0	513.0
440.5	568.0
441.7	519.3
442.0	468.0
442.0	484.0
442.0	495.0
442.5	526.0
443.0	532.5
443.0	561.0
444.5	478.0
444.0	539.5
444.0	546.5
444.0	554.0
445.5	489.5
445.0	502.0
445.0	509.0
445.5	573.0
446.5	472.0
447.0	515.5
447.7	566.3
448.0	483.5
448.0	494.5
448.0	522.0
449.0	466.5
449.0	528.5
449.5	535.0
449.5	543.0
450.5	477.0
450.5	506.0
450.0	550.0
450.3	558.7
452.5	489.0
452.0	500.0
452.3	571.7
453.0	471.0
453.0	511.5
453.5	518.5
454.5	483.0
454.0	494.5
454.7	525.3
455.5	546.0
455.7	553.7
455.0	565.0
456.0	465.0
456.0	531.5
456.0	539.0
457.0	476.5
457.0	505.0
458.5	559.0
459.5	470.0
459.7	487.7
459.7	493.3
459.0	499.0
459.0	515.5
459.5	571.0
460.0	521.5
461.0	482.0
461.0	551.5
462.0	510.0
462.5	529.0
462.0	536.0
462.0	543.0
462.5	565.0
463.0	465.0
463.0	475.0
463.3	503.7
465.5	492.0
465.0	498.0
465.0	558.0
466.7	486.3
466.4	522.2
466.7	570.3
467.5	469.0
467.5	480.0
467.0	515.5
467.5	539.0
467.3	546.3
468.5	508.5
468.0	552.5
469.0	533.0
470.0	474.5
470.5	502.0
470.5	563.0
471.0	496.0
471.0	527.0
472.5	490.5
472.7	520.3
473.7	484.7
473.5	513.5
473.0	544.0
473.0	557.0
474.0	465.5
474.5	538.0
474.0	549.5
474.5	569.0
475.0	471.0
475.0	478.0
475.5	507.0
477.5	495.0
477.0	501.0
477.0	532.0
477.0	560.5
478.5	525.5
479.0	488.0
479.0	553.5
480.7	468.3
480.3	518.7
480.0	544.5
481.2	566.3
481.0	475.0
481.0	481.5
481.0	511.5
482.0	505.0
482.0	537.5
483.0	498.5
484.0	492.0
484.0	530.5
484.3	558.7
485.5	485.0
485.7	523.3
485.3	550.7
486.7	465.3
486.5	472.0
487.0	478.5
487.7	510.0
487.0	517.0
487.0	542.5
488.0	503.0
489.7	495.3
489.7	535.3
489.0	565.0
490.0	555.5
491.0	488.0
491.3	528.3
491.5	548.0
492.5	469.0
492.5	475.0
492.5	482.0
492.4	522.2
493.5	501.0
494.0	560.0
493.0	571.5
494.0	507.5
494.7	514.3
495.5	492.0
495.0	541.0
497.0	553.5
497.7	485.3
497.5	533.5
497.3	566.7
498.0	465.5
498.5	472.5
498.5	479.0
498.0	497.0
498.0	520.5
499.5	547.0
500.0	504.0
500.0	510.0
500.0	527.0
501.5	560.0
501.0	573.0
502.0	493.0
502.0	515.5
502.5	540.5
503.5	481.5
504.0	469.0
504.5	488.0
504.0	499.0
504.5	533.5
505.0	523.0
505.0	554.5
505.0	566.0
506.0	505.5
507.5	511.5
508.7	517.3
508.3	546.7
508.0	572.5
509.5	466.0
509.3	479.7
509.7	486.3
509.0	494.0
509.0	528.0
509.5	560.0
510.0	540.0
511.0	500.0
512.7	507.3
512.0	533.0
512.0	566.5
513.0	521.5
513.0	553.0
515.5	469.0
515.5	476.0
515.5	483.0
515.3	514.7
516.0	490.0
516.0	496.5
516.5	527.5
516.5	539.0
517.2	546.4
516.0	573.0
517.0	502.5
517.0	559.5
519.3	520.7
520.0	508.0
520.0	533.0
520.5	553.0
520.0	567.5
521.5	479.0
521.5	486.0
522.0	493.5
522.3	466.3
522.0	472.5
522.5	514.5
523.5	501.0
523.5	540.0
524.0	527.0
524.7	560.3
524.0	573.5
526.0	547.5
527.7	476.7
527.0	489.5
527.5	508.0
527.0	521.0
527.0	534.0
528.5	470.0
528.0	483.5
528.5	496.0
528.5	566.5
529.0	554.0
530.7	528.7
531.5	502.5
531.0	515.0
532.5	541.5
532.5	560.0
532.5	573.0
533.5	489.0
533.0	548.5
534.8	466.4
534.5	473.0
534.0	481.0
534.0	521.5
534.5	534.5
535.0	509.0
535.7	566.7
536.0	495.5
537.5	553.5
538.5	503.0
538.5	515.0
538.0	529.0
539.0	477.5
539.5	485.0
539.3	546.7
540.5	538.5
540.3	559.3
541.0	470.0
541.0	491.0
541.0	521.5
541.3	573.7
542.0	497.0
542.7	509.3
542.5	566.0
544.3	531.3
545.5	474.5
545.0	481.5
545.0	552.5
546.0	503.5
546.7	516.3
546.5	544.5
547.0	467.5
547.0	487.5
547.5	561.0
548.5	495.8
548.0	570.5
549.7	537.3
550.3	509.7
551.0	479.5
551.0	522.5
552.5	473.0
552.0	531.0
552.7	549.7
553.5	491.5
554.0	503.0
554.7	515.3
554.5	542.0
554.3	565.3
555.0	467.0
555.5	485.0
555.0	573.5
557.7	478.3
557.3	496.7
557.0	509.0
557.5	527.0
557.0	534.5
558.5	553.5
559.5	472.0
559.0	521.5
559.3	561.7
560.7	490.3
560.8	504.0
560.7	568.7
561.0	465.0
561.7	515.3
561.0	546.0
562.0	484.0
563.0	529.5
563.0	538.5
564.0	477.5
564.0	497.0
564.7	509.3
565.0	556.0
566.5	471.0
566.7	490.3
566.5	522.0
566.5	550.0
567.5	563.5
568.0	465.0
568.5	543.0
569.0	483.5
569.0	503.0
569.5	535.5
569.0	572.0
570.5	476.5
571.0	496.0
572.7	489.3
572.5	528.0
572.7	556.3
573.7	469.7
573.5	508.0
573.5	520.0
573.5	548.5
575.5	514.0
575.5	540.0
575.3	566.7
576.0	482.0
577.3	502.7
578.0	533.0
577.5	574.0
578.0	476.0
578.7	495.7
579.5	470.5
579.5	561.0
580.0	464.5
581.0	489.0
580.0	524.5
580.5	553.0
581.5	508.5
581.7	545.3
582.0	517.0
583.5	482.0
583.5	537.0
584.3	475.7
584.0	501.0
584.0	567.5
585.5	468.5
586.0	494.5
586.3	529.3
586.0	558.5
587.3	521.7
587.5	550.5
588.5	486.5
588.5	514.0
590.0	507.0
589.3	542.3
589.5	573.0
590.5	473.0
590.0	480.0
591.5	499.5
591.5	535.0
592.5	465.5
592.0	564.5
593.5	527.0
593.0	555.0
594.0	492.0
594.3	520.0
595.5	484.5
595.0	547.5
596.7	477.3
596.0	512.0
596.7	539.7
598.5	470.0
598.5	504.0
598.5	532.5
598.5	558.0
598.3	571.3
600.5	489.5
600.0	497.0
600.7	524.3
600.7	564.7
601.7	517.3
601.5	544.5
601.3	551.3
602.5	483.0
603.0	475.0
605.0	467.3
604.3	509.3
604.0	537.0
606.5	502.0
606.3	556.7
607.7	472.7
607.3	494.7
607.3	529.7
607.3	567.3
608.7	479.7
608.0	487.5
609.0	522.3
608.0	549.5
609.5	542.0
611.0	514.0
612.0	485.0
612.3	499.7
612.3	506.3
613.5	536.0
614.0	491.0
614.5	552.0
614.0	559.5
615.5	475.0
615.0	528.0
615.0	568.0
616.5	520.0
616.8	545.0
617.5	511.5
619.5	496.0
619.0	503.5
620.5	556.5
621.5	480.5
621.3	488.7
621.7	564.3
621.5	572.5
622.5	471.5
622.5	525.0
623.0	534.0
623.0	517.0
624.5	542.0
624.3	550.7
625.0	464.5
625.5	508.5
626.0	500.5
627.7	492.3
627.5	558.0
628.7	484.3
629.3	476.7
630.5	470.0
630.5	522.0
630.5	530.0
630.5	546.0
630.0	568.0
632.0	513.5
631.0	537.0
632.5	504.5
633.0	553.0
634.5	496.5
634.3	561.3
635.5	481.5
635.5	488.5
636.5	474.5
638.0	466.5
637.7	518.3
637.0	526.5
637.5	534.0
637.0	567.5
638.3	509.7
639.0	548.0
640.0	501.0
640.0	540.5
640.3	555.3
642.3	471.3
642.5	493.5
643.7	477.7
643.5	485.5
643.0	571.5
644.0	515.0
644.5	531.0
645.3	464.7
645.3	506.3
645.3	562.7
646.7	524.3
646.0	538.0
647.3	499.3
647.0	546.5
647.5	555.0
650.4	471.8
650.5	480.0
650.5	486.5
650.5	493.5
651.0	511.5
651.0	518.5
652.0	504.5
652.0	559.5
652.7	568.3
653.0	532.5
653.5	540.5
653.7	550.7
655.6	524.9
656.5	468.0
656.5	476.0
656.5	483.0
656.7	516.3
656.5	557.0
657.0	490.5
657.5	499.5
658.5	511.0
659.3	506.7
660.7	529.3
660.7	564.3
661.0	546.5
661.3	572.3
662.0	538.0
662.0	555.0
663.5	521.5
664.5	465.0
664.0	480.5
664.5	496.0
664.0	503.5
664.5	513.0
665.3	472.7
665.5	488.0
667.0	562.5
668.4	568.2
669.5	500.0
669.7	525.3
669.3	534.7
669.5	543.0
670.0	484.5
670.5	551.5
230.7	625.8
273.5	625.2
300.8	625.4
319.0	625.2
307.7	593.7
332.0	583.0
337.0	609.5
338.0	579.0
345.0	581.0
345.5	599.5
350.6	625.8
358.7	585.7
370.0	576.5
372.0	619.5
380.5	592.5
385.0	586.0
390.5	581.0
396.3	576.7
398.0	585.0
405.5	585.0
408.3	577.7
415.5	576.5
420.5	582.5
423.0	575.0
423.0	595.0
427.3	581.3
430.5	594.0
432.5	587.0
435.7	599.7
456.5	597.5
460.3	611.3
462.5	603.0
636.1	372.1
636.1	400.4
610.5	190.3
614.7	184.0
157.8	508.2
114.4	138.3
104.8	138.6
96.5	138.3
102.0	132.4
111.0	131.4
118.9	131.4
123.1	125.8
130.3	127.2
114.8	125.2
105.5	126.2
94.7	130.7
97.2	124.1
110.6	116.2
118.9	114.8
125.2	118.9
128.3	112.0
122.4	107.2
114.4	107.9
106.1	107.2
103.0	116.9
94.4	115.5
97.5	108.6
116.2	99.9
123.8	96.5
130.0	104.8
139.0	104.4
152.8	109.9
147.3	104.4
135.9	112.0
144.5	111.7
132.8	119.6
140.0	119.6
146.6	120.0
138.6	127.6
152.5	117.9
159.7	115.8
153.5	124.1
160.8	123.4
168.7	129.3
168.0	121.4
168.4	114.4
160.8	108.2
169.0	106.8
165.2	101.7
156.3	102.0
150.0	96.1
142.1	97.5
133.1	96.8
186.3	139.0
175.7	129.0
176.0	122.4
174.3	116.2
204.7	117.9
214.8	128.6
208.5	125.5
201.3	124.8
192.6	125.2
183.3	129.3
185.4	123.8
181.9	115.8
175.7	109.9
184.7	109.3
176.0	103.7
171.9	96.5
160.8	95.4
183.3	101.7
264.5	130.7
261.8	137.3
255.2	132.1
243.1	129.6
236.9	129.3
232.0	124.5
222.0	128.3
217.5	121.4
220.6	115.1
210.6	120.0
214.4	114.1
214.8	108.2
219.6	102.7
222.4	108.9
229.3	103.4
233.8	111.7
236.2	104.4
225.1	121.0
228.6	115.8
236.9	117.6
272.8	129.3
266.9	124.5
259.7	125.5
240.0	123.1
250.0	127.9
253.8	120.3
247.2	121.4
243.4	116.5
241.7	109.6
250.4	114.4
263.8	118.6
258.0	113.1
253.5	105.1
248.3	108.6
244.1	102.7
250.4	96.8
243.4	94.0
236.9	94.4
231.7	97.2
225.1	95.1
212.7	101.3
217.5	94.4
209.2	94.4
190.9	104.4
191.6	110.3
189.2	116.9
197.1	118.9
207.5	111.7
205.8	104.1
199.5	112.4
198.9	105.1
189.2	96.5
180.2	93.7
197.8	97.5
201.3	91.6
286.0	139.0
279.4	126.9
272.8	120.3
264.9	111.0
261.1	105.1
258.0	97.8
265.6	97.5
256.6	90.2
248.3	89.2
276.6	95.8
268.7	104.1
276.3	105.1
271.4	113.1
278.4	112.7
281.1	118.2
287.3	122.7
301.5	129.3
294.2	129.6
308.1	125.8
320.2	131.4
327.8	127.6
351.8	126.5
343.5	126.5
336.9	124.1
323.1	123.1
315.8	123.4
303.4	121.0
296.8	123.1
311.0	116.5
318.6	116.9
327.9	116.5
330.0	121.4
335.5	117.2
330.0	110.3
334.8	103.7
338.6	97.2
319.6	102.7
323.4	96.1
330.3	96.8
326.9	103.0
322.7	109.9
315.1	109.9
309.9	103.0
314.8	96.8
306.8	96.1
305.8	109.3
300.3	114.1
292.0	116.5
293.3	108.9
286.1	113.1
284.7	107.2
283.0	100.6
290.2	102.0
287.5	94.7
301.3	100.3
295.8	95.4
298.9	106.8
335.9	90.9
326.9	90.2
318.2	88.9
310.6	89.2
302.3	89.6
269.8	90.6
338.3	111.3
341.7	118.9
349.0	119.3
346.2	112.4
350.7	105.1
341.7	104.4
347.3	98.2
343.5	91.6
355.2	99.2
359.4	93.7
350.7	91.6
358.7	105.8
354.9	112.7
355.9	120.0
359.7	125.2
365.2	126.2
370.4	130.3
376.3	126.9
364.5	119.6
362.5	113.7
370.8	112.4
371.8	120.7
381.5	131.0
386.7	126.2
377.7	115.5
379.1	122.4
383.9	110.3
374.6	106.1
365.9	107.2
362.8	99.9
370.8	100.3
367.3	94.7
380.8	103.0
376.6	97.5
373.5	90.6
383.2	95.1
387.4	101.7
391.9	107.9
407.4	123.8
414.3	123.1
426.4	128.6
421.2	124.8
428.1	122.4
429.5	115.1
431.9	106.1
432.6	128.3
435.1	120.0
437.5	112.4
439.6	125.2
442.7	118.2
445.4	111.3
439.2	104.4
447.2	104.4
448.5	96.5
442.0	96.1
436.1	97.2
429.2	98.9
428.1	92.0
453.0	108.9
455.4	102.0
449.9	116.9
447.2	124.5
454.8	126.2
441.3	137.9
443.7	131.4
466.9	143.1
386.0	118.6
392.5	114.8
393.6	121.0
394.3	128.6
400.5	123.8
399.8	116.5
407.1	116.5
414.0	116.2
421.2	116.5
423.0	109.6
424.3	103.0
420.2	95.1
417.4	104.1
416.7	110.3
409.8	110.3
402.6	110.3
402.2	104.1
395.7	101.0
392.2	94.4
410.2	103.7
412.6	96.1
405.3	95.8
398.8	91.6
404.3	87.1
413.6	88.9
421.6	88.2
435.4	89.6
658.3	152.1
653.4	139.3
660.0	143.8
667.9	148.3
661.4	162.1
635.4	198.8
630.3	193.2
631.6	297.6
638.2	289.7
632.3	290.4
625.8	291.4
536.9	247.2
532.5	250.3
569.1	233.0
572.5	245.1
461.3	130.3
469.9	129.6
462.6	121.7
456.1	120.0
458.8	114.1
461.9	107.9
465.1	100.3
459.2	95.1
475.1	133.4
477.5	126.2
479.9	118.2
482.0	131.7
491.0	130.7
485.4	124.8
487.2	117.9
493.4	124.1
498.2	129.0
500.7	121.7
506.9	127.2
511.0	121.0
505.1	115.5
494.4	117.6
497.5	111.0
500.3	105.1
508.3	108.9
508.3	101.3
501.7	98.2
494.4	95.1
471.6	122.4
466.4	113.7
473.7	116.5
481.6	110.3
489.6	111.3
492.0	104.8
485.1	103.0
475.4	108.9
469.5	107.2
479.2	103.0
472.3	99.2
467.1	92.3
487.9	96.8
479.9	96.1
545.6	141.1
542.8	131.0
539.7	124.1
537.6	117.2
541.4	108.2
533.5	108.9
526.2	104.4
516.6	104.1
514.5	112.7
522.1	109.9
527.6	115.5
517.9	126.9
521.7	132.4
528.0	128.3
532.5	122.4
569.1	126.2
561.1	123.1
555.6	128.6
549.0	126.2
545.2	118.2
553.9	120.0
550.4	113.1
550.1	106.8
535.6	102.3
538.3	96.5
546.3	99.2
553.9	102.3
559.4	107.5
557.7	113.7
565.3	115.8
568.4	109.3
562.9	100.6
571.5	102.0
558.4	94.7
569.1	94.4
522.1	98.5
515.2	96.8
530.4	96.1
603.4	140.0
612.7	138.3
585.4	124.1
577.4	125.2
571.9	119.6
574.7	113.7
577.1	107.2
583.0	111.7
580.5	118.6
588.5	117.6
591.6	109.9
586.1	103.7
579.2	98.2
588.2	96.8
593.7	101.0
600.9	99.9
600.6	107.5
597.1	114.4
594.0	121.4
591.6	127.2
599.6	127.2
602.3	120.3
606.5	113.1
610.6	99.9
607.9	106.5
605.4	94.4
596.4	93.4
616.5	106.5
613.7	113.7
610.6	119.6
608.5	125.5
615.5	130.7
617.9	124.5
621.3	117.9
622.0	111.7
619.6	98.9
614.1	92.7
625.1	105.1
628.2	96.5
633.1	103.0
631.4	111.3
628.2	120.0
620.0	139.3
626.5	125.2
623.1	131.4
569.8	149.7
571.9	143.8
518.3	117.6
523.5	122.7
627.6	135.5
634.5	136.6
640.0	134.1
646.6	133.4
648.6	125.5
641.4	127.2
632.7	127.9
635.5	119.6
638.6	113.4
640.0	106.1
640.3	97.2
646.2	101.3
644.1	117.9
653.1	117.9
646.6	110.3
655.9	111.0
654.2	104.1
650.4	95.8
655.6	129.0
661.8	134.1
669.4	138.3
670.8	128.6
663.5	125.2
662.5	116.5
662.8	105.5
659.4	96.5
652.1	256.3
646.2	250.8
657.6	251.8
664.5	248.3
659.7	242.8
644.8	268.0
671.1	280.8
668.0	287.4
642.1	306.7
635.8	304.0
549.1	367.7
551.9	363.9
579.2	361.8
575.4	370.5
437.5	368.7
436.4	438.9
442.0	438.9
568.1	444.8
561.9	447.2
610.6	464.1
616.1	467.6
615.5	481.7
568.8	513.7
545.6	525.1
552.6	556.6
503.8	475.3
510.0	472.9
635.8	575.2
628.9	578.3
612.0	575.2
604.4	577.3
596.8	579.4
589.2	581.1
583.3	577.3
577.8	582.5
570.5	579.7
562.6	576.3
556.7	581.8
549.8	578.7
543.6	582.5
534.9	579.4
527.0	580.1
530.4	585.3
522.1	587.0
519.0	580.1
512.1	579.7
503.8	578.7
495.9	578.3
499.3	584.9
506.2	586.3
513.8	586.6
516.6	593.2
509.3	593.2
501.1	592.2
619.6	581.8
610.3	583.2
602.3	585.7
594.7	586.7
585.4	588.1
579.5	591.2
570.9	594.6
571.9	587.7
564.0	582.9
565.0	591.2
556.7	590.5
549.8	587.0
537.0	587.0
542.9	590.5
549.8	593.9
549.8	601.6
543.2	597.7
536.0	594.3
529.7	592.2
523.9	597.1
530.4	600.2
537.3	603.3
557.0	597.4
564.0	598.8
558.1	605.4
577.8	599.8
585.0	596.4
583.0	606.4
591.3	603.6
587.8	613.3
580.2	614.7
571.2	616.1
574.7	608.1
565.7	609.5
569.8	603.3
558.4	615.0
550.1	611.2
544.3	607.8
517.3	602.6
524.6	604.3
530.8	608.5
523.9	613.0
517.3	616.4
509.7	614.0
501.7	613.3
507.3	606.7
511.4	600.9
504.2	599.5
515.9	608.8
527.0	619.9
599.6	601.6
592.0	594.6
599.6	592.9
608.5	591.2
606.1	598.8
614.1	596.4
616.5	588.4
627.9	588.1
621.7	594.3
628.6	598.1
634.8	593.9
635.2	585.3
641.7	580.8
649.3	576.7
656.9	579.4
649.7	584.6
635.8	601.2
627.9	605.7
620.6	602.6
611.7	604.3
618.2	610.2
604.4	607.8
595.8	609.8
585.4	621.9
577.1	622.3
593.3	618.8
602.0	616.1
609.9	613.3
616.5	618.8
624.1	615.7
631.0	614.7
636.2	609.8
641.7	603.6
643.1	588.8
642.1	596.7
649.7	593.3
659.0	589.1
658.3	597.4
650.0	600.5
656.6	605.7
648.6	608.8
607.9	620.9
485.5	571.5
479.3	575.3
487.9	577.7
482.7	583.9
475.8	581.8
471.3	575.6
464.4	578.4
468.2	581.8
464.4	587.0
457.5	582.9
457.2	577.0
450.6	578.7
440.6	579.1
434.3	580.5
439.5	586.0
438.5	592.9
443.3	596.7
445.1	589.8
445.8	582.5
452.0	587.0
450.6	594.6
458.5	590.8
464.1	594.6
470.3	588.4
477.2	588.8
484.5	590.5
491.0	585.3
494.1	591.5
425.0	588.4
417.7	589.5
410.1	590.5
413.2	584.0
401.5	579.1
383.5	579.5
376.9	578.8
371.8	582.2
366.9	588.1
378.3	585.0
374.2	589.1
369.0	594.7
375.2	596.0
383.5	599.8
387.3	606.4
391.1	600.9
387.7	593.3
391.5	588.4
395.6	592.6
401.5	591.6
399.8	598.8
407.0	597.8
414.6	596.4
412.5	603.3
404.6	603.7
397.3	604.7
391.8	610.2
385.2	614.7
384.5	621.6
391.8	618.2
398.0	615.7
401.1	610.6
408.4	609.2
418.4	609.9
420.1	602.3
428.1	602.3
425.3	609.9
433.6	607.1
441.6	604.3
448.5	601.6
446.8	608.8
439.8	611.9
432.2	615.1
424.6	618.9
413.2	616.8
405.6	618.2
454.4	606.1
453.7	616.1
445.7	617.8
469.2	600.2
468.9	608.5
476.1	601.2
472.3	594.7
480.3	596.0
488.9	596.4
483.4	601.9
491.3	603.7
496.9	598.1
499.0	605.4
492.7	611.3
484.8	609.2
477.2	608.5
473.4	615.4
466.1	617.8
459.6	621.6
450.2	622.7
444.7	627.5
479.9	615.7
487.9	616.8
495.8	619.9
505.2	620.6
512.8	622.7
521.8	625.1
538.4	610.9
533.2	615.7
544.9	615.7
536.6	620.2
530.4	626.5
552.2	619.9
545.3	623.7
538.7	628.9
564.3	619.6
558.4	624.7
569.8	625.1
599.9	624.0
643.1	615.1
653.1	615.7
576.0	630.6
583.3	633.0
589.5	628.2
599.2	631.6
607.5	628.5
614.0	626.1
620.3	625.4
627.5	625.1
635.8	617.8
643.1	623.4
649.0	624.0
658.3	622.0
665.2	616.4
662.1	609.2
671.1	607.8
669.0	598.1
668.0	623.4
661.7	631.0
670.0	631.0
665.9	636.8
657.3	637.9
647.6	636.5
653.4	629.6
645.5	630.6
640.7	635.1
638.2	625.8
633.7	631.3
624.8	631.3
616.1	632.0
622.0	638.6
613.0	641.3
607.5	636.5
607.1	645.1
612.3	650.0
619.6	646.9
626.5	644.1
634.8	643.4
642.7	643.7
651.7	644.8
658.3	646.5
647.6	652.0
658.3	653.8
640.0	650.3
632.4	652.4
624.1	653.8
640.3	658.3
647.9	660.3
616.5	656.2
621.7	661.7
632.7	662.8
599.1	642.4
598.4	650.0
608.1	654.8
600.5	657.2
608.4	662.8
599.1	664.8
592.2	663.4
592.9	655.8
591.2	646.9
585.6	650.3
584.2	657.2
578.4	661.7
577.3	648.9
583.2	643.1
590.8	636.5
577.3	638.2
568.7	634.4
570.1	643.4
562.1	638.9
563.2	629.2
554.2	634.8
551.8	628.2
545.5	633.0
547.6	640.3
539.7	637.5
532.1	635.8
523.8	632.3
516.5	630.6
503.7	629.2
509.2	633.4
516.5	638.2
524.4	641.0
532.7	642.7
541.0	645.1
541.4	654.1
534.1	648.9
526.2	648.2
518.9	646.2
522.0	655.8
531.7	656.9
537.9	661.7
531.7	664.8
524.1	663.4
540.0	667.9
546.9	661.7
549.0	648.9
554.9	643.4
562.1	645.8
568.7	654.1
554.5	657.2
561.1	653.1
565.9	662.4
555.2	666.6
487.8	624.0
480.6	624.0
472.9	623.0
463.6	626.1
469.8	629.2
474.0	635.1
478.1	628.9
481.6	633.0
488.2	630.3
495.1	626.5
495.4	634.1
501.6	638.9
509.2	641.7
508.9	649.3
514.4	654.5
507.2	655.2
499.9	654.8
501.6	647.9
493.7	650.0
495.8	642.4
488.5	637.2
488.2	645.5
481.6	640.6
480.2	647.2
485.4	652.4
492.3	657.9
497.1	664.1
505.1	662.1
515.5	661.4
467.6	637.5
472.8	642.4
473.5	651.0
479.7	657.6
473.5	659.6
466.2	654.1
464.1	661.0
457.9	655.8
456.9	664.8
450.7	660.3
451.4	650.7
460.0	648.9
465.5	646.2
460.0	639.6
463.1	632.7
455.5	628.2
453.8	635.4
453.8	643.4
446.5	639.3
448.6	631.3
436.8	620.9
430.3	623.0
436.5	627.8
442.0	633.7
433.7	637.9
440.3	641.7
446.5	646.5
431.0	644.8
438.2	649.3
444.4	654.5
441.7	661.7
436.1	658.3
431.3	652.4
423.4	644.8
427.2	639.6
423.7	625.4
416.4	622.7
415.8	630.3
418.9	638.2
413.7	642.7
416.1	648.9
417.5	656.9
426.8	660.0
432.7	668.3
425.4	668.6
419.9	662.4
412.0	661.7
416.4	668.6
409.9	654.8
407.5	647.9
404.4	641.7
410.6	636.1
404.0	633.0
409.2	628.2
401.9	624.7
395.4	625.1
387.8	627.8
395.7	632.3
390.5	635.1
397.1	639.3
397.4	646.9
374.6	603.0
381.2	607.5
372.6	610.9
379.1	616.1
377.0	624.4
360.5	593.6
366.7	600.5
359.8	601.6
353.2	597.4
352.9	590.2
357.7	578.4
364.9	580.5
351.8	582.9
349.4	576.0
330.7	575.7
325.5	580.1
317.9	578.4
310.3	575.0
312.4	582.2
304.8	579.8
306.2	586.4
313.4	589.5
318.6	585.3
326.6	587.4
326.9	594.3
332.8	590.9
339.4	586.7
347.0	586.7
345.9	592.6
339.0	595.4
338.3	601.9
332.1	599.2
331.1	606.4
323.8	600.9
317.3	605.0
320.7	592.9
315.2	596.7
309.3	601.9
301.7	597.1
300.0	590.5
297.9	584.3
297.6	576.7
291.7	580.8
284.1	579.5
276.8	575.3
352.5	605.0
345.2	606.1
343.9	614.0
352.2	612.6
358.7	608.1
357.3	616.8
366.0	607.1
365.3	614.0
350.8	619.9
342.5	622.7
336.6	617.8
330.0	614.4
322.8	608.5
322.4	617.1
315.5	613.7
308.3	609.9
306.5	618.5
300.3	612.3
296.2	619.6
302.7	604.3
294.8	603.7
288.9	599.2
295.1	596.0
291.7	588.1
286.5	593.3
282.7	587.1
276.5	582.6
270.2	578.8
263.0	581.5
263.3	588.1
270.2	587.8
277.2	592.9
266.4	594.0
274.0	600.2
281.3	599.2
279.6	607.1
287.2	606.4
283.4	613.3
292.7	610.2
288.9	618.5
293.4	625.1
329.3	622.0
313.8	620.6
310.0	626.1
424.1	652.4
391.9	643.1
381.9	627.8
385.7	633.7
387.1	640.3
384.6	646.9
390.5	648.2
395.0	653.1
403.0	653.8
406.4	662.1
398.5	660.3
401.6	667.9
409.9	669.7
394.0	667.2
391.6	660.0
387.1	653.1
382.9	658.3
386.0	665.5
378.4	664.8
374.6	657.9
379.5	651.0
371.9	651.3
372.2	645.8
379.1	642.7
380.2	636.1
372.6	637.9
374.3	630.3
368.1	633.0
369.1	626.5
362.2	620.2
361.1	627.5
360.1	636.5
354.9	631.3
352.2	638.9
358.4	643.1
365.6	640.3
363.9	648.9
367.4	657.9
370.5	666.6
361.1	663.8
359.4	655.8
355.6	648.9
350.4	646.2
345.2	640.6
347.0	633.0
356.0	623.0
427.2	632.0
329.2	629.6
334.0	625.8
340.6	628.9
333.3	634.4
339.9	635.4
336.8	641.7
329.2	637.5
322.6	633.7
322.6	642.4
329.5	646.2
335.1	650.0
342.7	647.2
342.7	654.1
349.9	653.4
353.0	660.3
345.8	661.0
357.9	669.3
349.9	668.3
338.2	664.8
337.1	656.9
332.0	661.0
329.2	655.5
323.7	658.3
326.4	666.2
333.3	668.6
316.1	655.5
316.7	663.8
306.7	654.5
301.5	659.3
308.8	661.7
321.9	650.3
315.7	644.8
312.2	648.9
303.3	648.2
307.8	642.4
315.7	636.8
314.3	629.9
307.8	634.4
300.2	639.9
300.8	632.7
292.9	632.3
291.9	640.6
296.0	646.5
298.4	654.1
290.8	656.2
296.0	663.8
288.1	664.5
284.3	652.4
283.2	659.0
278.4	651.3
291.5	649.3
283.9	646.2
282.5	639.6
285.6	633.4
286.3	626.5
280.8	620.6
258.7	592.9
260.1	599.5
267.3	601.9
271.8	607.8
280.5	628.9
197.8	535.9
175.7	535.2
123.9	489.2
135.3	521.4
123.9	401.5
127.3	396.3
231.7	493.7
249.3	511.0
245.2	505.1
183.6	575.7
176.3	578.4
183.2	582.9
191.2	583.6
191.9	575.0
202.9	575.7
198.8	582.2
194.7	590.2
202.9	588.8
207.4	581.9
216.1	581.5
212.6	589.1
221.3	588.8
223.3	580.8
229.9	579.1
228.5	586.4
237.2	577.4
236.5	584.6
243.0	579.5
250.0	576.3
249.3	584.3
242.7	587.8
250.0	591.6
256.2	586.4
255.8	580.5
252.7	597.8
246.5	601.2
242.4	595.7
234.7	592.2
234.4	598.5
228.5	601.9
225.4	594.7
220.6	601.9
217.1	595.4
212.3	602.6
207.1	596.0
203.3	603.0
207.1	608.8
197.4	609.5
198.1	596.4
192.9	604.0
188.8	597.4
180.1	595.0
185.7	590.2
177.0	588.4
215.7	609.5
224.0	609.5
230.9	611.9
237.5	605.4
246.2	610.2
238.9	614.4
233.7	619.9
226.5	618.5
218.5	617.8
210.2	617.8
200.9	617.1
196.7	623.4
190.5	615.7
188.1	623.7
205.7	624.7
214.4	624.7
222.0	626.8
240.6	624.0
246.2	618.2
254.1	613.3
253.1	605.0
261.0	609.5
261.4	617.8
254.4	621.3
265.5	624.0
267.9	615.4
276.2	615.4
162.5	577.4
155.9	581.9
147.0	582.9
140.0	578.1
132.1	579.8
125.2	583.3
119.7	560.8
111.7	562.9
119.3	568.4
117.2	578.4
112.7	572.5
105.1	565.6
98.2	552.8
169.4	582.6
169.8	595.7
154.9	589.5
163.2	586.4
162.5	595.4
166.7	604.7
175.6	601.9
183.2	603.7
186.4	609.2
177.0	608.8
169.4	610.6
168.4	617.8
176.3	616.1
182.9	619.2
174.6	624.0
160.8	611.9
152.8	616.4
155.3	609.2
159.4	603.3
152.8	598.5
147.6	607.8
139.0	615.1
133.8	621.3
131.4	611.6
138.0	607.1
136.2	600.5
128.6	604.3
122.8	610.9
145.6	601.2
148.7	590.9
142.1	595.0
140.7	585.7
135.9	592.2
131.7	587.1
130.0	596.0
124.1	591.2
122.8	600.5
114.8	548.0
116.5	588.8
274.1	635.8
269.3	631.0
260.7	633.0
256.2	627.2
246.5	627.5
243.4	633.4
234.4	632.3
253.1	633.4
247.9	640.3
257.2	641.3
266.2	637.9
273.5	644.1
264.8	644.1
269.7	650.7
274.5	657.9
280.4	666.6
270.3	664.8
265.2	656.9
260.3	648.9
257.6	655.2
251.0	656.2
242.4	656.5
242.7	647.9
239.2	638.9
251.3	647.9
261.4	665.2
255.5	662.1
248.6	665.2
256.5	671.4
233.7	645.1
236.1	652.4
233.7	660.0
239.5	665.9
227.8	665.2
224.7	657.6
228.5	652.4
220.9	651.0
225.0	644.4
230.5	638.2
225.4	632.3
221.2	637.9
213.3	637.5
217.8	631.0
208.8	631.0
205.7	637.5
200.8	629.9
197.0	634.8
192.5	631.6
184.9	630.6
181.8	638.9
192.2	638.9
193.6	648.2
186.0	646.2
178.7	647.2
199.1	643.4
209.1	644.1
217.1	644.8
211.2	649.6
202.2	649.6
205.7	657.6
196.0	656.5
188.0	654.1
190.1	663.8
200.8	663.8
209.5	665.5
216.0	657.9
219.5	666.6
165.6	623.7
156.9	623.7
146.9	615.7
140.0	624.0
149.3	624.4
141.7	630.6
135.2	630.3
126.2	625.8
127.2	634.1
135.8	636.8
129.3	642.0
139.0	643.1
149.0	643.7
141.4	649.6
151.7	651.7
157.3	645.8
160.0	653.8
168.7	654.8
178.7	655.5
182.2	662.4
172.8	662.1
164.5	662.8
155.2	659.6
156.2	669.0
169.0	670.0
179.7	669.0
145.9	637.5
150.7	631.0
156.2	638.2
161.4	631.3
174.6	632.3
172.1	640.6
168.0	646.9
166.6	637.2
141.7	657.2
137.2	663.4
146.2	665.2
132.4	648.9
133.1	656.9
123.4	646.2
120.6	639.3
114.8	646.5
122.7	654.1
126.2	662.1
111.6	655.5
112.0	637.9
117.2	631.6
123.7	618.2
115.1	615.4
110.6	622.0
111.3	630.6
118.9	624.0
105.1	628.5
101.3	618.9
107.5	615.1
113.4	608.5
118.6	603.7
117.2	596.0
112.3	600.5
105.8	605.7
100.2	611.3
98.5	603.7
101.6	597.8
109.6	592.9
108.9	584.3
102.0	589.8
95.1	587.8
94.4	595.4
85.7	592.2
89.9	599.5
91.6	607.5
93.0	617.1
97.1	625.8
105.8	635.1
97.8	633.4
107.8	643.4
105.8	650.3
106.8	575.7
97.5	565.3
100.9	572.5
98.9	580.8
94.0	578.1
93.7	560.8
90.6	554.2
91.3	570.8
95.4	462.8
360.5	271.7
323.1	399.9
273.0	396.1
266.8	384.3
265.8	389.5
355.6	384.0
358.7	387.4
370.5	382.9
391.9	372.6
352.9	349.1
347.3	350.1
358.0	338.0
353.2	334.9
395.7	331.1
400.9	331.8
358.0	267.2
344.9	499.8
349.4	503.2
382.9	451.4
392.3	440.0
392.9	434.8
