     x      y
100.0	158.0
100.0	227.0
100.0	275.0
100.0	289.0
100.0	536.0
100.0	563.0
100.0	576.0
100.0	605.0
101.0	197.0
101.0	397.0
101.0	419.0
101.0	583.0
102.0	139.0
102.0	151.0
102.0	219.0
102.0	311.0
102.0	347.0
102.0	426.0
102.0	491.0
102.0	512.0
103.0	238.0
103.0	251.0
103.0	298.0
103.0	335.0
103.0	342.0
103.0	366.0
103.0	403.0
103.0	438.0
103.0	523.0
103.0	557.0
103.0	591.0
104.0	166.0
104.0	243.0
104.0	328.0
104.0	484.0
105.0	181.0
105.0	207.0
105.0	258.0
105.0	356.0
105.0	392.0
105.0	462.0
105.0	477.0
105.0	530.0
105.0	542.0
105.0	570.0
105.0	611.0
106.0	132.0
106.0	267.0
106.0	281.0
106.0	551.0
107.0	215.0
107.0	232.0
107.0	276.0
107.0	385.0
107.0	431.0
107.0	444.0
107.0	508.0
107.0	577.0
107.0	598.0
108.0	144.0
108.0	174.0
108.0	293.0
108.0	322.0
108.0	362.0
108.0	377.0
108.0	398.0
108.0	423.0
108.0	564.0
108.0	585.0
108.0	605.0
109.0	158.0
109.0	311.0
109.0	335.0
109.0	346.0
109.0	352.0
109.0	367.0
109.0	403.0
110.0	187.0
110.0	200.0
110.0	247.0
110.0	317.0
110.0	489.0
110.0	497.0
110.0	523.0
111.0	151.0
111.0	271.0
111.0	299.0
111.0	558.0
111.0	592.0
112.0	125.0
112.0	238.0
112.0	305.0
112.0	411.0
112.0	461.0
112.0	468.0
112.0	483.0
112.0	516.0
112.0	548.0
113.0	223.0
113.0	229.0
113.0	286.0
113.0	357.0
113.0	374.0
113.0	381.0
113.0	386.0
113.0	394.0
113.0	418.0
113.0	504.0
113.0	529.0
113.0	541.0
113.0	570.0
113.0	579.0
113.0	600.0
113.0	612.0
114.0	167.0
114.0	400.0
114.0	433.0
114.0	443.0
114.0	510.0
115.0	210.0
115.0	259.0
115.0	294.0
115.0	313.0
115.0	335.0
115.0	364.0
115.0	425.0
115.0	587.0
116.0	131.0
116.0	161.0
116.0	273.0
116.0	407.0
116.0	454.0
116.0	563.0
116.0	606.0
117.0	117.0
117.0	185.0
117.0	193.0
117.0	252.0
117.0	323.0
117.0	351.0
117.0	439.0
117.0	471.0
117.0	525.0
117.0	535.0
118.0	152.0
118.0	173.0
118.0	300.0
118.0	487.0
118.0	555.0
119.0	233.0
119.0	240.0
119.0	284.0
119.0	370.0
119.0	383.0
119.0	391.0
119.0	412.0
119.0	459.0
119.0	466.0
119.0	506.0
119.0	519.0
119.0	548.0
120.0	124.0
120.0	340.0
120.0	396.0
120.0	426.0
120.0	431.0
120.0	513.0
120.0	568.0
120.0	583.0
120.0	595.0
121.0	137.0
121.0	180.0
121.0	308.0
121.0	358.0
121.0	577.0
122.0	213.0
122.0	292.0
122.0	351.0
122.0	482.0
122.0	613.0
123.0	166.0
123.0	207.0
123.0	258.0
123.0	264.0
123.0	322.0
123.0	365.0
123.0	444.0
124.0	251.0
124.0	500.0
125.0	117.0
125.0	147.0
125.0	187.0
125.0	271.0
125.0	304.0
125.0	436.0
125.0	469.0
125.0	560.0
126.0	131.0
126.0	157.0
126.0	243.0
126.0	329.0
126.0	379.0
126.0	457.0
126.0	463.0
126.0	547.0
126.0	601.0
127.0	220.0
127.0	516.0
127.0	530.0
128.0	194.0
128.0	350.0
128.0	393.0
128.0	496.0
128.0	608.0
129.0	139.0
129.0	255.0
129.0	276.0
129.0	474.0
129.0	481.0
130.0	180.0
130.0	202.0
130.0	248.0
130.0	262.0
130.0	270.0
130.0	323.0
130.0	356.0
130.0	410.0
130.0	452.0
130.0	503.0
130.0	541.0
130.0	554.0
130.0	567.0
130.0	585.0
130.0	597.0
131.0	125.0
131.0	303.0
131.0	334.0
131.0	440.0
131.0	467.0
132.0	153.0
132.0	167.0
132.0	291.0
132.0	311.0
132.0	420.0
132.0	510.0
132.0	535.0
132.0	562.0
133.0	284.0
133.0	328.0
133.0	339.0
133.0	346.0
133.0	370.0
133.0	491.0
133.0	528.0
133.0	591.0
134.0	160.0
134.0	221.0
134.0	233.0
134.0	388.0
134.0	516.0
134.0	547.0
134.0	602.0
135.0	131.0
135.0	196.0
135.0	277.0
135.0	299.0
135.0	353.0
135.0	363.0
135.0	415.0
135.0	479.0
136.0	117.0
136.0	259.0
136.0	408.0
136.0	573.0
137.0	205.0
137.0	246.0
137.0	266.0
137.0	305.0
137.0	401.0
137.0	485.0
137.0	556.0
137.0	586.0
138.0	124.0
138.0	182.0
138.0	212.0
138.0	252.0
138.0	335.0
138.0	423.0
138.0	431.0
138.0	504.0
139.0	288.0
139.0	312.0
139.0	467.0
139.0	533.0
139.0	568.0
140.0	152.0
140.0	166.0
140.0	227.0
140.0	294.0
140.0	367.0
140.0	378.0
140.0	493.0
140.0	550.0
140.0	598.0
141.0	527.0
141.0	580.0
141.0	592.0
142.0	276.0
142.0	301.0
142.0	355.0
142.0	397.0
142.0	416.0
142.0	449.0
142.0	488.0
142.0	498.0
142.0	514.0
142.0	521.0
142.0	545.0
142.0	562.0
143.0	145.0
143.0	218.0
143.0	263.0
143.0	325.0
143.0	361.0
143.0	443.0
143.0	456.0
144.0	130.0
144.0	175.0
144.0	307.0
144.0	346.0
144.0	472.0
144.0	504.0
144.0	574.0
145.0	206.0
145.0	235.0
145.0	249.0
145.0	256.0
145.0	338.0
145.0	556.0
145.0	587.0
146.0	163.0
146.0	269.0
146.0	283.0
146.0	386.0
146.0	459.0
146.0	466.0
146.0	531.0
146.0	550.0
146.0	602.0
146.0	610.0
147.0	183.0
147.0	224.0
147.0	289.0
147.0	332.0
147.0	393.0
147.0	494.0
148.0	192.0
148.0	352.0
148.0	408.0
148.0	453.0
148.0	479.0
148.0	580.0
149.0	125.0
149.0	136.0
149.0	151.0
149.0	199.0
149.0	241.0
149.0	263.0
149.0	428.0
149.0	442.0
149.0	487.0
149.0	498.0
149.0	517.0
149.0	523.0
149.0	545.0
149.0	594.0
150.0	313.0
150.0	345.0
150.0	364.0
150.0	562.0
151.0	176.0
151.0	218.0
151.0	278.0
151.0	358.0
151.0	370.0
151.0	471.0
151.0	607.0
152.0	143.0
152.0	255.0
152.0	271.0
152.0	307.0
152.0	382.0
152.0	507.0
152.0	574.0
153.0	117.0
153.0	157.0
153.0	206.0
153.0	319.0
153.0	330.0
153.0	405.0
153.0	464.0
153.0	548.0
153.0	586.0
153.0	601.0
154.0	164.0
154.0	185.0
154.0	237.0
154.0	283.0
154.0	300.0
154.0	336.0
154.0	350.0
154.0	457.0
155.0	130.0
155.0	193.0
155.0	419.0
155.0	488.0
155.0	495.0
155.0	512.0
155.0	567.0
156.0	223.0
156.0	261.0
156.0	368.0
156.0	439.0
156.0	470.0
156.0	524.0
156.0	543.0
156.0	580.0
156.0	593.0
157.0	172.0
157.0	199.0
157.0	242.0
157.0	268.0
157.0	277.0
157.0	392.0
158.0	122.0
158.0	313.0
158.0	355.0
158.0	386.0
158.0	414.0
158.0	465.0
158.0	530.0
159.0	249.0
159.0	287.0
159.0	306.0
159.0	507.0
159.0	612.0
160.0	165.0
160.0	330.0
160.0	454.0
160.0	477.0
160.0	483.0
160.0	499.0
160.0	562.0
160.0	573.0
161.0	157.0
161.0	299.0
161.0	374.0
161.0	514.0
161.0	548.0
161.0	599.0
162.0	129.0
162.0	185.0
162.0	237.0
162.0	257.0
162.0	348.0
162.0	363.0
162.0	384.0
162.0	390.0
163.0	195.0
163.0	216.0
163.0	293.0
163.0	343.0
163.0	424.0
163.0	442.0
163.0	567.0
164.0	177.0
164.0	228.0
164.0	244.0
164.0	264.0
164.0	282.0
164.0	318.0
164.0	336.0
164.0	369.0
164.0	412.0
164.0	496.0
164.0	542.0
164.0	593.0
165.0	120.0
165.0	148.0
165.0	202.0
165.0	312.0
165.0	406.0
165.0	486.0
165.0	503.0
165.0	532.0
165.0	611.0
166.0	171.0
166.0	305.0
166.0	346.0
166.0	380.0
166.0	394.0
167.0	135.0
167.0	189.0
167.0	209.0
167.0	352.0
167.0	510.0
167.0	561.0
167.0	599.0
168.0	239.0
168.0	298.0
168.0	328.0
168.0	368.0
168.0	459.0
168.0	516.0
169.0	163.0
169.0	321.0
169.0	362.0
169.0	425.0
169.0	447.0
169.0	493.0
169.0	549.0
169.0	587.0
169.0	606.0
170.0	143.0
170.0	197.0
170.0	291.0
170.0	309.0
170.0	335.0
170.0	341.0
170.0	390.0
170.0	412.0
170.0	485.0
170.0	522.0
171.0	217.0
171.0	402.0
171.0	443.0
171.0	505.0
171.0	543.0
172.0	120.0
172.0	174.0
172.0	182.0
172.0	203.0
172.0	247.0
172.0	284.0
172.0	430.0
172.0	529.0
172.0	615.0
173.0	168.0
173.0	255.0
173.0	273.0
173.0	279.0
173.0	315.0
173.0	350.0
173.0	377.0
173.0	458.0
173.0	555.0
173.0	594.0
174.0	327.0
174.0	343.0
174.0	511.0
175.0	135.0
175.0	240.0
175.0	424.0
175.0	471.0
176.0	309.0
176.0	338.0
176.0	415.0
176.0	498.0
176.0	549.0
176.0	601.0
176.0	610.0
177.0	187.0
177.0	261.0
177.0	321.0
177.0	382.0
177.0	440.0
177.0	542.0
177.0	569.0
178.0	155.0
178.0	197.0
178.0	218.0
178.0	283.0
178.0	435.0
178.0	447.0
178.0	523.0
178.0	531.0
178.0	588.0
179.0	142.0
179.0	180.0
179.0	226.0
179.0	349.0
179.0	368.0
179.0	467.0
179.0	476.0
179.0	577.0
179.0	616.0
180.0	204.0
180.0	268.0
180.0	275.0
180.0	417.0
180.0	429.0
180.0	455.0
181.0	121.0
181.0	248.0
181.0	325.0
181.0	332.0
181.0	563.0
182.0	241.0
182.0	295.0
182.0	360.0
182.0	393.0
182.0	399.0
182.0	412.0
182.0	435.0
182.0	448.0
182.0	527.0
182.0	557.0
182.0	583.0
183.0	353.0
183.0	380.0
183.0	441.0
183.0	482.0
183.0	546.0
183.0	602.0
184.0	150.0
184.0	189.0
184.0	210.0
184.0	234.0
184.0	373.0
184.0	520.0
185.0	174.0
185.0	182.0
185.0	197.0
185.0	514.0
185.0	610.0
186.0	158.0
186.0	271.0
186.0	302.0
186.0	315.0
186.0	366.0
186.0	428.0
186.0	459.0
186.0	465.0
186.0	478.0
186.0	492.0
186.0	534.0
186.0	577.0
186.0	591.0
187.0	166.0
187.0	342.0
187.0	421.0
187.0	448.0
187.0	484.0
188.0	124.0
188.0	145.0
188.0	204.0
188.0	216.0
188.0	277.0
188.0	396.0
188.0	442.0
188.0	551.0
188.0	615.0
189.0	239.0
189.0	296.0
189.0	331.0
189.0	437.0
189.0	509.0
189.0	528.0
189.0	565.0
189.0	585.0
190.0	131.0
190.0	212.0
190.0	308.0
190.0	320.0
190.0	470.0
190.0	498.0
191.0	153.0
191.0	222.0
192.0	260.0
192.0	283.0
192.0	363.0
192.0	407.0
192.0	464.0
192.0	523.0
192.0	573.0
192.0	579.0
192.0	606.0
193.0	139.0
193.0	170.0
193.0	178.0
193.0	270.0
193.0	452.0
193.0	545.0
194.0	161.0
194.0	251.0
194.0	382.0
194.0	482.0
194.0	506.0
195.0	147.0
195.0	199.0
195.0	205.0
195.0	357.0
195.0	373.0
195.0	440.0
196.0	117.0
196.0	216.0
196.0	240.0
196.0	290.0
196.0	434.0
196.0	502.0
196.0	602.0
196.0	614.0
197.0	125.0
197.0	389.0
197.0	415.0
197.0	427.0
197.0	491.0
197.0	497.0
197.0	533.0
197.0	550.0
197.0	571.0
198.0	246.0
198.0	303.0
198.0	368.0
198.0	378.0
198.0	400.0
198.0	461.0
198.0	473.0
198.0	521.0
198.0	579.0
198.0	587.0
198.0	596.0
199.0	272.0
199.0	323.0
199.0	336.0
199.0	353.0
199.0	456.0
199.0	544.0
200.0	136.0
200.0	167.0
200.0	175.0
200.0	191.0
200.0	361.0
200.0	421.0
200.0	443.0
201.0	152.0
201.0	290.0
201.0	329.0
201.0	346.0
201.0	383.0
201.0	508.0
201.0	516.0
202.0	314.0
202.0	342.0
202.0	607.0
203.0	120.0
203.0	205.0
203.0	240.0
203.0	284.0
203.0	432.0
203.0	555.0
203.0	568.0
203.0	592.0
204.0	143.0
204.0	158.0
204.0	197.0
204.0	319.0
204.0	364.0
204.0	469.0
204.0	495.0
204.0	562.0
205.0	129.0
205.0	370.0
205.0	453.0
205.0	483.0
205.0	489.0
205.0	549.0
206.0	265.0
206.0	272.0
206.0	296.0
206.0	394.0
206.0	441.0
206.0	448.0
206.0	612.0
207.0	152.0
207.0	212.0
207.0	233.0
207.0	246.0
207.0	257.0
207.0	279.0
207.0	337.0
207.0	405.0
207.0	505.0
208.0	138.0
208.0	171.0
208.0	359.0
208.0	375.0
208.0	429.0
208.0	528.0
209.0	123.0
209.0	164.0
209.0	220.0
209.0	308.0
209.0	499.0
209.0	538.0
209.0	559.0
209.0	573.0
209.0	605.0
210.0	285.0
210.0	465.0
210.0	595.0
211.0	239.0
211.0	301.0
211.0	353.0
211.0	452.0
211.0	471.0
211.0	485.0
211.0	493.0
211.0	532.0
211.0	552.0
211.0	581.0
211.0	588.0
212.0	146.0
212.0	179.0
212.0	185.0
212.0	198.0
212.0	259.0
212.0	406.0
212.0	420.0
212.0	510.0
212.0	524.0
212.0	545.0
212.0	611.0
213.0	225.0
213.0	341.0
213.0	346.0
213.0	426.0
214.0	130.0
214.0	265.0
214.0	325.0
214.0	440.0
214.0	504.0
214.0	600.0
215.0	138.0
215.0	219.0
215.0	364.0
215.0	461.0
215.0	539.0
215.0	563.0
215.0	570.0
216.0	166.0
216.0	211.0
216.0	282.0
216.0	289.0
216.0	307.0
216.0	466.0
217.0	121.0
217.0	436.0
217.0	479.0
217.0	578.0
217.0	585.0
218.0	229.0
218.0	237.0
218.0	330.0
218.0	382.0
218.0	430.0
218.0	533.0
218.0	592.0
218.0	606.0
219.0	269.0
219.0	395.0
219.0	508.0
220.0	180.0
220.0	323.0
220.0	612.0
221.0	127.0
221.0	136.0
221.0	244.0
221.0	251.0
221.0	372.0
221.0	399.0
221.0	442.0
221.0	473.0
221.0	545.0
221.0	569.0
221.0	598.0
222.0	213.0
222.0	279.0
222.0	287.0
222.0	294.0
222.0	311.0
222.0	337.0
222.0	540.0
222.0	551.0
222.0	562.0
223.0	221.0
223.0	235.0
223.0	450.0
223.0	479.0
223.0	581.0
224.0	119.0
224.0	148.0
224.0	300.0
224.0	318.0
224.0	331.0
224.0	352.0
224.0	404.0
224.0	415.0
225.0	187.0
225.0	227.0
225.0	439.0
225.0	487.0
225.0	505.0
226.0	142.0
226.0	155.0
226.0	339.0
226.0	473.0
226.0	535.0
226.0	558.0
226.0	593.0
227.0	208.0
227.0	247.0
227.0	254.0
227.0	262.0
227.0	410.0
227.0	493.0
227.0	548.0
227.0	610.0
228.0	180.0
228.0	217.0
228.0	270.0
228.0	276.0
228.0	291.0
228.0	370.0
228.0	398.0
228.0	434.0
228.0	540.0
228.0	564.0
229.0	166.0
229.0	202.0
229.0	348.0
229.0	355.0
229.0	404.0
229.0	499.0
230.0	125.0
230.0	134.0
230.0	174.0
230.0	194.0
230.0	224.0
230.0	231.0
230.0	309.0
230.0	383.0
230.0	509.0
230.0	554.0
230.0	576.0
230.0	584.0
231.0	118.0
231.0	147.0
231.0	159.0
231.0	420.0
231.0	478.0
231.0	515.0
231.0	521.0
231.0	532.0
232.0	251.0
232.0	393.0
233.0	186.0
233.0	275.0
233.0	281.0
233.0	410.0
233.0	463.0
233.0	598.0
233.0	605.0
233.0	612.0
234.0	212.0
234.0	237.0
234.0	300.0
234.0	332.0
234.0	472.0
234.0	544.0
234.0	590.0
235.0	206.0
235.0	316.0
235.0	400.0
235.0	425.0
235.0	445.0
235.0	537.0
235.0	550.0
235.0	569.0
235.0	578.0
236.0	141.0
236.0	165.0
236.0	181.0
236.0	340.0
236.0	357.0
236.0	508.0
236.0	526.0
236.0	531.0
237.0	157.0
237.0	174.0
237.0	200.0
237.0	229.0
237.0	311.0
237.0	321.0
237.0	347.0
237.0	463.0
237.0	497.0
237.0	513.0
237.0	519.0
238.0	247.0
238.0	305.0
238.0	374.0
238.0	381.0
238.0	395.0
238.0	502.0
238.0	585.0
239.0	329.0
239.0	367.0
239.0	434.0
239.0	602.0
239.0	614.0
240.0	240.0
240.0	258.0
240.0	292.0
240.0	298.0
240.0	484.0
240.0	548.0
241.0	217.0
241.0	235.0
241.0	253.0
241.0	535.0
241.0	541.0
241.0	574.0
241.0	608.0
242.0	149.0
242.0	211.0
242.0	400.0
242.0	498.0
242.0	523.0
243.0	170.0
243.0	196.0
243.0	363.0
243.0	511.0
243.0	518.0
243.0	580.0
243.0	598.0
244.0	136.0
244.0	204.0
244.0	286.0
244.0	324.0
244.0	376.0
244.0	394.0
244.0	404.0
244.0	480.0
245.0	128.0
245.0	228.0
245.0	244.0
245.0	303.0
245.0	442.0
245.0	474.0
245.0	530.0
245.0	586.0
245.0	592.0
246.0	118.0
246.0	144.0
246.0	238.0
246.0	319.0
246.0	347.0
246.0	415.0
246.0	503.0
246.0	605.0
246.0	613.0
247.0	313.0
247.0	353.0
247.0	461.0
247.0	468.0
247.0	494.0
247.0	537.0
247.0	559.0
248.0	222.0
248.0	399.0
248.0	409.0
248.0	515.0
249.0	174.0
249.0	281.0
249.0	378.0
249.0	483.0
249.0	509.0
249.0	521.0
250.0	194.0
250.0	201.0
250.0	250.0
250.0	263.0
250.0	332.0
250.0	526.0
250.0	581.0
251.0	133.0
251.0	151.0
251.0	166.0
251.0	216.0
251.0	243.0
251.0	326.0
251.0	421.0
251.0	433.0
251.0	473.0
251.0	489.0
251.0	548.0
251.0	565.0
251.0	588.0
251.0	596.0
252.0	124.0
252.0	234.0
252.0	275.0
253.0	188.0
253.0	227.0
253.0	256.0
253.0	348.0
253.0	467.0
253.0	602.0
254.0	140.0
254.0	337.0
254.0	441.0
254.0	480.0
254.0	538.0
254.0	560.0
254.0	608.0
255.0	179.0
255.0	315.0
255.0	362.0
255.0	403.0
255.0	447.0
255.0	485.0
255.0	503.0
255.0	529.0
255.0	578.0
256.0	203.0
256.0	259.0
256.0	308.0
256.0	374.0
256.0	413.0
256.0	453.0
257.0	127.0
257.0	146.0
257.0	212.0
257.0	233.0
257.0	240.0
257.0	301.0
257.0	554.0
258.0	155.0
258.0	194.0
258.0	386.0
258.0	430.0
258.0	471.0
258.0	498.0
258.0	549.0
258.0	591.0
259.0	119.0
259.0	162.0
259.0	185.0
259.0	272.0
259.0	380.0
259.0	424.0
259.0	448.0
259.0	459.0
259.0	508.0
259.0	513.0
259.0	598.0
260.0	403.0
260.0	465.0
260.0	520.0
260.0	563.0
260.0	605.0
261.0	177.0
261.0	252.0
261.0	311.0
261.0	324.0
261.0	454.0
261.0	488.0
261.0	540.0
261.0	574.0
262.0	229.0
262.0	245.0
262.0	264.0
262.0	280.0
262.0	503.0
262.0	526.0
262.0	558.0
262.0	581.0
262.0	611.0
263.0	207.0
263.0	493.0
263.0	587.0
263.0	593.0
264.0	236.0
264.0	432.0
264.0	483.0
264.0	517.0
264.0	552.0
265.0	132.0
265.0	150.0
265.0	187.0
265.0	223.0
265.0	257.0
265.0	398.0
265.0	460.0
265.0	499.0
265.0	509.0
265.0	569.0
265.0	600.0
266.0	125.0
266.0	172.0
266.0	292.0
266.0	321.0
266.0	393.0
266.0	419.0
266.0	438.0
266.0	444.0
267.0	117.0
267.0	158.0
267.0	313.0
267.0	466.0
268.0	264.0
268.0	285.0
268.0	349.0
268.0	528.0
268.0	543.0
268.0	606.0
269.0	138.0
269.0	212.0
269.0	231.0
269.0	309.0
269.0	330.0
269.0	376.0
269.0	385.0
269.0	471.0
269.0	495.0
270.0	218.0
270.0	247.0
270.0	260.0
270.0	402.0
270.0	429.0
270.0	485.0
270.0	575.0
271.0	319.0
271.0	360.0
271.0	371.0
271.0	442.0
271.0	461.0
271.0	519.0
271.0	550.0
271.0	613.0
272.0	168.0
272.0	189.0
272.0	326.0
272.0	509.0
272.0	588.0
272.0	600.0
273.0	121.0
273.0	133.0
273.0	153.0
273.0	161.0
273.0	225.0
273.0	237.0
273.0	334.0
273.0	390.0
273.0	476.0
274.0	174.0
274.0	313.0
274.0	431.0
274.0	533.0
274.0	558.0
275.0	182.0
275.0	341.0
275.0	395.0
275.0	578.0
276.0	195.0
276.0	213.0
276.0	264.0
276.0	279.0
276.0	330.0
276.0	348.0
276.0	402.0
276.0	496.0
276.0	546.0
276.0	596.0
276.0	607.0
277.0	375.0
277.0	456.0
277.0	571.0
278.0	202.0
278.0	220.0
278.0	481.0
278.0	527.0
278.0	539.0
278.0	565.0
279.0	148.0
279.0	269.0
279.0	416.0
279.0	427.0
279.0	510.0
279.0	613.0
280.0	118.0
280.0	142.0
280.0	176.0
280.0	227.0
280.0	292.0
280.0	422.0
280.0	591.0
280.0	600.0
281.0	134.0
281.0	157.0
281.0	184.0
281.0	208.0
281.0	239.0
281.0	286.0
281.0	350.0
281.0	371.0
281.0	406.0
281.0	515.0
282.0	163.0
282.0	246.0
282.0	253.0
282.0	360.0
282.0	400.0
282.0	442.0
282.0	497.0
283.0	265.0
283.0	307.0
283.0	328.0
283.0	366.0
283.0	437.0
283.0	472.0
283.0	528.0
283.0	569.0
284.0	195.0
284.0	215.0
284.0	234.0
284.0	296.0
284.0	319.0
284.0	540.0
284.0	607.0
285.0	222.0
285.0	340.0
285.0	380.0
285.0	581.0
286.0	535.0
286.0	594.0
287.0	123.0
287.0	202.0
287.0	282.0
287.0	361.0
287.0	372.0
287.0	386.0
287.0	457.0
287.0	587.0
287.0	612.0
288.0	139.0
288.0	146.0
288.0	187.0
288.0	257.0
288.0	351.0
288.0	393.0
288.0	410.0
288.0	416.0
288.0	487.0
288.0	502.0
288.0	547.0
288.0	552.0
288.0	559.0
289.0	117.0
289.0	154.0
289.0	211.0
289.0	238.0
289.0	356.0
289.0	464.0
290.0	162.0
290.0	244.0
290.0	388.0
290.0	567.0
290.0	574.0
291.0	197.0
291.0	251.0
291.0	263.0
291.0	292.0
291.0	514.0
291.0	531.0
291.0	606.0
292.0	217.0
292.0	319.0
292.0	405.0
292.0	582.0
293.0	182.0
293.0	225.0
293.0	328.0
293.0	394.0
293.0	421.0
293.0	536.0
293.0	598.0
294.0	142.0
294.0	190.0
294.0	205.0
294.0	257.0
294.0	468.0
294.0	520.0
294.0	558.0
294.0	589.0
294.0	612.0
295.0	119.0
295.0	134.0
295.0	151.0
295.0	158.0
295.0	239.0
295.0	313.0
295.0	348.0
295.0	526.0
295.0	549.0
296.0	166.0
296.0	298.0
296.0	373.0
296.0	385.0
296.0	426.0
296.0	474.0
296.0	576.0
297.0	212.0
297.0	287.0
297.0	438.0
297.0	463.0
297.0	516.0
297.0	532.0
298.0	195.0
298.0	252.0
298.0	262.0
298.0	490.0
298.0	552.0
298.0	584.0
299.0	178.0
299.0	202.0
299.0	220.0
299.0	294.0
299.0	405.0
299.0	415.0
299.0	445.0
299.0	485.0
299.0	605.0
300.0	305.0
300.0	347.0
300.0	421.0
300.0	499.0
300.0	527.0
300.0	560.0
301.0	184.0
301.0	257.0
301.0	284.0
301.0	336.0
301.0	494.0
301.0	565.0
302.0	120.0
302.0	129.0
302.0	139.0
302.0	153.0
302.0	207.0
302.0	241.0
302.0	278.0
302.0	384.0
302.0	516.0
302.0	572.0
303.0	145.0
303.0	300.0
303.0	353.0
303.0	358.0
303.0	393.0
303.0	473.0
303.0	510.0
303.0	578.0
303.0	613.0
304.0	214.0
304.0	230.0
304.0	247.0
304.0	342.0
304.0	533.0
304.0	589.0
304.0	596.0
305.0	365.0
305.0	441.0
305.0	541.0
306.0	253.0
306.0	308.0
306.0	430.0
306.0	609.0
307.0	117.0
307.0	180.0
307.0	259.0
307.0	314.0
307.0	336.0
307.0	371.0
307.0	562.0
307.0	602.0
308.0	133.0
308.0	141.0
308.0	156.0
308.0	186.0
308.0	237.0
308.0	485.0
308.0	529.0
308.0	584.0
309.0	124.0
309.0	168.0
309.0	209.0
309.0	380.0
309.0	412.0
309.0	448.0
309.0	468.0
309.0	492.0
309.0	519.0
309.0	574.0
310.0	242.0
310.0	293.0
310.0	330.0
310.0	360.0
310.0	458.0
310.0	544.0
310.0	568.0
311.0	149.0
311.0	202.0
311.0	229.0
311.0	251.0
311.0	263.0
311.0	275.0
311.0	392.0
311.0	399.0
311.0	406.0
311.0	508.0
311.0	525.0
311.0	551.0
312.0	162.0
312.0	214.0
312.0	270.0
312.0	339.0
312.0	419.0
312.0	443.0
312.0	537.0
312.0	558.0
312.0	594.0
313.0	174.0
313.0	282.0
313.0	305.0
313.0	311.0
313.0	464.0
313.0	474.0
313.0	580.0
313.0	587.0
313.0	614.0
314.0	236.0
314.0	499.0
314.0	516.0
315.0	128.0
315.0	381.0
315.0	389.0
315.0	396.0
315.0	402.0
315.0	564.0
316.0	120.0
316.0	137.0
316.0	156.0
316.0	191.0
316.0	314.0
316.0	458.0
316.0	504.0
316.0	522.0
316.0	573.0
317.0	168.0
317.0	295.0
317.0	324.0
317.0	370.0
317.0	547.0
317.0	556.0
318.0	144.0
318.0	226.0
318.0	243.0
318.0	340.0
318.0	421.0
318.0	452.0
318.0	483.0
319.0	177.0
319.0	214.0
319.0	414.0
319.0	477.0
319.0	580.0
319.0	586.0
320.0	334.0
320.0	392.0
320.0	398.0
320.0	570.0
320.0	604.0
321.0	150.0
321.0	162.0
321.0	184.0
321.0	221.0
321.0	232.0
321.0	502.0
321.0	508.0
321.0	564.0
322.0	117.0
322.0	131.0
322.0	139.0
322.0	238.0
322.0	278.0
322.0	296.0
322.0	303.0
322.0	318.0
322.0	345.0
322.0	447.0
322.0	491.0
322.0	599.0
323.0	125.0
323.0	192.0
323.0	207.0
323.0	267.0
323.0	452.0
324.0	171.0
324.0	248.0
324.0	389.0
324.0	468.0
324.0	528.0
324.0	594.0
325.0	156.0
325.0	351.0
325.0	382.0
325.0	581.0
326.0	164.0
326.0	198.0
326.0	243.0
326.0	274.0
326.0	333.0
326.0	363.0
326.0	487.0
327.0	177.0
327.0	215.0
327.0	438.0
327.0	568.0
327.0	606.0
327.0	613.0
328.0	125.0
328.0	235.0
328.0	327.0
328.0	430.0
328.0	483.0
328.0	508.0
328.0	523.0
328.0	561.0
329.0	151.0
329.0	187.0
329.0	259.0
329.0	281.0
329.0	288.0
329.0	305.0
329.0	318.0
329.0	397.0
329.0	542.0
329.0	554.0
329.0	576.0
329.0	599.0
330.0	134.0
331.0	170.0
331.0	210.0
331.0	248.0
331.0	516.0
332.0	276.0
332.0	333.0
332.0	362.0
332.0	435.0
332.0	492.0
332.0	581.0
332.0	587.0
332.0	593.0
333.0	181.0
333.0	217.0
333.0	308.0
333.0	352.0
333.0	523.0
333.0	530.0
334.0	291.0
334.0	321.0
334.0	480.0
334.0	487.0
334.0	538.0
334.0	570.0
334.0	609.0
335.0	129.0
335.0	144.0
335.0	175.0
335.0	224.0
335.0	246.0
335.0	337.0
335.0	389.0
335.0	424.0
336.0	163.0
336.0	188.0
336.0	198.0
336.0	456.0
336.0	557.0
336.0	601.0
337.0	153.0
337.0	528.0
338.0	258.0
338.0	280.0
338.0	341.0
338.0	364.0
338.0	476.0
338.0	500.0
338.0	506.0
339.0	136.0
339.0	182.0
339.0	205.0
339.0	319.0
339.0	590.0
340.0	168.0
340.0	226.0
340.0	241.0
340.0	250.0
340.0	324.0
340.0	395.0
340.0	429.0
340.0	521.0
340.0	540.0
340.0	616.0
341.0	194.0
341.0	401.0
341.0	412.0
341.0	422.0
341.0	445.0
342.0	128.0
342.0	358.0
342.0	438.0
342.0	548.0
342.0	604.0
343.0	140.0
343.0	336.0
343.0	474.0
344.0	163.0
344.0	177.0
344.0	349.0
344.0	485.0
344.0	501.0
345.0	188.0
345.0	208.0
345.0	245.0
345.0	289.0
345.0	308.0
345.0	426.0
345.0	450.0
346.0	253.0
346.0	295.0
346.0	391.0
346.0	590.0
347.0	222.0
347.0	271.0
347.0	512.0
348.0	125.0
348.0	172.0
348.0	338.0
348.0	367.0
348.0	543.0
348.0	550.0
348.0	615.0
349.0	134.0
349.0	151.0
349.0	476.0
349.0	490.0
349.0	554.0
349.0	602.0
350.0	311.0
350.0	326.0
350.0	360.0
350.0	381.0
350.0	503.0
350.0	520.0
350.0	595.0
351.0	179.0
351.0	233.0
351.0	464.0
351.0	533.0
351.0	574.0
351.0	582.0
351.0	608.0
352.0	142.0
352.0	166.0
352.0	406.0
352.0	413.0
352.0	458.0
352.0	509.0
352.0	539.0
352.0	588.0
353.0	120.0
353.0	210.0
353.0	217.0
353.0	226.0
353.0	343.0
353.0	418.0
354.0	186.0
354.0	351.0
354.0	434.0
354.0	546.0
355.0	302.0
355.0	424.0
355.0	475.0
356.0	150.0
356.0	173.0
356.0	280.0
356.0	291.0
356.0	315.0
356.0	391.0
356.0	506.0
356.0	555.0
357.0	135.0
357.0	195.0
357.0	308.0
357.0	326.0
357.0	366.0
357.0	448.0
357.0	517.0
357.0	530.0
358.0	236.0
358.0	263.0
358.0	347.0
358.0	484.0
358.0	615.0
359.0	120.0
359.0	206.0
359.0	395.0
359.0	414.0
359.0	437.0
359.0	443.0
359.0	567.0
359.0	606.0
360.0	269.0
360.0	588.0
361.0	243.0
361.0	276.0
361.0	319.0
361.0	353.0
362.0	252.0
362.0	358.0
362.0	464.0
362.0	494.0
362.0	508.0
362.0	530.0
363.0	156.0
363.0	200.0
363.0	282.0
363.0	290.0
363.0	375.0
363.0	410.0
363.0	488.0
363.0	537.0
364.0	150.0
364.0	167.0
364.0	227.0
364.0	343.0
364.0	447.0
364.0	584.0
364.0	593.0
364.0	609.0
365.0	175.0
365.0	194.0
365.0	264.0
365.0	317.0
365.0	427.0
366.0	140.0
366.0	213.0
366.0	258.0
366.0	271.0
366.0	278.0
366.0	295.0
366.0	404.0
366.0	443.0
366.0	569.0
366.0	615.0
367.0	133.0
367.0	221.0
367.0	247.0
367.0	335.0
367.0	366.0
367.0	372.0
367.0	453.0
367.0	497.0
367.0	522.0
368.0	188.0
368.0	240.0
368.0	286.0
368.0	377.0
368.0	485.0
368.0	503.0
369.0	235.0
369.0	310.0
369.0	343.0
369.0	423.0
369.0	467.0
369.0	479.0
369.0	534.0
369.0	604.0
370.0	119.0
370.0	321.0
370.0	491.0
370.0	528.0
370.0	556.0
370.0	597.0
371.0	163.0
371.0	262.0
371.0	268.0
371.0	305.0
371.0	580.0
371.0	588.0
372.0	154.0
372.0	215.0
372.0	338.0
372.0	386.0
372.0	569.0
372.0	575.0
372.0	609.0
373.0	256.0
373.0	287.0
373.0	352.0
373.0	362.0
373.0	513.0
374.0	127.0
374.0	171.0
374.0	208.0
374.0	220.0
374.0	248.0
374.0	281.0
374.0	300.0
374.0	452.0
374.0	526.0
375.0	226.0
375.0	293.0
375.0	325.0
375.0	347.0
375.0	423.0
375.0	495.0
376.0	274.0
376.0	318.0
376.0	399.0
376.0	559.0
376.0	601.0
376.0	615.0
377.0	120.0
377.0	233.0
377.0	311.0
377.0	342.0
377.0	439.0
377.0	456.0
377.0	546.0
377.0	593.0
378.0	157.0
378.0	177.0
378.0	197.0
378.0	266.0
378.0	305.0
378.0	553.0
378.0	566.0
379.0	142.0
379.0	190.0
379.0	245.0
379.0	251.0
379.0	281.0
379.0	329.0
379.0	505.0
379.0	511.0
379.0	578.0
380.0	362.0
380.0	483.0
380.0	498.0
380.0	516.0
380.0	572.0
381.0	293.0
381.0	403.0
381.0	531.0
382.0	172.0
382.0	209.0
382.0	228.0
382.0	346.0
382.0	386.0
383.0	154.0
383.0	267.0
383.0	276.0
383.0	310.0
383.0	428.0
383.0	474.0
383.0	590.0
384.0	146.0
384.0	235.0
384.0	303.0
384.0	418.0
384.0	493.0
384.0	582.0
384.0	605.0
385.0	192.0
385.0	241.0
385.0	286.0
385.0	327.0
385.0	353.0
385.0	501.0
385.0	514.0
385.0	521.0
386.0	121.0
386.0	162.0
386.0	180.0
386.0	259.0
386.0	298.0
386.0	364.0
386.0	485.0
387.0	137.0
387.0	199.0
387.0	343.0
387.0	422.0
387.0	428.0
388.0	128.0
388.0	212.0
388.0	316.0
388.0	469.0
388.0	560.0
389.0	151.0
389.0	276.0
389.0	291.0
389.0	480.0
389.0	494.0
389.0	543.0
389.0	588.0
390.0	168.0
390.0	187.0
390.0	231.0
390.0	286.0
390.0	452.0
390.0	505.0
390.0	536.0
391.0	205.0
391.0	218.0
391.0	250.0
391.0	302.0
391.0	523.0
391.0	567.0
391.0	598.0
391.0	615.0
392.0	144.0
392.0	176.0
392.0	195.0
392.0	271.0
392.0	353.0
392.0	363.0
392.0	369.0
392.0	384.0
392.0	427.0
392.0	500.0
392.0	512.0
392.0	580.0
393.0	200.0
393.0	295.0
393.0	420.0
393.0	438.0
393.0	458.0
393.0	591.0
393.0	605.0
394.0	157.0
394.0	281.0
394.0	490.0
394.0	557.0
395.0	117.0
395.0	125.0
395.0	137.0
395.0	164.0
395.0	275.0
395.0	378.0
395.0	401.0
395.0	414.0
395.0	477.0
396.0	213.0
396.0	254.0
396.0	301.0
396.0	570.0
396.0	577.0
397.0	220.0
397.0	234.0
397.0	262.0
397.0	497.0
397.0	510.0
397.0	586.0
398.0	150.0
398.0	170.0
398.0	183.0
398.0	190.0
398.0	240.0
398.0	323.0
398.0	343.0
398.0	366.0
398.0	385.0
398.0	459.0
398.0	552.0
399.0	206.0
399.0	338.0
399.0	354.0
399.0	528.0
399.0	534.0
400.0	197.0
400.0	285.0
400.0	391.0
400.0	418.0
400.0	491.0
400.0	541.0
401.0	225.0
401.0	257.0
401.0	271.0
401.0	291.0
401.0	441.0
402.0	135.0
402.0	158.0
402.0	213.0
402.0	264.0
402.0	471.0
402.0	574.0
402.0	582.0
403.0	149.0
403.0	218.0
403.0	365.0
403.0	435.0
403.0	607.0
404.0	128.0
404.0	165.0
404.0	172.0
404.0	238.0
404.0	252.0
404.0	336.0
404.0	462.0
404.0	565.0
404.0	598.0
404.0	616.0
405.0	180.0
405.0	187.0
405.0	194.0
405.0	537.0
405.0	589.0
406.0	294.0
406.0	323.0
406.0	441.0
406.0	474.0
406.0	483.0
407.0	207.0
407.0	270.0
407.0	276.0
407.0	287.0
407.0	560.0
408.0	143.0
408.0	232.0
408.0	257.0
408.0	400.0
409.0	161.0
409.0	345.0
409.0	351.0
409.0	434.0
409.0	456.0
409.0	543.0
409.0	569.0
409.0	609.0
410.0	357.0
410.0	380.0
410.0	386.0
410.0	393.0
410.0	415.0
410.0	463.0
410.0	469.0
410.0	493.0
410.0	602.0
411.0	137.0
411.0	168.0
411.0	253.0
411.0	281.0
411.0	335.0
411.0	527.0
412.0	275.0
412.0	316.0
412.0	409.0
412.0	487.0
412.0	556.0
412.0	595.0
413.0	175.0
413.0	183.0
413.0	196.0
413.0	203.0
413.0	210.0
413.0	221.0
413.0	291.0
413.0	305.0
413.0	516.0
414.0	227.0
414.0	268.0
414.0	457.0
414.0	543.0
414.0	571.0
415.0	233.0
415.0	360.0
415.0	445.0
415.0	586.0
415.0	614.0
416.0	147.0
416.0	331.0
416.0	349.0
416.0	392.0
416.0	431.0
416.0	552.0
416.0	599.0
417.0	132.0
417.0	140.0
417.0	280.0
417.0	425.0
417.0	478.0
417.0	486.0
417.0	499.0
417.0	579.0
417.0	607.0
418.0	258.0
418.0	274.0
418.0	512.0
418.0	528.0
418.0	593.0
419.0	200.0
419.0	207.0
419.0	344.0
419.0	355.0
419.0	375.0
419.0	452.0
419.0	506.0
419.0	568.0
420.0	183.0
420.0	192.0
420.0	222.0
420.0	246.0
420.0	252.0
420.0	416.0
420.0	490.0
421.0	268.0
421.0	323.0
421.0	434.0
421.0	471.0
421.0	540.0
422.0	152.0
422.0	229.0
422.0	465.0
422.0	590.0
423.0	145.0
423.0	214.0
423.0	301.0
423.0	348.0
423.0	596.0
424.0	119.0
424.0	137.0
424.0	160.0
424.0	235.0
424.0	275.0
424.0	307.0
424.0	517.0
424.0	523.0
425.0	325.0
425.0	455.0
425.0	491.0
425.0	545.0
425.0	582.0
426.0	169.0
426.0	180.0
426.0	204.0
426.0	291.0
426.0	437.0
426.0	497.0
426.0	571.0
427.0	153.0
427.0	196.0
427.0	225.0
427.0	425.0
427.0	468.0
428.0	218.0
428.0	444.0
428.0	539.0
429.0	144.0
429.0	254.0
429.0	314.0
429.0	366.0
429.0	554.0
429.0	594.0
430.0	164.0
430.0	230.0
430.0	407.0
430.0	616.0
431.0	173.0
431.0	238.0
431.0	293.0
431.0	320.0
431.0	547.0
431.0	586.0
432.0	128.0
432.0	190.0
432.0	202.0
432.0	282.0
432.0	359.0
432.0	605.0
433.0	244.0
433.0	326.0
433.0	332.0
433.0	414.0
433.0	420.0
433.0	427.0
434.0	222.0
434.0	260.0
434.0	300.0
434.0	462.0
434.0	510.0
434.0	567.0
434.0	574.0
435.0	197.0
435.0	250.0
435.0	343.0
435.0	455.0
435.0	599.0
435.0	610.0
436.0	140.0
436.0	148.0
436.0	228.0
436.0	265.0
436.0	277.0
436.0	322.0
436.0	381.0
436.0	479.0
436.0	516.0
436.0	539.0
436.0	553.0
436.0	560.0
437.0	117.0
437.0	208.0
437.0	349.0
437.0	400.0
437.0	473.0
437.0	547.0
438.0	125.0
438.0	167.0
438.0	178.0
438.0	190.0
438.0	216.0
438.0	337.0
438.0	417.0
438.0	428.0
438.0	492.0
438.0	523.0
438.0	605.0
439.0	160.0
439.0	247.0
439.0	311.0
439.0	354.0
439.0	499.0
439.0	532.0
440.0	570.0
440.0	585.0
441.0	204.0
441.0	224.0
441.0	254.0
441.0	319.0
442.0	153.0
442.0	186.0
443.0	145.0
443.0	198.0
443.0	293.0
443.0	377.0
443.0	407.0
443.0	446.0
443.0	454.0
443.0	544.0
443.0	551.0
443.0	558.0
444.0	130.0
444.0	166.0
444.0	213.0
444.0	279.0
444.0	350.0
444.0	356.0
444.0	401.0
444.0	425.0
444.0	521.0
445.0	137.0
445.0	244.0
445.0	418.0
445.0	527.0
446.0	220.0
446.0	229.0
446.0	237.0
446.0	250.0
446.0	321.0
446.0	363.0
447.0	159.0
447.0	274.0
447.0	458.0
447.0	474.0
447.0	575.0
447.0	584.0
448.0	190.0
448.0	204.0
448.0	328.0
448.0	335.0
448.0	391.0
448.0	469.0
448.0	555.0
448.0	606.0
449.0	316.0
449.0	348.0
449.0	379.0
449.0	512.0
449.0	569.0
449.0	598.0
449.0	614.0
450.0	152.0
450.0	172.0
450.0	267.0
450.0	414.0
450.0	428.0
451.0	124.0
451.0	179.0
451.0	211.0
451.0	298.0
451.0	591.0
452.0	166.0
452.0	185.0
452.0	240.0
452.0	252.0
452.0	285.0
452.0	331.0
452.0	456.0
452.0	463.0
453.0	158.0
453.0	325.0
453.0	449.0
453.0	485.0
453.0	534.0
453.0	581.0
454.0	261.0
454.0	320.0
454.0	344.0
454.0	356.0
454.0	566.0
454.0	573.0
455.0	513.0
456.0	171.0
456.0	191.0
456.0	205.0
456.0	210.0
456.0	280.0
456.0	300.0
456.0	362.0
456.0	410.0
456.0	552.0
456.0	558.0
456.0	603.0
456.0	611.0
457.0	218.0
457.0	228.0
457.0	388.0
457.0	428.0
458.0	399.0
458.0	487.0
459.0	122.0
459.0	239.0
459.0	255.0
459.0	321.0
459.0	474.0
459.0	481.0
459.0	570.0
460.0	145.0
460.0	165.0
460.0	246.0
460.0	261.0
460.0	274.0
460.0	305.0
460.0	331.0
460.0	341.0
460.0	369.0
460.0	422.0
460.0	563.0
461.0	206.0
461.0	293.0
461.0	359.0
461.0	492.0
461.0	549.0
462.0	117.0
462.0	176.0
462.0	347.0
462.0	405.0
462.0	428.0
462.0	600.0
463.0	213.0
463.0	384.0
463.0	399.0
463.0	451.0
463.0	485.0
463.0	516.0
463.0	543.0
463.0	586.0
464.0	137.0
464.0	151.0
464.0	341.0
464.0	378.0
464.0	435.0
464.0	478.0
464.0	506.0
465.0	160.0
465.0	228.0
465.0	240.0
465.0	575.0
466.0	170.0
466.0	246.0
466.0	252.0
466.0	305.0
466.0	322.0
466.0	368.0
466.0	568.0
467.0	122.0
467.0	129.0
467.0	143.0
467.0	258.0
467.0	262.0
467.0	275.0
467.0	348.0
467.0	395.0
467.0	422.0
467.0	529.0
467.0	561.0
468.0	201.0
468.0	293.0
468.0	312.0
468.0	330.0
468.0	336.0
468.0	460.0
468.0	496.0
469.0	182.0
469.0	207.0
469.0	299.0
469.0	376.0
469.0	512.0
470.0	173.0
470.0	214.0
470.0	384.0
470.0	400.0
471.0	136.0
471.0	156.0
471.0	165.0
471.0	282.0
471.0	519.0
471.0	557.0
472.0	147.0
472.0	193.0
472.0	288.0
472.0	306.0
472.0	349.0
472.0	427.0
472.0	464.0
472.0	507.0
472.0	535.0
472.0	570.0
472.0	578.0
473.0	230.0
473.0	237.0
473.0	372.0
473.0	419.0
473.0	458.0
473.0	478.0
473.0	493.0
474.0	252.0
474.0	275.0
474.0	295.0
474.0	393.0
474.0	564.0
474.0	585.0
475.0	218.0
475.0	338.0
475.0	413.0
475.0	434.0
475.0	471.0
475.0	548.0
476.0	159.0
476.0	179.0
476.0	385.0
476.0	407.0
477.0	209.0
477.0	241.0
477.0	267.0
477.0	345.0
477.0	351.0
477.0	422.0
477.0	513.0
477.0	521.0
477.0	541.0
478.0	258.0
478.0	282.0
478.0	307.0
478.0	556.0
479.0	136.0
479.0	152.0
479.0	289.0
479.0	333.0
479.0	452.0
480.0	166.0
480.0	193.0
480.0	375.0
480.0	466.0
480.0	577.0
480.0	598.0
481.0	144.0
481.0	295.0
481.0	483.0
481.0	515.0
482.0	203.0
482.0	404.0
482.0	490.0
482.0	508.0
482.0	549.0
482.0	613.0
483.0	159.0
483.0	253.0
483.0	285.0
483.0	433.0
483.0	455.0
483.0	462.0
483.0	585.0
483.0	605.0
484.0	479.0
484.0	575.0
485.0	177.0
485.0	211.0
485.0	233.0
485.0	318.0
485.0	500.0
485.0	569.0
486.0	247.0
486.0	260.0
486.0	268.0
486.0	290.0
486.0	308.0
486.0	377.0
486.0	486.0
486.0	520.0
487.0	138.0
487.0	152.0
487.0	197.0
487.0	226.0
487.0	297.0
487.0	451.0
487.0	495.0
488.0	324.0
488.0	512.0
488.0	543.0
488.0	612.0
489.0	183.0
489.0	218.0
489.0	303.0
489.0	355.0
489.0	474.0
489.0	505.0
489.0	550.0
489.0	582.0
490.0	165.0
490.0	232.0
490.0	239.0
490.0	255.0
490.0	345.0
491.0	122.0
491.0	145.0
491.0	157.0
491.0	262.0
491.0	440.0
491.0	479.0
491.0	588.0
492.0	174.0
492.0	292.0
492.0	310.0
492.0	318.0
492.0	374.0
492.0	492.0
493.0	198.0
493.0	211.0
493.0	393.0
493.0	470.0
493.0	604.0
494.0	351.0
494.0	569.0
495.0	245.0
495.0	268.0
496.0	151.0
496.0	180.0
496.0	343.0
496.0	611.0
497.0	168.0
497.0	217.0
497.0	237.0
497.0	288.0
497.0	311.0
497.0	331.0
497.0	444.0
498.0	203.0
498.0	230.0
498.0	282.0
498.0	427.0
498.0	591.0
499.0	146.0
499.0	160.0
499.0	196.0
499.0	337.0
499.0	382.0
499.0	481.0
499.0	530.0
499.0	574.0
500.0	188.0
500.0	250.0
500.0	455.0
501.0	121.0
501.0	271.0
501.0	567.0
502.0	138.0
502.0	175.0
502.0	364.0
502.0	499.0
502.0	540.0
502.0	547.0
502.0	553.0
502.0	559.0
503.0	128.0
503.0	151.0
503.0	182.0
503.0	278.0
503.0	308.0
503.0	465.0
504.0	236.0
504.0	260.0
504.0	333.0
504.0	371.0
504.0	386.0
504.0	493.0
504.0	510.0
504.0	579.0
504.0	588.0
505.0	377.0
506.0	169.0
506.0	222.0
506.0	254.0
506.0	320.0
506.0	595.0
507.0	162.0
507.0	246.0
507.0	338.0
507.0	414.0
507.0	420.0
507.0	529.0
508.0	146.0
508.0	207.0
508.0	348.0
508.0	541.0
508.0	553.0
508.0	602.0
509.0	122.0
509.0	190.0
509.0	240.0
509.0	274.0
509.0	281.0
509.0	463.0
509.0	487.0
509.0	523.0
510.0	181.0
510.0	317.0
510.0	355.0
510.0	509.0
510.0	548.0
511.0	296.0
511.0	387.0
511.0	398.0
511.0	498.0
511.0	534.0
511.0	584.0
511.0	611.0
512.0	233.0
512.0	404.0
512.0	471.0
512.0	567.0
513.0	167.0
513.0	196.0
513.0	219.0
513.0	248.0
513.0	262.0
513.0	325.0
513.0	342.0
513.0	452.0
513.0	575.0
514.0	148.0
514.0	351.0
514.0	411.0
514.0	445.0
515.0	201.0
515.0	285.0
515.0	383.0
515.0	504.0
515.0	515.0
515.0	541.0
516.0	128.0
516.0	159.0
516.0	183.0
516.0	207.0
516.0	270.0
516.0	291.0
516.0	318.0
516.0	431.0
516.0	616.0
517.0	134.0
517.0	190.0
517.0	297.0
517.0	358.0
517.0	399.0
517.0	487.0
517.0	524.0
517.0	548.0
517.0	593.0
518.0	174.0
518.0	230.0
518.0	242.0
518.0	275.0
518.0	308.0
518.0	339.0
518.0	475.0
518.0	585.0
519.0	167.0
519.0	222.0
519.0	247.0
519.0	326.0
519.0	497.0
519.0	511.0
519.0	573.0
520.0	141.0
520.0	259.0
520.0	407.0
520.0	429.0
521.0	197.0
521.0	264.0
521.0	302.0
521.0	352.0
521.0	382.0
521.0	463.0
521.0	517.0
522.0	128.0
522.0	156.0
522.0	204.0
522.0	214.0
522.0	293.0
522.0	335.0
522.0	395.0
522.0	492.0
522.0	528.0
522.0	544.0
522.0	559.0
523.0	281.0
523.0	363.0
523.0	552.0
524.0	122.0
524.0	242.0
524.0	252.0
524.0	389.0
524.0	402.0
524.0	422.0
524.0	458.0
524.0	472.0
524.0	597.0
524.0	605.0
525.0	136.0
525.0	163.0
525.0	172.0
525.0	269.0
525.0	307.0
525.0	348.0
525.0	377.0
525.0	485.0
525.0	582.0
526.0	142.0
526.0	316.0
526.0	415.0
527.0	223.0
527.0	276.0
527.0	290.0
527.0	453.0
527.0	506.0
527.0	566.0
528.0	152.0
528.0	194.0
528.0	207.0
528.0	236.0
528.0	256.0
528.0	282.0
528.0	366.0
529.0	250.0
529.0	531.0
529.0	548.0
529.0	557.0
529.0	600.0
530.0	129.0
530.0	186.0
530.0	271.0
530.0	302.0
530.0	337.0
530.0	342.0
531.0	176.0
531.0	228.0
531.0	244.0
531.0	371.0
531.0	412.0
531.0	485.0
531.0	585.0
531.0	593.0
532.0	294.0
532.0	324.0
532.0	378.0
532.0	478.0
532.0	504.0
532.0	511.0
532.0	578.0
533.0	138.0
533.0	221.0
533.0	278.0
533.0	288.0
533.0	306.0
533.0	349.0
533.0	426.0
533.0	451.0
533.0	519.0
534.0	399.0
534.0	443.0
534.0	537.0
534.0	564.0
535.0	146.0
535.0	256.0
535.0	317.0
536.0	132.0
536.0	165.0
536.0	203.0
536.0	264.0
536.0	385.0
536.0	420.0
537.0	155.0
537.0	183.0
537.0	240.0
537.0	248.0
537.0	486.0
537.0	603.0
538.0	126.0
538.0	227.0
538.0	300.0
538.0	500.0
539.0	257.0
539.0	279.0
539.0	325.0
539.0	599.0
540.0	426.0
540.0	448.0
540.0	522.0
540.0	547.0
540.0	570.0
541.0	332.0
541.0	358.0
541.0	364.0
541.0	435.0
541.0	529.0
542.0	153.0
542.0	196.0
542.0	234.0
542.0	244.0
542.0	266.0
543.0	187.0
543.0	212.0
543.0	251.0
543.0	273.0
543.0	319.0
544.0	204.0
544.0	287.0
544.0	327.0
544.0	593.0
544.0	611.0
545.0	179.0
545.0	225.0
545.0	378.0
545.0	443.0
545.0	584.0
546.0	132.0
546.0	168.0
546.0	393.0
546.0	518.0
547.0	217.0
547.0	294.0
547.0	505.0
548.0	238.0
548.0	260.0
548.0	479.0
548.0	545.0
549.0	161.0
549.0	303.0
549.0	531.0
550.0	122.0
550.0	231.0
550.0	253.0
550.0	366.0
550.0	404.0
550.0	513.0
550.0	589.0
551.0	337.0
551.0	454.0
551.0	495.0
551.0	555.0
551.0	581.0
551.0	603.0
552.0	423.0
552.0	448.0
552.0	471.0
552.0	508.0
553.0	131.0
553.0	175.0
553.0	224.0
553.0	343.0
553.0	374.0
553.0	501.0
554.0	280.0
554.0	441.0
554.0	523.0
554.0	549.0
554.0	564.0
555.0	166.0
555.0	188.0
555.0	196.0
555.0	242.0
555.0	266.0
555.0	291.0
555.0	393.0
555.0	477.0
556.0	121.0
556.0	137.0
556.0	465.0
557.0	181.0
557.0	204.0
557.0	276.0
557.0	434.0
558.0	446.0
558.0	591.0
559.0	130.0
559.0	285.0
559.0	304.0
559.0	312.0
559.0	320.0
559.0	458.0
559.0	494.0
559.0	598.0
560.0	158.0
560.0	173.0
560.0	269.0
560.0	500.0
560.0	570.0
560.0	614.0
561.0	251.0
561.0	298.0
561.0	327.0
561.0	388.0
561.0	412.0
561.0	554.0
561.0	580.0
562.0	201.0
562.0	223.0
562.0	238.0
562.0	262.0
562.0	442.0
562.0	480.0
562.0	533.0
563.0	187.0
563.0	382.0
563.0	540.0
564.0	280.0
564.0	467.0
564.0	488.0
564.0	586.0
565.0	153.0
565.0	365.0
565.0	435.0
565.0	454.0
565.0	502.0
565.0	564.0
565.0	602.0
566.0	286.0
566.0	514.0
567.0	145.0
567.0	274.0
567.0	551.0
567.0	580.0
568.0	128.0
568.0	207.0
568.0	251.0
568.0	267.0
568.0	346.0
568.0	397.0
568.0	410.0
568.0	476.0
568.0	482.0
569.0	196.0
569.0	239.0
569.0	325.0
570.0	226.0
570.0	261.0
570.0	430.0
571.0	138.0
571.0	177.0
571.0	214.0
571.0	523.0
572.0	121.0
572.0	244.0
572.0	470.0
572.0	491.0
572.0	594.0
573.0	169.0
573.0	273.0
573.0	420.0
573.0	498.0
573.0	565.0
574.0	158.0
574.0	478.0
574.0	505.0
574.0	576.0
574.0	611.0
575.0	201.0
575.0	411.0
576.0	184.0
576.0	256.0
576.0	335.0
576.0	485.0
576.0	548.0
577.0	192.0
577.0	238.0
577.0	283.0
577.0	399.0
577.0	493.0
578.0	164.0
578.0	349.0
578.0	418.0
578.0	445.0
579.0	177.0
579.0	207.0
579.0	216.0
579.0	305.0
579.0	519.0
580.0	172.0
580.0	314.0
580.0	502.0
581.0	140.0
581.0	152.0
581.0	199.0
581.0	228.0
581.0	278.0
581.0	332.0
581.0	392.0
581.0	458.0
581.0	513.0
581.0	556.0
582.0	270.0
582.0	300.0
582.0	537.0
582.0	544.0
582.0	563.0
583.0	133.0
583.0	161.0
583.0	255.0
583.0	380.0
583.0	530.0
583.0	616.0
584.0	186.0
584.0	354.0
584.0	441.0
584.0	453.0
584.0	488.0
585.0	223.0
585.0	404.0
585.0	433.0
585.0	584.0
586.0	207.0
586.0	216.0
586.0	311.0
586.0	597.0
587.0	128.0
587.0	148.0
588.0	237.0
588.0	266.0
588.0	273.0
589.0	280.0
589.0	512.0
589.0	540.0
590.0	117.0
590.0	230.0
590.0	319.0
590.0	486.0
590.0	590.0
590.0	615.0
591.0	136.0
591.0	288.0
591.0	340.0
591.0	365.0
591.0	575.0
592.0	414.0
592.0	419.0
592.0	452.0
592.0	534.0
592.0	596.0
593.0	333.0
593.0	480.0
594.0	185.0
594.0	207.0
594.0	223.0
594.0	357.0
594.0	396.0
594.0	507.0
594.0	520.0
595.0	130.0
595.0	150.0
595.0	194.0
595.0	263.0
595.0	276.0
595.0	427.0
595.0	547.0
595.0	567.0
595.0	582.0
596.0	215.0
596.0	256.0
597.0	236.0
597.0	372.0
597.0	409.0
597.0	592.0
597.0	604.0
598.0	292.0
598.0	311.0
598.0	328.0
598.0	343.0
599.0	201.0
599.0	249.0
599.0	403.0
599.0	469.0
599.0	551.0
246.0	277.0
241.0	273.0
240.0	280.0
257.0	279.0
257.0	285.0
256.0	291.0
245.0	295.0
250.0	302.0
243.0	308.0
251.0	320.0
250.0	308.0
261.0	306.0
260.0	295.0
262.0	288.0
252.0	287.0
249.0	291.0
252.0	296.0
263.0	299.0
268.0	297.0
266.0	303.0
273.0	294.0
274.0	283.0
274.0	289.0
281.0	281.0
274.0	274.0
266.0	277.0
270.0	280.0
264.0	271.0
270.0	273.0
281.0	274.0
290.0	275.0
286.0	271.0
285.0	278.0
286.0	291.0
290.0	286.0
294.0	282.0
307.0	279.0
307.0	269.0
306.0	273.0
318.0	272.0
317.0	277.0
319.0	283.0
308.0	285.0
304.0	290.0
306.0	296.0
307.0	303.0
312.0	298.0
317.0	301.0
328.0	300.0
324.0	284.0
335.0	285.0
341.0	284.0
340.0	292.0
334.0	302.0
339.0	305.0
340.0	311.0
351.0	306.0
344.0	302.0
349.0	301.0
352.0	296.0
350.0	291.0
338.0	274.0
356.0	274.0
354.0	269.0
351.0	277.0
347.0	281.0
344.0	277.0
315.0	288.0
321.0	289.0
327.0	293.0
332.0	296.0
339.0	298.0
317.0	308.0
322.0	308.0
328.0	311.0
322.0	313.0
317.0	319.0
312.0	318.0
323.0	324.0
329.0	322.0
333.0	327.0
334.0	314.0
345.0	322.0
346.0	328.0
341.0	330.0
337.0	332.0
347.0	333.0
354.0	331.0
361.0	329.0
355.0	321.0
370.0	327.0
374.0	332.0
359.0	334.0
359.0	341.0
338.0	347.0
329.0	338.0
324.0	339.0
333.0	342.0
327.0	344.0
331.0	348.0
320.0	350.0
314.0	349.0
315.0	344.0
310.0	344.0
298.0	352.0
308.0	354.0
314.0	355.0
307.0	348.0
321.0	356.0
328.0	357.0
336.0	357.0
340.0	352.0
348.0	355.0
364.0	338.0
367.0	330.0
372.0	315.0
381.0	317.0
381.0	322.0
386.0	320.0
389.0	307.0
395.0	307.0
350.0	285.0
358.0	286.0
369.0	291.0
379.0	287.0
386.0	281.0
371.0	275.0
387.0	271.0
401.0	278.0
277.0	298.0
273.0	303.0
280.0	303.0
277.0	308.0
281.0	313.0
278.0	318.0
288.0	313.0
286.0	302.0
289.0	297.0
293.0	303.0
290.0	307.0
296.0	308.0
296.0	323.0
289.0	324.0
282.0	323.0
277.0	324.0
261.0	318.0
256.0	322.0
255.0	329.0
245.0	329.0
249.0	341.0
246.0	334.0
243.0	339.0
241.0	345.0
242.0	351.0
242.0	357.0
254.0	355.0
255.0	343.0
265.0	326.0
259.0	334.0
260.0	340.0
269.0	339.0
263.0	330.0
279.0	336.0
283.0	334.0
288.0	331.0
290.0	336.0
280.0	344.0
284.0	355.0
276.0	358.0
277.0	353.0
276.0	363.0
277.0	369.0
271.0	366.0
266.0	363.0
260.0	366.0
266.0	369.0
261.0	359.0
266.0	356.0
272.0	353.0
271.0	345.0
264.0	352.0
259.0	353.0
256.0	368.0
243.0	370.0
248.0	359.0
250.0	371.0
249.0	365.0
254.0	380.0
245.0	382.0
246.0	389.0
250.0	394.0
254.0	398.0
249.0	404.0
258.0	408.0
253.0	410.0
241.0	410.0
251.0	416.0
265.0	404.0
291.0	382.0
281.0	385.0
278.0	390.0
280.0	396.0
284.0	391.0
276.0	384.0
260.0	347.0
265.0	344.0
265.0	336.0
305.0	330.0
299.0	330.0
295.0	334.0
297.0	341.0
291.0	343.0
286.0	346.0
322.0	329.0
299.0	317.0
305.0	320.0
302.0	312.0
316.0	329.0
314.0	334.0
310.0	324.0
302.0	324.0
294.0	354.0
299.0	362.0
359.0	296.0
362.0	300.0
368.0	301.0
364.0	306.0
362.0	312.0
380.0	299.0
429.0	277.0
433.0	272.0
424.0	281.0
439.0	282.0
436.0	289.0
428.0	286.0
413.0	285.0
420.0	291.0
420.0	285.0
428.0	297.0
430.0	304.0
432.0	309.0
437.0	305.0
438.0	296.0
435.0	316.0
429.0	329.0
439.0	330.0
413.0	343.0
416.0	338.0
409.0	339.0
425.0	341.0
422.0	330.0
421.0	335.0
427.0	335.0
431.0	340.0
411.0	328.0
406.0	330.0
400.0	333.0
411.0	322.0
415.0	319.0
417.0	326.0
419.0	315.0
422.0	311.0
416.0	311.0
419.0	305.0
424.0	318.0
407.0	305.0
401.0	305.0
395.0	288.0
405.0	300.0
400.0	297.0
417.0	296.0
411.0	298.0
416.0	301.0
404.0	311.0
399.0	312.0
392.0	313.0
396.0	317.0
392.0	320.0
401.0	318.0
391.0	326.0
401.0	327.0
406.0	317.0
410.0	310.0
404.0	342.0
388.0	336.0
382.0	340.0
394.0	335.0
393.0	340.0
392.0	346.0
387.0	349.0
397.0	349.0
403.0	347.0
404.0	354.0
414.0	354.0
404.0	360.0
398.0	361.0
393.0	358.0
387.0	358.0
367.0	360.0
364.0	348.0
370.0	348.0
367.0	354.0
375.0	357.0
381.0	357.0
379.0	352.0
349.0	347.0
344.0	343.0
355.0	357.0
430.0	347.0
431.0	354.0
425.0	353.0
426.0	360.0
420.0	360.0
418.0	365.0
424.0	367.0
440.0	366.0
436.0	375.0
425.0	374.0
423.0	379.0
433.0	385.0
429.0	379.0
431.0	373.0
434.0	368.0
437.0	361.0
436.0	392.0
431.0	390.0
418.0	386.0
417.0	380.0
404.0	382.0
404.0	388.0
395.0	389.0
389.0	389.0
384.0	391.0
386.0	382.0
387.0	396.0
381.0	398.0
390.0	400.0
392.0	393.0
397.0	396.0
405.0	394.0
402.0	400.0
414.0	398.0
420.0	402.0
421.0	408.0
416.0	413.0
431.0	402.0
431.0	396.0
425.0	399.0
425.0	404.0
420.0	396.0
422.0	389.0
426.0	393.0
426.0	385.0
436.0	405.0
439.0	387.0
422.0	428.0
422.0	422.0
427.0	431.0
432.0	433.0
431.0	439.0
419.0	440.0
415.0	437.0
411.0	441.0
424.0	442.0
420.0	447.0
425.0	449.0
431.0	450.0
431.0	458.0
427.0	462.0
420.0	459.0
416.0	463.0
432.0	467.0
439.0	468.0
434.0	446.0
438.0	450.0
439.0	443.0
436.0	438.0
440.0	434.0
439.0	423.0
438.0	411.0
415.0	419.0
426.0	413.0
427.0	418.0
397.0	452.0
403.0	456.0
404.0	451.0
408.0	447.0
401.0	447.0
413.0	451.0
405.0	467.0
383.0	466.0
357.0	460.0
361.0	451.0
363.0	458.0
357.0	454.0
370.0	447.0
384.0	442.0
382.0	438.0
373.0	442.0
371.0	437.0
365.0	436.0
387.0	433.0
393.0	432.0
398.0	424.0
404.0	422.0
412.0	427.0
409.0	422.0
404.0	416.0
405.0	411.0
400.0	411.0
391.0	411.0
389.0	417.0
385.0	411.0
376.0	406.0
362.0	381.0
356.0	379.0
365.0	386.0
369.0	382.0
372.0	368.0
372.0	373.0
378.0	367.0
385.0	369.0
377.0	373.0
378.0	383.0
380.0	378.0
374.0	378.0
398.0	373.0
404.0	370.0
404.0	376.0
399.0	380.0
409.0	362.0
413.0	366.0
413.0	375.0
418.0	371.0
408.0	428.0
403.0	428.0
399.0	430.0
398.0	436.0
396.0	442.0
395.0	447.0
390.0	443.0
388.0	447.0
380.0	453.0
376.0	447.0
382.0	448.0
380.0	444.0
385.0	453.0
370.0	457.0
367.0	462.0
380.0	461.0
376.0	465.0
396.0	463.0
400.0	466.0
390.0	463.0
385.0	461.0
387.0	457.0
373.0	461.0
388.0	438.0
375.0	412.0
371.0	413.0
372.0	418.0
377.0	418.0
381.0	415.0
381.0	409.0
391.0	405.0
386.0	404.0
395.0	408.0
400.0	406.0
406.0	405.0
417.0	405.0
412.0	403.0
381.0	423.0
363.0	399.0
362.0	406.0
362.0	390.0
350.0	388.0
340.0	388.0
335.0	395.0
329.0	392.0
325.0	395.0
325.0	402.0
320.0	405.0
323.0	408.0
316.0	409.0
314.0	413.0
306.0	417.0
303.0	410.0
306.0	403.0
302.0	399.0
307.0	396.0
298.0	396.0
290.0	399.0
286.0	404.0
296.0	401.0
297.0	391.0
302.0	378.0
311.0	374.0
320.0	379.0
320.0	385.0
310.0	386.0
305.0	388.0
325.0	376.0
331.0	378.0
327.0	371.0
323.0	368.0
317.0	375.0
312.0	368.0
313.0	364.0
332.0	367.0
337.0	369.0
344.0	363.0
343.0	369.0
357.0	373.0
362.0	369.0
370.0	398.0
366.0	394.0
372.0	403.0
370.0	408.0
372.0	394.0
378.0	393.0
376.0	389.0
369.0	390.0
377.0	428.0
380.0	433.0
372.0	427.0
361.0	432.0
368.0	432.0
374.0	433.0
354.0	440.0
349.0	438.0
348.0	444.0
353.0	446.0
352.0	452.0
342.0	455.0
342.0	460.0
339.0	464.0
348.0	456.0
347.0	461.0
345.0	467.0
353.0	469.0
358.0	466.0
334.0	450.0
328.0	448.0
335.0	440.0
336.0	446.0
339.0	451.0
331.0	443.0
338.0	434.0
334.0	431.0
329.0	410.0
324.0	414.0
331.0	416.0
323.0	419.0
329.0	420.0
330.0	425.0
337.0	417.0
335.0	411.0
336.0	406.0
335.0	401.0
345.0	397.0
352.0	394.0
347.0	404.0
342.0	407.0
348.0	415.0
347.0	410.0
343.0	417.0
348.0	421.0
350.0	427.0
357.0	429.0
344.0	433.0
349.0	432.0
360.0	424.0
365.0	415.0
357.0	409.0
359.0	419.0
364.0	420.0
345.0	385.0
340.0	382.0
335.0	383.0
339.0	374.0
337.0	378.0
333.0	373.0
330.0	385.0
354.0	384.0
359.0	385.0
355.0	399.0
350.0	399.0
357.0	403.0
298.0	357.0
293.0	360.0
289.0	367.0
242.0	465.0
249.0	456.0
244.0	452.0
242.0	446.0
248.0	445.0
250.0	450.0
253.0	461.0
274.0	466.0
277.0	462.0
281.0	467.0
287.0	468.0
301.0	467.0
306.0	463.0
306.0	453.0
303.0	448.0
300.0	453.0
313.0	454.0
316.0	447.0
319.0	442.0
315.0	438.0
322.0	438.0
317.0	433.0
312.0	431.0
314.0	426.0
324.0	425.0
324.0	433.0
319.0	428.0
325.0	443.0
321.0	457.0
329.0	463.0
323.0	462.0
318.0	466.0
315.0	469.0
333.0	468.0
334.0	461.0
330.0	454.0
327.0	458.0
292.0	448.0
277.0	446.0
277.0	452.0
282.0	454.0
283.0	449.0
288.0	452.0
297.0	449.0
294.0	454.0
294.0	459.0
302.0	458.0
282.0	459.0
284.0	464.0
265.0	450.0
267.0	455.0
272.0	448.0
272.0	454.0
270.0	435.0
293.0	436.0
289.0	424.0
285.0	421.0
284.0	414.0
278.0	410.0
273.0	415.0
262.0	412.0
267.0	414.0
264.0	427.0
254.0	426.0
261.0	418.0
256.0	419.0
274.0	426.0
275.0	420.0
269.0	423.0
274.0	408.0
268.0	408.0
296.0	410.0
293.0	414.0
309.0	426.0
306.0	422.0
302.0	428.0
302.0	435.0
308.0	436.0
296.0	432.0
291.0	430.0
284.0	427.0
287.0	432.0
282.0	432.0
277.0	436.0
276.0	441.0
287.0	444.0
288.0	438.0
293.0	442.0
260.0	442.0
255.0	436.0
260.0	436.0
249.0	438.0
244.0	436.0
244.0	431.0
250.0	427.0
246.0	421.0
244.0	426.0
241.0	386.0
265.0	382.0
262.0	390.0
254.0	390.0
259.0	395.0
250.0	385.0
262.0	374.0
273.0	380.0
280.0	380.0
284.0	375.0
291.0	377.0
299.0	368.0
297.0	379.0
317.0	360.0
320.0	364.0
302.0	372.0
270.0	396.0
103.0	124.0
94.0	124.0
89.0	116.0
85.0	122.0
75.0	123.0
79.0	116.0
71.0	114.0
75.0	107.0
84.0	109.0
89.0	103.0
79.0	103.0
84.0	96.0
94.0	95.0
98.0	104.0
94.0	111.0
99.0	117.0
103.0	110.0
109.0	116.0
113.0	110.0
109.0	103.0
117.0	103.0
102.0	96.0
113.0	96.0
122.0	95.0
130.0	96.0
126.0	103.0
121.0	110.0
130.0	111.0
135.0	105.0
145.0	105.0
140.0	112.0
144.0	117.0
148.0	112.0
154.0	106.0
160.0	103.0
152.0	99.0
161.0	95.0
168.0	100.0
166.0	107.0
159.0	113.0
169.0	113.0
174.0	106.0
178.0	114.0
184.0	108.0
189.0	100.0
193.0	107.0
187.0	115.0
172.0	127.0
184.0	136.0
181.0	129.0
170.0	155.0
175.0	148.0
111.0	137.0
117.0	144.0
134.0	145.0
139.0	138.0
98.0	133.0
89.0	130.0
81.0	129.0
87.0	137.0
78.0	137.0
83.0	143.0
79.0	149.0
73.0	144.0
70.0	137.0
72.0	130.0
66.0	123.0
85.0	154.0
87.0	164.0
91.0	144.0
95.0	140.0
88.0	149.0
95.0	151.0
99.0	145.0
93.0	158.0
95.0	165.0
89.0	171.0
81.0	171.0
78.0	163.0
78.0	156.0
84.0	178.0
92.0	180.0
99.0	173.0
98.0	184.0
94.0	191.0
87.0	187.0
78.0	183.0
80.0	190.0
76.0	174.0
75.0	196.0
84.0	196.0
92.0	198.0
88.0	202.0
97.0	205.0
91.0	210.0
81.0	205.0
75.0	203.0
68.0	206.0
67.0	214.0
76.0	210.0
75.0	215.0
75.0	221.0
83.0	222.0
83.0	214.0
89.0	218.0
96.0	215.0
94.0	223.0
88.0	227.0
80.0	232.0
74.0	228.0
66.0	221.0
65.0	228.0
70.0	234.0
75.0	238.0
80.0	245.0
83.0	238.0
89.0	234.0
89.0	243.0
95.0	240.0
96.0	232.0
113.0	180.0
127.0	173.0
136.0	173.0
133.0	188.0
141.0	190.0
142.0	198.0
117.0	202.0
123.0	199.0
109.0	194.0
103.0	191.0
100.0	212.0
147.0	212.0
72.0	186.0
72.0	245.0
78.0	251.0
88.0	250.0
82.0	256.0
90.0	259.0
84.0	262.0
68.0	253.0
73.0	257.0
96.0	247.0
96.0	255.0
98.0	262.0
110.0	254.0
118.0	246.0
126.0	237.0
126.0	230.0
132.0	241.0
138.0	237.0
142.0	241.0
152.0	247.0
107.0	225.0
114.0	216.0
120.0	220.0
120.0	226.0
131.0	226.0
131.0	209.0
131.0	215.0
155.0	214.0
160.0	208.0
175.0	211.0
166.0	221.0
171.0	226.0
150.0	229.0
157.0	231.0
169.0	233.0
176.0	233.0
184.0	221.0
187.0	228.0
205.0	227.0
199.0	210.0
202.0	216.0
210.0	205.0
217.0	173.0
224.0	172.0
222.0	163.0
214.0	158.0
219.0	144.0
218.0	153.0
199.0	183.0
206.0	180.0
193.0	186.0
191.0	192.0
173.0	191.0
158.0	180.0
148.0	170.0
144.0	157.0
180.0	170.0
178.0	162.0
200.0	101.0
196.0	94.0
176.0	98.0
182.0	101.0
183.0	92.0
168.0	92.0
202.0	110.0
210.0	110.0
207.0	104.0
205.0	96.0
213.0	93.0
216.0	104.0
224.0	107.0
209.0	116.0
219.0	112.0
227.0	113.0
233.0	108.0
227.0	94.0
226.0	101.0
220.0	96.0
158.0	135.0
161.0	141.0
157.0	150.0
195.0	228.0
192.0	234.0
200.0	234.0
200.0	223.0
213.0	232.0
205.0	188.0
218.0	197.0
219.0	205.0
167.0	251.0
180.0	253.0
188.0	253.0
189.0	246.0
202.0	252.0
212.0	252.0
215.0	245.0
218.0	256.0
224.0	198.0
238.0	192.0
242.0	178.0
235.0	219.0
241.0	223.0
263.0	216.0
228.0	240.0
233.0	244.0
243.0	187.0
248.0	182.0
255.0	171.0
260.0	168.0
265.0	164.0
244.0	163.0
234.0	152.0
245.0	156.0
251.0	159.0
258.0	135.0
238.0	123.0
237.0	132.0
238.0	114.0
233.0	101.0
234.0	94.0
241.0	98.0
242.0	91.0
249.0	95.0
248.0	102.0
240.0	105.0
245.0	110.0
252.0	116.0
254.0	109.0
255.0	100.0
260.0	105.0
261.0	112.0
268.0	109.0
265.0	100.0
274.0	103.0
276.0	110.0
283.0	112.0
283.0	105.0
291.0	103.0
294.0	111.0
299.0	105.0
301.0	113.0
307.0	109.0
306.0	101.0
314.0	104.0
316.0	112.0
323.0	108.0
320.0	99.0
328.0	101.0
331.0	109.0
330.0	116.0
338.0	114.0
335.0	121.0
342.0	120.0
347.0	115.0
280.0	98.0
289.0	98.0
313.0	96.0
279.0	169.0
294.0	174.0
287.0	176.0
287.0	182.0
287.0	169.0
303.0	173.0
302.0	163.0
268.0	180.0
281.0	190.0
267.0	194.0
263.0	200.0
270.0	201.0
273.0	207.0
250.0	208.0
211.0	192.0
219.0	190.0
263.0	142.0
272.0	144.0
282.0	125.0
294.0	127.0
288.0	130.0
276.0	128.0
277.0	232.0
269.0	241.0
277.0	244.0
256.0	248.0
246.0	256.0
233.0	257.0
271.0	253.0
277.0	257.0
282.0	260.0
277.0	250.0
257.0	220.0
287.0	228.0
294.0	232.0
301.0	235.0
299.0	226.0
315.0	221.0
308.0	219.0
306.0	224.0
297.0	246.0
303.0	191.0
305.0	199.0
314.0	182.0
310.0	195.0
318.0	199.0
317.0	206.0
315.0	247.0
319.0	252.0
326.0	253.0
334.0	254.0
331.0	229.0
325.0	228.0
329.0	223.0
341.0	219.0
338.0	212.0
347.0	214.0
338.0	233.0
334.0	239.0
347.0	230.0
344.0	236.0
358.0	230.0
359.0	222.0
345.0	200.0
330.0	204.0
331.0	194.0
331.0	158.0
326.0	146.0
330.0	140.0
343.0	147.0
360.0	143.0
344.0	109.0
338.0	105.0
337.0	97.0
344.0	94.0
345.0	101.0
352.0	98.0
351.0	90.0
351.0	107.0
356.0	113.0
359.0	103.0
364.0	113.0
367.0	99.0
360.0	94.0
343.0	155.0
353.0	157.0
361.0	127.0
354.0	128.0
366.0	124.0
373.0	114.0
368.0	107.0
375.0	106.0
374.0	96.0
382.0	113.0
385.0	107.0
382.0	99.0
381.0	92.0
393.0	97.0
393.0	105.0
390.0	112.0
400.0	111.0
399.0	103.0
401.0	96.0
408.0	100.0
405.0	107.0
413.0	109.0
408.0	114.0
403.0	120.0
396.0	131.0
373.0	137.0
371.0	145.0
377.0	150.0
381.0	134.0
381.0	127.0
400.0	142.0
410.0	129.0
411.0	121.0
418.0	124.0
417.0	116.0
424.0	128.0
431.0	136.0
408.0	155.0
411.0	149.0
379.0	166.0
358.0	163.0
358.0	181.0
361.0	188.0
366.0	181.0
371.0	177.0
374.0	184.0
382.0	185.0
399.0	177.0
406.0	201.0
416.0	188.0
425.0	188.0
410.0	191.0
373.0	191.0
371.0	198.0
371.0	203.0
367.0	207.0
359.0	215.0
350.0	194.0
352.0	202.0
378.0	215.0
384.0	217.0
380.0	222.0
388.0	224.0
395.0	227.0
403.0	231.0
408.0	225.0
408.0	214.0
417.0	216.0
410.0	238.0
426.0	241.0
426.0	249.0
400.0	248.0
413.0	247.0
415.0	242.0
419.0	239.0
406.0	245.0
391.0	238.0
396.0	245.0
390.0	244.0
385.0	247.0
385.0	253.0
391.0	257.0
370.0	228.0
363.0	235.0
378.0	238.0
374.0	242.0
349.0	240.0
355.0	241.0
358.0	255.0
354.0	259.0
352.0	253.0
357.0	248.0
350.0	247.0
380.0	203.0
431.0	121.0
431.0	115.0
425.0	112.0
433.0	109.0
430.0	103.0
443.0	110.0
447.0	116.0
445.0	123.0
438.0	133.0
451.0	131.0
459.0	130.0
455.0	138.0
452.0	144.0
433.0	155.0
451.0	197.0
464.0	193.0
457.0	179.0
465.0	187.0
475.0	187.0
482.0	184.0
486.0	190.0
493.0	190.0
477.0	171.0
485.0	170.0
433.0	183.0
442.0	172.0
445.0	179.0
420.0	174.0
417.0	166.0
416.0	157.0
452.0	217.0
451.0	225.0
461.0	223.0
465.0	219.0
470.0	223.0
468.0	234.0
461.0	233.0
453.0	233.0
438.0	234.0
439.0	241.0
431.0	212.0
476.0	201.0
479.0	215.0
490.0	205.0
417.0	102.0
417.0	95.0
431.0	93.0
436.0	99.0
424.0	97.0
422.0	106.0
443.0	101.0
446.0	93.0
451.0	99.0
451.0	106.0
461.0	103.0
460.0	95.0
455.0	91.0
466.0	92.0
468.0	99.0
466.0	107.0
454.0	116.0
459.0	110.0
467.0	113.0
474.0	117.0
475.0	109.0
476.0	101.0
477.0	93.0
484.0	99.0
482.0	107.0
490.0	107.0
492.0	101.0
499.0	108.0
495.0	114.0
481.0	115.0
488.0	116.0
504.0	115.0
511.0	113.0
517.0	121.0
507.0	106.0
507.0	98.0
500.0	100.0
492.0	95.0
500.0	92.0
514.0	94.0
514.0	103.0
526.0	114.0
509.0	132.0
495.0	126.0
475.0	128.0
476.0	122.0
484.0	122.0
483.0	129.0
490.0	131.0
496.0	134.0
494.0	140.0
457.0	151.0
460.0	158.0
475.0	141.0
460.0	185.0
459.0	198.0
453.0	247.0
478.0	248.0
472.0	244.0
483.0	220.0
483.0	241.0
479.0	233.0
479.0	225.0
494.0	223.0
500.0	222.0
502.0	242.0
494.0	251.0
497.0	257.0
514.0	255.0
521.0	236.0
524.0	229.0
512.0	226.0
505.0	229.0
513.0	213.0
505.0	215.0
501.0	210.0
506.0	200.0
509.0	154.0
521.0	148.0
531.0	159.0
542.0	161.0
531.0	168.0
524.0	180.0
523.0	189.0
537.0	190.0
528.0	201.0
534.0	196.0
538.0	173.0
541.0	139.0
511.0	139.0
531.0	121.0
536.0	114.0
530.0	107.0
526.0	99.0
520.0	99.0
535.0	99.0
538.0	106.0
545.0	106.0
545.0	115.0
541.0	120.0
552.0	113.0
553.0	104.0
546.0	98.0
558.0	109.0
563.0	113.0
564.0	121.0
570.0	112.0
577.0	112.0
582.0	120.0
584.0	113.0
587.0	104.0
564.0	105.0
573.0	106.0
579.0	104.0
592.0	110.0
598.0	113.0
598.0	104.0
591.0	143.0
588.0	156.0
576.0	145.0
572.0	151.0
550.0	151.0
555.0	156.0
562.0	166.0
567.0	161.0
566.0	170.0
565.0	179.0
569.0	185.0
572.0	190.0
562.0	194.0
549.0	191.0
551.0	183.0
549.0	200.0
550.0	210.0
559.0	209.0
555.0	216.0
563.0	216.0
535.0	211.0
540.0	218.0
557.0	229.0
555.0	236.0
548.0	246.0
554.0	249.0
535.0	233.0
528.0	215.0
511.0	174.0
545.0	126.0
549.0	137.0
543.0	147.0
550.0	144.0
558.0	147.0
578.0	126.0
566.0	134.0
562.0	141.0
577.0	97.0
569.0	97.0
559.0	100.0
589.0	97.0
599.0	97.0
608.0	124.0
605.0	130.0
598.0	121.0
591.0	124.0
604.0	117.0
600.0	138.0
598.0	144.0
607.0	140.0
605.0	147.0
587.0	168.0
596.0	170.0
587.0	178.0
595.0	177.0
604.0	178.0
607.0	171.0
612.0	181.0
616.0	174.0
613.0	167.0
605.0	163.0
612.0	158.0
603.0	155.0
597.0	158.0
593.0	163.0
610.0	150.0
616.0	145.0
615.0	138.0
614.0	129.0
613.0	117.0
575.0	132.0
586.0	193.0
590.0	200.0
602.0	186.0
604.0	194.0
609.0	189.0
617.0	186.0
619.0	193.0
612.0	196.0
607.0	203.0
602.0	209.0
611.0	211.0
615.0	204.0
617.0	213.0
614.0	219.0
607.0	217.0
601.0	222.0
600.0	230.0
603.0	243.0
609.0	248.0
612.0	242.0
614.0	236.0
616.0	227.0
621.0	220.0
625.0	227.0
620.0	233.0
623.0	241.0
618.0	247.0
613.0	255.0
605.0	253.0
606.0	259.0
601.0	265.0
596.0	270.0
602.0	273.0
608.0	269.0
613.0	264.0
618.0	260.0
619.0	268.0
615.0	274.0
610.0	278.0
603.0	280.0
602.0	288.0
612.0	285.0
597.0	285.0
584.0	286.0
571.0	280.0
572.0	289.0
563.0	293.0
551.0	286.0
546.0	279.0
551.0	273.0
548.0	268.0
555.0	258.0
537.0	285.0
540.0	293.0
544.0	300.0
554.0	298.0
504.0	285.0
510.0	289.0
504.0	292.0
498.0	295.0
493.0	299.0
500.0	302.0
513.0	303.0
521.0	287.0
514.0	279.0
498.0	263.0
507.0	266.0
528.0	264.0
537.0	272.0
570.0	221.0
577.0	222.0
574.0	232.0
565.0	231.0
582.0	234.0
609.0	224.0
610.0	231.0
605.0	236.0
577.0	249.0
564.0	244.0
565.0	256.0
589.0	259.0
582.0	262.0
576.0	265.0
589.0	252.0
593.0	243.0
581.0	244.0
587.0	246.0
473.0	260.0
471.0	269.0
463.0	268.0
482.0	264.0
496.0	276.0
490.0	279.0
491.0	286.0
490.0	272.0
481.0	272.0
483.0	278.0
463.0	299.0
477.0	301.0
484.0	302.0
495.0	305.0
505.0	299.0
509.0	305.0
511.0	311.0
505.0	313.0
499.0	317.0
494.0	324.0
500.0	325.0
492.0	330.0
485.0	328.0
477.0	328.0
473.0	333.0
470.0	343.0
473.0	325.0
481.0	324.0
481.0	313.0
475.0	312.0
471.0	318.0
477.0	318.0
464.0	317.0
462.0	310.0
463.0	335.0
503.0	343.0
512.0	337.0
512.0	331.0
507.0	327.0
518.0	331.0
525.0	323.0
519.0	314.0
564.0	308.0
564.0	316.0
569.0	311.0
568.0	338.0
587.0	330.0
566.0	303.0
576.0	310.0
569.0	319.0
564.0	323.0
574.0	315.0
575.0	323.0
581.0	319.0
552.0	308.0
553.0	315.0
550.0	320.0
530.0	312.0
540.0	306.0
540.0	313.0
545.0	308.0
547.0	314.0
535.0	331.0
537.0	338.0
538.0	345.0
549.0	330.0
556.0	332.0
559.0	345.0
563.0	341.0
562.0	334.0
557.0	338.0
568.0	331.0
554.0	324.0
572.0	306.0
568.0	295.0
574.0	299.0
577.0	294.0
583.0	292.0
587.0	305.0
594.0	305.0
590.0	299.0
592.0	295.0
598.0	299.0
605.0	295.0
606.0	302.0
601.0	305.0
606.0	311.0
603.0	318.0
593.0	313.0
526.0	297.0
619.0	281.0
619.0	289.0
612.0	292.0
612.0	299.0
619.0	300.0
528.0	330.0
524.0	342.0
519.0	345.0
528.0	353.0
525.0	357.0
514.0	369.0
517.0	374.0
516.0	364.0
512.0	362.0
509.0	366.0
506.0	360.0
510.0	373.0
512.0	379.0
507.0	382.0
518.0	388.0
507.0	393.0
515.0	393.0
522.0	370.0
529.0	360.0
534.0	363.0
536.0	369.0
535.0	356.0
539.0	351.0
551.0	380.0
551.0	397.0
558.0	401.0
554.0	408.0
564.0	405.0
562.0	397.0
567.0	391.0
573.0	391.0
570.0	384.0
578.0	384.0
583.0	398.0
578.0	405.0
571.0	404.0
590.0	400.0
591.0	408.0
583.0	411.0
588.0	393.0
586.0	386.0
590.0	381.0
595.0	387.0
596.0	379.0
589.0	374.0
585.0	368.0
588.0	360.0
598.0	364.0
601.0	357.0
606.0	362.0
603.0	367.0
609.0	372.0
603.0	377.0
602.0	385.0
606.0	391.0
609.0	383.0
610.0	397.0
605.0	412.0
614.0	403.0
614.0	390.0
614.0	378.0
613.0	366.0
602.0	350.0
606.0	343.0
610.0	349.0
608.0	355.0
613.0	358.0
618.0	351.0
610.0	337.0
600.0	336.0
605.0	329.0
612.0	331.0
608.0	322.0
612.0	306.0
612.0	316.0
597.0	321.0
592.0	326.0
586.0	324.0
580.0	326.0
575.0	329.0
573.0	342.0
580.0	340.0
585.0	338.0
545.0	352.0
550.0	350.0
548.0	358.0
554.0	360.0
557.0	353.0
563.0	350.0
563.0	356.0
560.0	361.0
570.0	359.0
570.0	353.0
577.0	356.0
581.0	361.0
567.0	378.0
563.0	372.0
539.0	374.0
542.0	388.0
540.0	381.0
529.0	385.0
526.0	408.0
520.0	413.0
528.0	398.0
532.0	406.0
546.0	385.0
551.0	388.0
559.0	376.0
556.0	384.0
545.0	371.0
557.0	368.0
545.0	338.0
544.0	345.0
585.0	346.0
592.0	349.0
575.0	364.0
570.0	370.0
574.0	377.0
579.0	372.0
463.0	326.0
461.0	354.0
495.0	357.0
501.0	357.0
499.0	350.0
505.0	352.0
492.0	381.0
498.0	376.0
482.0	382.0
487.0	384.0
484.0	389.0
479.0	392.0
482.0	398.0
476.0	400.0
489.0	389.0
495.0	387.0
500.0	390.0
481.0	411.0
480.0	417.0
467.0	406.0
471.0	409.0
460.0	415.0
466.0	416.0
464.0	388.0
470.0	389.0
475.0	379.0
586.0	418.0
560.0	420.0
567.0	417.0
575.0	426.0
582.0	424.0
513.0	417.0
505.0	401.0
507.0	408.0
501.0	415.0
488.0	409.0
493.0	415.0
486.0	416.0
491.0	422.0
485.0	422.0
491.0	429.0
486.0	429.0
499.0	421.0
481.0	340.0
487.0	341.0
484.0	347.0
466.0	361.0
468.0	354.0
476.0	366.0
483.0	363.0
481.0	368.0
489.0	361.0
495.0	363.0
492.0	368.0
498.0	370.0
487.0	369.0
483.0	354.0
479.0	359.0
471.0	364.0
473.0	358.0
493.0	337.0
487.0	334.0
494.0	399.0
499.0	402.0
493.0	406.0
497.0	410.0
502.0	407.0
501.0	396.0
488.0	402.0
488.0	396.0
530.0	393.0
536.0	391.0
546.0	401.0
541.0	396.0
538.0	403.0
543.0	407.0
548.0	411.0
538.0	409.0
536.0	415.0
530.0	420.0
527.0	428.0
505.0	425.0
505.0	431.0
517.0	424.0
519.0	419.0
537.0	431.0
534.0	437.0
540.0	441.0
546.0	451.0
547.0	437.0
544.0	430.0
550.0	432.0
554.0	428.0
547.0	425.0
554.0	414.0
566.0	424.0
561.0	428.0
543.0	414.0
548.0	418.0
542.0	421.0
589.0	426.0
600.0	425.0
599.0	417.0
606.0	421.0
602.0	397.0
616.0	421.0
612.0	426.0
605.0	430.0
599.0	434.0
604.0	438.0
605.0	444.0
597.0	448.0
603.0	451.0
599.0	455.0
594.0	459.0
602.0	462.0
607.0	458.0
614.0	457.0
610.0	450.0
616.0	445.0
610.0	442.0
610.0	435.0
617.0	428.0
617.0	437.0
606.0	403.0
612.0	410.0
611.0	417.0
564.0	448.0
557.0	452.0
564.0	461.0
570.0	440.0
571.0	448.0
572.0	455.0
578.0	466.0
573.0	463.0
560.0	472.0
537.0	453.0
536.0	460.0
522.0	435.0
526.0	439.0
530.0	433.0
527.0	445.0
512.0	458.0
523.0	448.0
586.0	463.0
580.0	474.0
583.0	481.0
587.0	477.0
586.0	470.0
593.0	473.0
592.0	466.0
599.0	477.0
598.0	484.0
604.0	483.0
605.0	476.0
605.0	468.0
612.0	465.0
612.0	472.0
611.0	480.0
617.0	476.0
616.0	484.0
611.0	490.0
605.0	493.0
599.0	498.0
599.0	491.0
566.0	495.0
557.0	485.0
551.0	489.0
544.0	491.0
537.0	474.0
533.0	468.0
526.0	467.0
530.0	462.0
541.0	469.0
547.0	468.0
550.0	462.0
543.0	463.0
543.0	456.0
576.0	438.0
579.0	433.0
588.0	446.0
591.0	440.0
598.0	441.0
591.0	433.0
496.0	438.0
492.0	447.0
504.0	458.0
489.0	464.0
484.0	469.0
475.0	486.0
468.0	490.0
469.0	484.0
478.0	478.0
481.0	474.0
468.0	474.0
467.0	467.0
462.0	458.0
578.0	452.0
545.0	499.0
551.0	484.0
544.0	485.0
544.0	475.0
540.0	480.0
520.0	442.0
507.0	469.0
501.0	472.0
496.0	476.0
511.0	477.0
512.0	482.0
520.0	481.0
526.0	479.0
515.0	493.0
494.0	486.0
517.0	457.0
515.0	464.0
519.0	468.0
489.0	457.0
494.0	453.0
499.0	450.0
506.0	452.0
508.0	447.0
499.0	433.0
479.0	429.0
468.0	431.0
478.0	439.0
470.0	454.0
473.0	444.0
474.0	450.0
469.0	447.0
471.0	437.0
484.0	440.0
491.0	435.0
503.0	438.0
510.0	433.0
509.0	440.0
503.0	445.0
511.0	426.0
515.0	438.0
519.0	452.0
495.0	459.0
497.0	467.0
530.0	473.0
478.0	460.0
531.0	571.0
525.0	575.0
555.0	586.0
551.0	597.0
545.0	602.0
537.0	590.0
537.0	583.0
537.0	575.0
507.0	572.0
507.0	563.0
515.0	554.0
513.0	560.0
519.0	566.0
526.0	513.0
526.0	523.0
534.0	527.0
514.0	529.0
519.0	535.0
527.0	540.0
544.0	535.0
542.0	540.0
556.0	533.0
548.0	525.0
539.0	516.0
539.0	508.0
544.0	512.0
559.0	506.0
557.0	516.0
561.0	512.0
569.0	509.0
574.0	513.0
563.0	520.0
570.0	519.0
566.0	528.0
560.0	527.0
544.0	553.0
535.0	553.0
538.0	557.0
541.0	563.0
546.0	560.0
546.0	567.0
544.0	578.0
555.0	577.0
550.0	573.0
567.0	572.0
565.0	594.0
579.0	581.0
573.0	557.0
579.0	570.0
585.0	576.0
587.0	569.0
590.0	561.0
596.0	558.0
604.0	559.0
603.0	568.0
606.0	576.0
610.0	566.0
598.0	539.0
603.0	546.0
607.0	553.0
612.0	557.0
616.0	562.0
612.0	574.0
603.0	584.0
611.0	583.0
604.0	592.0
602.0	599.0
605.0	607.0
610.0	602.0
610.0	594.0
617.0	589.0
617.0	579.0
618.0	570.0
621.0	556.0
616.0	548.0
610.0	543.0
604.0	538.0
601.0	505.0
609.0	501.0
615.0	497.0
618.0	505.0
609.0	508.0
615.0	513.0
606.0	514.0
609.0	523.0
592.0	493.0
585.0	506.0
585.0	518.0
578.0	526.0
573.0	532.0
569.0	537.0
575.0	541.0
569.0	545.0
550.0	538.0
557.0	543.0
562.0	547.0
567.0	558.0
558.0	561.0
587.0	548.0
591.0	554.0
585.0	524.0
592.0	527.0
602.0	520.0
599.0	532.0
604.0	527.0
610.0	532.0
615.0	536.0
616.0	528.0
616.0	520.0
591.0	500.0
584.0	496.0
598.0	514.0
599.0	575.0
558.0	605.0
552.0	611.0
564.0	610.0
570.0	608.0
573.0	602.0
570.0	616.0
565.0	619.0
575.0	619.0
580.0	623.0
592.0	623.0
589.0	603.0
579.0	596.0
588.0	609.0
581.0	610.0
580.0	603.0
581.0	589.0
573.0	586.0
596.0	612.0
598.0	619.0
605.0	615.0
604.0	622.0
598.0	626.0
609.0	626.0
613.0	621.0
613.0	611.0
617.0	599.0
619.0	607.0
510.0	493.0
497.0	495.0
504.0	477.0
506.0	483.0
498.0	490.0
502.0	487.0
491.0	499.0
495.0	503.0
495.0	510.0
500.0	506.0
507.0	504.0
500.0	514.0
491.0	517.0
496.0	519.0
503.0	519.0
501.0	524.0
509.0	516.0
521.0	503.0
525.0	499.0
535.0	544.0
531.0	498.0
530.0	491.0
537.0	493.0
587.0	631.0
594.0	632.0
604.0	632.0
590.0	637.0
581.0	638.0
577.0	630.0
570.0	627.0
564.0	632.0
560.0	626.0
551.0	625.0
555.0	631.0
558.0	638.0
570.0	635.0
550.0	638.0
545.0	632.0
542.0	626.0
538.0	619.0
537.0	611.0
531.0	608.0
523.0	612.0
531.0	616.0
523.0	620.0
524.0	626.0
519.0	631.0
530.0	632.0
537.0	634.0
533.0	624.0
546.0	619.0
556.0	619.0
518.0	579.0
524.0	590.0
511.0	591.0
498.0	598.0
488.0	600.0
502.0	606.0
515.0	600.0
516.0	607.0
516.0	625.0
509.0	622.0
503.0	627.0
510.0	630.0
503.0	634.0
496.0	630.0
492.0	624.0
493.0	618.0
500.0	621.0
504.0	615.0
486.0	619.0
486.0	627.0
478.0	626.0
477.0	619.0
469.0	617.0
470.0	624.0
463.0	623.0
465.0	630.0
472.0	631.0
456.0	632.0
456.0	626.0
449.0	622.0
456.0	618.0
463.0	615.0
462.0	607.0
467.0	603.0
475.0	605.0
468.0	610.0
474.0	612.0
491.0	576.0
497.0	582.0
457.0	594.0
457.0	587.0
468.0	583.0
459.0	579.0
482.0	562.0
478.0	571.0
495.0	563.0
488.0	563.0
495.0	556.0
486.0	555.0
495.0	542.0
495.0	549.0
490.0	537.0
497.0	536.0
504.0	535.0
490.0	531.0
483.0	540.0
484.0	534.0
478.0	534.0
479.0	528.0
474.0	528.0
470.0	543.0
468.0	548.0
467.0	554.0
461.0	556.0
449.0	562.0
443.0	564.0
440.0	578.0
444.0	591.0
436.0	592.0
442.0	598.0
442.0	611.0
442.0	617.0
473.0	598.0
465.0	593.0
472.0	593.0
477.0	590.0
484.0	593.0
491.0	595.0
428.0	600.0
423.0	605.0
422.0	575.0
429.0	578.0
435.0	581.0
493.0	525.0
466.0	524.0
455.0	544.0
458.0	538.0
461.0	521.0
461.0	511.0
454.0	507.0
458.0	504.0
456.0	497.0
462.0	499.0
468.0	502.0
474.0	500.0
478.0	504.0
479.0	497.0
485.0	527.0
405.0	532.0
403.0	526.0
393.0	531.0
387.0	527.0
386.0	533.0
381.0	525.0
375.0	532.0
370.0	539.0
360.0	545.0
357.0	540.0
357.0	535.0
352.0	526.0
357.0	523.0
362.0	525.0
357.0	512.0
351.0	515.0
345.0	517.0
362.0	519.0
362.0	513.0
367.0	510.0
373.0	508.0
368.0	516.0
374.0	520.0
385.0	508.0
392.0	518.0
397.0	523.0
397.0	516.0
402.0	521.0
405.0	516.0
403.0	510.0
412.0	509.0
396.0	504.0
408.0	506.0
416.0	493.0
421.0	497.0
423.0	503.0
424.0	511.0
429.0	502.0
430.0	508.0
429.0	514.0
430.0	521.0
418.0	519.0
414.0	523.0
408.0	522.0
402.0	502.0
405.0	497.0
406.0	490.0
411.0	481.0
412.0	475.0
416.0	469.0
401.0	479.0
388.0	489.0
379.0	489.0
375.0	485.0
374.0	479.0
378.0	470.0
378.0	476.0
383.0	479.0
389.0	474.0
397.0	472.0
394.0	484.0
399.0	485.0
374.0	501.0
362.0	501.0
356.0	500.0
356.0	495.0
349.0	497.0
430.0	474.0
423.0	476.0
428.0	479.0
422.0	481.0
423.0	485.0
442.0	472.0
442.0	479.0
449.0	479.0
429.0	485.0
432.0	491.0
433.0	497.0
435.0	504.0
395.0	540.0
396.0	546.0
390.0	549.0
390.0	555.0
384.0	551.0
383.0	558.0
384.0	544.0
384.0	538.0
377.0	539.0
364.0	542.0
374.0	551.0
371.0	545.0
366.0	548.0
365.0	553.0
359.0	551.0
362.0	557.0
360.0	562.0
367.0	561.0
372.0	564.0
384.0	566.0
388.0	571.0
385.0	577.0
397.0	562.0
402.0	557.0
403.0	547.0
408.0	551.0
419.0	547.0
424.0	551.0
421.0	556.0
417.0	560.0
413.0	564.0
424.0	563.0
430.0	561.0
358.0	575.0
364.0	577.0
358.0	582.0
356.0	601.0
343.0	597.0
363.0	601.0
379.0	609.0
387.0	611.0
384.0	617.0
379.0	621.0
387.0	625.0
379.0	629.0
372.0	627.0
371.0	620.0
360.0	622.0
365.0	628.0
359.0	631.0
353.0	627.0
354.0	620.0
346.0	622.0
343.0	628.0
348.0	632.0
343.0	611.0
358.0	594.0
378.0	586.0
399.0	593.0
398.0	601.0
398.0	612.0
409.0	584.0
409.0	577.0
411.0	535.0
416.0	535.0
422.0	534.0
424.0	529.0
428.0	534.0
429.0	527.0
434.0	534.0
434.0	528.0
442.0	515.0
440.0	509.0
449.0	518.0
452.0	539.0
442.0	537.0
447.0	539.0
447.0	533.0
467.0	538.0
462.0	533.0
454.0	528.0
460.0	528.0
456.0	520.0
451.0	523.0
411.0	500.0
446.0	507.0
444.0	502.0
444.0	496.0
450.0	496.0
445.0	485.0
445.0	491.0
452.0	491.0
452.0	501.0
438.0	485.0
453.0	477.0
454.0	472.0
449.0	547.0
393.0	622.0
395.0	627.0
388.0	633.0
401.0	621.0
410.0	620.0
419.0	620.0
414.0	627.0
405.0	626.0
402.0	632.0
411.0	633.0
423.0	627.0
422.0	613.0
428.0	610.0
427.0	621.0
436.0	621.0
430.0	628.0
438.0	629.0
442.0	624.0
448.0	630.0
443.0	635.0
434.0	635.0
426.0	635.0
418.0	634.0
451.0	636.0
460.0	638.0
395.0	636.0
327.0	495.0
322.0	498.0
318.0	495.0
327.0	502.0
331.0	499.0
337.0	494.0
333.0	504.0
334.0	511.0
341.0	511.0
345.0	507.0
343.0	495.0
340.0	490.0
339.0	483.0
343.0	480.0
353.0	480.0
350.0	485.0
355.0	489.0
337.0	516.0
325.0	514.0
308.0	514.0
300.0	522.0
305.0	523.0
316.0	511.0
322.0	523.0
321.0	517.0
346.0	522.0
347.0	529.0
343.0	531.0
339.0	534.0
329.0	536.0
326.0	532.0
323.0	538.0
335.0	545.0
335.0	551.0
329.0	549.0
317.0	541.0
289.0	497.0
294.0	496.0
293.0	502.0
291.0	507.0
298.0	506.0
304.0	504.0
296.0	511.0
285.0	510.0
282.0	505.0
279.0	501.0
271.0	500.0
275.0	505.0
268.0	505.0
270.0	513.0
276.0	514.0
277.0	522.0
272.0	525.0
267.0	523.0
255.0	523.0
254.0	518.0
254.0	511.0
253.0	495.0
257.0	492.0
250.0	500.0
245.0	488.0
249.0	478.0
259.0	481.0
264.0	470.0
264.0	477.0
269.0	479.0
257.0	476.0
267.0	489.0
272.0	491.0
276.0	487.0
286.0	493.0
291.0	491.0
280.0	491.0
282.0	486.0
277.0	472.0
280.0	476.0
286.0	477.0
284.0	482.0
290.0	481.0
294.0	485.0
290.0	473.0
294.0	479.0
300.0	479.0
305.0	480.0
307.0	475.0
312.0	480.0
313.0	485.0
314.0	490.0
304.0	489.0
306.0	497.0
309.0	502.0
323.0	480.0
329.0	477.0
329.0	471.0
334.0	473.0
339.0	470.0
320.0	471.0
324.0	474.0
345.0	537.0
318.0	535.0
314.0	531.0
318.0	527.0
323.0	545.0
323.0	552.0
323.0	558.0
334.0	564.0
340.0	571.0
337.0	576.0
323.0	574.0
341.0	554.0
340.0	563.0
353.0	568.0
353.0	562.0
346.0	568.0
347.0	561.0
326.0	588.0
317.0	593.0
314.0	600.0
314.0	608.0
320.0	612.0
321.0	618.0
312.0	621.0
305.0	620.0
299.0	619.0
291.0	618.0
284.0	618.0
276.0	619.0
264.0	618.0
269.0	622.0
275.0	627.0
282.0	625.0
287.0	623.0
295.0	625.0
302.0	627.0
310.0	627.0
305.0	632.0
314.0	635.0
320.0	632.0
319.0	625.0
327.0	620.0
330.0	625.0
325.0	628.0
329.0	633.0
335.0	630.0
338.0	622.0
333.0	616.0
339.0	583.0
345.0	576.0
345.0	584.0
283.0	522.0
287.0	518.0
289.0	524.0
281.0	533.0
266.0	533.0
265.0	538.0
272.0	538.0
259.0	534.0
251.0	532.0
246.0	545.0
250.0	542.0
256.0	544.0
245.0	552.0
239.0	556.0
238.0	562.0
233.0	560.0
245.0	564.0
241.0	569.0
251.0	554.0
248.0	570.0
248.0	576.0
258.0	568.0
253.0	572.0
268.0	563.0
268.0	556.0
272.0	568.0
264.0	546.0
282.0	548.0
284.0	563.0
295.0	570.0
295.0	564.0
301.0	537.0
297.0	540.0
290.0	540.0
293.0	544.0
300.0	545.0
305.0	555.0
305.0	549.0
282.0	575.0
279.0	585.0
269.0	583.0
256.0	585.0
287.0	601.0
298.0	593.0
298.0	600.0
270.0	594.0
277.0	552.0
283.0	554.0
280.0	559.0
218.0	528.0
224.0	529.0
229.0	526.0
225.0	519.0
224.0	512.0
219.0	515.0
219.0	502.0
222.0	497.0
218.0	495.0
214.0	498.0
222.0	491.0
228.0	483.0
256.0	615.0
251.0	618.0
256.0	622.0
262.0	624.0
267.0	630.0
261.0	633.0
255.0	629.0
248.0	625.0
244.0	620.0
242.0	627.0
236.0	628.0
235.0	620.0
226.0	618.0
229.0	625.0
223.0	625.0
215.0	625.0
211.0	619.0
218.0	618.0
217.0	549.0
217.0	556.0
204.0	584.0
204.0	576.0
195.0	565.0
195.0	557.0
188.0	558.0
174.0	562.0
170.0	567.0
167.0	573.0
163.0	578.0
167.0	582.0
172.0	578.0
174.0	583.0
183.0	570.0
209.0	566.0
240.0	590.0
239.0	596.0
223.0	588.0
224.0	605.0
227.0	600.0
204.0	600.0
192.0	591.0
190.0	598.0
181.0	596.0
222.0	574.0
228.0	570.0
228.0	632.0
221.0	632.0
213.0	631.0
206.0	634.0
200.0	629.0
208.0	625.0
202.0	619.0
194.0	620.0
192.0	626.0
185.0	621.0
183.0	625.0
178.0	630.0
185.0	633.0
193.0	633.0
175.0	622.0
171.0	629.0
166.0	624.0
167.0	618.0
199.0	636.0
202.0	502.0
198.0	486.0
198.0	479.0
192.0	477.0
183.0	472.0
204.0	476.0
211.0	478.0
215.0	473.0
216.0	490.0
219.0	485.0
231.0	488.0
232.0	494.0
232.0	503.0
234.0	484.0
237.0	478.0
240.0	470.0
236.0	490.0
241.0	492.0
242.0	506.0
206.0	512.0
207.0	519.0
203.0	523.0
201.0	528.0
195.0	528.0
192.0	534.0
194.0	539.0
202.0	539.0
204.0	533.0
206.0	543.0
187.0	542.0
182.0	538.0
174.0	536.0
169.0	538.0
160.0	537.0
152.0	529.0
156.0	518.0
162.0	520.0
165.0	525.0
174.0	518.0
180.0	515.0
183.0	507.0
182.0	500.0
188.0	503.0
180.0	494.0
176.0	490.0
177.0	484.0
173.0	477.0
167.0	481.0
168.0	474.0
154.0	477.0
152.0	483.0
142.0	483.0
142.0	477.0
137.0	473.0
160.0	491.0
170.0	499.0
179.0	508.0
177.0	503.0
193.0	517.0
195.0	512.0
192.0	487.0
193.0	493.0
214.0	519.0
210.0	515.0
221.0	522.0
158.0	555.0
165.0	554.0
152.0	556.0
147.0	568.0
127.0	573.0
132.0	579.0
125.0	590.0
121.0	604.0
161.0	586.0
161.0	606.0
141.0	606.0
126.0	618.0
119.0	618.0
109.0	619.0
102.0	619.0
93.0	618.0
97.0	612.0
98.0	624.0
90.0	626.0
86.0	619.0
82.0	625.0
86.0	633.0
95.0	632.0
103.0	630.0
107.0	625.0
116.0	624.0
124.0	625.0
117.0	632.0
110.0	634.0
125.0	633.0
134.0	631.0
133.0	622.0
131.0	614.0
136.0	610.0
139.0	617.0
146.0	618.0
152.0	615.0
141.0	626.0
142.0	633.0
150.0	630.0
151.0	623.0
158.0	626.0
159.0	619.0
165.0	632.0
90.0	611.0
82.0	612.0
84.0	605.0
86.0	598.0
78.0	600.0
80.0	592.0
76.0	588.0
79.0	583.0
86.0	582.0
86.0	590.0
93.0	586.0
96.0	591.0
93.0	597.0
92.0	604.0
100.0	598.0
91.0	577.0
81.0	575.0
88.0	570.0
78.0	566.0
73.0	569.0
74.0	577.0
78.0	555.0
72.0	562.0
84.0	561.0
87.0	556.0
83.0	550.0
80.0	543.0
84.0	537.0
88.0	543.0
91.0	550.0
95.0	556.0
99.0	549.0
96.0	543.0
92.0	538.0
95.0	531.0
87.0	531.0
82.0	524.0
78.0	531.0
75.0	536.0
91.0	524.0
86.0	519.0
77.0	517.0
82.0	514.0
90.0	513.0
96.0	518.0
98.0	526.0
109.0	536.0
122.0	541.0
124.0	535.0
120.0	530.0
123.0	553.0
96.0	570.0
91.0	562.0
138.0	540.0
146.0	538.0
153.0	536.0
154.0	502.0
147.0	511.0
139.0	510.0
134.0	522.0
126.0	523.0
105.0	517.0
96.0	508.0
89.0	507.0
81.0	506.0
85.0	500.0
77.0	502.0
81.0	496.0
82.0	489.0
75.0	491.0
90.0	487.0
88.0	494.0
95.0	494.0
92.0	501.0
100.0	503.0
96.0	486.0
91.0	479.0
84.0	482.0
78.0	477.0
77.0	484.0
72.0	481.0
71.0	473.0
72.0	466.0
77.0	463.0
84.0	461.0
90.0	465.0
85.0	475.0
92.0	472.0
99.0	467.0
99.0	473.0
98.0	480.0
105.0	470.0
97.0	462.0
91.0	458.0
86.0	456.0
78.0	456.0
73.0	452.0
76.0	448.0
82.0	449.0
89.0	450.0
97.0	451.0
93.0	444.0
86.0	442.0
80.0	442.0
75.0	438.0
74.0	432.0
79.0	427.0
81.0	435.0
85.0	428.0
88.0	435.0
92.0	430.0
96.0	437.0
99.0	432.0
97.0	425.0
90.0	422.0
83.0	421.0
76.0	421.0
79.0	415.0
95.0	418.0
107.0	416.0
110.0	437.0
101.0	444.0
105.0	452.0
100.0	457.0
111.0	451.0
109.0	457.0
112.0	475.0
117.0	478.0
123.0	476.0
103.0	496.0
107.0	502.0
118.0	500.0
115.0	494.0
122.0	494.0
126.0	488.0
135.0	498.0
126.0	509.0
202.0	437.0
213.0	432.0
208.0	436.0
212.0	445.0
216.0	448.0
217.0	455.0
210.0	458.0
198.0	467.0
191.0	458.0
204.0	464.0
204.0	459.0
179.0	462.0
165.0	464.0
163.0	469.0
173.0	463.0
170.0	468.0
160.0	460.0
167.0	453.0
173.0	451.0
161.0	449.0
156.0	445.0
150.0	447.0
155.0	451.0
137.0	444.0
137.0	437.0
132.0	434.0
132.0	427.0
126.0	429.0
126.0	423.0
119.0	419.0
126.0	415.0
125.0	408.0
120.0	403.0
130.0	404.0
126.0	400.0
132.0	397.0
137.0	394.0
141.0	390.0
139.0	384.0
134.0	382.0
129.0	385.0
124.0	387.0
133.0	376.0
120.0	376.0
125.0	373.0
128.0	368.0
128.0	362.0
136.0	358.0
141.0	372.0
146.0	368.0
146.0	374.0
146.0	380.0
151.0	377.0
156.0	374.0
158.0	379.0
152.0	389.0
151.0	396.0
148.0	401.0
143.0	403.0
143.0	409.0
149.0	415.0
153.0	411.0
159.0	409.0
155.0	399.0
161.0	396.0
160.0	403.0
166.0	399.0
144.0	421.0
144.0	428.0
144.0	435.0
150.0	435.0
162.0	436.0
167.0	438.0
172.0	436.0
155.0	433.0
160.0	429.0
166.0	430.0
155.0	425.0
150.0	422.0
161.0	419.0
167.0	418.0
173.0	419.0
182.0	424.0
170.0	408.0
175.0	409.0
182.0	406.0
118.0	448.0
123.0	452.0
129.0	446.0
136.0	455.0
135.0	449.0
131.0	459.0
135.0	463.0
140.0	461.0
104.0	409.0
100.0	413.0
92.0	411.0
85.0	409.0
77.0	408.0
81.0	403.0
74.0	402.0
78.0	396.0
71.0	396.0
74.0	390.0
81.0	390.0
89.0	391.0
86.0	397.0
89.0	404.0
93.0	397.0
97.0	392.0
97.0	405.0
88.0	416.0
93.0	387.0
87.0	380.0
83.0	384.0
83.0	375.0
77.0	373.0
80.0	379.0
76.0	383.0
95.0	382.0
92.0	375.0
89.0	369.0
82.0	367.0
78.0	361.0
74.0	367.0
84.0	357.0
76.0	354.0
83.0	350.0
90.0	354.0
89.0	362.0
98.0	359.0
95.0	365.0
99.0	376.0
98.0	370.0
105.0	373.0
103.0	380.0
100.0	387.0
168.0	374.0
175.0	372.0
174.0	366.0
179.0	376.0
170.0	384.0
176.0	389.0
182.0	386.0
188.0	383.0
190.0	377.0
191.0	369.0
188.0	390.0
194.0	396.0
177.0	403.0
175.0	397.0
188.0	402.0
186.0	415.0
191.0	413.0
193.0	420.0
191.0	425.0
191.0	431.0
203.0	426.0
202.0	416.0
201.0	410.0
204.0	400.0
200.0	404.0
196.0	410.0
194.0	402.0
200.0	395.0
187.0	409.0
186.0	454.0
193.0	446.0
199.0	449.0
223.0	468.0
220.0	462.0
226.0	464.0
229.0	468.0
235.0	468.0
233.0	458.0
228.0	453.0
223.0	456.0
228.0	458.0
231.0	449.0
225.0	445.0
230.0	443.0
238.0	440.0
230.0	415.0
229.0	426.0
223.0	433.0
233.0	437.0
234.0	431.0
240.0	428.0
223.0	428.0
218.0	424.0
207.0	412.0
212.0	414.0
207.0	421.0
218.0	418.0
224.0	421.0
216.0	411.0
221.0	409.0
218.0	404.0
215.0	399.0
210.0	400.0
212.0	394.0
210.0	390.0
211.0	385.0
216.0	389.0
221.0	389.0
225.0	393.0
228.0	389.0
224.0	384.0
226.0	379.0
221.0	377.0
226.0	374.0
232.0	377.0
233.0	371.0
236.0	388.0
238.0	405.0
236.0	419.0
192.0	387.0
204.0	389.0
206.0	383.0
201.0	373.0
204.0	378.0
212.0	380.0
215.0	375.0
211.0	372.0
216.0	369.0
221.0	365.0
204.0	357.0
205.0	352.0
176.0	361.0
171.0	356.0
177.0	355.0
165.0	358.0
156.0	361.0
188.0	360.0
181.0	343.0
186.0	347.0
190.0	354.0
195.0	342.0
193.0	348.0
184.0	336.0
186.0	326.0
183.0	321.0
179.0	315.0
183.0	309.0
179.0	302.0
173.0	302.0
175.0	297.0
176.0	290.0
166.0	288.0
183.0	280.0
186.0	285.0
188.0	290.0
182.0	289.0
192.0	301.0
197.0	296.0
204.0	302.0
202.0	308.0
196.0	309.0
193.0	314.0
196.0	318.0
193.0	325.0
208.0	315.0
214.0	313.0
217.0	318.0
211.0	320.0
207.0	324.0
195.0	331.0
207.0	330.0
213.0	330.0
215.0	336.0
208.0	342.0
207.0	347.0
191.0	337.0
234.0	351.0
230.0	343.0
231.0	338.0
225.0	346.0
219.0	342.0
218.0	348.0
210.0	366.0
215.0	359.0
216.0	354.0
226.0	359.0
221.0	357.0
228.0	364.0
237.0	362.0
233.0	366.0
232.0	360.0
241.0	315.0
94.0	349.0
99.0	353.0
95.0	343.0
88.0	346.0
82.0	342.0
76.0	348.0
73.0	342.0
72.0	336.0
76.0	331.0
78.0	338.0
84.0	334.0
83.0	328.0
91.0	331.0
88.0	339.0
96.0	336.0
89.0	323.0
80.0	322.0
74.0	324.0
78.0	315.0
73.0	312.0
78.0	309.0
84.0	317.0
88.0	310.0
91.0	317.0
95.0	310.0
98.0	317.0
104.0	318.0
98.0	324.0
97.0	330.0
91.0	304.0
95.0	299.0
88.0	298.0
84.0	304.0
76.0	302.0
80.0	295.0
73.0	293.0
79.0	288.0
73.0	281.0
81.0	279.0
85.0	285.0
86.0	292.0
93.0	292.0
92.0	285.0
90.0	279.0
86.0	273.0
79.0	268.0
76.0	275.0
74.0	264.0
90.0	266.0
93.0	274.0
98.0	268.0
98.0	282.0
99.0	304.0
106.0	305.0
112.0	340.0
117.0	346.0
124.0	345.0
128.0	341.0
125.0	336.0
119.0	329.0
112.0	328.0
120.0	316.0
126.0	311.0
127.0	317.0
133.0	317.0
137.0	323.0
140.0	319.0
145.0	314.0
147.0	320.0
150.0	325.0
140.0	330.0
139.0	341.0
139.0	348.0
150.0	340.0
157.0	325.0
159.0	320.0
163.0	325.0
175.0	332.0
159.0	339.0
157.0	344.0
148.0	302.0
147.0	296.0
153.0	288.0
155.0	293.0
139.0	282.0
125.0	282.0
127.0	289.0
105.0	287.0
113.0	280.0
120.0	278.0
139.0	272.0
110.0	261.0
114.0	265.0
119.0	268.0
127.0	297.0
169.0	260.0
171.0	267.0
165.0	270.0
166.0	276.0
184.0	258.0
188.0	265.0
198.0	256.0
202.0	261.0
197.0	265.0
194.0	277.0
201.0	279.0
197.0	285.0
213.0	271.0
215.0	277.0
221.0	273.0
246.0	269.0
234.0	263.0
244.0	263.0
240.0	267.0
235.0	269.0
208.0	289.0
212.0	294.0
217.0	300.0
227.0	284.0
234.0	289.0
238.0	285.0
228.0	297.0
234.0	295.0
223.0	306.0
229.0	304.0
229.0	315.0
230.0	320.0
226.0	325.0
233.0	326.0
230.0	329.0
239.0	336.0
228.0	334.0
221.0	263.0
253.0	269.0
257.0	266.0
272.0	268.0
305.0	264.0
301.0	270.0
294.0	269.0
296.0	275.0
317.0	266.0
315.0	257.0
322.0	260.0
331.0	269.0
333.0	263.0
340.0	267.0
345.0	260.0
349.0	265.0
369.0	252.0
390.0	264.0
396.0	268.0
379.0	259.0
380.0	271.0
409.0	264.0
415.0	262.0
424.0	257.0
422.0	263.0
428.0	261.0
428.0	268.0
443.0	267.0
440.0	260.0
446.0	257.0
447.0	263.0
441.0	273.0
457.0	266.0
453.0	274.0
450.0	281.0
444.0	286.0
448.0	292.0
455.0	292.0
463.0	280.0
405.0	282.0
443.0	300.0
447.0	302.0
452.0	304.0
448.0	309.0
444.0	314.0
442.0	306.0
442.0	326.0
443.0	334.0
457.0	336.0
452.0	340.0
455.0	351.0
449.0	354.0
451.0	360.0
446.0	341.0
441.0	344.0
454.0	311.0
458.0	315.0
459.0	286.0
466.0	286.0
441.0	394.0
455.0	367.0
449.0	368.0
447.0	373.0
440.0	372.0
454.0	374.0
459.0	376.0
451.0	385.0
444.0	388.0
444.0	383.0
457.0	381.0
461.0	393.0
455.0	394.0
455.0	405.0
448.0	396.0
452.0	400.0
449.0	406.0
443.0	413.0
455.0	417.0
451.0	422.0
441.0	461.0
445.0	465.0
447.0	452.0
443.0	431.0
443.0	438.0
448.0	443.0
449.0	435.0
455.0	434.0
459.0	439.0
454.0	442.0
458.0	454.0
458.0	447.0
463.0	445.0
466.0	441.0
456.0	467.0
464.0	471.0
461.0	465.0
457.0	461.0
393.0	469.0
372.0	473.0
358.0	472.0
348.0	472.0
363.0	483.0
360.0	478.0
364.0	469.0
366.0	474.0
292.0	371.0
294.0	366.0
330.0	404.0
463.0	411.0
377.0	336.0
383.0	334.0
390.0	331.0
365.0	324.0
354.0	337.0
346.0	373.0
350.0	318.0
345.0	315.0
396.0	329.0
353.0	363.0
352.0	370.0
345.0	378.0
361.0	363.0
389.0	376.0
383.0	374.0
410.0	371.0
99.0	89.0
104.0	82.0
108.0	90.0
78.0	89.0
82.0	83.0
75.0	96.0
66.0	93.0
70.0	88.0
74.0	83.0
66.0	81.0
80.0	77.0
90.0	78.0
86.0	73.0
98.0	81.0
88.0	91.0
91.0	86.0
70.0	101.0
61.0	101.0
71.0	152.0
65.0	156.0
65.0	149.0
63.0	140.0
63.0	131.0
61.0	117.0
66.0	109.0
58.0	109.0
71.0	160.0
65.0	164.0
59.0	170.0
67.0	173.0
73.0	169.0
70.0	180.0
62.0	177.0
58.0	181.0
64.0	195.0
69.0	192.0
69.0	199.0
62.0	203.0
56.0	198.0
56.0	189.0
62.0	186.0
60.0	211.0
59.0	217.0
59.0	226.0
61.0	234.0
67.0	240.0
58.0	242.0
63.0	247.0
58.0	249.0
60.0	257.0
67.0	262.0
61.0	268.0
56.0	263.0
69.0	270.0
68.0	277.0
61.0	276.0
59.0	282.0
66.0	283.0
70.0	287.0
66.0	291.0
59.0	289.0
62.0	295.0
69.0	298.0
63.0	303.0
71.0	305.0
66.0	310.0
58.0	308.0
61.0	317.0
70.0	318.0
66.0	322.0
69.0	329.0
63.0	327.0
59.0	322.0
56.0	327.0
58.0	338.0
64.0	334.0
66.0	341.0
57.0	332.0
59.0	346.0
67.0	348.0
70.0	354.0
61.0	353.0
63.0	359.0
71.0	359.0
68.0	364.0
70.0	371.0
62.0	366.0
63.0	373.0
55.0	360.0
55.0	367.0
54.0	353.0
69.0	490.0
64.0	478.0
64.0	471.0
65.0	461.0
72.0	459.0
66.0	453.0
68.0	448.0
70.0	443.0
68.0	436.0
65.0	430.0
70.0	426.0
67.0	418.0
73.0	413.0
69.0	407.0
66.0	403.0
63.0	395.0
66.0	390.0
61.0	386.0
62.0	380.0
70.0	378.0
70.0	384.0
55.0	376.0
54.0	383.0
52.0	391.0
57.0	394.0
52.0	398.0
58.0	400.0
54.0	405.0
63.0	410.0
60.0	417.0
56.0	411.0
55.0	423.0
50.0	418.0
62.0	423.0
56.0	430.0
50.0	427.0
56.0	436.0
62.0	435.0
63.0	442.0
59.0	449.0
54.0	443.0
52.0	450.0
51.0	456.0
58.0	455.0
56.0	462.0
49.0	464.0
55.0	470.0
60.0	466.0
77.0	470.0
83.0	468.0
73.0	497.0
66.0	497.0
58.0	490.0
58.0	483.0
57.0	476.0
59.0	497.0
65.0	486.0
62.0	502.0
69.0	503.0
67.0	507.0
73.0	511.0
70.0	518.0
63.0	513.0
58.0	507.0
54.0	515.0
58.0	521.0
55.0	529.0
62.0	530.0
65.0	524.0
74.0	524.0
70.0	531.0
66.0	537.0
58.0	536.0
62.0	543.0
62.0	550.0
69.0	549.0
72.0	543.0
76.0	549.0
71.0	555.0
65.0	557.0
65.0	566.0
61.0	561.0
58.0	566.0
57.0	555.0
65.0	574.0
57.0	575.0
62.0	581.0
70.0	582.0
67.0	588.0
58.0	588.0
63.0	594.0
71.0	595.0
64.0	601.0
71.0	602.0
74.0	608.0
67.0	608.0
60.0	606.0
60.0	612.0
63.0	620.0
68.0	615.0
77.0	617.0
72.0	624.0
64.0	628.0
70.0	632.0
78.0	631.0
81.0	639.0
72.0	638.0
92.0	639.0
102.0	637.0
100.0	643.0
110.0	642.0
117.0	638.0
123.0	640.0
131.0	638.0
138.0	639.0
128.0	645.0
135.0	646.0
87.0	644.0
95.0	647.0
157.0	634.0
149.0	638.0
143.0	641.0
142.0	648.0
150.0	646.0
156.0	641.0
164.0	638.0
164.0	644.0
157.0	648.0
173.0	636.0
172.0	643.0
169.0	650.0
181.0	638.0
178.0	647.0
190.0	639.0
188.0	645.0
196.0	644.0
205.0	641.0
212.0	639.0
212.0	647.0
204.0	648.0
219.0	642.0
226.0	638.0
234.0	638.0
239.0	634.0
246.0	632.0
253.0	637.0
227.0	645.0
219.0	648.0
234.0	645.0
240.0	641.0
246.0	640.0
260.0	640.0
268.0	640.0
271.0	634.0
279.0	632.0
276.0	639.0
272.0	645.0
282.0	644.0
278.0	651.0
252.0	643.0
261.0	647.0
285.0	637.0
288.0	629.0
296.0	632.0
292.0	638.0
291.0	644.0
301.0	637.0
298.0	643.0
293.0	650.0
286.0	652.0
308.0	640.0
304.0	646.0
309.0	650.0
300.0	651.0
314.0	645.0
320.0	647.0
319.0	639.0
325.0	638.0
334.0	638.0
328.0	644.0
341.0	636.0
347.0	640.0
339.0	644.0
334.0	650.0
341.0	649.0
354.0	636.0
359.0	640.0
365.0	636.0
371.0	634.0
379.0	635.0
376.0	642.0
368.0	643.0
353.0	645.0
348.0	649.0
362.0	647.0
384.0	640.0
391.0	643.0
404.0	639.0
404.0	645.0
399.0	643.0
412.0	647.0
411.0	639.0
417.0	643.0
423.0	640.0
430.0	641.0
424.0	647.0
438.0	641.0
446.0	644.0
433.0	647.0
454.0	644.0
463.0	645.0
469.0	638.0
476.0	639.0
479.0	632.0
483.0	639.0
489.0	634.0
495.0	638.0
502.0	642.0
508.0	639.0
516.0	643.0
524.0	638.0
514.0	636.0
490.0	643.0
531.0	639.0
543.0	641.0
537.0	645.0
566.0	640.0
560.0	644.0
574.0	641.0
581.0	646.0
588.0	644.0
599.0	637.0
595.0	644.0
606.0	639.0
612.0	633.0
618.0	627.0
620.0	618.0
623.0	612.0
625.0	603.0
624.0	595.0
624.0	583.0
625.0	574.0
624.0	565.0
630.0	561.0
630.0	568.0
631.0	578.0
630.0	588.0
631.0	597.0
631.0	607.0
628.0	617.0
625.0	624.0
623.0	633.0
632.0	624.0
637.0	614.0
638.0	601.0
640.0	592.0
638.0	583.0
613.0	641.0
628.0	553.0
624.0	548.0
620.0	542.0
623.0	534.0
622.0	525.0
628.0	529.0
627.0	540.0
631.0	548.0
632.0	535.0
636.0	540.0
640.0	546.0
636.0	554.0
637.0	562.0
636.0	573.0
642.0	568.0
641.0	576.0
643.0	557.0
646.0	550.0
647.0	542.0
642.0	537.0
638.0	533.0
634.0	528.0
629.0	522.0
622.0	516.0
626.0	509.0
624.0	503.0
623.0	497.0
631.0	496.0
631.0	503.0
634.0	511.0
631.0	516.0
637.0	523.0
639.0	517.0
619.0	490.0
624.0	485.0
626.0	491.0
631.0	483.0
625.0	478.0
618.0	469.0
625.0	466.0
619.0	461.0
618.0	452.0
625.0	453.0
626.0	460.0
631.0	471.0
623.0	446.0
622.0	440.0
622.0	432.0
628.0	438.0
631.0	431.0
625.0	424.0
622.0	416.0
618.0	410.0
622.0	403.0
618.0	396.0
630.0	402.0
625.0	410.0
629.0	418.0
631.0	410.0
632.0	422.0
619.0	385.0
620.0	379.0
619.0	372.0
619.0	364.0
620.0	357.0
626.0	362.0
624.0	369.0
626.0	376.0
626.0	383.0
622.0	390.0
630.0	389.0
626.0	396.0
633.0	397.0
632.0	381.0
630.0	371.0
625.0	353.0
613.0	344.0
616.0	340.0
623.0	344.0
621.0	334.0
615.0	325.0
619.0	318.0
619.0	309.0
623.0	327.0
627.0	321.0
626.0	314.0
625.0	305.0
624.0	294.0
629.0	299.0
626.0	286.0
632.0	291.0
625.0	279.0
623.0	273.0
630.0	273.0
632.0	284.0
625.0	264.0
632.0	266.0
635.0	261.0
629.0	258.0
621.0	255.0
626.0	248.0
634.0	250.0
632.0	242.0
628.0	235.0
633.0	229.0
637.0	235.0
631.0	222.0
626.0	214.0
634.0	215.0
629.0	206.0
622.0	208.0
622.0	200.0
627.0	195.0
632.0	199.0
637.0	207.0
643.0	203.0
639.0	195.0
632.0	190.0
624.0	187.0
625.0	179.0
628.0	173.0
634.0	176.0
633.0	183.0
639.0	189.0
640.0	180.0
622.0	169.0
620.0	161.0
617.0	155.0
621.0	147.0
625.0	155.0
628.0	164.0
634.0	159.0
634.0	167.0
633.0	151.0
628.0	145.0
622.0	140.0
622.0	132.0
628.0	136.0
618.0	122.0
624.0	125.0
631.0	130.0
633.0	121.0
624.0	117.0
608.0	112.0
605.0	107.0
617.0	111.0
613.0	104.0
608.0	99.0
594.0	91.0
602.0	89.0
616.0	98.0
609.0	92.0
622.0	106.0
582.0	91.0
573.0	91.0
569.0	86.0
577.0	85.0
575.0	79.0
588.0	89.0
588.0	83.0
584.0	78.0
597.0	82.0
561.0	94.0
554.0	96.0
553.0	90.0
560.0	86.0
565.0	79.0
560.0	79.0
553.0	81.0
546.0	84.0
537.0	84.0
542.0	91.0
534.0	91.0
527.0	91.0
519.0	92.0
519.0	83.0
529.0	84.0
519.0	111.0
521.0	105.0
508.0	90.0
506.0	82.0
514.0	85.0
497.0	83.0
493.0	88.0
486.0	92.0
487.0	84.0
480.0	86.0
481.0	76.0
492.0	78.0
502.0	78.0
513.0	78.0
473.0	86.0
462.0	85.0
457.0	79.0
469.0	78.0
450.0	85.0
442.0	85.0
438.0	92.0
431.0	84.0
424.0	83.0
418.0	84.0
413.0	89.0
408.0	91.0
423.0	89.0
437.0	78.0
429.0	76.0
448.0	77.0
441.0	72.0
455.0	72.0
463.0	73.0
409.0	81.0
403.0	87.0
396.0	90.0
388.0	92.0
388.0	85.0
380.0	83.0
374.0	87.0
366.0	92.0
366.0	83.0
359.0	87.0
359.0	80.0
366.0	75.0
373.0	79.0
373.0	72.0
380.0	75.0
387.0	77.0
395.0	83.0
394.0	74.0
401.0	78.0
405.0	71.0
412.0	74.0
417.0	78.0
422.0	75.0
327.0	93.0
328.0	86.0
329.0	78.0
336.0	83.0
336.0	90.0
344.0	86.0
343.0	79.0
352.0	73.0
352.0	82.0
358.0	72.0
363.0	67.0
345.0	71.0
337.0	74.0
330.0	69.0
322.0	74.0
308.0	89.0
297.0	97.0
305.0	95.0
300.0	89.0
296.0	81.0
304.0	81.0
313.0	82.0
320.0	80.0
318.0	90.0
291.0	89.0
283.0	93.0
281.0	85.0
275.0	91.0
270.0	86.0
262.0	86.0
253.0	89.0
260.0	94.0
267.0	92.0
272.0	97.0
287.0	80.0
276.0	80.0
267.0	80.0
255.0	80.0
247.0	84.0
244.0	78.0
236.0	84.0
229.0	85.0
219.0	87.0
217.0	81.0
212.0	84.0
206.0	89.0
196.0	86.0
190.0	90.0
187.0	84.0
175.0	90.0
178.0	84.0
153.0	90.0
145.0	98.0
137.0	99.0
136.0	92.0
128.0	89.0
118.0	88.0
138.0	84.0
145.0	90.0
146.0	83.0
157.0	83.0
164.0	86.0
170.0	84.0
234.0	452.0
239.0	450.0
244.0	457.0
238.0	456.0
181.0	488.0
351.4	375.9
236.6	413.2
241.0	416.1
241.0	421.9
479.5	445.4
486.5	445.4
383.3	596.9
