     x      y
110.0	141.0
110.0	278.0
110.0	292.0
110.0	346.0
110.0	426.0
110.0	503.0
110.0	587.0
111.0	166.0
111.0	191.0
111.0	209.0
111.0	353.0
111.0	372.0
111.0	465.0
111.0	527.0
111.0	604.0
112.0	258.0
112.0	284.0
112.0	378.0
112.0	398.0
112.0	517.0
112.0	550.0
112.0	621.0
113.0	149.0
113.0	176.0
113.0	441.0
113.0	451.0
113.0	481.0
113.0	579.0
113.0	592.0
114.0	215.0
114.0	242.0
114.0	305.0
114.0	312.0
114.0	392.0
114.0	487.0
115.0	196.0
115.0	271.0
115.0	320.0
115.0	339.0
115.0	406.0
115.0	422.0
115.0	533.0
116.0	135.0
116.0	182.0
116.0	250.0
116.0	368.0
116.0	538.0
117.0	264.0
117.0	428.0
117.0	457.0
117.0	510.0
117.0	586.0
118.0	257.0
118.0	276.0
118.0	288.0
118.0	295.0
118.0	412.0
119.0	327.0
119.0	418.0
119.0	498.0
119.0	525.0
119.0	546.0
119.0	605.0
120.0	143.0
120.0	168.0
120.0	189.0
120.0	229.0
120.0	236.0
120.0	436.0
120.0	517.0
121.0	154.0
121.0	243.0
121.0	317.0
121.0	400.0
121.0	451.0
121.0	554.0
122.0	210.0
122.0	249.0
122.0	271.0
122.0	351.0
122.0	443.0
122.0	582.0
123.0	175.0
123.0	196.0
123.0	217.0
123.0	378.0
123.0	472.0
123.0	509.0
123.0	533.0
123.0	611.0
124.0	344.0
124.0	367.0
125.0	137.0
125.0	162.0
125.0	204.0
125.0	256.0
125.0	289.0
125.0	296.0
125.0	384.0
125.0	438.0
125.0	485.0
125.0	600.0
126.0	184.0
126.0	452.0
126.0	465.0
126.0	516.0
126.0	529.0
126.0	547.0
127.0	224.0
127.0	334.0
127.0	419.0
127.0	606.0
128.0	192.0
128.0	373.0
128.0	395.0
128.0	447.0
128.0	556.0
128.0	587.0
129.0	169.0
129.0	244.0
129.0	347.0
129.0	354.0
129.0	403.0
129.0	472.0
129.0	506.0
129.0	593.0
129.0	613.0
130.0	236.0
130.0	283.0
130.0	380.0
130.0	441.0
130.0	535.0
131.0	128.0
131.0	187.0
131.0	199.0
131.0	251.0
131.0	271.0
131.0	367.0
131.0	410.0
132.0	207.0
132.0	215.0
132.0	301.0
132.0	319.0
132.0	511.0
132.0	541.0
133.0	292.0
133.0	397.0
133.0	568.0
134.0	134.0
134.0	224.0
134.0	492.0
134.0	589.0
134.0	608.0
135.0	239.0
135.0	340.0
135.0	474.0
135.0	528.0
135.0	557.0
135.0	575.0
136.0	142.0
136.0	194.0
136.0	277.0
136.0	285.0
136.0	349.0
136.0	363.0
136.0	446.0
136.0	546.0
137.0	152.0
137.0	174.0
137.0	229.0
137.0	247.0
137.0	381.0
137.0	428.0
137.0	507.0
138.0	298.0
138.0	410.0
139.0	124.0
139.0	210.0
139.0	322.0
139.0	329.0
139.0	369.0
139.0	387.0
139.0	565.0
139.0	584.0
139.0	597.0
140.0	202.0
140.0	269.0
140.0	291.0
140.0	344.0
140.0	463.0
140.0	605.0
141.0	158.0
141.0	187.0
141.0	217.0
141.0	317.0
141.0	337.0
141.0	358.0
141.0	433.0
141.0	478.0
141.0	491.0
141.0	504.0
142.0	311.0
142.0	352.0
142.0	376.0
142.0	406.0
142.0	458.0
142.0	553.0
142.0	571.0
143.0	242.0
143.0	425.0
143.0	440.0
144.0	137.0
144.0	194.0
144.0	263.0
144.0	284.0
144.0	304.0
144.0	365.0
144.0	384.0
144.0	397.0
145.0	181.0
145.0	223.0
145.0	230.0
145.0	250.0
145.0	296.0
145.0	419.0
145.0	473.0
145.0	547.0
146.0	172.0
146.0	332.0
146.0	602.0
147.0	166.0
147.0	270.0
147.0	516.0
148.0	237.0
148.0	256.0
148.0	290.0
148.0	317.0
148.0	354.0
148.0	443.0
148.0	461.0
148.0	487.0
148.0	541.0
148.0	584.0
149.0	123.0
149.0	158.0
149.0	199.0
149.0	309.0
149.0	505.0
149.0	573.0
149.0	615.0
150.0	150.0
150.0	244.0
150.0	302.0
150.0	493.0
150.0	537.0
151.0	397.0
151.0	548.0
152.0	263.0
152.0	275.0
152.0	337.0
152.0	470.0
152.0	530.0
152.0	560.0
153.0	206.0
153.0	232.0
153.0	250.0
153.0	294.0
153.0	350.0
153.0	579.0
154.0	269.0
154.0	332.0
154.0	499.0
154.0	598.0
154.0	605.0
155.0	135.0
155.0	164.0
155.0	193.0
155.0	220.0
155.0	238.0
155.0	358.0
155.0	378.0
155.0	403.0
155.0	410.0
155.0	555.0
155.0	584.0
156.0	306.0
156.0	314.0
156.0	448.0
156.0	453.0
156.0	566.0
157.0	149.0
157.0	257.0
157.0	417.0
157.0	524.0
157.0	542.0
158.0	126.0
158.0	157.0
158.0	199.0
158.0	298.0
158.0	430.0
159.0	234.0
159.0	243.0
159.0	352.0
159.0	382.0
159.0	573.0
160.0	175.0
160.0	322.0
160.0	529.0
160.0	548.0
160.0	561.0
161.0	207.0
161.0	273.0
161.0	285.0
161.0	330.0
161.0	451.0
161.0	599.0
162.0	250.0
162.0	369.0
162.0	412.0
162.0	421.0
162.0	478.0
162.0	518.0
163.0	166.0
163.0	191.0
163.0	301.0
163.0	315.0
163.0	364.0
163.0	554.0
163.0	588.0
164.0	133.0
164.0	307.0
164.0	460.0
164.0	507.0
164.0	540.0
165.0	183.0
165.0	223.0
165.0	239.0
165.0	494.0
165.0	534.0
166.0	267.0
166.0	287.0
166.0	359.0
166.0	391.0
166.0	400.0
166.0	513.0
166.0	594.0
167.0	253.0
167.0	273.0
167.0	280.0
167.0	321.0
167.0	471.0
167.0	499.0
167.0	574.0
168.0	175.0
168.0	246.0
168.0	309.0
168.0	448.0
168.0	529.0
169.0	141.0
169.0	210.0
169.0	218.0
169.0	487.0
169.0	580.0
170.0	316.0
170.0	404.0
170.0	458.0
171.0	167.0
171.0	189.0
171.0	393.0
171.0	508.0
172.0	229.0
172.0	240.0
172.0	261.0
172.0	284.0
172.0	291.0
172.0	330.0
172.0	356.0
172.0	412.0
173.0	181.0
173.0	202.0
173.0	474.0
174.0	135.0
174.0	157.0
174.0	224.0
174.0	268.0
174.0	298.0
174.0	576.0
174.0	614.0
174.0	621.0
175.0	175.0
175.0	588.0
176.0	142.0
176.0	216.0
176.0	236.0
176.0	247.0
176.0	310.0
176.0	351.0
176.0	382.0
176.0	455.0
176.0	550.0
176.0	595.0
176.0	603.0
177.0	209.0
177.0	369.0
177.0	388.0
177.0	395.0
177.0	523.0
178.0	163.0
178.0	271.0
178.0	317.0
178.0	340.0
178.0	357.0
178.0	415.0
178.0	505.0
179.0	189.0
179.0	303.0
179.0	377.0
179.0	516.0
179.0	542.0
180.0	223.0
180.0	288.0
180.0	429.0
180.0	443.0
180.0	480.0
180.0	581.0
180.0	608.0
181.0	170.0
181.0	182.0
181.0	243.0
181.0	298.0
181.0	323.0
181.0	347.0
181.0	354.0
181.0	466.0
181.0	500.0
181.0	530.0
181.0	564.0
182.0	254.0
182.0	397.0
182.0	487.0
182.0	589.0
182.0	601.0
182.0	622.0
183.0	157.0
183.0	196.0
183.0	274.0
183.0	334.0
183.0	371.0
183.0	390.0
183.0	548.0
183.0	556.0
184.0	217.0
184.0	249.0
184.0	266.0
184.0	504.0
184.0	511.0
184.0	517.0
185.0	282.0
185.0	318.0
185.0	476.0
186.0	164.0
186.0	177.0
186.0	190.0
186.0	209.0
186.0	289.0
186.0	378.0
187.0	202.0
187.0	259.0
187.0	306.0
187.0	323.0
187.0	353.0
187.0	440.0
187.0	464.0
187.0	604.0
188.0	132.0
188.0	237.0
188.0	383.0
188.0	402.0
189.0	271.0
189.0	366.0
189.0	564.0
189.0	612.0
190.0	225.0
190.0	252.0
190.0	295.0
190.0	311.0
190.0	426.0
190.0	516.0
190.0	585.0
190.0	599.0
191.0	243.0
191.0	264.0
191.0	557.0
192.0	158.0
192.0	230.0
192.0	319.0
192.0	341.0
192.0	437.0
192.0	572.0
193.0	142.0
193.0	357.0
193.0	377.0
193.0	591.0
194.0	176.0
194.0	197.0
194.0	291.0
194.0	326.0
194.0	393.0
194.0	411.0
195.0	259.0
195.0	273.0
195.0	297.0
195.0	384.0
195.0	423.0
195.0	497.0
195.0	534.0
195.0	617.0
196.0	129.0
196.0	166.0
196.0	189.0
196.0	248.0
196.0	279.0
196.0	362.0
196.0	370.0
196.0	446.0
196.0	552.0
196.0	584.0
197.0	220.0
197.0	336.0
197.0	517.0
197.0	523.0
197.0	604.0
198.0	212.0
198.0	319.0
198.0	354.0
198.0	390.0
198.0	541.0
198.0	559.0
199.0	182.0
199.0	230.0
199.0	287.0
199.0	440.0
199.0	573.0
200.0	158.0
200.0	401.0
200.0	435.0
200.0	529.0
200.0	621.0
201.0	143.0
201.0	205.0
201.0	243.0
201.0	256.0
201.0	292.0
201.0	348.0
201.0	374.0
201.0	450.0
202.0	173.0
202.0	236.0
202.0	263.0
202.0	271.0
202.0	277.0
202.0	300.0
202.0	358.0
202.0	511.0
202.0	587.0
202.0	593.0
203.0	196.0
203.0	481.0
203.0	488.0
204.0	165.0
204.0	224.0
204.0	250.0
204.0	307.0
204.0	456.0
204.0	462.0
204.0	560.0
205.0	151.0
205.0	282.0
205.0	330.0
205.0	342.0
205.0	418.0
205.0	468.0
205.0	526.0
206.0	189.0
206.0	210.0
206.0	320.0
206.0	348.0
206.0	363.0
206.0	406.0
206.0	429.0
206.0	440.0
206.0	473.0
206.0	548.0
206.0	575.0
207.0	137.0
207.0	181.0
207.0	256.0
207.0	289.0
207.0	370.0
207.0	387.0
207.0	621.0
208.0	171.0
208.0	203.0
208.0	276.0
208.0	295.0
208.0	590.0
209.0	158.0
209.0	240.0
209.0	324.0
209.0	458.0
209.0	484.0
209.0	582.0
210.0	145.0
210.0	263.0
210.0	412.0
210.0	418.0
210.0	521.0
210.0	555.0
210.0	614.0
211.0	165.0
211.0	250.0
211.0	302.0
211.0	311.0
211.0	320.0
211.0	337.0
211.0	427.0
211.0	542.0
212.0	195.0
212.0	216.0
212.0	282.0
212.0	344.0
212.0	570.0
213.0	174.0
213.0	211.0
213.0	289.0
213.0	366.0
213.0	373.0
213.0	595.0
214.0	152.0
214.0	297.0
214.0	389.0
214.0	449.0
214.0	487.0
214.0	549.0
215.0	132.0
215.0	187.0
215.0	203.0
215.0	276.0
215.0	475.0
215.0	507.0
215.0	556.0
215.0	576.0
215.0	608.0
216.0	270.0
216.0	309.0
216.0	356.0
216.0	466.0
216.0	481.0
216.0	523.0
216.0	582.0
217.0	181.0
217.0	416.0
217.0	565.0
218.0	238.0
218.0	302.0
218.0	368.0
218.0	405.0
218.0	511.0
218.0	528.0
219.0	166.0
219.0	193.0
219.0	264.0
219.0	378.0
220.0	145.0
220.0	217.0
220.0	279.0
220.0	291.0
220.0	321.0
220.0	352.0
220.0	486.0
221.0	125.0
221.0	173.0
221.0	225.0
221.0	232.0
221.0	518.0
222.0	313.0
222.0	415.0
222.0	422.0
222.0	545.0
222.0	582.0
222.0	595.0
223.0	136.0
223.0	259.0
223.0	307.0
223.0	429.0
223.0	441.0
223.0	476.0
223.0	523.0
223.0	602.0
224.0	160.0
224.0	268.0
224.0	339.0
224.0	403.0
224.0	481.0
224.0	557.0
224.0	575.0
225.0	490.0
226.0	247.0
226.0	286.0
226.0	300.0
226.0	318.0
226.0	620.0
227.0	166.0
227.0	213.0
227.0	221.0
227.0	238.0
227.0	293.0
227.0	535.0
227.0	569.0
228.0	229.0
228.0	279.0
228.0	410.0
228.0	422.0
228.0	440.0
228.0	461.0
228.0	503.0
228.0	588.0
229.0	130.0
229.0	198.0
229.0	381.0
229.0	479.0
229.0	595.0
230.0	138.0
230.0	174.0
230.0	347.0
230.0	525.0
230.0	561.0
230.0	608.0
231.0	186.0
231.0	304.0
231.0	330.0
231.0	342.0
231.0	510.0
231.0	574.0
232.0	154.0
232.0	290.0
232.0	394.0
232.0	490.0
232.0	554.0
233.0	217.0
233.0	282.0
233.0	298.0
233.0	361.0
233.0	412.0
233.0	532.0
234.0	166.0
234.0	209.0
234.0	224.0
234.0	236.0
234.0	246.0
234.0	262.0
234.0	314.0
234.0	378.0
234.0	423.0
234.0	451.0
234.0	465.0
234.0	484.0
234.0	621.0
235.0	230.0
235.0	430.0
235.0	504.0
235.0	519.0
235.0	566.0
235.0	583.0
236.0	124.0
236.0	139.0
236.0	194.0
236.0	202.0
236.0	254.0
236.0	277.0
236.0	325.0
236.0	611.0
237.0	132.0
237.0	268.0
237.0	308.0
237.0	356.0
237.0	560.0
237.0	578.0
237.0	605.0
238.0	186.0
238.0	319.0
238.0	471.0
238.0	510.0
238.0	525.0
238.0	571.0
238.0	600.0
239.0	295.0
239.0	533.0
239.0	553.0
240.0	247.0
240.0	283.0
240.0	413.0
240.0	426.0
241.0	179.0
241.0	221.0
241.0	442.0
241.0	482.0
241.0	516.0
241.0	587.0
242.0	133.0
242.0	205.0
242.0	214.0
242.0	235.0
242.0	271.0
242.0	384.0
242.0	450.0
242.0	547.0
243.0	141.0
243.0	228.0
243.0	277.0
243.0	290.0
243.0	307.0
244.0	149.0
244.0	191.0
244.0	255.0
244.0	329.0
244.0	463.0
244.0	610.0
245.0	125.0
245.0	366.0
246.0	162.0
246.0	376.0
246.0	592.0
247.0	184.0
247.0	224.0
247.0	248.0
247.0	261.0
247.0	296.0
247.0	349.0
247.0	440.0
247.0	498.0
247.0	535.0
248.0	216.0
248.0	355.0
248.0	504.0
249.0	155.0
249.0	209.0
249.0	269.0
249.0	514.0
249.0	581.0
250.0	331.0
250.0	414.0
250.0	602.0
251.0	145.0
251.0	168.0
251.0	241.0
251.0	255.0
251.0	395.0
251.0	490.0
251.0	559.0
252.0	189.0
252.0	424.0
252.0	482.0
253.0	551.0
253.0	569.0
254.0	286.0
254.0	316.0
254.0	496.0
254.0	591.0
254.0	614.0
255.0	215.0
255.0	234.0
255.0	248.0
255.0	298.0
255.0	327.0
255.0	357.0
255.0	535.0
256.0	139.0
256.0	174.0
256.0	269.0
256.0	374.0
256.0	471.0
256.0	563.0
257.0	194.0
257.0	280.0
257.0	485.0
257.0	492.0
257.0	502.0
257.0	619.0
258.0	123.0
258.0	144.0
258.0	258.0
258.0	311.0
258.0	398.0
259.0	336.0
259.0	426.0
259.0	602.0
259.0	609.0
260.0	187.0
260.0	252.0
260.0	353.0
260.0	524.0
260.0	552.0
261.0	131.0
261.0	158.0
261.0	236.0
261.0	273.0
261.0	569.0
261.0	591.0
262.0	204.0
262.0	294.0
262.0	372.0
262.0	459.0
262.0	515.0
262.0	562.0
262.0	597.0
263.0	178.0
263.0	246.0
263.0	306.0
263.0	443.0
264.0	231.0
264.0	534.0
265.0	149.0
265.0	192.0
265.0	258.0
265.0	278.0
265.0	324.0
265.0	428.0
265.0	578.0
266.0	209.0
266.0	268.0
266.0	604.0
267.0	126.0
267.0	173.0
267.0	186.0
267.0	252.0
267.0	369.0
267.0	409.0
268.0	133.0
268.0	360.0
268.0	394.0
268.0	470.0
269.0	344.0
269.0	514.0
269.0	546.0
269.0	552.0
269.0	563.0
269.0	590.0
270.0	166.0
270.0	200.0
270.0	263.0
270.0	315.0
270.0	574.0
271.0	143.0
271.0	212.0
271.0	278.0
271.0	585.0
272.0	178.0
272.0	192.0
272.0	219.0
272.0	247.0
272.0	256.0
272.0	328.0
272.0	335.0
272.0	349.0
272.0	437.0
273.0	238.0
273.0	371.0
273.0	481.0
273.0	525.0
273.0	603.0
273.0	610.0
274.0	128.0
274.0	152.0
274.0	172.0
274.0	185.0
274.0	267.0
274.0	362.0
274.0	377.0
274.0	457.0
274.0	537.0
274.0	549.0
275.0	159.0
275.0	293.0
275.0	306.0
275.0	311.0
275.0	499.0
275.0	563.0
276.0	138.0
276.0	214.0
276.0	226.0
276.0	273.0
276.0	584.0
277.0	166.0
277.0	198.0
277.0	254.0
277.0	622.0
278.0	147.0
278.0	236.0
278.0	244.0
278.0	263.0
278.0	399.0
278.0	606.0
279.0	280.0
279.0	327.0
279.0	357.0
279.0	374.0
279.0	389.0
279.0	436.0
279.0	475.0
279.0	521.0
279.0	532.0
280.0	124.0
280.0	153.0
280.0	190.0
280.0	220.0
280.0	269.0
280.0	429.0
280.0	568.0
280.0	575.0
280.0	600.0
281.0	180.0
281.0	296.0
281.0	307.0
281.0	336.0
281.0	550.0
281.0	593.0
282.0	132.0
282.0	170.0
282.0	208.0
282.0	230.0
282.0	290.0
282.0	381.0
282.0	445.0
282.0	582.0
283.0	162.0
283.0	242.0
283.0	352.0
283.0	385.0
283.0	408.0
283.0	413.0
283.0	418.0
283.0	563.0
284.0	257.0
284.0	359.0
284.0	529.0
285.0	141.0
285.0	618.0
286.0	188.0
286.0	195.0
286.0	212.0
286.0	319.0
286.0	325.0
286.0	430.0
286.0	461.0
286.0	611.0
287.0	149.0
287.0	288.0
287.0	295.0
287.0	301.0
287.0	515.0
287.0	604.0
288.0	237.0
288.0	251.0
288.0	307.0
288.0	334.0
288.0	389.0
288.0	410.0
288.0	471.0
288.0	481.0
288.0	583.0
288.0	590.0
289.0	156.0
289.0	169.0
289.0	208.0
289.0	245.0
289.0	270.0
289.0	396.0
289.0	420.0
289.0	540.0
289.0	560.0
290.0	128.0
290.0	183.0
290.0	231.0
290.0	349.0
290.0	438.0
290.0	528.0
291.0	224.0
291.0	475.0
292.0	136.0
292.0	193.0
292.0	200.0
292.0	324.0
292.0	331.0
292.0	337.0
292.0	367.0
292.0	464.0
292.0	492.0
292.0	554.0
293.0	162.0
293.0	283.0
293.0	299.0
293.0	305.0
293.0	385.0
293.0	390.0
293.0	433.0
293.0	534.0
293.0	546.0
293.0	572.0
293.0	608.0
294.0	143.0
294.0	254.0
294.0	266.0
294.0	417.0
295.0	215.0
295.0	311.0
295.0	356.0
295.0	517.0
296.0	152.0
296.0	171.0
296.0	247.0
296.0	350.0
296.0	429.0
296.0	560.0
296.0	580.0
297.0	126.0
297.0	206.0
297.0	227.0
298.0	157.0
298.0	260.0
298.0	277.0
298.0	327.0
298.0	477.0
298.0	505.0
298.0	603.0
298.0	611.0
299.0	134.0
299.0	179.0
299.0	359.0
299.0	461.0
299.0	534.0
299.0	619.0
300.0	588.0
301.0	140.0
301.0	298.0
301.0	515.0
302.0	211.0
302.0	329.0
302.0	336.0
302.0	430.0
302.0	526.0
303.0	173.0
303.0	204.0
303.0	224.0
303.0	232.0
303.0	275.0
303.0	342.0
303.0	385.0
303.0	539.0
303.0	557.0
303.0	565.0
303.0	606.0
304.0	185.0
304.0	247.0
304.0	317.0
304.0	404.0
304.0	419.0
304.0	479.0
305.0	258.0
305.0	281.0
305.0	323.0
305.0	392.0
305.0	468.0
305.0	521.0
305.0	573.0
306.0	157.0
306.0	178.0
306.0	218.0
306.0	269.0
306.0	301.0
306.0	365.0
306.0	436.0
306.0	458.0
306.0	512.0
306.0	593.0
306.0	611.0
307.0	137.0
308.0	238.0
308.0	346.0
308.0	400.0
308.0	551.0
309.0	212.0
309.0	230.0
309.0	276.0
309.0	451.0
309.0	480.0
309.0	527.0
310.0	171.0
310.0	223.0
310.0	251.0
310.0	289.0
310.0	430.0
310.0	469.0
310.0	604.0
311.0	164.0
311.0	412.0
311.0	420.0
311.0	462.0
311.0	569.0
312.0	178.0
312.0	185.0
312.0	256.0
312.0	283.0
312.0	307.0
312.0	336.0
312.0	521.0
312.0	574.0
313.0	193.0
313.0	219.0
313.0	270.0
313.0	331.0
313.0	350.0
313.0	370.0
313.0	596.0
314.0	130.0
314.0	236.0
314.0	542.0
314.0	553.0
315.0	231.0
315.0	263.0
315.0	396.0
315.0	505.0
316.0	138.0
316.0	144.0
316.0	430.0
317.0	207.0
317.0	247.0
317.0	312.0
317.0	360.0
317.0	438.0
317.0	472.0
318.0	225.0
318.0	306.0
318.0	453.0
318.0	616.0
319.0	198.0
319.0	215.0
319.0	385.0
320.0	152.0
320.0	158.0
320.0	259.0
320.0	266.0
320.0	299.0
320.0	349.0
320.0	422.0
320.0	544.0
321.0	124.0
321.0	190.0
321.0	490.0
321.0	552.0
321.0	582.0
322.0	133.0
322.0	221.0
322.0	243.0
322.0	293.0
322.0	324.0
322.0	597.0
323.0	147.0
323.0	202.0
323.0	210.0
323.0	315.0
323.0	339.0
323.0	473.0
323.0	538.0
323.0	612.0
324.0	264.0
324.0	309.0
325.0	171.0
325.0	302.0
325.0	333.0
325.0	394.0
325.0	431.0
325.0	480.0
325.0	568.0
326.0	164.0
326.0	183.0
326.0	216.0
326.0	227.0
326.0	238.0
326.0	247.0
326.0	369.0
326.0	461.0
326.0	562.0
327.0	270.0
327.0	424.0
327.0	512.0
327.0	581.0
328.0	326.0
328.0	428.0
328.0	449.0
328.0	456.0
328.0	506.0
328.0	592.0
328.0	607.0
329.0	143.0
329.0	222.0
329.0	283.0
329.0	313.0
330.0	264.0
330.0	413.0
330.0	479.0
331.0	189.0
331.0	201.0
331.0	209.0
331.0	233.0
331.0	294.0
331.0	390.0
331.0	572.0
332.0	159.0
332.0	216.0
332.0	464.0
332.0	548.0
333.0	228.0
333.0	367.0
333.0	589.0
333.0	602.0
334.0	127.0
334.0	136.0
334.0	183.0
334.0	246.0
334.0	312.0
334.0	379.0
334.0	447.0
334.0	523.0
335.0	269.0
335.0	329.0
335.0	385.0
335.0	414.0
335.0	474.0
336.0	305.0
336.0	396.0
336.0	427.0
336.0	469.0
336.0	480.0
336.0	500.0
336.0	536.0
336.0	617.0
337.0	144.0
337.0	151.0
337.0	373.0
337.0	489.0
337.0	596.0
338.0	166.0
338.0	204.0
338.0	214.0
338.0	221.0
338.0	252.0
338.0	296.0
338.0	346.0
338.0	391.0
338.0	463.0
338.0	510.0
339.0	158.0
339.0	189.0
339.0	319.0
339.0	557.0
340.0	241.0
340.0	290.0
340.0	335.0
340.0	380.0
340.0	578.0
340.0	587.0
340.0	603.0
341.0	131.0
341.0	139.0
341.0	269.0
341.0	280.0
341.0	356.0
341.0	363.0
341.0	438.0
341.0	459.0
342.0	181.0
342.0	246.0
342.0	258.0
342.0	309.0
342.0	329.0
342.0	385.0
342.0	404.0
342.0	621.0
343.0	198.0
343.0	286.0
343.0	345.0
343.0	488.0
343.0	546.0
343.0	565.0
343.0	593.0
344.0	123.0
344.0	163.0
344.0	215.0
344.0	433.0
344.0	508.0
345.0	144.0
345.0	207.0
345.0	223.0
345.0	293.0
345.0	339.0
345.0	419.0
345.0	470.0
346.0	171.0
346.0	189.0
346.0	352.0
346.0	476.0
347.0	176.0
347.0	252.0
347.0	305.0
347.0	318.0
347.0	386.0
347.0	607.0
348.0	282.0
348.0	327.0
349.0	157.0
349.0	196.0
349.0	258.0
349.0	564.0
350.0	183.0
350.0	217.0
350.0	246.0
350.0	397.0
350.0	492.0
350.0	506.0
350.0	620.0
351.0	151.0
351.0	165.0
351.0	210.0
351.0	295.0
351.0	460.0
351.0	475.0
351.0	529.0
351.0	571.0
352.0	226.0
352.0	276.0
352.0	301.0
352.0	347.0
352.0	543.0
353.0	171.0
353.0	253.0
353.0	308.0
353.0	428.0
353.0	485.0
353.0	591.0
353.0	611.0
354.0	143.0
354.0	317.0
354.0	328.0
354.0	454.0
354.0	472.0
355.0	281.0
355.0	561.0
356.0	200.0
356.0	270.0
356.0	312.0
357.0	134.0
357.0	157.0
357.0	246.0
357.0	258.0
357.0	334.0
357.0	357.0
357.0	503.0
357.0	566.0
357.0	574.0
358.0	432.0
358.0	509.0
358.0	555.0
359.0	126.0
359.0	186.0
359.0	236.0
359.0	484.0
359.0	534.0
360.0	166.0
360.0	224.0
360.0	369.0
360.0	398.0
360.0	462.0
360.0	468.0
360.0	520.0
361.0	193.0
361.0	254.0
361.0	328.0
361.0	421.0
361.0	545.0
361.0	561.0
362.0	173.0
362.0	611.0
363.0	200.0
363.0	216.0
363.0	271.0
363.0	295.0
363.0	451.0
363.0	552.0
364.0	134.0
364.0	141.0
364.0	155.0
364.0	179.0
364.0	207.0
364.0	473.0
364.0	490.0
364.0	504.0
364.0	539.0
364.0	598.0
365.0	260.0
365.0	278.0
365.0	307.0
365.0	348.0
365.0	403.0
365.0	427.0
365.0	558.0
365.0	566.0
365.0	573.0
366.0	163.0
366.0	318.0
366.0	353.0
366.0	380.0
366.0	519.0
367.0	127.0
367.0	266.0
367.0	338.0
367.0	393.0
367.0	478.0
368.0	231.0
368.0	254.0
368.0	361.0
369.0	196.0
369.0	212.0
369.0	301.0
369.0	323.0
369.0	414.0
369.0	543.0
369.0	608.0
370.0	271.0
370.0	343.0
370.0	442.0
370.0	467.0
370.0	578.0
371.0	137.0
371.0	157.0
371.0	219.0
371.0	248.0
371.0	259.0
371.0	295.0
371.0	389.0
371.0	584.0
371.0	597.0
372.0	175.0
372.0	204.0
372.0	350.0
372.0	394.0
372.0	424.0
372.0	569.0
373.0	308.0
373.0	505.0
373.0	520.0
373.0	561.0
374.0	190.0
374.0	225.0
374.0	288.0
374.0	329.0
374.0	537.0
374.0	544.0
375.0	232.0
375.0	300.0
375.0	341.0
375.0	360.0
375.0	611.0
376.0	198.0
376.0	280.0
376.0	314.0
376.0	385.0
376.0	459.0
376.0	466.0
376.0	574.0
377.0	237.0
377.0	267.0
377.0	324.0
377.0	554.0
377.0	603.0
378.0	159.0
378.0	172.0
378.0	248.0
378.0	481.0
378.0	568.0
378.0	594.0
379.0	180.0
379.0	186.0
379.0	334.0
379.0	491.0
379.0	523.0
380.0	138.0
380.0	205.0
380.0	261.0
380.0	308.0
380.0	464.0
380.0	538.0
381.0	357.0
381.0	388.0
381.0	400.0
381.0	484.0
382.0	126.0
382.0	167.0
382.0	225.0
382.0	243.0
382.0	253.0
382.0	289.0
382.0	302.0
382.0	607.0
383.0	191.0
383.0	270.0
383.0	599.0
384.0	501.0
384.0	550.0
384.0	620.0
385.0	132.0
385.0	199.0
385.0	313.0
385.0	379.0
385.0	494.0
385.0	524.0
385.0	531.0
385.0	594.0
386.0	151.0
386.0	238.0
386.0	396.0
386.0	439.0
386.0	445.0
386.0	462.0
386.0	511.0
387.0	185.0
387.0	579.0
388.0	124.0
388.0	142.0
388.0	569.0
389.0	191.0
389.0	250.0
389.0	277.0
389.0	324.0
389.0	329.0
389.0	612.0
390.0	483.0
390.0	546.0
390.0	562.0
390.0	589.0
391.0	165.0
391.0	311.0
391.0	370.0
392.0	198.0
392.0	334.0
392.0	471.0
392.0	532.0
393.0	148.0
393.0	346.0
393.0	414.0
393.0	445.0
393.0	456.0
393.0	502.0
393.0	582.0
394.0	156.0
394.0	218.0
394.0	380.0
394.0	595.0
395.0	129.0
395.0	183.0
395.0	190.0
395.0	236.0
395.0	259.0
395.0	265.0
395.0	289.0
395.0	315.0
396.0	227.0
396.0	251.0
396.0	271.0
396.0	282.0
396.0	543.0
396.0	551.0
396.0	603.0
397.0	309.0
397.0	368.0
397.0	439.0
397.0	467.0
397.0	473.0
397.0	575.0
397.0	610.0
398.0	386.0
398.0	395.0
398.0	425.0
399.0	169.0
399.0	356.0
399.0	380.0
399.0	413.0
400.0	196.0
400.0	325.0
401.0	124.0
401.0	177.0
401.0	216.0
401.0	231.0
401.0	246.0
401.0	304.0
401.0	339.0
401.0	533.0
401.0	599.0
402.0	140.0
402.0	261.0
402.0	515.0
402.0	540.0
402.0	567.0
403.0	442.0
403.0	527.0
403.0	588.0
403.0	605.0
403.0	621.0
404.0	160.0
404.0	273.0
404.0	310.0
404.0	335.0
405.0	294.0
405.0	299.0
405.0	454.0
405.0	577.0
406.0	209.0
406.0	372.0
406.0	595.0
406.0	610.0
407.0	153.0
407.0	170.0
407.0	243.0
407.0	432.0
407.0	465.0
408.0	177.0
408.0	195.0
408.0	366.0
408.0	472.0
408.0	565.0
409.0	129.0
409.0	283.0
409.0	354.0
409.0	601.0
409.0	618.0
410.0	137.0
410.0	270.0
410.0	347.0
410.0	390.0
410.0	483.0
410.0	506.0
410.0	588.0
411.0	277.0
411.0	336.0
411.0	477.0
412.0	162.0
412.0	256.0
413.0	240.0
413.0	245.0
413.0	293.0
413.0	300.0
413.0	325.0
413.0	611.0
414.0	170.0
414.0	226.0
414.0	287.0
415.0	148.0
415.0	199.0
416.0	125.0
416.0	134.0
416.0	251.0
416.0	278.0
416.0	320.0
416.0	385.0
416.0	399.0
416.0	590.0
417.0	536.0
418.0	162.0
418.0	186.0
418.0	296.0
418.0	460.0
419.0	154.0
419.0	245.0
419.0	259.0
419.0	531.0
419.0	596.0
420.0	290.0
420.0	315.0
420.0	472.0
420.0	523.0
420.0	542.0
420.0	554.0
421.0	175.0
421.0	231.0
421.0	277.0
421.0	365.0
421.0	402.0
421.0	451.0
421.0	618.0
422.0	137.0
422.0	224.0
422.0	252.0
422.0	271.0
422.0	582.0
423.0	264.0
423.0	320.0
423.0	338.0
424.0	168.0
424.0	203.0
424.0	537.0
424.0	573.0
424.0	588.0
425.0	181.0
425.0	196.0
425.0	247.0
425.0	295.0
425.0	326.0
425.0	406.0
426.0	152.0
426.0	351.0
426.0	360.0
426.0	399.0
427.0	160.0
427.0	288.0
427.0	315.0
427.0	384.0
427.0	463.0
427.0	533.0
428.0	228.0
428.0	276.0
428.0	470.0
428.0	609.0
429.0	174.0
429.0	220.0
429.0	389.0
429.0	501.0
430.0	133.0
430.0	141.0
430.0	269.0
430.0	492.0
430.0	508.0
430.0	527.0
430.0	590.0
430.0	602.0
431.0	124.0
431.0	148.0
431.0	327.0
431.0	372.0
432.0	199.0
432.0	482.0
432.0	521.0
433.0	189.0
433.0	208.0
433.0	243.0
434.0	158.0
434.0	281.0
434.0	308.0
434.0	344.0
434.0	502.0
434.0	511.0
435.0	226.0
435.0	412.0
435.0	569.0
436.0	253.0
436.0	355.0
436.0	398.0
436.0	433.0
437.0	172.0
437.0	220.0
437.0	248.0
437.0	264.0
437.0	549.0
437.0	590.0
437.0	602.0
438.0	129.0
438.0	292.0
439.0	150.0
439.0	213.0
439.0	315.0
439.0	366.0
439.0	393.0
439.0	529.0
440.0	164.0
440.0	408.0
440.0	472.0
441.0	177.0
441.0	234.0
441.0	380.0
441.0	466.0
441.0	571.0
442.0	323.0
442.0	435.0
442.0	477.0
442.0	510.0
442.0	585.0
443.0	219.0
443.0	275.0
443.0	374.0
443.0	458.0
443.0	548.0
443.0	608.0
444.0	268.0
444.0	293.0
444.0	301.0
444.0	330.0
444.0	535.0
445.0	141.0
445.0	170.0
445.0	184.0
445.0	212.0
445.0	313.0
445.0	492.0
445.0	499.0
445.0	560.0
446.0	205.0
446.0	242.0
446.0	407.0
446.0	484.0
446.0	552.0
446.0	572.0
447.0	123.0
447.0	132.0
447.0	148.0
447.0	437.0
448.0	161.0
448.0	522.0
449.0	177.0
449.0	192.0
449.0	353.0
449.0	360.0
449.0	372.0
449.0	384.0
450.0	154.0
450.0	218.0
450.0	272.0
450.0	345.0
450.0	566.0
450.0	585.0
451.0	465.0
452.0	137.0
452.0	305.0
452.0	368.0
452.0	540.0
452.0	572.0
452.0	591.0
453.0	128.0
453.0	210.0
453.0	476.0
453.0	525.0
454.0	146.0
454.0	233.0
454.0	260.0
454.0	285.0
454.0	363.0
454.0	375.0
454.0	381.0
454.0	389.0
454.0	579.0
455.0	172.0
455.0	278.0
455.0	407.0
455.0	442.0
455.0	519.0
455.0	552.0
456.0	157.0
456.0	331.0
457.0	216.0
457.0	271.0
457.0	302.0
457.0	309.0
457.0	435.0
457.0	491.0
457.0	498.0
457.0	546.0
458.0	135.0
458.0	179.0
458.0	239.0
458.0	247.0
458.0	290.0
458.0	296.0
458.0	353.0
458.0	429.0
458.0	464.0
458.0	566.0
458.0	591.0
459.0	152.0
459.0	210.0
459.0	265.0
459.0	342.0
459.0	358.0
459.0	445.0
459.0	503.0
459.0	524.0
459.0	573.0
460.0	166.0
460.0	258.0
460.0	377.0
461.0	142.0
461.0	194.0
461.0	229.0
461.0	283.0
461.0	328.0
461.0	348.0
461.0	422.0
461.0	473.0
461.0	515.0
462.0	128.0
462.0	252.0
462.0	314.0
462.0	321.0
462.0	438.0
463.0	277.0
463.0	416.0
463.0	486.0
463.0	601.0
464.0	451.0
464.0	466.0
464.0	587.0
465.0	181.0
465.0	213.0
465.0	294.0
465.0	409.0
465.0	567.0
466.0	263.0
466.0	342.0
466.0	349.0
466.0	554.0
467.0	147.0
467.0	166.0
467.0	188.0
467.0	239.0
467.0	516.0
467.0	575.0
468.0	123.0
468.0	195.0
468.0	226.0
468.0	281.0
468.0	331.0
468.0	469.0
468.0	493.0
468.0	582.0
469.0	475.0
469.0	482.0
469.0	608.0
469.0	617.0
470.0	130.0
470.0	141.0
470.0	153.0
470.0	174.0
470.0	252.0
470.0	339.0
470.0	359.0
470.0	405.0
470.0	431.0
470.0	510.0
471.0	201.0
471.0	505.0
471.0	543.0
472.0	269.0
472.0	345.0
472.0	353.0
472.0	451.0
472.0	556.0
473.0	181.0
473.0	244.0
473.0	419.0
473.0	435.0
473.0	495.0
474.0	162.0
474.0	300.0
474.0	471.0
475.0	189.0
475.0	239.0
475.0	279.0
475.0	285.0
475.0	334.0
475.0	409.0
475.0	525.0
475.0	550.0
475.0	582.0
476.0	147.0
476.0	169.0
476.0	231.0
476.0	575.0
477.0	124.0
477.0	196.0
477.0	341.0
477.0	462.0
477.0	509.0
477.0	531.0
478.0	154.0
478.0	176.0
478.0	225.0
478.0	250.0
478.0	321.0
478.0	346.0
478.0	589.0
479.0	131.0
479.0	308.0
479.0	380.0
479.0	417.0
479.0	597.0
480.0	161.0
480.0	209.0
480.0	243.0
480.0	290.0
480.0	411.0
480.0	435.0
480.0	519.0
481.0	327.0
481.0	359.0
481.0	428.0
481.0	563.0
482.0	142.0
482.0	236.0
482.0	260.0
482.0	283.0
482.0	297.0
482.0	512.0
483.0	172.0
483.0	189.0
483.0	274.0
483.0	342.0
483.0	463.0
484.0	150.0
484.0	229.0
484.0	348.0
484.0	448.0
484.0	476.0
484.0	591.0
484.0	615.0
485.0	135.0
485.0	311.0
485.0	497.0
485.0	604.0
486.0	204.0
486.0	322.0
486.0	408.0
487.0	212.0
487.0	242.0
487.0	305.0
488.0	164.0
488.0	191.0
488.0	281.0
488.0	299.0
488.0	420.0
489.0	235.0
489.0	259.0
489.0	471.0
489.0	580.0
489.0	620.0
490.0	142.0
490.0	275.0
490.0	317.0
490.0	376.0
490.0	383.0
490.0	450.0
491.0	199.0
491.0	207.0
491.0	253.0
491.0	358.0
491.0	404.0
491.0	431.0
491.0	520.0
491.0	545.0
492.0	247.0
492.0	311.0
492.0	456.0
492.0	603.0
493.0	129.0
493.0	151.0
493.0	284.0
493.0	303.0
493.0	513.0
493.0	537.0
494.0	180.0
494.0	214.0
494.0	273.0
494.0	327.0
494.0	476.0
494.0	482.0
494.0	595.0
494.0	610.0
495.0	137.0
495.0	241.0
495.0	297.0
495.0	354.0
495.0	365.0
495.0	378.0
495.0	395.0
495.0	417.0
495.0	493.0
496.0	194.0
496.0	222.0
496.0	234.0
496.0	257.0
496.0	340.0
496.0	412.0
496.0	453.0
496.0	523.0
497.0	143.0
497.0	228.0
497.0	279.0
497.0	310.0
497.0	316.0
497.0	441.0
497.0	447.0
498.0	175.0
499.0	208.0
499.0	324.0
499.0	359.0
499.0	385.0
499.0	544.0
499.0	561.0
499.0	589.0
499.0	616.0
500.0	151.0
500.0	302.0
500.0	332.0
500.0	479.0
500.0	574.0
500.0	601.0
501.0	130.0
501.0	182.0
501.0	262.0
501.0	296.0
501.0	338.0
501.0	448.0
501.0	555.0
502.0	161.0
502.0	214.0
502.0	239.0
502.0	273.0
502.0	319.0
502.0	397.0
502.0	425.0
502.0	581.0
503.0	137.0
503.0	190.0
503.0	279.0
503.0	291.0
503.0	461.0
503.0	493.0
504.0	198.0
504.0	256.0
504.0	594.0
505.0	207.0
505.0	233.0
505.0	385.0
505.0	476.0
505.0	486.0
505.0	521.0
506.0	143.0
506.0	219.0
506.0	249.0
506.0	266.0
506.0	415.0
506.0	435.0
506.0	498.0
507.0	177.0
507.0	559.0
508.0	286.0
508.0	335.0
508.0	408.0
508.0	573.0
509.0	164.0
509.0	184.0
509.0	193.0
509.0	244.0
509.0	272.0
510.0	214.0
510.0	296.0
510.0	306.0
510.0	317.0
510.0	503.0
510.0	511.0
510.0	528.0
511.0	138.0
511.0	325.0
511.0	382.0
512.0	227.0
512.0	279.0
512.0	357.0
512.0	387.0
512.0	432.0
512.0	540.0
512.0	557.0
512.0	565.0
512.0	618.0
513.0	145.0
513.0	266.0
513.0	345.0
513.0	425.0
513.0	496.0
513.0	523.0
514.0	199.0
514.0	394.0
514.0	400.0
515.0	161.0
515.0	177.0
515.0	220.0
515.0	570.0
515.0	579.0
515.0	587.0
516.0	191.0
516.0	241.0
516.0	247.0
516.0	272.0
516.0	308.0
516.0	372.0
516.0	381.0
517.0	355.0
517.0	416.0
517.0	452.0
517.0	484.0
518.0	132.0
518.0	278.0
518.0	290.0
518.0	296.0
518.0	328.0
518.0	504.0
519.0	302.0
520.0	147.0
520.0	236.0
520.0	253.0
520.0	266.0
520.0	388.0
520.0	397.0
520.0	498.0
520.0	536.0
520.0	602.0
520.0	618.0
521.0	155.0
521.0	179.0
521.0	324.0
521.0	467.0
521.0	515.0
521.0	548.0
521.0	566.0
521.0	579.0
522.0	197.0
522.0	221.0
522.0	343.0
522.0	360.0
522.0	591.0
523.0	258.0
523.0	271.0
523.0	306.0
523.0	401.0
523.0	530.0
524.0	127.0
524.0	240.0
524.0	347.0
524.0	460.0
525.0	228.0
525.0	294.0
525.0	337.0
525.0	354.0
525.0	484.0
525.0	498.0
526.0	136.0
526.0	159.0
526.0	189.0
526.0	366.0
526.0	560.0
526.0	568.0
526.0	598.0
526.0	604.0
527.0	143.0
527.0	168.0
527.0	275.0
527.0	360.0
527.0	386.0
527.0	582.0
528.0	175.0
528.0	268.0
528.0	287.0
528.0	341.0
528.0	411.0
528.0	492.0
528.0	514.0
529.0	151.0
529.0	221.0
529.0	431.0
529.0	471.0
530.0	184.0
530.0	197.0
530.0	329.0
530.0	425.0
531.0	261.0
531.0	535.0
532.0	131.0
532.0	206.0
532.0	241.0
532.0	280.0
532.0	347.0
532.0	484.0
532.0	499.0
532.0	601.0
533.0	142.0
533.0	160.0
533.0	250.0
533.0	274.0
533.0	302.0
533.0	448.0
533.0	465.0
534.0	169.0
534.0	477.0
535.0	323.0
535.0	342.0
535.0	436.0
535.0	471.0
535.0	505.0
536.0	177.0
536.0	257.0
536.0	590.0
537.0	185.0
537.0	330.0
537.0	356.0
537.0	484.0
537.0	620.0
538.0	244.0
538.0	279.0
538.0	307.0
538.0	407.0
538.0	531.0
538.0	538.0
539.0	158.0
539.0	200.0
539.0	211.0
539.0	349.0
539.0	497.0
539.0	568.0
539.0	595.0
540.0	293.0
540.0	316.0
540.0	324.0
540.0	390.0
540.0	519.0
540.0	573.0
541.0	147.0
541.0	173.0
541.0	384.0
541.0	489.0
541.0	543.0
542.0	274.0
542.0	285.0
542.0	343.0
542.0	503.0
542.0	511.0
542.0	526.0
543.0	580.0
543.0	588.0
544.0	188.0
544.0	203.0
544.0	355.0
544.0	533.0
545.0	229.0
545.0	242.0
545.0	281.0
545.0	322.0
545.0	445.0
545.0	465.0
546.0	452.0
546.0	470.0
546.0	487.0
546.0	594.0
547.0	131.0
547.0	139.0
547.0	170.0
547.0	298.0
547.0	363.0
547.0	494.0
547.0	538.0
548.0	402.0
548.0	544.0
549.0	235.0
549.0	478.0
549.0	508.0
549.0	563.0
549.0	574.0
549.0	582.0
550.0	149.0
550.0	221.0
550.0	341.0
550.0	590.0
551.0	158.0
551.0	190.0
551.0	206.0
551.0	310.0
551.0	368.0
551.0	444.0
551.0	534.0
551.0	597.0
552.0	466.0
553.0	322.0
553.0	336.0
553.0	539.0
553.0	552.0
554.0	253.0
554.0	281.0
554.0	348.0
554.0	361.0
554.0	478.0
554.0	578.0
555.0	126.0
555.0	135.0
555.0	186.0
555.0	316.0
555.0	409.0
555.0	615.0
556.0	143.0
556.0	211.0
556.0	306.0
556.0	508.0
556.0	527.0
556.0	546.0
557.0	176.0
557.0	220.0
557.0	245.0
557.0	586.0
558.0	151.0
558.0	276.0
558.0	381.0
558.0	424.0
558.0	437.0
558.0	483.0
558.0	601.0
559.0	226.0
559.0	324.0
560.0	448.0
561.0	140.0
561.0	169.0
561.0	215.0
561.0	251.0
561.0	316.0
561.0	346.0
561.0	417.0
561.0	540.0
562.0	184.0
562.0	238.0
562.0	282.0
562.0	479.0
562.0	607.0
563.0	330.0
563.0	393.0
564.0	135.0
564.0	147.0
564.0	177.0
564.0	273.0
564.0	293.0
564.0	305.0
564.0	342.0
564.0	439.0
564.0	509.0
564.0	557.0
565.0	192.0
565.0	221.0
565.0	245.0
565.0	323.0
565.0	364.0
565.0	376.0
565.0	535.0
565.0	576.0
566.0	157.0
566.0	416.0
567.0	164.0
567.0	199.0
567.0	359.0
567.0	582.0
568.0	298.0
568.0	317.0
568.0	466.0
568.0	519.0
569.0	172.0
569.0	184.0
569.0	279.0
569.0	389.0
569.0	529.0
570.0	141.0
570.0	291.0
570.0	310.0
570.0	401.0
570.0	477.0
570.0	595.0
570.0	603.0
571.0	352.0
571.0	394.0
571.0	444.0
572.0	132.0
572.0	177.0
572.0	192.0
572.0	364.0
572.0	461.0
572.0	514.0
572.0	572.0
572.0	616.0
573.0	203.0
573.0	304.0
573.0	558.0
574.0	258.0
574.0	332.0
574.0	432.0
574.0	467.0
575.0	227.0
575.0	387.0
575.0	530.0
575.0	547.0
576.0	183.0
576.0	214.0
576.0	240.0
576.0	278.0
576.0	317.0
576.0	327.0
576.0	399.0
576.0	422.0
576.0	576.0
577.0	196.0
577.0	383.0
577.0	588.0
578.0	129.0
578.0	137.0
578.0	270.0
578.0	428.0
578.0	444.0
579.0	343.0
579.0	554.0
579.0	562.0
580.0	207.0
580.0	274.0
580.0	394.0
580.0	543.0
581.0	192.0
581.0	234.0
581.0	330.0
581.0	374.0
581.0	403.0
582.0	200.0
582.0	246.0
582.0	420.0
582.0	454.0
583.0	355.0
583.0	494.0
583.0	611.0
584.0	184.0
584.0	213.0
584.0	268.0
584.0	381.0
584.0	410.0
584.0	447.0
584.0	558.0
585.0	133.0
585.0	297.0
585.0	308.0
585.0	424.0
585.0	507.0
585.0	586.0
586.0	143.0
586.0	252.0
586.0	277.0
586.0	328.0
586.0	477.0
586.0	515.0
586.0	538.0
587.0	152.0
587.0	361.0
588.0	218.0
588.0	415.0
588.0	467.0
588.0	529.0
588.0	542.0
589.0	187.0
589.0	206.0
589.0	260.0
589.0	353.0
589.0	552.0
589.0	572.0
590.0	177.0
590.0	196.0
590.0	248.0
590.0	454.0
590.0	496.0
591.0	266.0
591.0	489.0
591.0	564.0
592.0	126.0
592.0	214.0
592.0	227.0
592.0	296.0
592.0	334.0
592.0	590.0
593.0	144.0
593.0	357.0
593.0	378.0
593.0	504.0
593.0	608.0
594.0	328.0
594.0	342.0
594.0	362.0
594.0	391.0
595.0	452.0
595.0	469.0
596.0	193.0
596.0	260.0
596.0	522.0
596.0	584.0
596.0	594.0
597.0	187.0
597.0	200.0
597.0	323.0
597.0	499.0
598.0	208.0
598.0	268.0
598.0	302.0
598.0	564.0
599.0	447.0
599.0	465.0
599.0	508.0
599.0	538.0
599.0	607.0
600.0	317.0
600.0	398.0
600.0	412.0
600.0	433.0
600.0	557.0
601.0	138.0
601.0	273.0
601.0	338.0
601.0	516.0
602.0	239.0
602.0	355.0
602.0	580.0
603.0	172.0
603.0	205.0
603.0	224.0
603.0	406.0
604.0	150.0
604.0	165.0
604.0	187.0
604.0	195.0
604.0	300.0
604.0	386.0
604.0	469.0
604.0	530.0
604.0	568.0
604.0	596.0
604.0	603.0
605.0	259.0
605.0	267.0
605.0	427.0
605.0	575.0
606.0	233.0
606.0	508.0
607.0	133.0
607.0	217.0
607.0	305.0
607.0	413.0
608.0	180.0
608.0	245.0
608.0	327.0
608.0	341.0
608.0	379.0
609.0	239.0
609.0	356.0
609.0	585.0
269.0	303.0
262.0	299.0
267.0	297.0
274.0	299.0
280.0	303.0
266.0	291.0
270.0	320.0
276.0	317.0
275.0	323.0
281.0	322.0
281.0	314.0
288.0	314.0
293.0	318.0
299.0	317.0
299.0	322.0
301.0	311.0
306.0	312.0
294.0	292.0
306.0	294.0
300.0	292.0
298.0	307.0
300.0	303.0
306.0	306.0
313.0	302.0
315.0	295.0
310.0	297.0
327.0	297.0
332.0	300.0
330.0	307.0
342.0	302.0
347.0	299.0
312.0	314.0
311.0	320.0
309.0	327.0
316.0	325.0
318.0	319.0
327.0	320.0
320.0	330.0
319.0	336.0
307.0	333.0
308.0	341.0
313.0	343.0
317.0	340.0
318.0	354.0
317.0	345.0
323.0	344.0
298.0	333.0
297.0	339.0
297.0	345.0
302.0	348.0
301.0	354.0
308.0	352.0
306.0	359.0
313.0	356.0
311.0	362.0
320.0	368.0
322.0	364.0
315.0	366.0
324.0	359.0
328.0	364.0
318.0	374.0
320.0	379.0
325.0	386.0
330.0	385.0
326.0	380.0
331.0	374.0
325.0	374.0
315.0	377.0
314.0	382.0
309.0	387.0
315.0	388.0
335.0	362.0
336.0	354.0
332.0	348.0
341.0	351.0
346.0	359.0
341.0	369.0
345.0	380.0
342.0	375.0
346.0	371.0
348.0	376.0
345.0	366.0
351.0	381.0
357.0	395.0
355.0	401.0
349.0	402.0
346.0	399.0
339.0	400.0
342.0	395.0
345.0	391.0
352.0	392.0
353.0	387.0
359.0	389.0
362.0	393.0
365.0	398.0
371.0	399.0
366.0	388.0
363.0	384.0
371.0	384.0
371.0	378.0
361.0	379.0
357.0	384.0
356.0	379.0
362.0	358.0
371.0	357.0
377.0	354.0
376.0	346.0
382.0	329.0
367.0	328.0
363.0	323.0
363.0	334.0
374.0	336.0
370.0	332.0
383.0	339.0
381.0	343.0
359.0	346.0
346.0	333.0
351.0	342.0
339.0	340.0
328.0	342.0
335.0	337.0
326.0	348.0
334.0	342.0
329.0	337.0
331.0	332.0
334.0	317.0
340.0	314.0
347.0	312.0
358.0	297.0
358.0	292.0
363.0	301.0
357.0	304.0
360.0	307.0
377.0	294.0
387.0	306.0
394.0	296.0
399.0	298.0
391.0	316.0
386.0	319.0
384.0	324.0
332.0	322.0
338.0	324.0
344.0	324.0
350.0	322.0
357.0	322.0
360.0	317.0
363.0	313.0
370.0	313.0
277.0	333.0
283.0	330.0
291.0	343.0
285.0	340.0
285.0	346.0
278.0	351.0
273.0	356.0
266.0	355.0
265.0	349.0
274.0	344.0
276.0	339.0
280.0	345.0
269.0	339.0
265.0	335.0
264.0	342.0
270.0	365.0
263.0	364.0
268.0	374.0
268.0	380.0
264.0	383.0
279.0	368.0
280.0	363.0
284.0	371.0
289.0	355.0
290.0	361.0
295.0	363.0
300.0	366.0
286.0	377.0
288.0	383.0
292.0	379.0
290.0	372.0
286.0	366.0
307.0	371.0
298.0	388.0
297.0	381.0
296.0	369.0
297.0	375.0
302.0	373.0
303.0	379.0
309.0	381.0
309.0	376.0
325.0	353.0
330.0	353.0
331.0	359.0
277.0	381.0
272.0	383.0
284.0	391.0
280.0	394.0
284.0	397.0
283.0	402.0
278.0	404.0
288.0	404.0
300.0	392.0
295.0	396.0
294.0	402.0
303.0	397.0
298.0	400.0
294.0	408.0
288.0	415.0
292.0	413.0
307.0	409.0
307.0	416.0
300.0	425.0
306.0	425.0
295.0	422.0
299.0	419.0
292.0	428.0
288.0	425.0
282.0	424.0
273.0	413.0
278.0	417.0
278.0	411.0
277.0	422.0
285.0	435.0
299.0	435.0
295.0	439.0
302.0	440.0
288.0	445.0
273.0	389.0
268.0	388.0
274.0	395.0
273.0	401.0
263.0	392.0
268.0	404.0
267.0	399.0
274.0	408.0
262.0	412.0
311.0	394.0
320.0	391.0
320.0	398.0
330.0	395.0
333.0	400.0
310.0	405.0
327.0	400.0
330.0	406.0
326.0	408.0
324.0	414.0
315.0	407.0
315.0	402.0
321.0	404.0
313.0	426.0
315.0	421.0
320.0	410.0
315.0	414.0
320.0	417.0
326.0	419.0
332.0	419.0
334.0	409.0
336.0	404.0
339.0	409.0
343.0	410.0
348.0	406.0
341.0	416.0
338.0	421.0
332.0	424.0
351.0	418.0
347.0	414.0
351.0	410.0
354.0	406.0
355.0	421.0
350.0	423.0
359.0	427.0
367.0	407.0
373.0	404.0
377.0	414.0
374.0	419.0
373.0	409.0
379.0	409.0
377.0	391.0
380.0	395.0
376.0	398.0
378.0	404.0
381.0	382.0
353.0	362.0
351.0	357.0
353.0	353.0
348.0	346.0
351.0	335.0
357.0	340.0
364.0	341.0
361.0	409.0
360.0	404.0
359.0	351.0
374.0	318.0
381.0	318.0
431.0	299.0
419.0	303.0
424.0	300.0
429.0	304.0
437.0	303.0
436.0	297.0
441.0	297.0
456.0	316.0
440.0	309.0
453.0	299.0
448.0	297.0
432.0	293.0
446.0	307.0
446.0	319.0
452.0	327.0
456.0	323.0
447.0	324.0
452.0	320.0
452.0	312.0
459.0	335.0
452.0	339.0
455.0	344.0
454.0	350.0
453.0	357.0
460.0	364.0
443.0	369.0
447.0	366.0
433.0	360.0
430.0	354.0
433.0	366.0
437.0	372.0
418.0	370.0
419.0	375.0
413.0	371.0
414.0	365.0
416.0	360.0
415.0	355.0
414.0	350.0
421.0	359.0
420.0	353.0
422.0	346.0
429.0	346.0
426.0	343.0
416.0	345.0
411.0	342.0
414.0	331.0
409.0	331.0
404.0	329.0
407.0	324.0
402.0	321.0
410.0	320.0
407.0	315.0
415.0	315.0
411.0	311.0
415.0	308.0
421.0	308.0
428.0	310.0
429.0	321.0
408.0	305.0
434.0	319.0
433.0	313.0
436.0	324.0
438.0	329.0
445.0	336.0
450.0	332.0
447.0	341.0
444.0	347.0
419.0	326.0
420.0	333.0
426.0	333.0
433.0	333.0
430.0	338.0
434.0	350.0
435.0	339.0
441.0	342.0
440.0	335.0
440.0	350.0
444.0	355.0
444.0	361.0
438.0	360.0
427.0	366.0
435.0	378.0
420.0	381.0
423.0	386.0
425.0	392.0
421.0	396.0
415.0	392.0
419.0	389.0
431.0	394.0
435.0	389.0
439.0	384.0
447.0	379.0
444.0	387.0
449.0	391.0
445.0	395.0
445.0	401.0
450.0	402.0
459.0	386.0
460.0	391.0
456.0	395.0
451.0	396.0
455.0	401.0
460.0	410.0
461.0	398.0
460.0	404.0
451.0	408.0
450.0	413.0
440.0	415.0
455.0	413.0
459.0	416.0
455.0	419.0
452.0	431.0
452.0	438.0
449.0	443.0
455.0	454.0
455.0	459.0
461.0	460.0
461.0	454.0
455.0	448.0
448.0	455.0
449.0	449.0
443.0	452.0
431.0	438.0
420.0	446.0
414.0	444.0
409.0	442.0
396.0	432.0
411.0	438.0
406.0	437.0
416.0	438.0
401.0	435.0
410.0	447.0
404.0	447.0
398.0	445.0
395.0	451.0
401.0	451.0
409.0	454.0
415.0	450.0
415.0	456.0
411.0	461.0
422.0	457.0
426.0	448.0
432.0	447.0
427.0	435.0
421.0	437.0
423.0	442.0
402.0	430.0
408.0	428.0
404.0	425.0
412.0	433.0
413.0	427.0
417.0	432.0
417.0	421.0
370.0	430.0
370.0	436.0
364.0	432.0
358.0	437.0
364.0	438.0
353.0	439.0
352.0	434.0
348.0	437.0
347.0	443.0
348.0	429.0
344.0	425.0
341.0	430.0
337.0	435.0
320.0	427.0
328.0	437.0
332.0	432.0
333.0	439.0
338.0	443.0
328.0	444.0
322.0	443.0
317.0	445.0
322.0	448.0
322.0	434.0
313.0	442.0
312.0	436.0
308.0	441.0
401.0	314.0
395.0	321.0
394.0	328.0
399.0	333.0
394.0	339.0
389.0	343.0
387.0	334.0
398.0	344.0
406.0	340.0
404.0	345.0
404.0	351.0
398.0	350.0
404.0	356.0
404.0	362.0
409.0	359.0
403.0	367.0
401.0	373.0
395.0	374.0
389.0	375.0
377.0	365.0
381.0	369.0
382.0	362.0
386.0	366.0
383.0	351.0
385.0	346.0
390.0	350.0
393.0	360.0
387.0	361.0
392.0	365.0
388.0	356.0
394.0	353.0
398.0	362.0
406.0	378.0
410.0	384.0
395.0	391.0
363.0	363.0
358.0	364.0
355.0	369.0
350.0	366.0
351.0	373.0
357.0	374.0
364.0	374.0
372.0	365.0
376.0	379.0
392.0	395.0
385.0	391.0
385.0	385.0
390.0	389.0
391.0	384.0
384.0	406.0
388.0	402.0
394.0	401.0
400.0	401.0
410.0	403.0
404.0	410.0
410.0	408.0
380.0	418.0
383.0	413.0
378.0	423.0
415.0	405.0
415.0	411.0
421.0	409.0
414.0	416.0
417.0	339.0
433.0	473.0
434.0	467.0
436.0	477.0
445.0	470.0
448.0	480.0
447.0	475.0
451.0	470.0
456.0	470.0
341.0	472.0
315.0	466.0
316.0	459.0
312.0	456.0
315.0	450.0
310.0	446.0
324.0	454.0
321.0	460.0
321.0	467.0
326.0	468.0
334.0	459.0
333.0	453.0
351.0	467.0
355.0	480.0
350.0	481.0
345.0	483.0
359.0	475.0
362.0	480.0
370.0	472.0
373.0	477.0
365.0	466.0
370.0	457.0
367.0	452.0
358.0	451.0
360.0	456.0
371.0	447.0
371.0	483.0
366.0	485.0
370.0	489.0
376.0	487.0
386.0	488.0
376.0	471.0
386.0	468.0
380.0	476.0
381.0	444.0
388.0	417.0
391.0	463.0
394.0	478.0
391.0	489.0
395.0	485.0
388.0	476.0
384.0	480.0
381.0	469.0
383.0	473.0
403.0	468.0
401.0	463.0
389.0	451.0
417.0	477.0
399.0	480.0
406.0	479.0
403.0	475.0
405.0	484.0
400.0	487.0
399.0	492.0
413.0	487.0
416.0	483.0
422.0	483.0
424.0	476.0
423.0	468.0
427.0	482.0
430.0	477.0
426.0	488.0
404.0	490.0
409.0	489.0
438.0	482.0
442.0	488.0
433.0	487.0
451.0	488.0
453.0	482.0
458.0	480.0
458.0	486.0
438.0	456.0
438.0	462.0
446.0	462.0
432.0	461.0
414.0	471.0
414.0	466.0
420.0	464.0
427.0	456.0
443.0	447.0
406.0	459.0
400.0	457.0
396.0	461.0
382.0	459.0
386.0	455.0
378.0	448.0
382.0	451.0
365.0	444.0
441.0	402.0
430.0	403.0
435.0	406.0
430.0	410.0
425.0	413.0
420.0	415.0
423.0	420.0
430.0	452.0
433.0	456.0
437.0	449.0
436.0	443.0
438.0	438.0
443.0	441.0
429.0	443.0
423.0	425.0
427.0	429.0
430.0	417.0
428.0	422.0
432.0	432.0
431.0	426.0
422.0	431.0
418.0	427.0
434.0	422.0
436.0	417.0
436.0	427.0
441.0	429.0
446.0	431.0
444.0	412.0
439.0	421.0
451.0	422.0
449.0	418.0
444.0	418.0
443.0	424.0
448.0	426.0
455.0	425.0
410.0	424.0
410.0	420.0
404.0	415.0
403.0	420.0
384.0	421.0
392.0	422.0
392.0	440.0
392.0	435.0
376.0	429.0
375.0	434.0
396.0	419.0
357.0	490.0
341.0	478.0
339.0	485.0
332.0	485.0
328.0	490.0
326.0	485.0
320.0	478.0
328.0	474.0
331.0	470.0
320.0	484.0
311.0	484.0
306.0	485.0
316.0	488.0
298.0	491.0
272.0	419.0
269.0	424.0
264.0	423.0
274.0	426.0
275.0	432.0
270.0	431.0
285.0	441.0
294.0	445.0
305.0	447.0
295.0	451.0
302.0	472.0
305.0	463.0
299.0	467.0
295.0	470.0
294.0	480.0
299.0	483.0
287.0	487.0
293.0	486.0
282.0	488.0
271.0	493.0
266.0	485.0
268.0	480.0
267.0	491.0
276.0	489.0
271.0	486.0
278.0	484.0
285.0	475.0
282.0	481.0
282.0	470.0
274.0	472.0
271.0	476.0
271.0	466.0
266.0	465.0
269.0	460.0
275.0	462.0
285.0	455.0
284.0	450.0
286.0	466.0
267.0	448.0
268.0	441.0
276.0	441.0
278.0	447.0
273.0	446.0
271.0	451.0
278.0	453.0
303.0	413.0
298.0	413.0
299.0	407.0
341.0	467.0
346.0	463.0
102.0	139.0
106.0	133.0
99.0	130.0
94.0	136.0
96.0	144.0
89.0	148.0
84.0	154.0
92.0	158.0
87.0	164.0
80.0	161.0
88.0	171.0
83.0	178.0
78.0	170.0
96.0	166.0
96.0	174.0
91.0	180.0
87.0	185.0
80.0	187.0
87.0	192.0
88.0	199.0
95.0	196.0
94.0	189.0
99.0	183.0
105.0	177.0
103.0	169.0
104.0	160.0
107.0	154.0
98.0	152.0
105.0	146.0
112.0	158.0
117.0	162.0
130.0	156.0
127.0	148.0
130.0	142.0
143.0	146.0
139.0	167.0
134.0	162.0
151.0	142.0
160.0	141.0
166.0	127.0
173.0	127.0
175.0	121.0
165.0	119.0
156.0	108.0
156.0	116.0
149.0	110.0
146.0	117.0
137.0	114.0
131.0	119.0
124.0	121.0
122.0	129.0
115.0	127.0
106.0	124.0
106.0	117.0
114.0	119.0
123.0	114.0
113.0	111.0
105.0	109.0
98.0	113.0
97.0	121.0
88.0	123.0
89.0	131.0
90.0	115.0
92.0	106.0
103.0	102.0
84.0	108.0
113.0	102.0
121.0	99.0
121.0	107.0
130.0	106.0
130.0	98.0
137.0	103.0
144.0	96.0
142.0	109.0
147.0	103.0
154.0	98.0
165.0	111.0
169.0	103.0
177.0	101.0
175.0	108.0
172.0	115.0
182.0	115.0
183.0	105.0
190.0	102.0
188.0	110.0
193.0	115.0
187.0	122.0
198.0	120.0
203.0	113.0
196.0	107.0
208.0	108.0
204.0	100.0
213.0	101.0
214.0	110.0
217.0	118.0
207.0	118.0
204.0	124.0
198.0	136.0
206.0	130.0
213.0	124.0
182.0	136.0
181.0	127.0
186.0	141.0
166.0	157.0
165.0	148.0
217.0	159.0
225.0	152.0
228.0	146.0
215.0	139.0
241.0	156.0
239.0	162.0
232.0	160.0
237.0	173.0
234.0	180.0
226.0	180.0
223.0	186.0
190.0	183.0
175.0	195.0
167.0	203.0
167.0	197.0
157.0	184.0
149.0	186.0
154.0	172.0
136.0	181.0
130.0	178.0
150.0	130.0
141.0	130.0
109.0	184.0
102.0	190.0
102.0	199.0
109.0	200.0
103.0	207.0
94.0	204.0
91.0	212.0
98.0	213.0
105.0	215.0
100.0	221.0
109.0	222.0
105.0	229.0
98.0	231.0
93.0	227.0
92.0	220.0
84.0	217.0
86.0	226.0
80.0	230.0
86.0	205.0
117.0	204.0
117.0	222.0
113.0	227.0
113.0	234.0
106.0	238.0
101.0	244.0
97.0	238.0
89.0	235.0
81.0	237.0
85.0	242.0
81.0	248.0
88.0	249.0
92.0	244.0
95.0	251.0
90.0	257.0
83.0	256.0
97.0	258.0
108.0	244.0
109.0	251.0
128.0	230.0
141.0	236.0
151.0	225.0
159.0	227.0
166.0	231.0
179.0	230.0
155.0	212.0
162.0	216.0
102.0	250.0
104.0	255.0
103.0	263.0
95.0	266.0
87.0	264.0
81.0	270.0
79.0	263.0
88.0	271.0
83.0	276.0
89.0	281.0
95.0	275.0
100.0	271.0
107.0	273.0
110.0	266.0
103.0	278.0
98.0	282.0
96.0	288.0
89.0	289.0
80.0	283.0
79.0	289.0
84.0	294.0
75.0	294.0
81.0	300.0
85.0	307.0
89.0	299.0
96.0	296.0
103.0	293.0
104.0	285.0
101.0	303.0
94.0	306.0
107.0	300.0
114.0	300.0
121.0	309.0
123.0	302.0
137.0	306.0
135.0	312.0
99.0	311.0
107.0	308.0
105.0	315.0
98.0	319.0
108.0	321.0
122.0	282.0
127.0	276.0
132.0	259.0
137.0	254.0
140.0	258.0
148.0	279.0
152.0	284.0
156.0	288.0
157.0	279.0
143.0	276.0
179.0	261.0
174.0	275.0
178.0	280.0
167.0	296.0
162.0	293.0
171.0	303.0
178.0	293.0
188.0	300.0
183.0	311.0
174.0	322.0
149.0	216.0
146.0	209.0
194.0	206.0
191.0	215.0
185.0	230.0
195.0	239.0
207.0	229.0
213.0	234.0
215.0	229.0
212.0	223.0
205.0	217.0
221.0	210.0
222.0	201.0
227.0	205.0
227.0	192.0
180.0	202.0
190.0	170.0
152.0	178.0
213.0	244.0
221.0	243.0
219.0	248.0
225.0	253.0
231.0	254.0
240.0	261.0
238.0	241.0
209.0	270.0
196.0	266.0
159.0	265.0
164.0	260.0
175.0	254.0
134.0	265.0
125.0	264.0
190.0	277.0
191.0	285.0
196.0	314.0
203.0	313.0
198.0	308.0
194.0	303.0
218.0	285.0
223.0	274.0
221.0	297.0
229.0	310.0
216.0	315.0
238.0	288.0
238.0	302.0
242.0	314.0
218.0	254.0
214.0	259.0
236.0	147.0
243.0	169.0
249.0	176.0
255.0	181.0
242.0	199.0
262.0	198.0
259.0	210.0
254.0	206.0
255.0	200.0
248.0	203.0
250.0	196.0
275.0	206.0
283.0	202.0
289.0	218.0
284.0	224.0
298.0	220.0
296.0	234.0
296.0	241.0
303.0	241.0
311.0	243.0
301.0	253.0
290.0	259.0
285.0	264.0
262.0	264.0
254.0	263.0
244.0	242.0
248.0	232.0
267.0	225.0
258.0	241.0
266.0	241.0
268.0	235.0
272.0	230.0
258.0	229.0
263.0	215.0
262.0	222.0
255.0	223.0
254.0	160.0
256.0	152.0
268.0	157.0
261.0	167.0
263.0	139.0
250.0	139.0
253.0	128.0
252.0	120.0
250.0	133.0
248.0	114.0
225.0	116.0
224.0	109.0
233.0	115.0
228.0	122.0
240.0	109.0
242.0	118.0
232.0	106.0
240.0	100.0
246.0	105.0
251.0	101.0
259.0	103.0
254.0	110.0
263.0	110.0
259.0	116.0
265.0	118.0
273.0	111.0
267.0	104.0
277.0	98.0
279.0	108.0
280.0	117.0
273.0	118.0
285.0	113.0
273.0	103.0
292.0	110.0
295.0	118.0
288.0	121.0
286.0	176.0
292.0	176.0
296.0	187.0
286.0	105.0
286.0	97.0
292.0	97.0
297.0	104.0
300.0	112.0
303.0	120.0
309.0	114.0
306.0	106.0
307.0	99.0
300.0	97.0
313.0	104.0
321.0	106.0
315.0	112.0
322.0	116.0
306.0	128.0
313.0	122.0
323.0	140.0
328.0	136.0
328.0	128.0
329.0	121.0
330.0	112.0
330.0	104.0
309.0	144.0
303.0	149.0
311.0	151.0
313.0	157.0
318.0	165.0
317.0	172.0
329.0	177.0
331.0	169.0
337.0	175.0
307.0	190.0
327.0	155.0
330.0	150.0
302.0	165.0
282.0	249.0
344.0	153.0
348.0	136.0
360.0	149.0
320.0	178.0
318.0	184.0
336.0	196.0
353.0	190.0
356.0	178.0
350.0	204.0
356.0	219.0
357.0	212.0
358.0	206.0
313.0	200.0
309.0	205.0
306.0	197.0
341.0	229.0
343.0	235.0
337.0	234.0
346.0	240.0
332.0	240.0
327.0	195.0
338.0	119.0
341.0	113.0
337.0	108.0
338.0	100.0
345.0	105.0
350.0	128.0
353.0	121.0
356.0	114.0
348.0	116.0
352.0	109.0
359.0	106.0
364.0	113.0
300.0	192.0
299.0	198.0
366.0	224.0
362.0	230.0
367.0	237.0
369.0	149.0
372.0	144.0
380.0	145.0
374.0	130.0
372.0	112.0
380.0	113.0
361.0	120.0
368.0	119.0
375.0	121.0
383.0	119.0
389.0	116.0
387.0	108.0
378.0	106.0
368.0	106.0
369.0	169.0
375.0	165.0
387.0	159.0
388.0	171.0
386.0	178.0
373.0	183.0
366.0	186.0
321.0	233.0
318.0	239.0
319.0	253.0
331.0	253.0
334.0	259.0
337.0	264.0
345.0	264.0
353.0	264.0
361.0	264.0
360.0	242.0
367.0	243.0
364.0	247.0
374.0	242.0
348.0	231.0
355.0	232.0
353.0	239.0
326.0	257.0
308.0	263.0
302.0	265.0
394.0	176.0
398.0	162.0
400.0	154.0
402.0	148.0
396.0	141.0
391.0	136.0
401.0	133.0
396.0	118.0
395.0	110.0
401.0	104.0
402.0	115.0
408.0	110.0
408.0	119.0
416.0	116.0
416.0	107.0
409.0	103.0
424.0	105.0
423.0	112.0
424.0	121.0
423.0	129.0
430.0	117.0
430.0	110.0
431.0	102.0
437.0	108.0
439.0	117.0
445.0	111.0
453.0	117.0
453.0	107.0
460.0	112.0
461.0	120.0
466.0	114.0
463.0	105.0
470.0	101.0
472.0	110.0
474.0	117.0
480.0	111.0
483.0	118.0
486.0	128.0
491.0	119.0
489.0	112.0
486.0	104.0
479.0	101.0
441.0	102.0
438.0	136.0
437.0	143.0
422.0	145.0
416.0	141.0
408.0	145.0
413.0	156.0
376.0	151.0
388.0	204.0
386.0	218.0
390.0	224.0
381.0	232.0
387.0	232.0
386.0	245.0
401.0	239.0
407.0	236.0
414.0	233.0
420.0	237.0
402.0	223.0
407.0	215.0
410.0	221.0
407.0	228.0
416.0	218.0
418.0	213.0
417.0	206.0
425.0	210.0
424.0	217.0
410.0	204.0
404.0	202.0
396.0	203.0
404.0	190.0
403.0	184.0
415.0	179.0
411.0	186.0
431.0	166.0
443.0	155.0
431.0	183.0
435.0	179.0
438.0	186.0
440.0	200.0
440.0	206.0
432.0	214.0
437.0	194.0
443.0	191.0
447.0	198.0
453.0	184.0
460.0	186.0
456.0	192.0
473.0	207.0
484.0	197.0
478.0	202.0
463.0	173.0
452.0	166.0
465.0	158.0
466.0	137.0
476.0	138.0
426.0	234.0
427.0	240.0
407.0	250.0
403.0	254.0
388.0	256.0
440.0	240.0
434.0	235.0
447.0	234.0
462.0	235.0
469.0	233.0
465.0	246.0
448.0	256.0
454.0	253.0
443.0	250.0
453.0	267.0
431.0	264.0
427.0	258.0
433.0	259.0
430.0	250.0
393.0	243.0
425.0	189.0
416.0	192.0
455.0	224.0
452.0	204.0
456.0	199.0
467.0	207.0
462.0	202.0
462.0	221.0
471.0	220.0
473.0	214.0
480.0	216.0
485.0	223.0
489.0	218.0
491.0	227.0
509.0	238.0
514.0	234.0
519.0	227.0
500.0	246.0
498.0	251.0
484.0	254.0
485.0	248.0
477.0	256.0
467.0	257.0
453.0	241.0
450.0	248.0
480.0	183.0
486.0	181.0
490.0	173.0
487.0	156.0
495.0	158.0
514.0	153.0
508.0	151.0
509.0	158.0
504.0	170.0
521.0	164.0
520.0	171.0
512.0	171.0
518.0	184.0
537.0	193.0
545.0	196.0
525.0	204.0
511.0	204.0
499.0	202.0
517.0	206.0
518.0	214.0
526.0	213.0
504.0	226.0
497.0	167.0
519.0	140.0
509.0	130.0
500.0	122.0
497.0	114.0
502.0	107.0
507.0	114.0
517.0	124.0
518.0	114.0
525.0	118.0
533.0	124.0
532.0	116.0
539.0	119.0
540.0	128.0
540.0	137.0
536.0	151.0
545.0	153.0
541.0	165.0
546.0	162.0
553.0	167.0
548.0	123.0
547.0	114.0
541.0	111.0
533.0	107.0
524.0	110.0
510.0	109.0
517.0	105.0
541.0	103.0
549.0	107.0
556.0	111.0
556.0	118.0
494.0	105.0
495.0	187.0
528.0	235.0
529.0	254.0
541.0	250.0
546.0	254.0
542.0	261.0
522.0	247.0
528.0	247.0
536.0	235.0
542.0	236.0
553.0	241.0
549.0	261.0
546.0	268.0
569.0	251.0
569.0	238.0
574.0	234.0
573.0	246.0
578.0	251.0
559.0	257.0
566.0	257.0
582.0	258.0
577.0	264.0
569.0	264.0
555.0	263.0
562.0	264.0
548.0	247.0
550.0	215.0
545.0	210.0
543.0	180.0
549.0	183.0
572.0	149.0
579.0	145.0
596.0	152.0
593.0	136.0
585.0	123.0
576.0	120.0
569.0	118.0
562.0	121.0
568.0	126.0
561.0	129.0
564.0	114.0
564.0	105.0
576.0	104.0
576.0	113.0
571.0	109.0
583.0	107.0
583.0	115.0
590.0	109.0
591.0	117.0
589.0	101.0
597.0	104.0
598.0	112.0
599.0	121.0
605.0	117.0
603.0	107.0
610.0	111.0
613.0	118.0
619.0	112.0
620.0	105.0
613.0	104.0
626.0	109.0
620.0	120.0
613.0	126.0
606.0	125.0
599.0	130.0
602.0	145.0
610.0	142.0
615.0	135.0
620.0	142.0
615.0	149.0
622.0	129.0
626.0	136.0
628.0	122.0
627.0	144.0
626.0	152.0
626.0	160.0
619.0	157.0
620.0	165.0
612.0	161.0
604.0	157.0
580.0	152.0
575.0	158.0
581.0	176.0
585.0	170.0
577.0	167.0
590.0	161.0
583.0	160.0
598.0	162.0
595.0	170.0
599.0	179.0
559.0	162.0
550.0	176.0
560.0	198.0
558.0	192.0
568.0	215.0
566.0	210.0
572.0	209.0
564.0	204.0
557.0	205.0
552.0	199.0
579.0	221.0
584.0	227.0
596.0	220.0
602.0	214.0
612.0	207.0
617.0	202.0
612.0	192.0
613.0	185.0
618.0	179.0
612.0	171.0
623.0	172.0
626.0	180.0
620.0	187.0
623.0	196.0
628.0	188.0
631.0	196.0
627.0	204.0
621.0	210.0
615.0	216.0
624.0	218.0
619.0	226.0
611.0	225.0
614.0	232.0
617.0	239.0
622.0	233.0
626.0	226.0
629.0	211.0
632.0	226.0
630.0	234.0
625.0	240.0
622.0	247.0
615.0	247.0
619.0	254.0
611.0	254.0
598.0	247.0
594.0	241.0
599.0	232.0
592.0	235.0
586.0	240.0
593.0	253.0
602.0	253.0
571.0	272.0
559.0	270.0
553.0	268.0
550.0	275.0
538.0	270.0
536.0	264.0
535.0	286.0
532.0	293.0
526.0	300.0
537.0	299.0
546.0	291.0
567.0	287.0
573.0	284.0
578.0	289.0
591.0	291.0
591.0	304.0
599.0	295.0
590.0	273.0
595.0	276.0
609.0	274.0
611.0	265.0
615.0	261.0
621.0	266.0
619.0	273.0
615.0	278.0
613.0	285.0
624.0	259.0
627.0	252.0
631.0	244.0
632.0	259.0
628.0	265.0
627.0	272.0
631.0	281.0
623.0	278.0
621.0	288.0
627.0	295.0
624.0	302.0
610.0	297.0
608.0	281.0
606.0	293.0
607.0	287.0
614.0	292.0
619.0	296.0
629.0	288.0
598.0	288.0
601.0	282.0
592.0	283.0
582.0	282.0
577.0	296.0
581.0	303.0
577.0	309.0
582.0	323.0
571.0	323.0
560.0	298.0
553.0	293.0
558.0	288.0
550.0	286.0
553.0	301.0
543.0	303.0
548.0	317.0
531.0	307.0
528.0	313.0
520.0	313.0
515.0	321.0
524.0	318.0
535.0	313.0
509.0	312.0
516.0	315.0
503.0	312.0
504.0	306.0
506.0	300.0
513.0	300.0
516.0	284.0
522.0	285.0
512.0	290.0
549.0	305.0
544.0	310.0
561.0	311.0
512.0	253.0
516.0	260.0
509.0	260.0
498.0	268.0
487.0	268.0
493.0	264.0
476.0	273.0
469.0	275.0
465.0	270.0
470.0	295.0
476.0	295.0
472.0	290.0
466.0	288.0
487.0	287.0
487.0	293.0
496.0	291.0
500.0	285.0
480.0	303.0
473.0	307.0
464.0	307.0
468.0	311.0
464.0	300.0
469.0	303.0
479.0	267.0
474.0	262.0
553.0	229.0
557.0	234.0
572.0	220.0
568.0	227.0
565.0	232.0
533.0	215.0
543.0	216.0
544.0	222.0
539.0	228.0
536.0	221.0
533.0	229.0
610.0	200.0
524.0	280.0
492.0	322.0
487.0	327.0
481.0	336.0
474.0	327.0
467.0	325.0
464.0	336.0
470.0	322.0
467.0	318.0
473.0	316.0
476.0	312.0
481.0	316.0
505.0	323.0
506.0	329.0
513.0	332.0
486.0	332.0
493.0	334.0
524.0	329.0
527.0	324.0
531.0	319.0
543.0	330.0
546.0	336.0
549.0	329.0
539.0	337.0
533.0	336.0
556.0	330.0
569.0	329.0
560.0	336.0
557.0	342.0
568.0	336.0
572.0	341.0
568.0	347.0
564.0	353.0
557.0	354.0
550.0	355.0
547.0	349.0
560.0	359.0
575.0	348.0
582.0	349.0
579.0	337.0
586.0	335.0
587.0	340.0
589.0	346.0
598.0	309.0
604.0	311.0
614.0	304.0
612.0	311.0
612.0	318.0
606.0	319.0
599.0	332.0
603.0	326.0
604.0	333.0
592.0	312.0
590.0	320.0
584.0	316.0
585.0	288.0
619.0	308.0
627.0	309.0
624.0	314.0
619.0	319.0
615.0	325.0
612.0	333.0
619.0	330.0
616.0	338.0
614.0	344.0
623.0	339.0
627.0	332.0
626.0	323.0
629.0	339.0
621.0	346.0
628.0	346.0
621.0	353.0
617.0	358.0
614.0	351.0
607.0	349.0
601.0	347.0
596.0	350.0
593.0	371.0
587.0	367.0
582.0	367.0
579.0	361.0
577.0	354.0
574.0	359.0
568.0	370.0
544.0	370.0
533.0	360.0
531.0	353.0
518.0	348.0
510.0	351.0
507.0	341.0
514.0	338.0
519.0	335.0
479.0	353.0
486.0	355.0
489.0	338.0
489.0	344.0
490.0	350.0
495.0	347.0
501.0	344.0
506.0	347.0
500.0	350.0
505.0	354.0
502.0	364.0
501.0	370.0
495.0	372.0
489.0	371.0
465.0	362.0
465.0	355.0
500.0	376.0
505.0	380.0
505.0	374.0
507.0	369.0
515.0	362.0
519.0	366.0
511.0	365.0
507.0	360.0
511.0	375.0
523.0	381.0
522.0	374.0
532.0	366.0
528.0	377.0
530.0	382.0
528.0	371.0
541.0	363.0
538.0	369.0
536.0	381.0
534.0	373.0
540.0	376.0
546.0	378.0
534.0	387.0
524.0	392.0
532.0	392.0
528.0	396.0
532.0	407.0
531.0	401.0
553.0	379.0
557.0	375.0
550.0	374.0
546.0	389.0
550.0	396.0
564.0	384.0
569.0	382.0
573.0	376.0
576.0	370.0
557.0	367.0
562.0	371.0
600.0	379.0
597.0	385.0
589.0	386.0
582.0	387.0
587.0	391.0
584.0	398.0
592.0	397.0
588.0	403.0
596.0	404.0
594.0	415.0
592.0	409.0
601.0	392.0
608.0	393.0
601.0	362.0
607.0	363.0
613.0	363.0
620.0	363.0
616.0	369.0
615.0	376.0
607.0	370.0
600.0	370.0
588.0	374.0
553.0	391.0
559.0	388.0
548.0	383.0
554.0	386.0
536.0	402.0
537.0	396.0
543.0	395.0
542.0	402.0
545.0	408.0
534.0	413.0
541.0	413.0
538.0	418.0
518.0	404.0
526.0	406.0
510.0	404.0
508.0	398.0
508.0	392.0
501.0	391.0
486.0	395.0
481.0	393.0
480.0	387.0
484.0	379.0
485.0	387.0
489.0	391.0
495.0	388.0
478.0	374.0
472.0	378.0
475.0	384.0
475.0	390.0
465.0	387.0
470.0	390.0
466.0	394.0
465.0	402.0
470.0	399.0
475.0	395.0
479.0	399.0
485.0	403.0
490.0	399.0
496.0	401.0
498.0	406.0
504.0	403.0
503.0	410.0
501.0	415.0
498.0	422.0
493.0	424.0
490.0	412.0
485.0	416.0
482.0	423.0
477.0	423.0
476.0	429.0
471.0	425.0
467.0	421.0
465.0	427.0
464.0	432.0
468.0	437.0
469.0	413.0
475.0	414.0
475.0	403.0
480.0	405.0
475.0	361.0
488.0	364.0
462.0	382.0
625.0	358.0
629.0	353.0
625.0	366.0
624.0	374.0
611.0	386.0
609.0	400.0
611.0	407.0
617.0	403.0
615.0	397.0
616.0	390.0
622.0	393.0
623.0	400.0
624.0	408.0
618.0	411.0
614.0	415.0
617.0	422.0
610.0	422.0
624.0	417.0
620.0	383.0
628.0	382.0
629.0	391.0
629.0	404.0
629.0	414.0
624.0	426.0
618.0	430.0
612.0	429.0
607.0	436.0
614.0	436.0
623.0	436.0
610.0	443.0
603.0	442.0
597.0	440.0
597.0	428.0
603.0	420.0
597.0	421.0
591.0	423.0
585.0	432.0
568.0	435.0
565.0	430.0
564.0	424.0
571.0	428.0
569.0	422.0
573.0	415.0
575.0	410.0
553.0	420.0
548.0	422.0
545.0	417.0
549.0	414.0
551.0	407.0
555.0	401.0
558.0	396.0
529.0	439.0
524.0	437.0
528.0	446.0
524.0	450.0
521.0	455.0
527.0	466.0
528.0	478.0
522.0	479.0
524.0	473.0
498.0	487.0
499.0	498.0
502.0	503.0
524.0	503.0
523.0	509.0
544.0	482.0
540.0	476.0
551.0	482.0
552.0	488.0
559.0	490.0
564.0	486.0
568.0	482.0
565.0	473.0
559.0	472.0
553.0	472.0
557.0	466.0
563.0	468.0
570.0	472.0
541.0	469.0
540.0	462.0
546.0	459.0
551.0	454.0
554.0	449.0
559.0	455.0
564.0	453.0
569.0	450.0
568.0	456.0
563.0	461.0
574.0	455.0
576.0	450.0
557.0	461.0
551.0	460.0
556.0	415.0
559.0	406.0
561.0	402.0
565.0	398.0
574.0	405.0
580.0	414.0
566.0	405.0
569.0	410.0
562.0	411.0
590.0	429.0
575.0	438.0
580.0	435.0
583.0	440.0
592.0	435.0
588.0	440.0
592.0	446.0
606.0	449.0
612.0	450.0
614.0	459.0
617.0	442.0
618.0	449.0
624.0	443.0
626.0	449.0
626.0	455.0
620.0	456.0
607.0	457.0
586.0	461.0
582.0	467.0
576.0	474.0
582.0	472.0
590.0	473.0
580.0	480.0
597.0	475.0
590.0	482.0
565.0	446.0
558.0	442.0
559.0	431.0
552.0	427.0
552.0	433.0
592.0	462.0
596.0	458.0
601.0	454.0
603.0	461.0
609.0	464.0
610.0	472.0
605.0	476.0
596.0	484.0
603.0	493.0
602.0	487.0
601.0	481.0
607.0	483.0
612.0	478.0
614.0	467.0
619.0	463.0
623.0	468.0
623.0	481.0
614.0	485.0
619.0	474.0
597.0	492.0
560.0	503.0
559.0	496.0
565.0	497.0
573.0	498.0
574.0	491.0
579.0	488.0
585.0	485.0
568.0	491.0
574.0	483.0
504.0	421.0
498.0	428.0
498.0	434.0
503.0	431.0
508.0	428.0
487.0	426.0
486.0	433.0
464.0	445.0
468.0	461.0
467.0	456.0
474.0	457.0
479.0	451.0
480.0	456.0
485.0	453.0
487.0	459.0
498.0	458.0
503.0	454.0
503.0	441.0
510.0	454.0
497.0	463.0
494.0	468.0
492.0	462.0
488.0	466.0
475.0	477.0
480.0	480.0
480.0	486.0
474.0	483.0
474.0	489.0
480.0	493.0
478.0	498.0
471.0	500.0
477.0	503.0
485.0	483.0
489.0	479.0
491.0	487.0
500.0	471.0
502.0	466.0
505.0	470.0
511.0	472.0
509.0	465.0
514.0	468.0
507.0	448.0
513.0	447.0
518.0	434.0
518.0	429.0
509.0	423.0
511.0	418.0
512.0	413.0
518.0	422.0
521.0	411.0
515.0	409.0
535.0	422.0
530.0	418.0
524.0	420.0
525.0	415.0
524.0	432.0
524.0	427.0
541.0	441.0
535.0	443.0
536.0	429.0
552.0	440.0
546.0	438.0
546.0	429.0
541.0	434.0
542.0	423.0
539.0	448.0
540.0	455.0
529.0	454.0
535.0	454.0
529.0	461.0
535.0	460.0
579.0	461.0
519.0	446.0
522.0	442.0
516.0	440.0
510.0	441.0
509.0	460.0
517.0	463.0
516.0	457.0
518.0	474.0
506.0	481.0
513.0	479.0
509.0	492.0
515.0	490.0
511.0	486.0
521.0	491.0
480.0	473.0
478.0	467.0
472.0	466.0
483.0	470.0
485.0	439.0
480.0	443.0
492.0	437.0
490.0	443.0
475.0	441.0
470.0	444.0
475.0	446.0
464.0	479.0
469.0	488.0
463.0	492.0
464.0	498.0
465.0	505.0
459.0	509.0
465.0	511.0
475.0	516.0
472.0	521.0
490.0	495.0
486.0	491.0
490.0	500.0
483.0	505.0
482.0	526.0
485.0	520.0
517.0	510.0
530.0	507.0
511.0	517.0
504.0	514.0
499.0	518.0
499.0	511.0
495.0	501.0
496.0	506.0
489.0	506.0
488.0	514.0
502.0	527.0
487.0	538.0
484.0	544.0
478.0	544.0
483.0	550.0
467.0	539.0
464.0	534.0
464.0	528.0
458.0	531.0
464.0	521.0
469.0	526.0
471.0	532.0
475.0	538.0
481.0	537.0
486.0	532.0
489.0	526.0
494.0	530.0
500.0	533.0
507.0	534.0
514.0	532.0
518.0	526.0
504.0	548.0
496.0	550.0
489.0	551.0
480.0	555.0
494.0	556.0
554.0	495.0
554.0	502.0
548.0	500.0
535.0	512.0
548.0	513.0
545.0	520.0
549.0	527.0
551.0	520.0
556.0	520.0
562.0	529.0
558.0	534.0
571.0	535.0
579.0	536.0
575.0	541.0
568.0	541.0
569.0	547.0
568.0	553.0
563.0	547.0
559.0	554.0
517.0	519.0
536.0	523.0
534.0	518.0
529.0	520.0
528.0	525.0
532.0	530.0
522.0	522.0
526.0	536.0
526.0	542.0
518.0	542.0
527.0	551.0
534.0	491.0
554.0	514.0
563.0	515.0
570.0	509.0
568.0	502.0
573.0	524.0
580.0	513.0
577.0	507.0
580.0	500.0
586.0	501.0
576.0	520.0
582.0	520.0
591.0	519.0
587.0	524.0
581.0	528.0
603.0	502.0
603.0	523.0
592.0	534.0
598.0	530.0
592.0	512.0
609.0	490.0
610.0	503.0
612.0	497.0
618.0	491.0
617.0	501.0
614.0	507.0
622.0	506.0
624.0	497.0
625.0	489.0
627.0	508.0
621.0	513.0
610.0	523.0
614.0	528.0
622.0	526.0
628.0	531.0
620.0	532.0
621.0	538.0
614.0	543.0
613.0	535.0
607.0	538.0
601.0	546.0
595.0	541.0
595.0	547.0
584.0	548.0
606.0	552.0
608.0	546.0
613.0	552.0
622.0	546.0
619.0	551.0
625.0	553.0
630.0	546.0
629.0	539.0
627.0	462.0
504.0	508.0
563.0	522.0
596.0	552.0
593.0	559.0
597.0	571.0
593.0	578.0
571.0	588.0
557.0	593.0
560.0	580.0
560.0	573.0
554.0	569.0
546.0	569.0
560.0	565.0
548.0	556.0
545.0	550.0
532.0	564.0
533.0	571.0
534.0	579.0
527.0	576.0
521.0	573.0
508.0	580.0
493.0	585.0
490.0	591.0
484.0	585.0
480.0	579.0
477.0	569.0
472.0	570.0
474.0	562.0
486.0	557.0
489.0	563.0
489.0	570.0
485.0	575.0
493.0	574.0
503.0	567.0
508.0	552.0
511.0	546.0
515.0	551.0
500.0	539.0
506.0	541.0
532.0	556.0
533.0	549.0
533.0	543.0
538.0	547.0
540.0	554.0
537.0	559.0
543.0	562.0
555.0	559.0
565.0	569.0
567.0	563.0
574.0	566.0
579.0	572.0
585.0	577.0
581.0	581.0
590.0	584.0
583.0	567.0
583.0	593.0
605.0	561.0
610.0	565.0
611.0	558.0
613.0	572.0
618.0	566.0
620.0	558.0
628.0	559.0
625.0	567.0
620.0	573.0
621.0	581.0
616.0	579.0
610.0	579.0
617.0	586.0
613.0	592.0
622.0	591.0
627.0	586.0
626.0	577.0
630.0	571.0
610.0	601.0
617.0	599.0
624.0	601.0
614.0	608.0
623.0	609.0
619.0	615.0
598.0	601.0
589.0	595.0
584.0	601.0
587.0	607.0
592.0	602.0
574.0	581.0
538.0	584.0
529.0	588.0
522.0	586.0
517.0	595.0
532.0	594.0
544.0	601.0
508.0	587.0
487.0	597.0
465.0	595.0
470.0	602.0
462.0	607.0
463.0	613.0
477.0	603.0
487.0	610.0
506.0	600.0
512.0	601.0
514.0	607.0
511.0	595.0
517.0	562.0
468.0	561.0
461.0	552.0
470.0	549.0
521.0	610.0
526.0	615.0
530.0	609.0
533.0	615.0
530.0	620.0
525.0	624.0
522.0	630.0
528.0	630.0
533.0	626.0
537.0	630.0
533.0	636.0
524.0	636.0
516.0	636.0
514.0	628.0
517.0	623.0
521.0	556.0
483.0	569.0
496.0	566.0
496.0	580.0
538.0	602.0
537.0	608.0
544.0	607.0
551.0	605.0
556.0	609.0
549.0	612.0
541.0	613.0
544.0	623.0
548.0	619.0
545.0	629.0
555.0	622.0
563.0	615.0
568.0	611.0
577.0	597.0
578.0	606.0
576.0	611.0
564.0	587.0
564.0	593.0
565.0	601.0
602.0	588.0
515.0	613.0
502.0	624.0
496.0	621.0
492.0	615.0
505.0	618.0
508.0	623.0
501.0	608.0
507.0	606.0
508.0	612.0
562.0	621.0
568.0	620.0
580.0	616.0
576.0	622.0
569.0	626.0
577.0	629.0
582.0	624.0
586.0	618.0
589.0	624.0
595.0	620.0
597.0	614.0
607.0	608.0
629.0	596.0
591.0	614.0
604.0	613.0
604.0	620.0
611.0	616.0
611.0	624.0
603.0	627.0
594.0	627.0
599.0	633.0
611.0	631.0
616.0	621.0
617.0	629.0
624.0	619.0
629.0	613.0
623.0	626.0
606.0	634.0
592.0	634.0
586.0	630.0
583.0	635.0
569.0	634.0
553.0	628.0
563.0	631.0
557.0	634.0
547.0	636.0
539.0	637.0
535.0	643.0
527.0	643.0
543.0	643.0
552.0	641.0
576.0	637.0
596.0	641.0
604.0	640.0
470.0	590.0
473.0	596.0
482.0	623.0
442.0	615.0
435.0	610.0
433.0	617.0
422.0	606.0
433.0	596.0
440.0	595.0
448.0	604.0
452.0	598.0
444.0	599.0
445.0	592.0
459.0	597.0
457.0	586.0
461.0	581.0
457.0	558.0
450.0	557.0
454.0	562.0
463.0	561.0
457.0	537.0
461.0	541.0
465.0	547.0
450.0	532.0
445.0	528.0
436.0	525.0
434.0	532.0
432.0	537.0
414.0	541.0
413.0	532.0
424.0	528.0
425.0	522.0
416.0	527.0
415.0	519.0
408.0	518.0
407.0	533.0
397.0	528.0
392.0	512.0
391.0	526.0
396.0	537.0
402.0	546.0
408.0	552.0
412.0	560.0
415.0	566.0
418.0	561.0
414.0	554.0
409.0	538.0
408.0	545.0
415.0	548.0
423.0	548.0
427.0	542.0
433.0	544.0
431.0	549.0
428.0	552.0
426.0	558.0
434.0	555.0
441.0	554.0
439.0	536.0
439.0	542.0
445.0	541.0
450.0	546.0
459.0	620.0
457.0	603.0
454.0	608.0
456.0	614.0
449.0	611.0
481.0	609.0
475.0	611.0
477.0	618.0
472.0	623.0
477.0	627.0
485.0	632.0
491.0	627.0
497.0	630.0
506.0	630.0
492.0	636.0
502.0	635.0
509.0	637.0
497.0	641.0
489.0	641.0
482.0	638.0
477.0	634.0
471.0	631.0
415.0	494.0
452.0	495.0
451.0	501.0
451.0	507.0
455.0	505.0
454.0	512.0
450.0	517.0
447.0	512.0
439.0	515.0
442.0	523.0
437.0	519.0
444.0	517.0
433.0	516.0
446.0	505.0
441.0	503.0
438.0	506.0
434.0	497.0
440.0	496.0
437.0	491.0
413.0	501.0
420.0	516.0
427.0	616.0
420.0	612.0
415.0	619.0
423.0	625.0
439.0	621.0
446.0	625.0
448.0	618.0
453.0	623.0
458.0	627.0
452.0	631.0
465.0	622.0
465.0	630.0
458.0	635.0
446.0	635.0
439.0	633.0
439.0	627.0
405.0	628.0
412.0	625.0
418.0	627.0
420.0	633.0
413.0	632.0
401.0	615.0
396.0	618.0
390.0	619.0
383.0	615.0
388.0	628.0
396.0	625.0
399.0	632.0
389.0	606.0
390.0	599.0
400.0	593.0
396.0	588.0
399.0	582.0
407.0	583.0
414.0	583.0
413.0	596.0
415.0	604.0
426.0	595.0
424.0	601.0
396.0	569.0
391.0	574.0
381.0	578.0
376.0	581.0
377.0	587.0
371.0	590.0
338.0	572.0
333.0	578.0
335.0	584.0
328.0	586.0
322.0	589.0
317.0	593.0
316.0	586.0
317.0	577.0
318.0	571.0
327.0	553.0
331.0	558.0
331.0	566.0
336.0	563.0
334.0	553.0
334.0	542.0
326.0	547.0
328.0	541.0
330.0	535.0
325.0	531.0
320.0	533.0
316.0	537.0
331.0	529.0
338.0	530.0
340.0	524.0
343.0	519.0
347.0	523.0
345.0	529.0
342.0	535.0
348.0	535.0
346.0	541.0
340.0	542.0
337.0	548.0
343.0	552.0
345.0	558.0
350.0	557.0
350.0	549.0
356.0	549.0
358.0	540.0
353.0	537.0
356.0	529.0
362.0	527.0
369.0	537.0
371.0	531.0
369.0	526.0
365.0	532.0
375.0	526.0
378.0	532.0
384.0	543.0
379.0	548.0
373.0	550.0
367.0	548.0
370.0	555.0
389.0	554.0
382.0	565.0
384.0	572.0
384.0	585.0
395.0	557.0
395.0	564.0
402.0	553.0
407.0	558.0
401.0	560.0
386.0	537.0
391.0	539.0
425.0	517.0
425.0	504.0
409.0	495.0
389.0	497.0
380.0	497.0
379.0	503.0
389.0	506.0
395.0	508.0
396.0	516.0
384.0	517.0
391.0	518.0
396.0	522.0
377.0	517.0
372.0	514.0
368.0	508.0
369.0	502.0
363.0	510.0
366.0	514.0
360.0	515.0
380.0	512.0
375.0	509.0
382.0	507.0
367.0	495.0
374.0	493.0
374.0	499.0
397.0	498.0
403.0	495.0
402.0	501.0
398.0	504.0
407.0	501.0
403.0	507.0
399.0	511.0
413.0	514.0
418.0	505.0
416.0	510.0
407.0	511.0
419.0	500.0
421.0	493.0
425.0	497.0
419.0	488.0
423.0	510.0
429.0	513.0
443.0	566.0
438.0	559.0
438.0	565.0
432.0	561.0
403.0	572.0
410.0	572.0
418.0	572.0
419.0	578.0
413.0	577.0
427.0	579.0
430.0	585.0
428.0	568.0
421.0	567.0
425.0	563.0
435.0	581.0
440.0	577.0
432.0	575.0
447.0	578.0
428.0	622.0
432.0	625.0
432.0	632.0
428.0	629.0
426.0	637.0
404.0	636.0
411.0	638.0
418.0	641.0
404.0	643.0
397.0	639.0
387.0	637.0
393.0	634.0
382.0	628.0
382.0	635.0
375.0	638.0
375.0	618.0
376.0	624.0
376.0	631.0
368.0	614.0
359.0	617.0
357.0	623.0
364.0	621.0
370.0	603.0
364.0	605.0
352.0	604.0
347.0	600.0
346.0	582.0
348.0	588.0
354.0	597.0
358.0	607.0
359.0	601.0
358.0	592.0
366.0	592.0
366.0	585.0
344.0	572.0
285.0	494.0
307.0	491.0
309.0	502.0
310.0	508.0
321.0	507.0
349.0	577.0
360.0	587.0
362.0	580.0
355.0	579.0
353.0	584.0
330.0	615.0
342.0	610.0
345.0	615.0
335.0	610.0
343.0	629.0
349.0	627.0
354.0	631.0
361.0	628.0
370.0	622.0
369.0	629.0
333.0	495.0
330.0	500.0
325.0	502.0
326.0	496.0
320.0	497.0
340.0	495.0
341.0	504.0
335.0	504.0
333.0	510.0
342.0	514.0
348.0	512.0
345.0	498.0
347.0	503.0
348.0	487.0
345.0	493.0
361.0	494.0
363.0	499.0
356.0	497.0
351.0	499.0
315.0	548.0
308.0	545.0
305.0	532.0
309.0	537.0
299.0	521.0
291.0	521.0
296.0	527.0
285.0	522.0
278.0	527.0
271.0	532.0
266.0	527.0
259.0	530.0
267.0	539.0
273.0	542.0
278.0	545.0
281.0	539.0
286.0	535.0
285.0	544.0
288.0	550.0
285.0	555.0
278.0	556.0
273.0	557.0
265.0	558.0
263.0	548.0
257.0	547.0
258.0	518.0
268.0	521.0
274.0	519.0
271.0	509.0
265.0	510.0
272.0	503.0
260.0	481.0
262.0	488.0
268.0	499.0
281.0	516.0
275.0	513.0
277.0	508.0
283.0	511.0
281.0	506.0
281.0	500.0
290.0	498.0
287.0	502.0
292.0	506.0
287.0	508.0
292.0	512.0
298.0	510.0
295.0	500.0
279.0	494.0
298.0	496.0
303.0	508.0
304.0	503.0
308.0	497.0
302.0	499.0
303.0	494.0
314.0	493.0
315.0	499.0
329.0	523.0
311.0	516.0
317.0	517.0
325.0	525.0
316.0	511.0
298.0	553.0
302.0	548.0
297.0	542.0
316.0	559.0
309.0	557.0
310.0	563.0
319.0	564.0
322.0	557.0
324.0	575.0
331.0	597.0
326.0	602.0
317.0	601.0
311.0	616.0
320.0	607.0
313.0	609.0
302.0	627.0
295.0	625.0
289.0	624.0
282.0	626.0
275.0	631.0
282.0	634.0
290.0	631.0
289.0	637.0
304.0	634.0
297.0	634.0
309.0	627.0
307.0	620.0
315.0	622.0
317.0	629.0
323.0	624.0
311.0	634.0
320.0	635.0
327.0	629.0
327.0	635.0
335.0	633.0
347.0	635.0
325.0	618.0
331.0	622.0
336.0	626.0
311.0	590.0
306.0	586.0
311.0	582.0
303.0	580.0
299.0	573.0
297.0	567.0
291.0	566.0
286.0	569.0
288.0	576.0
269.0	568.0
274.0	570.0
275.0	579.0
269.0	581.0
281.0	588.0
275.0	591.0
275.0	597.0
268.0	597.0
294.0	587.0
287.0	597.0
293.0	600.0
294.0	594.0
300.0	597.0
306.0	599.0
336.0	517.0
329.0	518.0
322.0	520.0
322.0	513.0
317.0	525.0
314.0	531.0
348.0	517.0
353.0	524.0
353.0	511.0
354.0	518.0
293.0	617.0
262.0	615.0
266.0	611.0
271.0	617.0
261.0	625.0
265.0	631.0
256.0	630.0
248.0	629.0
244.0	623.0
241.0	616.0
252.0	608.0
244.0	604.0
244.0	598.0
255.0	597.0
255.0	586.0
257.0	580.0
263.0	585.0
258.0	574.0
252.0	576.0
249.0	564.0
246.0	569.0
241.0	564.0
246.0	552.0
244.0	558.0
249.0	546.0
260.0	540.0
252.0	540.0
245.0	541.0
235.0	549.0
239.0	539.0
233.0	538.0
226.0	541.0
225.0	530.0
229.0	519.0
226.0	513.0
235.0	514.0
219.0	502.0
224.0	507.0
215.0	517.0
208.0	515.0
203.0	520.0
202.0	504.0
197.0	508.0
208.0	508.0
243.0	529.0
234.0	589.0
229.0	581.0
221.0	589.0
215.0	589.0
207.0	598.0
215.0	602.0
197.0	597.0
202.0	601.0
222.0	609.0
221.0	616.0
229.0	615.0
249.0	617.0
252.0	623.0
266.0	620.0
270.0	625.0
242.0	581.0
245.0	576.0
258.0	557.0
265.0	573.0
248.0	587.0
250.0	595.0
230.0	601.0
238.0	594.0
278.0	614.0
261.0	499.0
263.0	495.0
264.0	504.0
258.0	509.0
255.0	513.0
251.0	529.0
254.0	524.0
241.0	521.0
247.0	525.0
246.0	520.0
252.0	519.0
244.0	511.0
252.0	508.0
243.0	506.0
241.0	501.0
241.0	495.0
239.0	489.0
224.0	499.0
233.0	499.0
236.0	494.0
211.0	562.0
223.0	563.0
220.0	571.0
222.0	552.0
216.0	621.0
213.0	626.0
222.0	626.0
231.0	627.0
239.0	627.0
235.0	632.0
243.0	633.0
253.0	635.0
248.0	639.0
260.0	636.0
268.0	637.0
240.0	640.0
230.0	640.0
226.0	634.0
221.0	640.0
218.0	634.0
209.0	631.0
202.0	628.0
203.0	636.0
213.0	638.0
228.0	549.0
231.0	544.0
236.0	544.0
201.0	579.0
193.0	578.0
204.0	568.0
197.0	566.0
188.0	592.0
182.0	595.0
203.0	615.0
202.0	609.0
195.0	610.0
208.0	606.0
217.0	614.0
178.0	571.0
185.0	570.0
183.0	575.0
187.0	579.0
174.0	583.0
170.0	589.0
162.0	580.0
158.0	593.0
160.0	607.0
170.0	600.0
166.0	605.0
172.0	608.0
165.0	612.0
167.0	619.0
163.0	624.0
160.0	630.0
169.0	628.0
165.0	634.0
170.0	640.0
174.0	634.0
178.0	628.0
188.0	629.0
189.0	620.0
181.0	616.0
193.0	625.0
195.0	632.0
183.0	634.0
178.0	640.0
186.0	643.0
190.0	638.0
197.0	640.0
247.0	492.0
245.0	488.0
247.0	483.0
247.0	476.0
241.0	476.0
235.0	478.0
228.0	485.0
254.0	476.0
250.0	471.0
265.0	475.0
260.0	475.0
218.0	540.0
221.0	535.0
201.0	548.0
203.0	553.0
185.0	537.0
187.0	542.0
191.0	537.0
189.0	550.0
204.0	542.0
194.0	545.0
175.0	558.0
174.0	564.0
170.0	569.0
163.0	568.0
168.0	562.0
165.0	547.0
172.0	545.0
170.0	554.0
157.0	535.0
141.0	541.0
138.0	536.0
143.0	510.0
139.0	515.0
133.0	518.0
131.0	524.0
126.0	521.0
110.0	542.0
108.0	534.0
104.0	528.0
100.0	534.0
102.0	541.0
104.0	549.0
106.0	556.0
115.0	557.0
108.0	563.0
104.0	568.0
124.0	541.0
140.0	522.0
148.0	524.0
144.0	535.0
144.0	529.0
154.0	518.0
151.0	511.0
156.0	505.0
147.0	499.0
134.0	499.0
125.0	501.0
126.0	492.0
119.0	484.0
121.0	477.0
128.0	478.0
131.0	486.0
135.0	481.0
139.0	486.0
146.0	480.0
141.0	497.0
159.0	495.0
161.0	501.0
158.0	512.0
165.0	523.0
174.0	529.0
185.0	525.0
191.0	523.0
201.0	536.0
207.0	534.0
214.0	535.0
212.0	528.0
171.0	523.0
171.0	517.0
175.0	512.0
171.0	493.0
174.0	500.0
178.0	494.0
186.0	493.0
190.0	510.0
189.0	498.0
196.0	502.0
190.0	504.0
132.0	551.0
148.0	554.0
143.0	559.0
148.0	566.0
131.0	562.0
115.0	564.0
123.0	563.0
111.0	570.0
108.0	575.0
102.0	579.0
101.0	586.0
104.0	593.0
100.0	600.0
109.0	598.0
105.0	606.0
100.0	610.0
105.0	617.0
110.0	612.0
116.0	615.0
115.0	598.0
122.0	592.0
120.0	569.0
118.0	575.0
127.0	570.0
127.0	577.0
132.0	582.0
145.0	578.0
172.0	534.0
172.0	539.0
179.0	536.0
188.0	531.0
193.0	529.0
107.0	521.0
105.0	514.0
99.0	520.0
97.0	527.0
104.0	508.0
109.0	510.0
105.0	498.0
99.0	503.0
118.0	504.0
112.0	495.0
107.0	489.0
100.0	495.0
100.0	487.0
100.0	479.0
142.0	590.0
146.0	596.0
151.0	591.0
133.0	600.0
155.0	612.0
158.0	617.0
153.0	621.0
154.0	628.0
145.0	627.0
138.0	627.0
139.0	634.0
147.0	634.0
155.0	636.0
161.0	641.0
144.0	641.0
138.0	641.0
131.0	640.0
131.0	634.0
129.0	625.0
126.0	619.0
120.0	624.0
123.0	631.0
115.0	629.0
105.0	625.0
108.0	633.0
110.0	641.0
116.0	637.0
124.0	639.0
118.0	645.0
134.0	620.0
99.0	630.0
92.0	611.0
95.0	603.0
90.0	598.0
96.0	593.0
94.0	583.0
88.0	590.0
91.0	576.0
98.0	574.0
94.0	568.0
93.0	561.0
101.0	561.0
99.0	554.0
92.0	553.0
96.0	547.0
95.0	539.0
90.0	546.0
87.0	538.0
102.0	639.0
95.0	635.0
95.0	642.0
97.0	617.0
95.0	624.0
148.0	609.0
137.0	614.0
143.0	612.0
143.0	620.0
120.0	491.0
95.0	508.0
95.0	514.0
93.0	532.0
91.0	503.0
93.0	496.0
95.0	489.0
92.0	482.0
94.0	475.0
94.0	467.0
100.0	472.0
106.0	477.0
107.0	483.0
107.0	470.0
102.0	466.0
97.0	459.0
90.0	461.0
100.0	452.0
105.0	459.0
106.0	439.0
101.0	442.0
96.0	446.0
93.0	453.0
90.0	444.0
94.0	439.0
91.0	433.0
99.0	435.0
98.0	427.0
104.0	432.0
112.0	434.0
116.0	446.0
107.0	446.0
111.0	458.0
106.0	452.0
119.0	464.0
116.0	470.0
114.0	475.0
141.0	470.0
135.0	467.0
130.0	457.0
123.0	459.0
133.0	452.0
137.0	456.0
134.0	461.0
147.0	467.0
151.0	456.0
166.0	454.0
171.0	452.0
173.0	445.0
177.0	449.0
175.0	462.0
174.0	468.0
169.0	466.0
180.0	473.0
187.0	470.0
192.0	459.0
182.0	459.0
183.0	452.0
184.0	447.0
188.0	455.0
192.0	474.0
173.0	481.0
168.0	478.0
175.0	487.0
189.0	488.0
196.0	487.0
186.0	482.0
197.0	480.0
199.0	474.0
199.0	467.0
193.0	469.0
194.0	464.0
199.0	459.0
196.0	453.0
190.0	449.0
190.0	443.0
202.0	445.0
209.0	447.0
208.0	453.0
210.0	464.0
211.0	470.0
210.0	478.0
216.0	460.0
222.0	459.0
224.0	466.0
230.0	468.0
233.0	458.0
239.0	455.0
239.0	460.0
244.0	470.0
245.0	456.0
248.0	467.0
240.0	466.0
249.0	461.0
253.0	464.0
255.0	459.0
251.0	455.0
248.0	450.0
237.0	446.0
254.0	451.0
258.0	441.0
252.0	445.0
253.0	439.0
245.0	445.0
241.0	431.0
246.0	425.0
244.0	420.0
238.0	419.0
232.0	418.0
227.0	416.0
245.0	414.0
249.0	420.0
256.0	419.0
256.0	412.0
239.0	436.0
219.0	471.0
226.0	472.0
232.0	473.0
191.0	480.0
192.0	492.0
201.0	498.0
200.0	492.0
209.0	489.0
206.0	495.0
219.0	491.0
209.0	501.0
214.0	500.0
214.0	494.0
220.0	496.0
228.0	495.0
158.0	473.0
163.0	486.0
155.0	483.0
158.0	489.0
152.0	477.0
160.0	467.0
158.0	459.0
122.0	423.0
123.0	430.0
128.0	424.0
129.0	430.0
133.0	435.0
137.0	440.0
143.0	447.0
141.0	452.0
149.0	449.0
146.0	454.0
154.0	464.0
151.0	421.0
151.0	428.0
146.0	431.0
157.0	424.0
163.0	427.0
149.0	437.0
154.0	433.0
155.0	442.0
159.0	438.0
162.0	444.0
166.0	440.0
171.0	437.0
175.0	432.0
164.0	434.0
168.0	430.0
172.0	426.0
167.0	416.0
166.0	409.0
162.0	405.0
159.0	400.0
162.0	396.0
155.0	392.0
160.0	389.0
164.0	385.0
161.0	376.0
139.0	394.0
139.0	401.0
135.0	405.0
123.0	407.0
113.0	416.0
108.0	418.0
103.0	425.0
100.0	420.0
93.0	423.0
94.0	416.0
87.0	414.0
87.0	421.0
94.0	409.0
90.0	403.0
93.0	397.0
98.0	402.0
101.0	408.0
105.0	400.0
107.0	392.0
100.0	396.0
100.0	414.0
107.0	411.0
109.0	405.0
142.0	415.0
147.0	403.0
151.0	415.0
149.0	408.0
146.0	411.0
138.0	420.0
134.0	422.0
134.0	415.0
125.0	413.0
120.0	394.0
120.0	388.0
113.0	385.0
107.0	384.0
102.0	388.0
94.0	390.0
95.0	384.0
100.0	381.0
105.0	376.0
96.0	373.0
104.0	369.0
103.0	363.0
100.0	355.0
105.0	349.0
108.0	357.0
110.0	365.0
118.0	381.0
117.0	374.0
122.0	372.0
120.0	362.0
115.0	361.0
116.0	355.0
123.0	357.0
116.0	346.0
128.0	361.0
135.0	356.0
125.0	390.0
135.0	374.0
214.0	443.0
207.0	435.0
212.0	432.0
212.0	437.0
218.0	437.0
219.0	446.0
216.0	454.0
226.0	447.0
228.0	454.0
221.0	452.0
231.0	446.0
235.0	440.0
232.0	436.0
229.0	428.0
229.0	433.0
224.0	435.0
216.0	423.0
201.0	424.0
199.0	418.0
194.0	406.0
194.0	400.0
199.0	396.0
201.0	385.0
198.0	378.0
203.0	393.0
199.0	407.0
204.0	412.0
207.0	423.0
217.0	429.0
182.0	436.0
176.0	438.0
194.0	431.0
199.0	429.0
169.0	422.0
173.0	419.0
179.0	422.0
184.0	424.0
187.0	432.0
192.0	418.0
183.0	411.0
177.0	408.0
182.0	404.0
174.0	401.0
188.0	408.0
188.0	414.0
185.0	419.0
199.0	413.0
246.0	430.0
250.0	435.0
245.0	436.0
252.0	430.0
232.0	405.0
223.0	409.0
216.0	411.0
211.0	406.0
217.0	394.0
219.0	400.0
213.0	400.0
207.0	399.0
210.0	393.0
219.0	384.0
220.0	373.0
225.0	370.0
229.0	366.0
223.0	363.0
217.0	361.0
210.0	360.0
204.0	353.0
209.0	355.0
213.0	350.0
218.0	345.0
217.0	340.0
224.0	347.0
227.0	352.0
223.0	357.0
228.0	360.0
231.0	356.0
236.0	346.0
234.0	351.0
243.0	353.0
244.0	359.0
240.0	349.0
238.0	341.0
235.0	337.0
229.0	336.0
224.0	332.0
221.0	328.0
226.0	324.0
231.0	321.0
238.0	330.0
241.0	335.0
246.0	336.0
255.0	333.0
253.0	338.0
247.0	342.0
252.0	344.0
243.0	344.0
253.0	351.0
257.0	348.0
257.0	342.0
225.0	376.0
230.0	373.0
236.0	373.0
240.0	377.0
237.0	383.0
232.0	387.0
246.0	382.0
250.0	372.0
235.0	367.0
239.0	363.0
241.0	370.0
252.0	366.0
250.0	361.0
251.0	378.0
220.0	390.0
190.0	388.0
188.0	395.0
182.0	383.0
170.0	387.0
168.0	380.0
173.0	376.0
174.0	363.0
169.0	365.0
166.0	374.0
171.0	371.0
189.0	372.0
187.0	359.0
185.0	341.0
166.0	353.0
160.0	357.0
146.0	339.0
147.0	347.0
153.0	342.0
158.0	341.0
158.0	346.0
163.0	348.0
175.0	334.0
174.0	344.0
170.0	339.0
165.0	342.0
169.0	348.0
161.0	336.0
167.0	333.0
167.0	327.0
178.0	329.0
186.0	329.0
190.0	334.0
196.0	331.0
201.0	325.0
208.0	375.0
212.0	382.0
205.0	380.0
229.0	399.0
226.0	387.0
224.0	382.0
226.0	392.0
223.0	397.0
252.0	402.0
257.0	406.0
253.0	384.0
258.0	381.0
240.0	401.0
237.0	390.0
235.0	398.0
243.0	395.0
239.0	407.0
263.0	377.0
257.0	369.0
257.0	363.0
261.0	359.0
201.0	366.0
147.0	360.0
158.0	364.0
152.0	385.0
148.0	379.0
147.0	370.0
151.0	373.0
152.0	363.0
156.0	370.0
132.0	391.0
132.0	386.0
147.0	390.0
188.0	346.0
193.0	351.0
200.0	342.0
196.0	346.0
205.0	336.0
211.0	331.0
216.0	326.0
218.0	333.0
155.0	325.0
149.0	327.0
145.0	323.0
153.0	320.0
134.0	334.0
129.0	340.0
121.0	338.0
120.0	333.0
113.0	333.0
108.0	338.0
102.0	344.0
96.0	349.0
96.0	360.0
96.0	366.0
90.0	370.0
90.0	363.0
90.0	378.0
90.0	354.0
89.0	347.0
93.0	339.0
99.0	335.0
95.0	328.0
90.0	332.0
88.0	327.0
92.0	321.0
91.0	312.0
102.0	327.0
106.0	333.0
111.0	327.0
125.0	322.0
126.0	328.0
132.0	326.0
128.0	314.0
127.0	307.0
261.0	328.0
267.0	330.0
249.0	322.0
248.0	312.0
246.0	318.0
243.0	323.0
258.0	321.0
262.0	317.0
269.0	309.0
264.0	312.0
249.0	282.0
245.0	286.0
249.0	291.0
255.0	293.0
261.0	287.0
255.0	274.0
250.0	276.0
269.0	273.0
250.0	302.0
257.0	304.0
244.0	301.0
252.0	308.0
244.0	266.0
228.0	262.0
231.0	271.0
267.0	284.0
274.0	283.0
272.0	288.0
280.0	285.0
286.0	281.0
283.0	275.0
291.0	277.0
299.0	283.0
304.0	287.0
296.0	287.0
300.0	270.0
294.0	272.0
317.0	288.0
316.0	278.0
319.0	272.0
324.0	276.0
321.0	283.0
326.0	288.0
333.0	289.0
331.0	276.0
338.0	275.0
346.0	275.0
337.0	285.0
335.0	280.0
350.0	288.0
348.0	270.0
359.0	276.0
389.0	291.0
388.0	299.0
369.0	290.0
364.0	287.0
355.0	288.0
370.0	284.0
371.0	277.0
377.0	274.0
383.0	278.0
380.0	284.0
361.0	282.0
390.0	270.0
384.0	265.0
389.0	262.0
373.0	264.0
376.0	255.0
402.0	267.0
407.0	259.0
416.0	271.0
408.0	264.0
415.0	264.0
399.0	277.0
404.0	280.0
388.0	284.0
399.0	292.0
383.0	296.0
407.0	288.0
401.0	285.0
393.0	303.0
429.0	282.0
437.0	270.0
436.0	276.0
449.0	280.0
447.0	287.0
452.0	292.0
433.0	287.0
441.0	281.0
440.0	286.0
421.0	284.0
447.0	262.0
441.0	258.0
405.0	397.0
411.0	396.0
412.0	377.0
425.0	371.0
424.0	377.0
430.0	379.0
433.0	384.0
460.0	370.0
259.0	464.0
262.0	469.0
259.0	455.0
258.0	447.0
263.0	451.0
267.0	455.0
261.0	437.0
255.0	434.0
260.0	431.0
266.0	435.0
267.0	416.0
262.0	418.0
263.0	401.0
262.0	407.0
246.0	401.0
246.0	408.0
252.0	408.0
257.0	392.0
259.0	387.0
249.0	389.0
243.0	390.0
471.0	365.0
472.0	372.0
484.0	372.0
482.0	365.0
476.0	368.0
469.0	382.0
466.0	369.0
467.0	375.0
384.0	373.0
374.0	370.0
379.0	375.0
367.0	367.0
370.0	373.0
409.0	414.0
404.0	404.0
394.0	494.0
402.0	522.0
410.0	525.0
308.0	475.0
313.0	476.0
316.0	481.0
302.0	488.0
81.0	126.0
77.0	309.0
72.0	302.0
68.0	309.0
70.0	316.0
77.0	317.0
84.0	313.0
88.0	318.0
82.0	323.0
73.0	325.0
70.0	332.0
76.0	243.0
73.0	236.0
72.0	228.0
79.0	223.0
71.0	220.0
74.0	215.0
81.0	211.0
77.0	204.0
81.0	196.0
72.0	196.0
72.0	190.0
75.0	180.0
68.0	176.0
70.0	169.0
73.0	161.0
80.0	147.0
77.0	139.0
86.0	140.0
81.0	133.0
71.0	132.0
69.0	141.0
67.0	154.0
64.0	163.0
67.0	183.0
64.0	190.0
69.0	206.0
73.0	123.0
82.0	118.0
75.0	115.0
76.0	108.0
76.0	98.0
86.0	101.0
94.0	97.0
87.0	93.0
102.0	93.0
111.0	94.0
128.0	89.0
120.0	92.0
136.0	92.0
67.0	109.0
68.0	100.0
66.0	118.0
66.0	126.0
63.0	147.0
66.0	213.0
64.0	225.0
66.0	233.0
68.0	242.0
72.0	249.0
76.0	256.0
69.0	255.0
64.0	249.0
63.0	259.0
72.0	262.0
76.0	275.0
71.0	269.0
73.0	281.0
73.0	287.0
68.0	292.0
66.0	299.0
67.0	280.0
66.0	264.0
65.0	272.0
72.0	149.0
77.0	155.0
79.0	329.0
84.0	334.0
85.0	341.0
80.0	346.0
78.0	337.0
72.0	340.0
65.0	339.0
70.0	347.0
76.0	352.0
83.0	352.0
83.0	359.0
76.0	360.0
70.0	361.0
67.0	354.0
76.0	368.0
83.0	365.0
83.0	374.0
76.0	377.0
70.0	373.0
64.0	368.0
62.0	377.0
70.0	381.0
66.0	386.0
76.0	384.0
84.0	381.0
80.0	388.0
88.0	386.0
86.0	393.0
84.0	400.0
78.0	395.0
72.0	390.0
72.0	398.0
79.0	403.0
78.0	410.0
85.0	407.0
73.0	414.0
72.0	405.0
77.0	420.0
81.0	416.0
82.0	425.0
74.0	428.0
80.0	433.0
86.0	429.0
86.0	437.0
78.0	440.0
73.0	435.0
69.0	441.0
74.0	447.0
79.0	453.0
83.0	446.0
86.0	452.0
83.0	459.0
87.0	469.0
80.0	466.0
76.0	461.0
73.0	469.0
81.0	474.0
76.0	477.0
87.0	477.0
82.0	483.0
87.0	490.0
79.0	491.0
74.0	485.0
72.0	492.0
78.0	499.0
86.0	497.0
85.0	504.0
88.0	512.0
69.0	498.0
73.0	505.0
72.0	512.0
79.0	508.0
80.0	515.0
86.0	518.0
91.0	524.0
82.0	523.0
77.0	528.0
86.0	530.0
76.0	521.0
69.0	520.0
69.0	528.0
72.0	536.0
79.0	535.0
82.0	543.0
75.0	543.0
68.0	542.0
71.0	551.0
79.0	550.0
86.0	551.0
87.0	558.0
77.0	557.0
72.0	563.0
66.0	556.0
87.0	568.0
80.0	562.0
77.0	570.0
83.0	576.0
77.0	582.0
74.0	576.0
70.0	569.0
66.0	573.0
68.0	581.0
71.0	589.0
79.0	589.0
86.0	583.0
82.0	594.0
75.0	595.0
67.0	595.0
69.0	602.0
76.0	604.0
83.0	601.0
87.0	606.0
81.0	613.0
72.0	612.0
81.0	622.0
74.0	620.0
89.0	619.0
89.0	627.0
81.0	633.0
74.0	628.0
87.0	637.0
80.0	643.0
74.0	637.0
72.0	647.0
83.0	652.0
89.0	647.0
95.0	650.0
103.0	647.0
112.0	648.0
107.0	654.0
100.0	656.0
117.0	653.0
115.0	660.0
125.0	648.0
128.0	657.0
132.0	648.0
141.0	648.0
136.0	654.0
149.0	645.0
157.0	645.0
166.0	648.0
146.0	654.0
153.0	653.0
162.0	655.0
171.0	654.0
174.0	647.0
180.0	650.0
187.0	652.0
193.0	646.0
201.0	652.0
194.0	654.0
202.0	643.0
209.0	644.0
215.0	650.0
209.0	652.0
221.0	647.0
228.0	647.0
236.0	646.0
232.0	652.0
224.0	655.0
215.0	657.0
208.0	658.0
199.0	659.0
190.0	660.0
243.0	648.0
255.0	643.0
250.0	648.0
263.0	643.0
268.0	648.0
274.0	641.0
282.0	642.0
276.0	649.0
259.0	651.0
286.0	650.0
292.0	644.0
298.0	641.0
307.0	640.0
295.0	653.0
311.0	645.0
301.0	648.0
316.0	641.0
341.0	637.0
343.0	644.0
351.0	642.0
356.0	638.0
363.0	635.0
362.0	643.0
369.0	640.0
369.0	647.0
356.0	649.0
348.0	650.0
340.0	651.0
333.0	650.0
336.0	643.0
328.0	643.0
321.0	647.0
308.0	651.0
315.0	654.0
377.0	645.0
383.0	641.0
391.0	643.0
385.0	648.0
398.0	647.0
391.0	650.0
403.0	652.0
411.0	646.0
410.0	652.0
419.0	648.0
418.0	654.0
425.0	643.0
425.0	653.0
432.0	648.0
432.0	639.0
442.0	640.0
437.0	644.0
442.0	649.0
448.0	642.0
449.0	648.0
453.0	639.0
456.0	646.0
462.0	641.0
466.0	637.0
473.0	639.0
469.0	644.0
477.0	643.0
484.0	646.0
471.0	650.0
479.0	650.0
487.0	652.0
493.0	647.0
498.0	651.0
505.0	641.0
502.0	646.0
513.0	641.0
512.0	649.0
520.0	642.0
521.0	650.0
529.0	649.0
538.0	649.0
548.0	649.0
556.0	649.0
564.0	649.0
560.0	641.0
567.0	642.0
571.0	650.0
576.0	644.0
583.0	642.0
580.0	650.0
590.0	641.0
587.0	648.0
594.0	649.0
585.0	655.0
576.0	656.0
565.0	657.0
558.0	657.0
551.0	656.0
601.0	647.0
610.0	643.0
611.0	651.0
617.0	644.0
605.0	654.0
615.0	637.0
623.0	636.0
624.0	643.0
630.0	639.0
631.0	630.0
631.0	622.0
635.0	612.0
629.0	605.0
636.0	600.0
635.0	588.0
631.0	581.0
635.0	576.0
638.0	569.0
642.0	576.0
640.0	584.0
647.0	583.0
640.0	593.0
644.0	600.0
640.0	606.0
638.0	618.0
637.0	627.0
637.0	636.0
630.0	646.0
618.0	651.0
626.0	651.0
638.0	642.0
643.0	612.0
644.0	621.0
643.0	631.0
633.0	565.0
637.0	560.0
633.0	553.0
608.0	516.0
614.0	514.0
616.0	521.0
622.0	519.0
630.0	525.0
629.0	517.0
635.0	514.0
635.0	528.0
636.0	536.0
637.0	545.0
642.0	552.0
644.0	545.0
641.0	538.0
642.0	530.0
640.0	521.0
639.0	510.0
633.0	507.0
638.0	503.0
629.0	502.0
635.0	498.0
630.0	493.0
630.0	485.0
629.0	476.0
629.0	470.0
636.0	471.0
636.0	479.0
636.0	488.0
640.0	493.0
641.0	483.0
642.0	475.0
635.0	521.0
645.0	516.0
643.0	563.0
645.0	569.0
646.0	556.0
645.0	504.0
644.0	497.0
634.0	465.0
633.0	455.0
641.0	462.0
643.0	467.0
640.0	455.0
633.0	448.0
630.0	437.0
627.0	431.0
632.0	427.0
630.0	421.0
631.0	397.0
636.0	402.0
634.0	409.0
635.0	416.0
636.0	422.0
634.0	433.0
639.0	427.0
638.0	438.0
639.0	445.0
633.0	442.0
644.0	450.0
645.0	440.0
644.0	432.0
630.0	375.0
632.0	368.0
635.0	375.0
637.0	382.0
633.0	386.0
636.0	393.0
642.0	387.0
642.0	377.0
640.0	369.0
630.0	362.0
634.0	356.0
638.0	363.0
642.0	354.0
635.0	349.0
634.0	342.0
634.0	331.0
639.0	336.0
635.0	321.0
630.0	316.0
634.0	309.0
631.0	303.0
634.0	296.0
638.0	303.0
642.0	309.0
639.0	315.0
642.0	322.0
640.0	328.0
647.0	328.0
641.0	344.0
645.0	337.0
646.0	347.0
643.0	360.0
645.0	366.0
640.0	407.0
640.0	414.0
642.0	397.0
635.0	289.0
640.0	294.0
644.0	290.0
643.0	284.0
638.0	280.0
633.0	274.0
635.0	269.0
638.0	263.0
643.0	266.0
642.0	273.0
645.0	260.0
639.0	254.0
637.0	241.0
638.0	234.0
645.0	238.0
644.0	245.0
645.0	252.0
632.0	253.0
638.0	248.0
634.0	208.0
635.0	202.0
636.0	214.0
637.0	221.0
630.0	217.0
642.0	218.0
642.0	226.0
644.0	210.0
641.0	205.0
645.0	198.0
639.0	195.0
636.0	190.0
634.0	183.0
631.0	175.0
628.0	168.0
635.0	161.0
633.0	155.0
637.0	169.0
639.0	176.0
641.0	183.0
646.0	191.0
648.0	178.0
644.0	170.0
642.0	162.0
641.0	151.0
633.0	148.0
633.0	139.0
630.0	130.0
637.0	126.0
637.0	134.0
638.0	143.0
642.0	137.0
644.0	145.0
645.0	130.0
644.0	121.0
642.0	114.0
635.0	117.0
626.0	116.0
633.0	108.0
640.0	106.0
628.0	100.0
620.0	97.0
619.0	89.0
629.0	91.0
636.0	97.0
648.0	155.0
564.0	97.0
556.0	103.0
549.0	98.0
556.0	94.0
541.0	96.0
531.0	101.0
522.0	100.0
529.0	94.0
546.0	91.0
573.0	98.0
581.0	98.0
576.0	91.0
587.0	93.0
594.0	97.0
606.0	99.0
613.0	95.0
602.0	94.0
594.0	89.0
609.0	89.0
508.0	102.0
513.0	97.0
501.0	98.0
492.0	98.0
496.0	93.0
502.0	89.0
507.0	94.0
520.0	93.0
507.0	123.0
512.0	119.0
484.0	97.0
489.0	91.0
474.0	95.0
464.0	96.0
457.0	99.0
449.0	101.0
441.0	95.0
451.0	94.0
433.0	95.0
424.0	97.0
416.0	97.0
419.0	91.0
428.0	89.0
446.0	90.0
437.0	90.0
457.0	89.0
468.0	89.0
480.0	90.0
393.0	102.0
398.0	96.0
407.0	96.0
411.0	91.0
390.0	94.0
378.0	98.0
384.0	93.0
375.0	92.0
371.0	99.0
367.0	92.0
362.0	100.0
358.0	94.0
353.0	101.0
346.0	98.0
351.0	94.0
338.0	91.0
345.0	88.0
324.0	98.0
332.0	94.0
325.0	89.0
318.0	92.0
316.0	98.0
309.0	92.0
301.0	90.0
385.0	100.0
264.0	98.0
256.0	96.0
262.0	91.0
270.0	93.0
279.0	92.0
289.0	91.0
221.0	103.0
220.0	96.0
229.0	101.0
234.0	95.0
247.0	97.0
241.0	91.0
208.0	95.0
196.0	97.0
185.0	97.0
170.0	95.0
178.0	94.0
162.0	104.0
162.0	98.0
161.0	92.0
151.0	91.0
347.0	458.0
344.0	454.0
339.0	449.0
338.0	454.0
343.0	445.0
345.0	450.0
350.0	451.0
356.0	465.0
356.0	458.0
354.0	448.0
354.0	443.0
360.0	447.0
360.0	442.0
375.0	444.0
378.0	439.0
382.0	427.0
382.0	437.0
382.0	432.0
387.0	434.0
387.0	424.0
388.0	429.0
393.0	428.0
366.0	462.0
365.0	457.0
371.0	462.0
292.0	459.0
290.0	449.0
291.0	454.0
300.0	444.0
300.0	450.0
303.0	454.0
297.0	456.0
277.0	467.0
281.0	464.0
280.0	458.0
365.0	411.0
359.0	416.0
364.0	416.0
368.0	421.0
355.0	415.0
357.0	411.0
387.0	411.0
390.0	408.0
399.0	407.0
394.0	406.0
372.0	452.0
378.0	454.0
404.0	383.0
403.0	393.0
405.0	388.0
324.0	439.0
181.9	363.2
180.2	148.7
172.6	149.3
196.5	149.9
188.4	149.9
378.9	559.0
384.8	557.9
441.9	227.4
448.3	226.2
383.0	211.1
376.0	211.7
391.2	209.9
397.6	210.5
412.2	211.1
378.4	218.7
