11	580
12	448
12	537
12	599
12	609
13	394
13	413
13	478
13	567
13	573
14	420
14	443
14	460
14	465
14	515
14	522
14	546
15	429
15	503
15	510
15	530
16	406
16	486
16	579
16	585
16	596
16	610
17	411
17	567
17	591
17	618
18	416
18	438
18	492
18	535
19	399
19	451
19	526
19	541
19	549
19	588
20	422
20	426
20	442
20	468
20	510
20	517
20	561
20	584
20	594
20	601
20	619
21	433
21	498
21	575
21	580
21	609
22	446
22	481
22	534
22	554
22	613
23	414
23	515
23	588
24	425
24	487
24	570
24	619
25	396
25	406
25	437
25	493
25	540
25	565
25	605
26	390
26	422
26	468
26	511
26	586
27	504
27	529
27	556
28	544
28	602
29	388
29	402
29	412
29	450
29	487
29	512
29	567
29	620
30	417
30	464
30	497
30	613
31	397
31	425
31	431
31	456
31	520
31	570
32	390
32	560
32	577
33	549
33	555
34	394
34	405
34	411
34	419
34	441
34	447
34	471
34	513
34	620
35	539
35	565
35	585
35	599
35	606
36	461
36	492
36	573
36	579
36	602
37	452
37	507
38	399
38	444
38	527
38	536
38	588
38	611
39	391
39	417
39	432
39	543
39	555
39	615
40	405
40	425
40	455
40	515
40	550
41	460
41	474
41	566
41	605
42	485
42	540
42	594
43	393
43	421
43	445
43	479
43	611
44	401
44	426
44	437
44	450
44	505
44	537
44	549
44	555
44	561
44	616
45	407
45	413
45	430
45	489
45	544
46	577
47	456
47	462
47	496
47	547
47	594
47	601
48	410
48	442
49	61
49	69
49	129
49	143
49	154
49	245
49	257
49	391
49	399
49	418
49	522
49	565
49	608
50	75
50	93
50	103
50	117
50	161
50	176
50	229
50	238
50	286
50	300
50	316
50	330
50	452
50	501
50	515
50	529
50	552
50	581
50	620
51	110
51	189
51	249
51	279
51	293
51	405
51	467
51	492
51	543
51	572
51	602
51	614
52	223
52	283
52	325
52	337
52	350
52	383
52	428
52	436
52	596
53	89
53	200
53	208
53	245
53	269
53	395
53	535
53	565
53	590
54	63
54	70
54	80
54	149
54	163
54	186
54	214
54	256
54	342
54	362
54	371
54	410
54	454
54	462
54	479
54	502
55	123
55	156
55	171
55	194
55	379
55	417
55	440
55	446
55	516
55	538
55	582
55	604
55	620
56	55
56	97
56	106
56	114
56	132
56	140
56	178
56	229
56	294
56	303
56	315
56	328
56	391
56	506
56	545
57	260
57	275
57	282
57	289
57	311
57	348
57	355
57	403
57	469
57	474
57	569
57	574
57	612
58	121
58	212
58	222
58	409
58	423
58	521
58	592
59	67
59	93
59	239
59	246
59	255
59	266
59	326
59	430
59	453
59	513
59	540
60	74
60	81
60	88
60	150
60	175
60	197
60	272
60	341
60	367
60	396
60	413
60	438
60	464
60	499
60	580
60	598
61	61
61	113
61	160
61	167
61	181
61	205
61	333
61	375
61	442
61	448
61	457
61	478
61	492
61	527
61	553
61	566
61	584
62	91
62	105
62	128
62	136
62	144
62	190
62	300
62	315
62	353
62	359
62	406
62	473
62	536
62	542
62	588
62	604
62	614
63	46
63	52
63	95
63	224
63	284
63	291
63	308
63	371
64	40
64	70
64	79
64	215
64	231
64	241
64	277
64	322
64	337
64	426
64	434
64	462
64	486
64	515
65	84
65	155
65	208
65	368
65	380
65	447
65	467
65	508
65	577
65	620
66	117
66	124
66	179
66	264
66	327
66	347
66	362
66	403
66	441
66	457
66	524
66	530
66	540
67	37
67	51
67	60
67	76
67	91
67	150
67	170
67	194
67	202
67	222
67	249
67	258
67	290
67	354
67	418
67	536
67	560
67	568
67	586
67	601
68	44
68	95
68	104
68	109
68	143
68	163
68	174
68	186
68	237
68	316
68	335
68	374
68	390
68	396
68	464
68	552
68	593
68	614
69	131
69	137
69	214
69	231
69	268
69	306
69	368
69	400
69	430
69	476
69	631
70	68
70	73
70	101
70	226
70	275
70	284
70	330
70	340
70	408
70	437
70	494
70	524
70	573
70	608
71	41
71	93
71	243
71	297
71	444
71	451
71	458
71	469
71	520
71	587
72	120
72	197
72	206
72	235
72	324
72	348
72	361
72	380
72	463
72	481
72	505
72	614
72	624
73	59
73	127
73	147
73	153
73	190
73	255
73	266
73	387
73	405
73	421
73	428
73	511
73	540
73	580
73	596
73	631
74	45
74	50
74	84
74	91
74	105
74	114
74	167
74	175
74	183
74	225
74	249
74	302
74	314
74	330
74	337
74	391
74	399
74	475
74	517
74	531
74	551
74	590
75	98
75	231
75	272
75	492
75	524
75	602
76	37
76	135
76	139
76	213
76	220
76	308
76	321
76	385
76	411
76	416
76	426
76	454
76	542
76	570
77	67
77	159
77	238
77	279
77	284
77	294
77	341
77	353
77	365
77	371
77	396
77	435
77	466
77	609
77	616
78	76
78	85
78	245
78	262
78	360
78	449
78	461
78	472
78	516
78	585
79	34
79	61
79	152
79	164
79	171
79	183
79	194
79	203
79	316
79	334
79	347
79	404
79	535
79	576
80	42
80	55
80	93
80	102
80	126
80	139
80	145
80	226
80	328
80	414
80	421
80	441
80	446
80	455
80	492
80	498
80	504
80	524
80	540
80	556
80	582
80	592
80	628
81	49
81	110
81	207
81	215
81	251
81	310
81	379
81	390
81	465
81	598
81	618
82	72
82	231
82	276
82	322
82	353
82	425
82	435
82	605
82	610
83	107
83	118
83	130
83	163
83	199
83	240
83	266
83	281
83	288
83	296
83	304
83	342
83	366
83	409
83	537
83	578
84	64
84	79
84	157
84	319
84	373
84	461
84	471
84	488
84	514
84	566
85	32
85	87
85	248
85	546
85	585
86	56
86	105
86	145
86	176
86	184
86	227
86	254
86	326
86	334
86	358
86	467
86	533
86	542
86	551
87	39
87	45
87	51
87	138
87	168
87	192
87	205
87	211
87	219
87	261
87	270
87	303
87	314
87	347
87	413
87	441
87	525
87	630
88	94
88	115
88	234
88	278
88	390
88	397
88	430
88	454
88	473
88	481
88	490
88	495
88	506
89	30
89	74
89	101
89	130
89	160
89	240
89	286
89	295
89	341
89	353
89	365
89	404
89	461
89	546
89	561
89	591
89	603
89	614
89	620
90	68
90	108
90	151
90	377
90	424
90	436
90	466
90	537
90	577
91	43
91	79
91	175
91	214
91	221
91	333
91	409
91	447
91	452
91	457
91	556
91	609
91	624
91	629
91	633
92	38
92	56
92	61
92	65
92	95
92	145
92	228
92	315
92	419
92	550
92	589
92	598
93	26
93	193
93	196
93	247
93	293
93	300
93	326
93	463
93	524
93	582
94	49
94	86
94	123
94	181
94	210
94	217
94	384
94	391
94	431
94	478
94	501
94	516
94	563
94	569
95	116
95	173
95	237
95	257
95	265
95	274
95	334
95	359
95	372
95	531
95	639
96	38
96	138
96	159
96	165
96	202
96	308
96	321
96	353
96	379
96	404
96	421
96	425
96	438
96	451
96	488
96	544
96	577
96	584
96	615
97	31
97	74
97	81
97	102
97	150
97	289
97	340
97	444
97	456
97	465
97	493
97	593
97	604
98	58
98	129
98	197
98	296
98	365
98	411
98	415
98	482
98	510
98	539
99	53
99	88
99	110
99	144
99	171
99	184
99	213
99	219
99	314
99	327
99	398
99	441
99	476
99	520
99	548
99	609
99	618
99	635
100	63
100	176
100	227
100	233
100	240
100	248
100	260
100	270
100	277
100	300
100	348
100	428
100	461
100	532
100	544
100	556
100	570
100	600
101	36
101	121
101	135
101	165
101	190
101	206
101	264
101	284
101	357
101	370
101	448
101	470
101	507
102	42
102	80
102	116
102	253
102	310
102	321
102	332
102	378
102	405
102	423
102	500
102	550
102	578
102	590
102	632
102	647
103	57
103	200
103	289
103	391
103	436
103	493
103	524
103	536
103	563
103	584
104	148
104	297
104	340
104	623
105	26
105	73
105	86
105	101
105	128
105	213
105	258
105	327
105	415
105	458
105	511
105	545
105	569
105	578
106	32
106	40
106	110
106	174
106	250
106	272
106	280
106	315
106	384
106	481
106	500
106	519
106	530
106	598
106	607
106	626
107	80
107	141
107	161
107	168
107	207
107	230
107	236
107	243
107	264
107	398
107	410
107	427
107	440
107	447
107	489
107	558
107	642
108	64
108	93
108	120
108	191
108	285
108	301
108	322
108	333
108	472
108	613
109	45
109	134
109	153
109	199
109	346
109	358
109	422
109	435
109	455
109	465
109	506
109	582
109	604
109	637
110	72
110	181
110	219
110	291
110	364
110	391
110	402
110	494
110	542
110	575
110	589
110	622
111	57
111	77
111	86
111	105
111	128
111	147
111	212
111	226
111	247
111	315
111	461
111	483
111	513
111	525
111	550
111	562
111	628
112	31
112	38
112	50
112	207
112	232
112	240
112	268
112	274
112	298
112	304
112	341
112	352
112	376
112	397
112	414
112	424
112	446
112	452
112	488
112	500
112	536
113	98
113	113
113	167
113	253
113	258
113	289
113	372
113	439
113	468
113	519
113	556
113	569
113	581
113	596
113	601
113	610
113	617
113	624
114	64
114	120
114	133
114	140
114	158
114	194
114	308
114	321
114	384
114	475
114	506
114	530
114	632
114	641
115	91
115	151
115	294
115	332
115	346
115	407
115	434
115	457
115	539
115	590
115	648
116	179
116	210
116	222
116	391
116	419
116	481
116	494
116	575
117	34
117	53
117	72
117	86
117	105
117	126
117	205
117	217
117	269
117	303
117	339
117	364
117	401
117	430
117	445
117	463
117	501
117	525
117	549
117	562
118	44
118	77
118	142
118	195
118	228
118	235
118	242
118	248
118	262
118	315
118	343
118	353
118	490
118	511
118	615
119	50
119	97
119	115
119	160
119	184
119	277
119	283
119	333
119	372
119	411
119	426
119	469
119	587
119	593
119	599
119	607
120	39
120	137
120	167
120	289
120	322
120	396
120	530
120	543
120	556
120	568
120	637
121	109
121	153
121	295
121	308
121	358
121	383
121	438
121	448
121	457
121	478
121	507
121	517
121	622
121	629
122	54
122	91
122	132
122	223
122	259
122	338
122	349
122	431
122	488
122	579
123	77
123	148
123	160
123	178
123	188
123	202
123	216
123	230
123	247
123	252
123	265
123	390
123	418
123	442
123	462
123	494
123	513
123	524
123	536
123	562
123	574
123	592
124	48
124	62
124	84
124	102
124	172
124	194
124	209
124	238
124	270
124	303
124	315
124	327
124	365
124	401
124	413
124	503
124	547
125	114
125	355
125	376
125	424
125	450
125	472
125	610
126	39
126	44
126	70
126	122
126	140
126	292
126	332
126	337
126	382
126	396
126	439
126	480
126	489
126	556
126	581
126	588
126	600
126	624
126	632
126	640
127	34
127	95
127	108
127	135
127	184
127	286
127	297
127	321
127	360
127	407
127	457
127	467
127	506
127	519
127	530
127	567
127	617
128	28
128	53
128	59
128	89
128	153
128	211
128	219
128	227
128	232
128	254
128	275
128	309
128	402
128	493
128	541
128	594
129	177
129	192
129	261
129	267
129	342
129	349
129	365
129	390
129	430
129	462
129	471
129	512
129	525
129	537
129	575
130	121
130	163
130	205
130	239
130	250
130	281
130	355
130	376
130	415
130	453
130	586
131	67
131	74
131	83
131	101
131	145
131	315
131	423
131	477
131	548
131	563
131	621
131	636
132	41
132	50
132	58
132	157
132	170
132	288
132	303
132	372
132	444
132	458
132	518
132	597
132	614
132	629
133	32
133	45
133	114
133	138
133	276
133	322
133	332
133	394
133	405
133	467
133	485
133	530
133	541
133	568
134	133
134	215
134	246
134	256
134	263
134	295
134	309
134	338
134	346
134	352
134	381
134	418
134	474
134	490
134	508
134	555
134	584
134	590
134	606
135	87
135	126
135	151
135	164
135	187
135	208
135	222
135	231
135	236
135	270
135	284
135	328
135	358
135	414
135	428
135	439
135	446
135	522
135	575
136	57
136	106
136	181
136	195
136	201
136	389
136	399
136	463
136	494
136	504
137	45
137	64
137	78
137	118
137	144
137	291
137	316
137	377
137	453
137	471
137	512
137	535
137	549
137	561
137	647
138	36
138	40
138	71
138	101
138	225
138	234
138	302
138	366
138	478
138	531
138	617
138	632
138	639
139	49
139	115
139	131
139	137
139	156
139	219
139	241
139	279
139	322
139	422
139	434
139	451
139	458
139	483
139	488
139	521
139	567
139	580
139	592
139	597
139	602
139	609
139	624
140	26
140	170
140	211
140	246
140	256
140	273
140	348
140	354
140	383
140	405
140	411
140	441
140	470
140	511
141	124
141	148
141	193
141	206
141	261
141	268
141	297
141	310
141	360
141	372
141	420
141	447
141	475
141	527
141	542
141	555
141	569
141	587
141	600
142	33
142	82
142	96
142	187
142	286
142	317
142	328
142	393
142	465
142	506
142	516
142	644
142	650
143	54
143	68
143	76
143	105
143	227
143	338
143	367
143	400
143	427
143	493
143	622
144	47
144	60
144	118
144	140
144	161
144	180
144	199
144	241
144	292
144	304
144	344
144	468
144	522
144	561
144	607
144	636
145	40
145	133
145	173
145	223
145	351
145	376
145	407
145	454
145	460
145	477
145	481
145	487
145	501
145	511
145	534
145	548
145	573
145	593
145	599
145	613
146	88
146	112
146	127
146	154
146	193
146	202
146	210
146	235
146	263
146	272
146	278
146	322
146	420
146	436
146	568
146	644
147	218
147	257
147	310
147	357
147	394
147	444
147	580
147	627
148	83
148	148
148	247
148	296
148	372
148	382
148	430
148	471
148	540
148	586
148	619
148	640
149	59
149	65
149	73
149	101
149	167
149	178
149	185
149	284
149	399
149	491
149	555
150	33
150	45
150	51
150	142
150	162
150	252
150	292
150	304
150	315
150	340
150	346
150	389
150	412
150	455
150	464
150	484
150	497
150	506
150	527
150	573
150	604
150	633
150	650
151	40
151	94
151	108
151	115
151	122
151	136
151	233
151	239
151	267
151	328
151	406
151	448
151	475
151	514
151	535
151	547
151	560
151	610
152	130
152	226
152	335
152	354
152	376
152	395
152	521
152	593
152	616
153	36
153	154
153	172
153	199
153	212
153	219
153	261
153	278
153	300
153	359
153	419
153	433
153	438
153	580
154	69
154	87
154	193
154	206
154	289
154	309
154	320
154	382
154	461
154	501
154	510
154	541
154	568
154	622
154	658
155	31
155	62
155	77
155	180
155	250
155	272
155	365
155	389
155	401
155	412
155	425
155	466
155	496
155	553
155	637
156	47
156	104
156	147
156	167
156	243
156	283
156	296
156	332
156	340
156	371
156	443
156	451
156	485
156	529
156	586
156	599
156	608
156	627
157	55
157	112
157	126
157	134
157	140
157	185
157	237
157	266
157	305
157	317
157	326
157	348
157	408
157	456
157	477
157	516
157	615
157	641
158	41
158	94
158	118
158	202
158	229
158	261
158	378
158	418
158	431
158	471
158	506
158	573
158	650
159	159
159	215
159	223
159	278
159	322
159	338
159	355
159	396
159	464
159	522
159	533
159	540
159	548
159	561
159	593
160	36
160	82
160	151
160	173
160	193
160	208
160	255
160	289
160	361
160	385
160	448
160	494
160	633
161	29
161	66
161	75
161	101
161	299
161	401
161	413
161	488
161	612
161	619
161	646
162	59
162	107
162	145
162	181
162	241
162	272
162	436
162	442
162	481
162	569
162	580
162	601
162	626
163	41
163	51
163	115
163	137
163	187
163	198
163	228
163	233
163	282
163	327
163	343
163	389
163	453
163	460
163	508
163	554
164	47
164	130
164	165
164	253
164	265
164	295
164	306
164	333
164	350
164	373
164	407
164	425
164	501
164	587
165	37
165	158
165	220
165	357
165	468
165	524
165	562
165	607
165	631
165	641
166	86
166	95
166	151
166	203
166	211
166	259
166	277
166	289
166	311
166	322
166	378
166	418
166	444
166	516
166	529
166	535
166	542
166	594
167	79
167	173
167	192
167	300
167	338
167	362
167	384
167	394
167	430
167	438
167	449
167	478
167	492
167	549
167	570
167	622
167	636
168	30
168	55
168	63
168	70
168	103
168	142
168	240
168	245
168	271
168	368
168	375
168	484
168	498
168	512
168	580
168	587
168	616
169	167
169	198
169	284
169	307
169	327
169	345
169	408
169	473
169	557
169	575
169	599
170	37
170	43
170	110
170	118
170	161
170	186
170	231
170	295
170	317
170	351
170	400
170	422
170	462
170	544
171	125
171	134
171	217
171	224
171	335
171	390
171	508
171	525
171	650
172	53
172	83
172	91
172	146
172	157
172	209
172	264
172	277
172	301
172	312
172	341
172	434
172	495
172	502
172	516
172	537
172	641
173	98
173	179
173	192
173	250
173	288
173	323
173	357
173	363
173	370
173	440
173	467
173	474
173	564
173	583
173	606
173	612
173	618
173	634
173	647
174	60
174	68
174	74
174	152
174	202
174	243
174	384
174	412
174	417
174	426
174	481
174	551
174	570
174	595
174	626
175	41
175	50
175	105
175	141
175	172
175	235
175	272
175	282
175	306
175	328
175	347
175	375
175	404
175	446
175	601
175	654
176	128
176	165
176	214
176	222
176	390
176	459
176	533
176	541
176	589
177	114
177	159
177	184
177	259
177	298
177	317
177	336
177	352
177	361
177	422
177	450
177	497
177	504
177	546
177	557
177	575
178	26
178	38
178	47
178	79
178	88
178	121
178	196
178	252
178	266
178	277
178	292
178	380
178	443
178	471
178	486
178	521
178	527
178	636
178	645
179	33
179	95
179	178
179	191
179	232
179	247
179	287
179	310
179	324
179	342
179	367
179	396
179	408
179	415
179	429
179	436
179	479
179	564
179	583
179	624
179	630
179	640
180	73
180	207
180	239
180	385
180	402
180	489
180	517
180	601
180	610
180	617
180	652
181	56
181	146
181	153
181	171
181	202
181	282
181	305
181	495
181	508
181	552
182	35
182	63
182	100
182	226
182	263
182	272
182	298
182	329
182	348
182	355
182	420
182	454
182	461
182	571
182	596
183	43
183	48
183	83
183	109
183	116
183	133
183	139
183	167
183	218
183	314
183	320
183	336
183	362
183	426
183	439
183	466
183	472
183	525
183	531
183	537
183	541
183	547
183	558
183	578
183	589
183	606
184	71
184	91
184	158
184	195
184	212
184	236
184	257
184	278
184	287
184	326
184	376
184	382
184	406
184	445
184	485
184	651
185	78
185	182
185	244
185	293
185	310
185	343
185	370
185	387
185	393
185	479
185	499
185	583
185	620
185	627
185	633
186	123
186	150
186	176
186	206
186	251
186	266
186	302
186	431
186	437
186	449
186	504
186	517
186	603
186	614
186	641
187	67
187	94
187	169
187	229
187	351
187	357
187	415
187	552
187	563
187	597
188	54
188	62
188	106
188	223
188	262
188	272
188	330
188	404
188	410
188	422
188	462
188	490
188	509
188	535
188	539
188	569
189	31
189	39
189	47
189	85
189	129
189	137
189	143
189	162
189	200
189	216
189	283
189	298
189	314
189	321
189	338
189	379
189	384
189	470
189	475
189	573
189	577
190	74
190	156
190	181
190	187
190	194
190	240
190	289
190	347
190	367
190	372
190	397
190	428
190	440
190	447
190	454
190	482
190	495
190	523
190	545
190	588
190	646
191	101
191	211
191	234
191	245
191	256
191	279
191	305
191	361
191	390
191	419
191	433
191	501
191	531
191	556
191	581
191	600
191	624
191	629
191	637
192	81
192	113
192	119
192	167
192	173
192	326
192	342
192	351
192	413
192	507
192	607
192	654
193	33
193	56
193	67
193	125
193	151
193	228
193	251
193	294
193	332
193	408
193	424
193	452
193	459
193	464
193	551
193	571
193	594
193	616
194	143
194	204
194	300
194	316
194	443
194	490
194	577
195	89
195	95
195	107
195	133
195	138
195	160
195	186
195	198
195	215
195	283
195	357
195	369
195	381
195	386
195	394
195	471
195	476
195	485
195	524
196	74
196	178
196	240
196	262
196	273
196	322
196	338
196	347
196	363
196	375
196	400
196	413
196	428
196	437
196	518
196	568
196	631
196	641
197	28
197	41
197	51
197	113
197	155
197	191
197	208
197	289
197	306
197	352
197	419
197	448
197	463
197	497
197	504
197	558
197	586
197	604
197	610
197	647
198	61
198	148
198	232
198	246
198	295
198	328
198	406
198	433
198	455
198	510
198	544
199	102
199	119
199	128
199	227
199	257
199	268
199	278
199	333
199	417
199	439
199	493
199	502
199	549
199	592
200	71
200	83
200	140
200	164
200	202
200	311
200	318
200	342
200	365
200	390
200	444
200	466
200	479
200	498
200	526
200	540
200	573
200	618
201	34
201	43
201	57
201	90
201	108
201	135
201	159
201	174
201	221
201	252
201	301
201	351
201	380
201	423
201	437
201	521
201	561
201	590
201	637
202	153
202	181
202	214
202	239
202	263
202	273
202	284
202	324
202	358
202	396
202	402
202	473
202	514
202	555
202	598
202	642
203	48
203	114
203	188
203	195
203	207
203	279
203	291
203	307
203	315
203	374
203	427
203	433
203	456
203	486
203	501
203	508
203	543
203	568
203	586
203	624
204	26
204	77
204	97
204	104
204	148
204	231
204	247
204	329
204	336
204	346
204	414
204	419
204	462
204	537
204	593
204	605
204	633
205	64
205	131
205	225
205	257
205	268
205	297
205	353
205	360
205	368
205	390
205	440
205	469
205	495
205	574
205	581
206	140
206	165
206	201
206	220
206	320
206	342
206	383
206	475
206	530
206	612
206	639
207	38
207	84
207	176
207	242
207	253
207	302
207	325
207	378
207	408
207	430
207	489
207	510
207	518
207	524
207	548
208	59
208	71
208	90
208	110
208	119
208	135
208	158
208	182
208	190
208	213
208	229
208	235
208	262
208	273
208	293
208	308
208	349
208	374
208	403
208	445
208	501
208	618
209	31
209	125
209	152
209	247
209	281
209	332
209	339
209	364
209	394
209	413
209	421
209	435
209	451
209	457
209	464
209	554
209	561
209	568
209	587
209	600
210	47
210	99
210	171
210	196
210	206
210	314
210	322
210	355
210	388
210	398
210	538
210	575
211	66
211	79
211	146
211	225
211	257
211	270
211	298
211	418
211	441
211	482
211	495
211	594
211	607
211	625
212	116
212	130
212	141
212	163
212	178
212	240
212	304
212	338
212	344
212	382
212	470
212	515
212	520
212	547
212	613
212	635
213	54
213	185
213	202
213	217
213	276
213	310
213	327
213	359
213	370
213	376
213	404
213	414
213	424
213	430
213	542
213	640
214	42
214	73
214	85
214	104
214	157
214	213
214	229
214	235
214	263
214	285
214	293
214	350
214	453
214	488
214	506
214	527
214	570
214	601
214	619
215	27
215	35
215	92
215	135
215	192
215	246
215	333
215	366
215	392
215	459
215	464
215	476
215	498
215	553
215	563
215	579
215	588
216	49
216	61
216	79
216	110
216	122
216	151
216	167
216	174
216	206
216	224
216	316
216	398
216	420
216	436
216	443
216	481
216	533
217	67
217	99
217	145
217	240
217	258
217	299
217	322
217	340
217	346
217	355
217	387
217	426
217	472
217	521
217	608
217	630
217	642
218	140
218	181
218	196
218	271
218	289
218	305
218	361
218	371
218	381
218	407
218	449
218	488
218	546
218	558
218	575
218	596
218	622
218	636
219	118
219	128
219	156
219	187
219	217
219	234
219	251
219	278
219	328
219	376
219	464
219	504
219	510
219	516
219	582
219	615
220	30
220	55
220	86
220	105
220	202
220	262
220	295
220	312
220	336
220	351
220	392
220	453
220	483
220	497
220	539
221	74
221	92
221	134
221	230
221	245
221	318
221	366
221	386
221	397
221	528
221	564
221	588
221	603
222	42
222	62
222	112
222	124
222	144
222	151
222	168
222	175
222	192
222	210
222	284
222	341
222	357
222	415
222	421
222	436
222	442
222	461
222	473
222	478
222	492
222	533
222	553
222	570
222	626
223	36
223	81
223	198
223	222
223	239
223	256
223	273
223	300
223	323
223	333
223	380
223	407
223	521
223	609
223	617
223	633
223	639
224	99
224	161
224	183
224	216
224	290
224	307
224	313
224	372
224	427
224	448
224	458
224	506
224	546
224	557
224	561
224	576
224	586
224	597
225	48
225	68
225	119
225	129
225	139
225	155
225	205
225	265
225	279
225	328
225	391
225	404
225	467
225	472
225	484
225	539
226	29
226	77
226	106
226	189
226	227
226	249
226	295
226	352
226	358
226	385
226	433
226	438
226	453
226	480
226	526
227	55
227	87
227	194
227	302
227	335
227	344
227	379
227	396
227	411
227	424
227	490
227	514
227	532
227	565
227	571
227	602
228	42
228	63
228	94
228	124
228	134
228	145
228	165
228	170
228	177
228	210
228	225
228	239
228	244
228	269
228	284
228	317
228	373
228	418
228	504
228	553
228	590
228	629
228	642
229	113
229	151
229	184
229	200
229	232
229	256
229	275
229	299
229	308
229	323
229	329
229	348
229	363
229	389
229	406
229	447
229	498
229	511
229	519
229	614
229	621
229	636
230	82
230	141
230	158
230	216
230	281
230	291
230	428
230	454
230	458
230	469
230	526
230	532
230	537
230	543
230	559
230	584
230	596
231	34
231	50
231	89
231	101
231	131
231	205
231	249
231	338
231	384
231	400
231	422
231	435
231	442
231	465
231	481
231	600
231	608
232	58
232	69
232	118
232	167
232	188
232	260
232	344
232	379
232	395
232	409
232	474
232	502
232	563
232	577
233	77
233	148
233	162
233	172
233	178
233	195
233	211
233	270
233	286
233	304
233	320
233	333
233	359
233	368
233	415
233	490
233	507
233	539
233	549
233	570
233	590
233	625
234	42
234	95
234	106
234	136
234	220
234	228
234	237
234	277
234	295
234	311
234	349
234	364
234	375
234	389
234	404
234	431
234	459
234	486
234	514
234	555
234	618
234	632
234	638
235	63
235	124
235	200
235	327
235	384
235	422
235	426
235	437
235	447
235	499
235	521
235	531
235	535
235	584
235	612
236	71
236	84
236	114
236	142
236	152
236	184
236	191
236	216
236	247
236	290
236	317
236	339
236	470
236	481
236	544
236	562
236	574
236	596
236	605
237	28
237	36
237	101
237	206
237	224
237	258
237	265
237	281
237	307
237	370
237	399
237	443
237	476
237	494
238	48
238	57
238	90
238	120
238	133
238	170
238	322
238	352
238	360
238	393
238	417
238	452
238	509
238	527
238	549
239	41
239	76
239	158
239	164
239	176
239	197
239	232
239	242
239	298
239	303
239	333
239	344
239	380
239	387
239	407
239	458
239	505
239	539
239	567
239	588
239	622
239	635
239	640
240	108
240	127
240	146
240	213
240	219
240	252
240	312
240	366
240	375
240	422
240	446
240	463
240	483
240	490
240	499
240	515
240	532
240	555
240	596
240	609
240	628
241	65
241	97
241	138
241	188
241	208
241	238
241	276
241	293
241	317
241	326
241	356
241	402
241	428
241	438
241	521
241	543
241	579
241	614
242	51
242	85
242	153
242	180
242	184
242	261
242	337
242	342
242	349
242	369
242	397
242	412
242	468
242	494
242	561
242	573
243	72
243	115
243	193
243	247
243	256
243	269
243	284
243	307
243	331
243	361
243	391
243	442
243	454
243	474
243	503
243	538
243	593
243	600
244	44
244	59
244	102
244	159
244	167
244	199
244	223
244	289
244	321
244	384
244	418
244	433
244	459
244	510
244	526
244	548
244	552
244	618
245	36
245	93
245	121
245	134
245	142
245	174
245	218
245	266
245	274
245	296
245	302
245	351
245	366
245	378
245	406
245	447
245	465
245	498
245	556
245	584
245	624
245	630
245	638
246	32
246	66
246	79
246	110
246	149
246	186
246	229
246	250
246	262
246	372
246	400
246	422
246	438
246	480
246	487
246	532
246	567
246	579
246	605
246	611
247	98
247	212
247	317
247	335
247	343
247	359
247	388
247	395
247	413
247	428
247	453
247	515
247	544
247	572
248	48
248	54
248	126
248	155
248	179
248	222
248	244
248	271
248	305
248	329
248	348
248	362
248	443
248	461
248	493
248	504
248	520
248	562
248	597
249	86
249	117
249	162
249	170
249	191
249	218
249	238
249	283
249	300
249	312
249	367
249	382
249	418
249	433
249	469
249	476
249	550
249	617
250	61
250	74
250	176
250	206
250	232
250	278
250	290
250	324
250	339
250	403
250	408
250	423
250	484
250	510
250	539
250	589
251	42
251	93
251	103
251	130
251	136
251	144
251	213
251	226
251	248
251	253
251	258
251	266
251	353
251	372
251	413
251	438
251	449
251	465
251	500
251	526
251	582
251	610
251	629
251	636
252	150
252	197
252	318
252	364
252	376
252	388
252	398
252	455
252	471
252	544
252	556
252	575
253	36
253	67
253	81
253	97
253	109
253	165
253	186
253	242
253	273
253	296
253	308
253	330
253	348
253	359
253	491
253	504
253	532
253	568
253	603
253	623
254	156
254	179
254	203
254	222
254	281
254	285
254	291
254	302
254	381
254	418
254	434
254	444
254	477
254	514
254	521
254	592
255	56
255	74
255	87
255	132
255	170
255	191
255	235
255	269
255	313
255	342
255	368
255	391
255	407
255	425
255	461
255	510
255	538
255	550
255	580
255	597
255	615
255	634
256	49
256	105
256	122
256	127
256	139
256	209
256	214
256	245
256	251
256	263
256	333
256	337
256	353
256	377
256	402
256	439
256	451
256	466
256	482
256	499
256	527
256	563
256	640
257	29
257	41
257	118
257	145
257	175
257	228
257	327
257	362
257	397
257	414
257	517
257	555
257	608
257	628
258	60
258	93
258	152
258	188
258	202
258	283
258	300
258	310
258	317
258	322
258	357
258	372
258	386
258	420
258	430
258	445
258	471
258	487
258	504
258	544
258	573
258	602
259	53
259	67
259	77
259	160
259	182
259	196
259	272
259	278
259	295
259	341
259	346
259	366
259	382
259	406
259	455
259	463
259	477
259	493
259	522
259	532
259	590
259	622
260	34
260	100
260	111
260	166
260	211
260	218
260	223
260	234
260	240
260	266
260	290
260	308
260	376
260	391
260	425
260	434
260	499
260	511
260	561
260	578
260	585
260	634
261	73
261	129
261	136
261	255
261	261
261	304
261	336
261	353
261	361
261	400
261	415
261	549
261	568
261	597
262	28
262	47
262	83
262	89
262	123
262	142
262	172
262	177
262	249
262	313
262	331
262	348
262	410
262	428
262	440
262	467
262	482
262	489
262	505
262	517
262	528
262	538
262	555
262	615
262	628
263	58
263	105
263	116
263	148
263	154
263	162
263	185
263	197
263	203
263	285
263	292
263	298
263	320
263	326
263	344
263	370
263	395
263	405
263	421
263	447
263	455
263	472
263	608
264	132
264	269
264	274
264	358
264	379
264	389
264	435
264	494
264	522
264	533
264	544
264	562
264	573
264	590
264	621
265	66
265	78
265	110
265	161
265	167
265	208
265	214
265	220
265	225
265	231
265	265
265	279
265	318
265	333
265	339
265	366
265	425
265	461
265	511
265	601
265	638
266	34
266	100
266	138
266	175
266	242
266	254
266	258
266	288
266	300
266	306
266	311
266	352
266	373
266	384
266	399
266	414
266	451
266	477
266	500
266	549
266	580
267	53
267	144
267	188
267	280
267	295
267	322
267	329
267	347
267	361
267	431
267	467
267	483
267	528
267	595
268	40
268	45
268	85
268	120
268	127
268	150
268	182
268	342
268	356
268	369
268	410
268	420
268	489
268	506
268	516
268	539
268	556
268	569
268	586
268	625
269	29
269	73
269	155
269	200
269	239
269	298
269	337
269	377
269	393
269	405
269	436
269	445
269	456
269	473
269	497
269	606
269	615
269	632
270	91
270	105
270	114
270	167
270	206
270	211
270	222
270	229
270	233
270	257
270	268
270	272
270	308
270	365
270	387
270	426
270	479
270	522
270	533
270	545
270	562
270	575
271	133
271	140
271	161
271	171
271	179
271	216
271	245
271	251
271	262
271	303
271	314
271	321
271	326
271	332
271	360
271	402
271	441
271	460
271	468
271	502
271	511
272	50
272	56
272	67
272	78
272	118
272	196
272	287
272	293
272	345
272	350
272	373
272	382
272	396
272	431
272	451
272	486
272	528
272	549
272	589
272	599
272	622
273	98
273	125
273	146
273	185
273	191
273	277
273	281
273	341
273	368
273	377
273	391
273	409
273	419
273	492
273	507
273	517
273	581
273	628
274	42
274	85
274	109
274	152
274	203
274	208
274	226
274	336
274	355
274	364
274	436
274	446
274	497
274	540
274	564
274	570
274	594
275	35
275	73
275	130
275	170
275	222
275	231
275	236
275	242
275	248
275	259
275	265
275	301
275	306
275	311
275	318
275	323
275	330
275	350
275	386
275	405
275	426
275	457
275	475
275	481
275	556
275	575
275	605
275	610
275	617
275	635
276	92
276	104
276	114
276	157
276	163
276	174
276	214
276	344
276	359
276	372
276	399
276	462
276	470
276	501
276	522
276	534
276	642
277	62
277	136
277	200
277	233
277	251
277	262
277	280
277	285
277	290
277	295
277	382
277	395
277	422
277	431
277	440
277	450
277	489
277	512
277	545
277	551
277	587
277	599
278	67
278	80
278	98
278	120
278	181
278	187
278	194
278	217
278	268
278	275
278	326
278	341
278	354
278	367
278	408
278	494
278	517
278	581
278	621
279	48
279	127
279	142
279	224
279	228
279	238
279	244
279	256
279	303
279	320
279	362
279	376
279	390
279	416
279	446
279	506
279	528
279	565
279	630
280	40
280	85
280	109
280	154
280	160
280	172
280	250
280	299
280	309
280	315
280	331
280	335
280	358
280	372
280	403
280	426
280	436
280	456
280	466
280	479
280	484
280	539
280	571
280	605
280	613
281	34
281	73
281	116
281	210
281	237
281	283
281	385
281	398
281	411
281	472
281	490
281	501
281	523
281	533
281	586
281	594
281	617
281	625
281	637
282	61
282	91
282	105
282	203
282	278
282	287
282	306
282	323
282	329
282	345
282	393
282	407
282	421
282	430
282	441
282	451
282	511
282	558
282	575
283	53
283	136
283	184
283	254
283	260
283	264
283	295
283	311
283	340
283	352
283	366
283	380
283	496
283	506
283	527
283	546
283	600
283	644
284	47
284	79
284	121
284	145
284	178
284	196
284	215
284	219
284	231
284	237
284	242
284	248
284	272
284	301
284	317
284	334
284	362
284	376
284	389
284	446
284	553
284	565
284	582
284	631
285	66
285	111
285	128
285	156
285	162
285	168
285	225
285	266
285	290
285	348
285	357
285	402
285	411
285	426
285	434
285	458
285	462
285	469
285	474
285	480
285	571
285	607
286	97
286	149
286	173
286	286
286	330
286	370
286	383
286	487
286	491
286	516
286	534
286	589
286	613
286	654
287	62
287	74
287	86
287	118
287	141
287	187
287	199
287	205
287	281
287	309
287	352
287	392
287	406
287	440
287	451
287	499
287	506
287	510
287	523
287	539
287	547
287	559
287	577
287	595
287	621
288	93
288	108
288	134
288	183
288	212
288	234
288	257
288	275
288	298
288	304
288	321
288	326
288	338
288	365
288	378
288	388
288	414
288	420
288	430
288	544
288	601
288	628
289	33
289	52
289	102
289	124
289	192
289	229
289	240
289	245
289	251
289	262
289	270
289	315
289	360
289	396
289	410
289	465
289	512
289	582
289	608
289	633
289	639
289	646
290	80
290	153
290	159
290	178
290	217
290	222
290	289
290	333
290	346
290	374
290	383
290	426
290	435
290	445
290	455
290	471
290	478
290	483
290	488
290	496
290	502
290	530
290	553
291	45
291	57
291	68
291	112
291	129
291	164
291	171
291	208
291	284
291	341
291	355
291	369
291	392
291	401
291	408
291	461
291	536
291	549
291	566
291	571
292	38
292	98
292	138
292	144
292	149
292	196
292	202
292	265
292	307
292	312
292	329
292	363
292	414
292	439
292	506
292	514
292	524
292	542
292	590
292	594
292	615
292	621
292	645
292	651
293	74
293	86
293	188
293	214
293	237
293	260
293	280
293	302
293	337
293	378
293	406
293	421
293	431
293	449
293	558
293	579
293	603
294	31
294	107
294	124
294	133
294	154
294	226
294	232
294	247
294	253
294	270
294	292
294	359
294	373
294	387
294	396
294	469
294	474
294	486
294	498
294	540
294	547
294	584
294	628
294	654
295	51
295	92
295	162
295	167
295	182
295	220
295	331
295	341
295	354
295	366
295	382
295	410
295	445
295	456
295	462
295	479
295	493
295	503
295	514
295	556
295	569
295	575
295	598
295	609
295	619
295	639
296	63
296	175
296	191
296	204
296	276
296	286
296	315
296	321
296	327
296	391
296	401
296	416
296	426
296	438
296	520
296	531
296	536
296	626
296	636
297	43
297	80
297	115
297	129
297	199
297	210
297	230
297	240
297	246
297	267
297	310
297	362
297	450
297	510
297	542
297	563
297	573
297	591
297	601
297	611
297	642
298	37
298	68
298	87
298	98
298	140
298	187
298	224
298	255
298	261
298	272
298	295
298	335
298	347
298	356
298	377
298	386
298	396
298	406
298	421
298	431
298	516
298	597
298	617
298	624
299	56
299	75
299	105
299	122
299	146
299	152
299	165
299	170
299	196
299	213
299	290
299	304
299	412
299	475
299	487
299	499
299	525
299	547
299	558
299	581
300	134
300	158
300	249
300	286
300	313
300	318
300	323
300	330
300	365
300	372
300	401
300	444
300	453
300	459
300	465
300	471
300	482
300	494
300	518
300	553
300	605
300	628
300	630
301	49
301	180
301	202
301	220
301	243
301	269
301	275
301	280
301	340
301	353
301	361
301	382
301	390
301	417
301	426
301	435
301	532
301	570
301	585
301	611
301	619
301	646
301	654
302	61
302	93
302	192
302	206
302	231
302	237
302	264
302	299
302	408
302	448
302	504
302	538
302	637
303	42
303	116
303	126
303	131
303	137
303	143
303	168
303	173
303	187
303	226
303	293
303	311
303	328
303	334
303	378
303	422
303	440
303	482
303	486
303	510
303	520
303	563
303	575
303	593
303	634
304	69
304	81
304	102
304	110
304	150
304	154
304	161
304	210
304	216
304	252
304	257
304	282
304	289
304	320
304	344
304	352
304	364
304	369
304	384
304	395
304	401
304	430
304	463
304	468
304	479
304	491
304	525
304	545
304	599
304	621
305	56
305	88
305	196
305	272
305	277
305	306
305	325
305	373
305	456
305	473
305	497
305	501
305	516
305	556
305	625
306	35
306	49
306	76
306	177
306	182
306	203
306	240
306	246
306	262
306	267
306	315
306	331
306	359
306	408
306	417
306	426
306	435
306	449
306	504
306	550
306	605
307	65
307	172
307	192
307	208
307	229
307	235
307	294
307	336
307	340
307	347
307	377
307	391
307	440
307	444
307	520
307	530
307	568
307	580
307	587
307	613
307	630
307	642
308	28
308	41
308	83
308	95
308	114
308	121
308	127
308	141
308	214
308	220
308	328
308	356
308	369
308	402
308	413
308	421
308	482
308	488
308	511
308	535
308	573
308	594
308	618
308	649
309	53
309	108
309	135
309	146
309	152
309	164
309	186
309	200
309	274
309	281
309	310
309	352
309	364
309	385
309	395
309	431
309	461
309	471
309	477
309	541
309	601
310	70
310	101
310	159
310	249
310	254
310	289
310	306
310	323
310	331
310	372
310	380
310	455
310	465
310	496
310	499
310	518
310	525
310	547
310	608
311	59
311	90
311	181
311	205
311	244
311	265
311	269
311	296
311	301
311	317
311	333
311	343
311	358
311	367
311	399
311	408
311	417
311	436
311	450
311	504
311	553
311	584
311	626
311	636
312	34
312	46
312	79
312	118
312	126
312	176
312	194
312	226
312	232
312	238
312	309
312	327
312	339
312	349
312	493
312	558
312	564
313	131
313	137
313	144
313	150
313	168
313	190
313	210
313	216
313	221
313	251
313	283
313	287
313	292
313	353
313	369
313	376
313	393
313	403
313	422
313	427
313	440
313	456
313	468
313	486
313	509
313	532
313	572
313	577
313	589
313	614
313	642
314	65
314	85
314	96
314	103
314	110
314	156
314	257
314	277
314	305
314	315
314	323
314	362
314	382
314	387
314	412
314	445
314	462
314	474
314	481
314	521
314	536
314	596
314	631
315	41
315	72
315	184
315	200
315	240
315	331
315	436
315	451
315	493
315	496
315	542
315	602
315	637
315	648
316	54
316	179
316	193
316	207
316	231
316	235
316	260
316	308
316	338
316	347
316	351
316	357
316	366
316	379
316	399
316	407
316	416
316	483
316	490
316	503
316	516
316	526
316	548
316	554
316	619
317	60
317	90
317	122
317	167
317	173
317	213
317	218
317	224
317	244
317	270
317	299
317	312
317	317
317	334
317	392
317	427
317	469
317	560
317	568
317	573
317	586
317	609
317	626
318	79
318	114
318	134
318	140
318	146
318	162
318	189
318	249
318	256
318	290
318	326
318	342
318	361
318	375
318	396
318	412
318	421
318	430
318	465
318	481
318	486
318	579
318	643
319	34
319	67
319	107
319	204
319	265
319	275
319	285
319	304
319	338
319	370
319	383
319	386
319	404
319	438
319	442
319	454
319	458
319	473
319	498
319	509
319	521
319	531
319	539
319	592
319	635
320	96
320	152
320	183
320	233
320	237
320	293
320	321
320	353
320	391
320	399
320	526
320	544
320	598
320	622
320	629
320	655
321	42
321	48
321	74
321	84
321	122
321	129
321	158
321	193
321	209
321	220
321	227
321	262
321	278
321	281
321	313
321	326
321	346
321	378
321	409
321	417
321	425
321	446
321	451
321	478
321	494
321	515
321	551
322	56
322	216
322	246
322	256
322	300
322	332
322	361
322	435
322	471
322	483
322	488
322	504
322	557
322	563
322	572
322	577
322	605
322	611
323	61
323	90
323	137
323	164
323	199
323	240
323	251
323	269
323	308
323	341
323	374
323	382
323	386
323	395
323	403
323	412
323	421
323	430
323	438
323	456
323	462
323	509
323	520
323	588
323	637
324	79
324	103
324	112
324	149
324	176
324	180
324	188
324	205
324	224
324	235
324	258
324	280
324	296
324	321
324	337
324	352
324	356
324	364
324	369
324	443
324	468
324	498
324	532
324	582
324	617
324	625
324	654
325	29
325	37
325	68
325	117
325	127
325	154
325	170
325	194
325	220
325	230
325	265
325	286
325	332
325	377
325	391
325	399
325	407
325	416
325	452
325	540
325	547
325	592
326	85
326	98
326	210
326	272
326	277
326	303
326	318
326	325
326	344
326	348
326	359
326	425
326	437
326	473
326	479
326	485
326	491
326	598
326	631
326	644
327	44
327	51
327	75
327	121
327	160
327	177
327	244
327	249
327	255
327	289
327	298
327	340
327	368
327	381
327	386
327	411
327	442
327	448
327	456
327	467
327	505
327	515
327	526
327	552
327	560
327	566
327	606
328	58
328	64
328	133
328	139
328	145
328	166
328	215
328	261
328	321
328	328
328	363
328	373
328	394
328	403
328	420
328	433
328	452
328	462
328	572
328	588
328	612
329	32
329	92
329	108
329	151
329	172
329	184
329	189
329	205
329	221
329	229
329	234
329	268
329	274
329	285
329	297
329	310
329	316
329	353
329	429
329	501
329	509
329	522
329	581
329	636
330	39
330	102
330	196
330	280
330	302
330	350
330	376
330	391
330	398
330	406
330	411
330	415
330	438
330	482
330	488
330	496
330	531
330	536
330	543
330	619
330	625
331	69
331	81
331	126
331	156
331	240
331	246
331	257
331	272
331	332
331	369
331	373
331	385
331	424
331	434
331	459
331	494
331	516
331	603
331	652
332	46
332	96
332	120
332	162
332	201
332	210
332	264
332	293
332	318
332	327
332	336
332	344
332	360
332	378
332	419
332	446
332	451
332	465
332	471
332	477
332	490
332	526
332	550
332	555
332	563
332	570
332	575
333	53
333	86
333	112
333	147
333	181
333	192
333	232
333	259
333	274
333	352
333	355
333	364
333	381
333	390
333	394
333	401
333	429
333	456
333	483
333	504
333	583
333	595
333	634
334	107
334	130
334	136
334	142
334	169
334	175
334	216
334	225
334	250
334	254
334	279
334	290
334	306
334	310
334	414
334	437
334	442
334	511
334	520
334	590
334	615
335	35
335	62
335	75
335	92
335	101
335	159
335	198
335	283
335	297
335	302
335	323
335	341
335	348
335	371
335	374
335	384
335	392
335	398
335	405
335	467
335	479
335	532
335	539
335	547
335	622
335	647
336	43
336	124
336	152
336	188
336	205
336	212
336	246
336	268
336	318
336	353
336	380
336	425
336	433
336	447
336	461
336	489
336	496
336	506
336	516
336	525
336	628
336	637
336	641
337	29
337	48
337	69
337	81
337	117
337	165
337	172
337	239
337	264
337	287
337	291
337	300
337	314
337	328
337	358
337	368
337	389
337	410
337	419
337	473
337	559
337	566
337	572
337	602
338	96
338	139
338	183
338	223
338	229
338	250
338	257
338	277
338	304
338	336
338	344
338	363
338	376
338	394
338	400
338	428
338	438
338	456
338	465
338	487
338	500
338	510
338	554
338	578
338	586
338	606
338	610
338	652
339	56
339	112
339	127
339	145
339	193
339	202
339	217
339	244
339	253
339	273
339	323
339	349
339	372
339	404
339	415
339	442
339	445
339	450
339	481
339	521
339	537
339	633
340	63
340	75
340	88
340	105
340	133
340	178
340	290
340	294
340	332
340	340
340	353
340	384
340	396
340	423
340	468
340	490
340	493
340	531
340	542
340	563
340	592
340	615
341	100
341	122
341	156
341	162
341	169
341	197
341	208
341	257
341	267
341	285
341	297
341	310
341	360
341	365
341	380
341	392
341	407
341	435
341	452
341	461
341	477
341	504
341	515
341	548
341	623
342	38
342	44
342	82
342	116
342	150
342	188
342	212
342	232
342	238
342	249
342	280
342	302
342	317
342	357
342	375
342	388
342	399
342	404
342	411
342	418
342	431
342	472
342	486
342	495
342	524
342	569
342	575
342	598
342	646
343	144
343	204
343	227
343	276
343	344
343	361
343	370
343	441
343	456
343	558
343	581
343	604
343	629
343	652
344	50
344	56
344	110
344	138
344	184
344	193
344	218
344	244
344	271
344	288
344	293
344	324
344	332
344	338
344	383
344	395
344	414
344	426
344	449
344	466
344	481
344	488
344	500
344	509
344	536
344	541
344	552
344	587
344	639
344	657
345	28
345	70
345	88
345	93
345	105
345	132
345	172
345	178
345	199
345	229
345	253
345	265
345	283
345	297
345	310
345	353
345	366
345	379
345	390
345	402
345	409
345	520
345	529
345	564
345	619
346	77
346	119
346	127
346	159
346	165
346	214
346	234
346	239
346	261
346	278
346	305
346	314
346	319
346	328
346	343
346	358
346	374
346	385
346	421
346	434
346	444
346	461
346	475
346	505
346	634
347	38
347	63
347	100
347	146
347	153
347	188
347	203
347	224
347	249
347	274
347	301
347	334
347	348
347	362
347	369
347	398
347	430
347	471
347	485
347	493
347	514
347	574
347	595
347	601
347	613
347	624
347	648
348	114
348	142
348	244
348	256
348	291
348	324
348	360
348	395
348	406
348	412
348	417
348	438
348	453
348	525
348	537
348	547
348	608
349	32
349	45
349	83
349	96
349	193
349	208
349	219
349	270
349	281
349	316
349	338
349	346
349	377
349	381
349	425
349	447
349	479
349	532
349	542
349	554
349	560
350	51
350	107
350	123
350	136
350	181
350	232
350	238
350	252
350	259
350	308
350	342
350	365
350	372
350	388
350	402
350	420
350	434
350	457
350	466
350	487
350	489
350	500
350	508
350	518
350	566
350	588
350	604
350	630
350	643
351	58
351	66
351	75
351	158
351	162
351	170
351	175
351	198
351	228
351	266
351	287
351	298
351	302
351	350
351	356
351	442
351	460
351	474
351	572
351	593
351	617
351	650
351	657
352	91
352	118
352	129
352	151
352	187
352	213
352	240
352	248
352	334
352	361
352	369
352	384
352	411
352	416
352	430
352	452
352	470
352	513
352	546
352	579
353	48
353	102
353	112
353	139
353	146
353	203
353	223
353	256
353	262
353	271
353	276
353	297
353	323
353	330
353	377
353	393
353	397
353	405
353	437
353	486
353	491
353	505
353	523
353	529
353	536
353	600
353	611
353	624
354	38
354	86
354	124
354	178
354	193
354	218
354	237
354	280
354	308
354	312
354	364
354	389
354	423
354	428
354	448
354	479
354	551
354	635
355	30
355	62
355	96
355	167
355	208
355	251
355	293
355	317
355	336
355	342
355	347
355	372
355	385
355	400
355	414
355	418
355	433
355	441
355	456
355	465
355	483
355	509
355	558
355	562
355	569
355	629
355	658
356	53
356	73
356	106
356	134
356	160
356	184
356	198
356	213
356	226
356	232
356	246
356	287
356	351
356	368
356	409
356	460
356	474
356	498
356	517
356	605
356	616
356	644
356	651
357	117
357	149
357	190
357	260
357	271
357	278
357	304
357	324
357	330
357	356
357	361
357	380
357	425
357	437
357	483
357	545
357	574
357	594
357	639
358	41
358	65
358	79
358	89
358	100
358	128
358	144
358	175
358	204
358	222
358	235
358	242
358	254
358	297
358	365
358	377
358	391
358	400
358	404
358	429
358	445
358	452
358	469
358	487
358	493
358	513
358	526
358	530
358	581
358	622
359	36
359	111
359	170
359	179
359	208
359	218
359	249
359	290
359	315
359	371
359	383
359	396
359	417
359	422
359	433
359	471
359	479
359	502
359	522
359	535
359	542
359	565
359	600
359	610
359	633
359	646
360	29
360	60
360	83
360	122
360	138
360	153
360	159
360	164
360	194
360	263
360	268
360	274
360	286
360	339
360	347
360	368
360	388
360	395
360	413
360	426
360	441
360	450
360	464
360	497
360	508
360	548
360	553
360	559
360	585
361	47
361	71
361	95
361	131
361	185
361	200
361	213
361	227
361	238
361	257
361	301
361	307
361	312
361	321
361	334
361	366
361	379
361	409
361	429
361	457
361	460
361	617
361	642
361	654
362	53
362	107
362	252
362	277
362	294
362	344
362	357
362	363
362	391
362	403
362	421
362	435
362	447
362	466
362	475
362	488
362	516
362	538
362	606
363	41
363	118
363	127
363	150
363	190
363	204
363	221
363	244
363	272
363	304
363	324
363	330
363	354
363	374
363	386
363	399
363	411
363	416
363	424
363	439
363	469
363	484
363	493
363	527
363	570
363	593
363	627
364	66
364	89
364	101
364	143
364	167
364	174
364	181
364	209
364	216
364	229
364	248
364	262
364	288
364	314
364	341
364	349
364	360
364	382
364	389
364	395
364	407
364	454
364	501
364	511
364	522
364	533
364	544
364	558
364	564
364	581
364	621
364	632
364	638
364	645
365	112
365	136
365	156
365	162
365	187
365	196
365	233
365	278
365	284
365	337
365	368
365	401
365	431
365	442
365	463
365	479
365	574
365	588
365	611
365	649
366	34
366	59
366	71
366	83
366	131
366	149
366	238
366	256
366	275
366	295
366	300
366	309
366	319
366	364
366	378
366	428
366	437
366	450
366	458
366	473
366	487
366	497
366	514
366	519
366	598
366	642
367	46
367	95
367	106
367	201
367	212
367	217
367	224
367	252
367	270
367	331
367	373
367	387
367	392
367	396
367	421
367	444
367	507
367	539
367	546
367	604
367	616
368	78
368	123
368	159
368	165
368	171
368	177
368	206
368	232
368	243
368	266
368	277
368	289
368	305
368	325
368	334
368	340
368	352
368	368
368	382
368	400
368	405
368	409
368	416
368	430
368	433
368	468
368	482
368	552
368	635
368	645
369	135
369	145
369	152
369	184
369	192
369	261
369	283
369	299
369	314
369	345
369	359
369	394
369	413
369	424
369	439
369	463
369	477
369	492
369	502
369	522
369	530
369	561
369	567
369	627
370	40
370	65
370	88
370	100
370	112
370	197
370	203
370	207
370	229
370	255
370	273
370	355
370	376
370	453
370	476
370	512
370	544
370	593
370	612
370	622
370	655
371	33
371	71
371	128
371	213
371	220
371	237
371	247
371	269
371	294
371	302
371	323
371	350
371	362
371	370
371	383
371	419
371	436
371	444
371	449
371	457
371	459
371	487
371	497
371	517
371	578
371	586
371	639
371	650
372	51
372	232
372	251
372	306
372	331
372	366
372	381
372	390
372	395
372	433
372	473
372	556
372	572
372	600
373	45
373	82
373	95
373	107
373	138
373	145
373	150
373	163
373	167
373	171
373	175
373	181
373	188
373	193
373	264
373	276
373	285
373	338
373	345
373	387
373	403
373	408
373	415
373	423
373	427
373	465
373	468
373	481
373	507
373	526
373	536
373	549
373	606
373	616
373	632
374	121
374	156
374	229
374	241
374	260
374	312
374	319
374	440
374	463
374	512
374	521
374	566
374	611
374	656
375	75
375	101
375	115
375	132
375	199
375	216
375	224
375	255
375	341
375	350
375	355
375	358
375	364
375	370
375	374
375	383
375	395
375	400
375	413
375	419
375	447
375	451
375	477
375	492
375	499
375	544
375	560
375	589
375	623
375	635
376	56
376	62
376	69
376	204
376	211
376	245
376	269
376	278
376	291
376	297
376	303
376	332
376	378
376	392
376	410
376	423
376	437
376	442
376	458
376	583
376	642
377	39
377	88
377	109
377	126
377	172
377	185
377	190
377	220
377	235
377	241
377	250
377	263
377	308
377	315
377	327
377	366
377	381
377	405
377	431
377	472
377	517
377	538
377	553
378	30
378	51
378	79
378	160
378	166
378	178
378	258
378	286
378	336
378	347
378	373
378	386
378	426
378	445
378	452
378	482
378	487
378	493
378	507
378	548
378	576
379	73
379	97
379	104
379	121
379	136
379	142
379	146
379	153
379	195
379	201
379	274
379	281
379	319
379	378
379	393
379	399
379	413
379	435
379	440
379	462
379	467
379	502
379	519
379	528
379	533
379	558
379	570
379	603
379	633
380	207
380	212
380	228
380	247
380	254
380	268
380	297
380	305
380	343
380	353
380	368
380	373
380	382
380	417
380	421
380	448
380	457
380	489
380	564
380	620
380	654
381	59
381	84
381	93
381	115
381	131
381	182
381	186
381	218
381	223
381	234
381	239
381	243
381	263
381	308
381	323
381	328
381	358
381	362
381	390
381	402
381	408
381	432
381	476
381	507
381	513
381	541
381	580
381	605
381	613
381	626
382	39
382	66
382	169
382	175
382	194
382	259
382	288
382	294
382	301
382	316
382	385
382	397
382	425
382	428
382	444
382	597
383	32
383	78
383	126
383	156
383	163
383	271
383	280
383	333
383	347
383	350
383	361
383	373
383	381
383	414
383	419
383	440
383	452
383	461
383	466
383	472
383	482
383	504
383	518
383	528
383	535
383	551
383	576
383	642
384	50
384	99
384	108
384	145
384	151
384	199
384	204
384	209
384	216
384	220
384	226
384	246
384	275
384	297
384	313
384	319
384	340
384	355
384	368
384	377
384	492
384	545
384	602
385	44
385	89
385	119
385	138
385	230
385	255
385	328
385	401
385	405
385	410
385	427
385	434
385	448
385	458
385	487
385	500
385	511
385	569
385	592
385	609
385	617
385	622
385	648
386	71
386	132
386	173
386	179
386	184
386	190
386	236
386	241
386	251
386	257
386	262
386	283
386	308
386	322
386	372
386	384
386	390
386	393
386	422
386	430
386	445
386	478
386	496
386	522
386	555
386	561
386	584
386	630
387	38
387	57
387	83
387	95
387	154
387	160
387	166
387	293
387	380
387	397
387	469
387	516
387	540
387	579
387	636
388	103
388	124
388	142
388	148
388	194
388	207
388	211
388	218
388	228
388	245
388	267
388	287
388	302
388	306
388	313
388	330
388	348
388	355
388	361
388	408
388	413
388	417
388	438
388	457
388	463
388	483
388	491
388	505
388	534
389	50
389	76
389	136
389	201
389	223
389	234
389	275
389	277
389	325
389	364
389	368
389	373
389	401
389	425
389	448
389	452
389	526
389	549
389	573
389	590
390	89
390	109
390	176
390	189
390	270
390	283
390	309
390	317
390	343
390	381
390	391
390	431
390	474
390	501
390	511
390	543
390	554
390	566
390	594
390	614
390	627
390	639
391	29
391	42
391	97
391	117
391	182
391	250
391	256
391	265
391	329
391	338
391	360
391	377
391	405
391	418
391	442
391	465
391	583
391	602
391	607
391	620
391	646
392	63
392	82
392	129
392	164
392	193
392	221
392	242
392	273
392	295
392	300
392	306
392	348
392	384
392	401
392	415
392	422
392	460
392	479
392	496
392	538
392	560
392	578
392	633
393	36
393	56
393	71
393	146
393	151
393	157
393	170
393	197
393	203
393	209
393	215
393	225
393	232
393	237
393	247
393	262
393	281
393	287
393	355
393	358
393	396
393	410
393	427
393	437
393	449
393	454
393	469
393	484
393	487
393	516
393	533
393	548
393	587
394	92
394	103
394	123
394	134
394	139
394	253
394	269
394	292
394	327
394	335
394	364
394	370
394	379
394	389
394	445
394	475
394	491
394	505
394	526
395	189
395	219
395	321
395	344
395	374
395	393
395	401
395	413
395	426
395	435
395	441
395	457
395	521
395	564
395	598
395	617
396	84
396	99
396	110
396	173
396	178
396	185
396	239
396	258
396	265
396	277
396	283
396	299
396	314
396	349
396	362
396	384
396	406
396	417
396	430
396	447
396	452
396	461
396	478
396	501
396	510
396	554
396	569
396	604
396	622
396	636
396	643
397	41
397	66
397	78
397	118
397	128
397	144
397	155
397	161
397	168
397	198
397	213
397	228
397	234
397	244
397	272
397	288
397	295
397	306
397	338
397	355
397	396
397	411
397	420
397	465
397	485
397	518
397	542
397	575
397	582
397	612
397	628
398	60
398	89
398	205
398	222
398	249
398	261
398	281
398	311
398	364
398	369
398	375
398	379
398	386
398	390
398	415
398	439
398	471
398	488
398	494
398	536
398	592
398	639
399	54
399	72
399	95
399	132
399	138
399	149
399	193
399	231
399	315
399	320
399	329
399	335
399	342
399	408
399	457
399	476
399	514
399	531
399	587
399	648
400	34
400	104
400	123
400	171
400	176
400	188
400	217
400	226
400	254
400	266
400	277
400	325
400	351
400	356
400	362
400	402
400	424
400	429
400	433
400	437
400	442
400	449
400	461
400	505
400	525
401	47
401	112
401	164
401	182
401	200
401	211
401	240
401	246
401	258
401	274
401	281
401	295
401	381
401	411
401	468
401	481
401	520
401	546
401	555
401	562
401	579
401	603
401	609
401	617
401	624
402	28
402	66
402	155
402	205
402	290
402	311
402	336
402	346
402	376
402	395
402	415
402	445
402	454
402	485
402	597
402	631
402	638
403	39
403	59
403	89
403	117
403	128
403	142
403	192
403	230
403	234
403	250
403	254
403	263
403	269
403	300
403	315
403	322
403	343
403	355
403	366
403	373
403	385
403	390
403	403
403	419
403	497
403	511
403	528
403	541
403	573
403	589
403	645
404	78
404	136
404	150
404	220
404	239
404	278
404	285
404	380
404	399
404	409
404	426
404	430
404	435
404	440
404	463
404	472
404	478
404	489
404	505
404	550
404	583
405	32
405	52
405	106
405	179
405	187
405	204
405	214
405	225
405	243
405	246
405	266
405	296
405	307
405	334
405	361
405	369
405	413
405	446
405	516
405	523
405	538
405	567
406	64
406	71
406	83
406	95
406	123
406	140
406	162
406	168
406	174
406	208
406	272
406	289
406	311
406	329
406	348
406	353
406	376
406	391
406	395
406	405
406	449
406	459
406	468
406	482
406	501
406	544
406	577
406	612
406	620
406	626
406	638
406	647
407	112
407	129
407	157
407	196
407	200
407	251
407	259
407	263
407	282
407	343
407	367
407	383
407	417
407	422
407	454
407	494
407	594
407	599
408	28
408	39
408	47
408	100
408	183
408	216
408	232
408	238
408	274
408	278
408	294
408	305
408	316
408	363
408	399
408	409
408	428
408	438
408	443
408	474
408	505
408	631
409	77
409	90
409	145
409	150
409	177
409	190
409	222
409	228
409	242
409	322
409	351
409	359
409	372
409	388
409	432
409	485
409	531
409	540
409	549
409	554
409	592
410	56
410	107
410	118
410	135
410	206
410	255
410	269
410	286
410	289
410	340
410	344
410	376
410	392
410	413
410	422
410	449
410	462
410	479
410	509
410	514
410	521
410	564
410	570
410	582
410	617
410	641
411	33
411	95
411	124
411	155
411	160
411	171
411	186
411	200
411	247
411	265
411	293
411	300
411	313
411	326
411	335
411	380
411	405
411	418
411	435
411	442
411	455
411	499
411	586
411	596
411	603
411	610
411	624
412	50
412	61
412	73
412	141
412	165
412	195
412	214
412	234
412	239
412	252
412	260
412	274
412	309
412	318
412	353
412	358
412	367
412	385
412	396
412	400
412	425
412	429
412	439
412	460
412	469
412	474
412	483
412	486
412	575
412	637
412	645
413	29
413	42
413	83
413	129
413	181
413	221
413	225
413	243
413	330
413	348
413	372
413	390
413	433
413	445
413	464
413	490
413	494
413	505
413	517
413	524
413	531
413	536
413	558
413	591
414	90
414	101
414	113
414	146
414	190
414	209
414	229
414	259
414	270
414	278
414	283
414	290
414	297
414	313
414	343
414	411
414	422
414	512
414	553
414	567
414	585
414	599
414	630
415	79
415	106
415	152
415	168
415	175
415	204
415	217
415	247
415	265
415	302
415	319
415	326
415	335
415	360
415	364
415	377
415	404
415	407
415	415
415	438
415	451
415	480
415	486
415	546
416	69
416	88
416	96
416	111
416	119
416	158
416	164
416	187
416	200
416	237
416	252
416	381
416	385
416	397
416	412
416	427
416	443
416	455
416	471
416	500
416	607
416	621
416	647
417	48
417	126
417	142
417	179
417	195
417	222
417	227
417	231
417	241
417	282
417	293
417	307
417	353
417	373
417	400
417	419
417	433
417	460
417	466
417	530
417	562
417	579
417	601
417	614
418	74
418	96
418	102
418	132
418	213
418	273
418	289
418	311
418	315
418	338
418	365
418	369
418	391
418	423
418	440
418	476
418	483
418	522
418	541
418	557
418	572
418	588
418	594
418	625
418	636
418	642
419	60
419	85
419	148
419	203
419	208
419	258
419	265
419	299
419	304
419	378
419	383
419	408
419	416
419	428
419	445
419	451
419	497
419	509
419	515
419	527
419	536
420	91
420	101
420	110
420	155
420	172
420	189
420	239
420	244
420	250
420	260
420	285
420	320
420	326
420	342
420	347
420	355
420	361
420	388
420	403
420	412
420	437
420	449
420	471
420	485
420	490
420	501
420	550
420	632
421	54
421	80
421	121
421	138
421	161
421	183
421	198
421	234
421	290
421	313
421	330
421	336
421	394
421	420
421	455
421	462
421	480
421	568
421	575
422	108
422	167
422	218
422	229
422	255
422	268
422	280
422	295
422	381
422	390
422	433
422	441
422	545
422	581
422	603
422	610
422	617
423	48
423	67
423	97
423	114
423	128
423	144
423	178
423	193
423	212
423	277
423	300
423	305
423	348
423	358
423	367
423	372
423	398
423	408
423	415
423	424
423	444
423	467
423	504
423	530
423	591
423	597
423	622
423	642
424	61
424	85
424	150
424	207
424	246
424	258
424	263
424	287
424	310
424	316
424	322
424	338
424	344
424	352
424	376
424	383
424	388
424	437
424	452
424	472
424	482
424	487
424	498
424	512
424	518
424	525
424	539
424	555
424	563
425	73
425	104
425	133
425	155
425	172
425	188
425	202
425	237
425	272
425	280
425	292
425	361
425	396
425	403
425	411
425	421
425	429
425	457
425	477
425	493
425	578
425	628
426	91
426	111
426	122
426	183
426	221
426	225
426	231
426	242
426	250
426	255
426	284
426	297
426	330
426	393
426	434
426	448
426	462
426	549
426	571
426	584
426	607
426	614
426	646
427	55
427	67
427	140
427	162
427	197
427	210
427	216
427	266
427	302
427	306
427	319
427	323
427	355
427	369
427	380
427	385
427	389
427	400
427	408
427	415
427	425
427	439
427	466
427	601
427	619
427	634
427	641
428	51
428	80
428	117
428	145
428	168
428	177
428	193
428	262
428	274
428	327
428	334
428	345
428	350
428	419
428	452
428	470
428	475
428	490
428	508
428	522
428	528
428	588
428	594
428	624
429	87
429	98
429	128
429	151
429	217
429	245
429	290
429	312
429	340
429	360
429	364
429	430
429	444
429	458
429	483
429	501
429	516
429	534
429	553
430	47
430	158
430	203
430	234
430	240
430	271
430	278
430	282
430	299
430	316
430	357
430	384
430	390
430	394
430	403
430	411
430	435
430	488
430	540
430	548
430	560
430	582
430	629
431	53
431	72
431	105
431	123
431	134
431	174
431	183
431	189
431	208
431	213
431	224
431	229
431	253
431	266
431	304
431	308
431	320
431	329
431	353
431	371
431	375
431	399
431	440
431	463
431	510
431	575
431	604
431	610
432	61
432	94
432	111
432	140
432	162
432	194
432	242
432	248
432	257
432	261
432	338
432	348
432	367
432	406
432	420
432	426
432	449
432	454
432	467
432	479
432	492
432	498
432	518
432	523
432	568
432	616
432	645
433	147
433	178
433	199
433	220
433	286
433	296
433	360
433	393
433	415
433	445
433	483
433	507
433	514
433	545
433	591
433	598
433	636
434	65
434	83
434	130
434	153
434	169
434	216
434	270
434	282
434	301
434	308
434	326
434	332
434	344
434	354
434	378
434	388
434	398
434	403
434	432
434	460
434	473
434	529
434	557
434	564
434	584
434	620
434	641
435	98
435	185
435	205
435	211
435	226
435	237
435	251
435	265
435	321
435	368
435	373
435	382
435	407
435	410
435	425
435	487
435	536
435	549
435	578
436	52
436	59
436	77
436	89
436	116
436	135
436	160
436	174
436	190
436	277
436	284
436	298
436	314
436	341
436	420
436	429
436	436
436	450
436	468
436	477
436	496
436	501
436	571
436	612
437	45
437	105
437	124
437	142
437	165
437	246
437	260
437	293
437	328
437	334
437	354
437	359
437	363
437	392
437	396
437	441
437	455
437	485
437	509
437	514
437	526
437	532
437	566
437	601
437	631
437	638
438	72
438	95
438	180
438	196
438	217
438	231
438	235
438	241
438	256
438	263
438	273
438	280
438	289
438	303
438	311
438	348
438	371
438	376
438	381
438	386
438	389
438	402
438	416
438	446
438	463
438	480
438	490
438	520
438	561
438	619
438	643
439	112
439	147
439	201
439	209
439	213
439	269
439	276
439	316
439	341
439	345
439	367
439	410
439	423
439	433
439	460
439	471
439	493
439	553
439	583
439	595
440	66
440	83
440	130
440	154
440	169
440	186
440	222
440	227
440	249
440	284
440	322
440	331
440	356
440	415
440	437
440	451
440	467
440	504
440	511
440	539
440	543
440	577
440	646
441	100
441	160
441	258
441	290
441	296
441	300
441	352
441	362
441	393
441	399
441	406
441	441
441	476
441	499
441	568
441	625
442	48
442	53
442	61
442	77
442	119
442	137
442	176
442	192
442	198
442	207
442	244
442	266
442	272
442	281
442	304
442	326
442	370
442	375
442	379
442	384
442	388
442	428
442	456
442	482
442	529
442	557
442	591
442	600
442	606
443	71
443	89
443	106
443	143
443	166
443	216
443	231
443	236
443	240
443	254
443	261
443	309
443	318
443	334
443	344
443	348
443	418
443	423
443	447
443	461
443	485
443	488
443	517
443	523
443	563
443	587
443	611
444	96
444	125
444	149
444	181
444	212
444	223
444	277
444	329
444	339
444	360
444	366
444	403
444	412
444	433
444	467
444	513
444	534
444	549
444	620
444	634
444	639
445	83
445	133
445	156
445	172
445	188
445	203
445	248
445	257
445	270
445	286
445	293
445	296
445	355
445	390
445	395
445	437
445	452
445	472
445	506
445	539
445	580
446	64
446	115
446	193
446	227
446	232
446	243
446	302
446	307
446	316
446	322
446	336
446	368
446	372
446	377
446	382
446	399
446	409
446	457
446	476
446	498
446	501
446	573
446	603
446	643
447	100
447	122
447	138
447	161
447	177
447	198
447	252
447	274
447	281
447	311
447	332
447	341
447	386
447	420
447	428
447	442
447	480
447	484
447	492
447	517
447	529
447	545
447	555
447	566
447	615
448	51
448	58
448	145
448	183
448	217
448	239
448	264
448	289
448	328
448	353
448	363
448	404
448	433
448	448
448	463
448	535
448	561
448	591
448	598
449	70
449	88
449	109
449	152
449	168
449	209
449	223
449	230
449	277
449	348
449	375
449	380
449	414
449	453
449	468
449	495
449	523
449	584
449	610
449	626
449	637
450	126
450	173
450	189
450	203
450	257
450	286
450	298
450	307
450	313
450	318
450	370
450	394
450	423
450	474
450	502
450	512
450	540
450	620
451	95
451	114
451	133
451	142
451	194
451	214
451	234
451	243
451	251
451	326
451	332
451	340
451	357
451	365
451	387
451	400
451	407
451	430
451	444
451	459
451	479
451	485
451	552
451	570
451	577
451	601
451	644
452	75
452	82
452	121
452	148
452	157
452	178
452	200
452	265
452	273
452	282
452	294
452	315
452	320
452	361
452	383
452	412
452	420
452	435
452	464
452	519
452	529
452	564
452	632
453	62
453	101
453	163
453	218
453	239
453	247
453	284
453	289
453	302
453	306
453	324
453	344
453	354
453	378
453	396
453	426
453	449
453	470
453	490
453	499
453	508
453	560
453	612
454	54
454	89
454	169
454	184
454	205
454	224
454	256
454	260
454	269
454	337
454	370
454	440
454	455
454	534
454	581
454	596
454	625
455	109
455	127
455	139
455	154
455	190
455	211
455	230
455	253
455	277
455	298
455	312
455	364
455	409
455	417
455	460
455	475
455	485
455	496
455	513
455	523
455	546
455	587
455	639
456	70
456	87
456	96
456	144
456	175
456	217
456	251
456	281
456	330
456	359
456	386
456	391
456	400
456	422
456	429
456	436
456	445
456	466
456	481
456	570
456	606
456	618
457	44
457	50
457	116
457	159
457	169
457	196
457	226
457	235
457	264
457	274
457	303
457	315
457	324
457	345
457	350
457	353
457	382
457	395
457	413
457	471
457	502
457	519
457	529
457	540
457	553
457	600
457	645
458	76
458	132
458	150
458	165
458	180
458	187
458	247
458	294
458	308
458	337
458	341
458	367
458	372
458	376
458	404
458	427
458	441
458	451
458	456
458	488
458	492
458	508
458	564
458	612
459	58
459	66
459	84
459	103
459	122
459	206
459	221
459	257
459	269
459	278
459	286
459	362
459	409
459	514
459	579
459	593
459	632
460	212
460	252
460	300
460	317
460	357
460	384
460	390
460	419
460	431
460	453
460	460
460	477
460	482
460	497
460	504
460	524
460	534
460	543
460	572
460	585
460	623
460	639
461	72
461	90
461	112
461	155
461	177
461	192
461	230
461	241
461	263
461	273
461	290
461	312
461	329
461	344
461	348
461	369
461	374
461	379
461	394
461	399
461	413
461	423
461	436
461	466
461	508
461	559
462	46
462	54
462	80
462	108
462	127
462	138
462	145
462	159
462	198
462	218
462	281
462	286
462	295
462	304
462	325
462	334
462	339
462	365
462	387
462	404
462	440
462	486
462	488
462	519
462	549
462	590
462	604
462	617
462	645
463	98
463	182
463	205
463	227
463	248
463	259
463	355
463	360
463	418
463	427
463	443
463	457
463	472
463	494
463	529
463	539
463	566
463	611
464	86
464	150
464	166
464	188
464	237
464	255
464	268
464	277
464	298
464	312
464	316
464	351
464	391
464	409
464	432
464	448
464	463
464	479
464	554
464	623
464	628
465	117
465	133
465	213
465	223
465	263
465	291
465	322
465	346
465	372
465	382
465	400
465	414
465	484
465	499
465	515
465	582
466	58
466	103
466	122
466	139
466	157
466	174
466	193
466	230
466	243
466	273
466	303
466	309
466	327
466	332
466	337
466	341
466	363
466	423
466	437
466	453
466	467
466	509
466	523
466	534
466	543
466	560
466	570
467	67
467	92
467	110
467	162
467	179
467	199
467	220
467	250
467	255
467	286
467	353
467	359
467	367
467	386
467	396
467	405
467	418
467	430
467	459
467	474
467	504
467	587
467	600
467	607
467	637
467	642
468	55
468	73
468	128
468	145
468	184
468	206
468	236
468	260
468	269
468	279
468	307
468	348
468	392
468	409
468	434
468	443
468	489
468	520
468	529
468	549
468	577
468	594
468	616
469	43
469	49
469	61
469	81
469	99
469	168
469	211
469	297
469	315
469	331
469	343
469	379
469	414
469	448
469	464
469	479
469	495
469	538
469	555
469	565
469	624
470	116
470	134
470	152
470	189
470	215
470	226
470	231
470	240
470	246
470	264
470	273
470	291
470	303
470	311
470	326
470	339
470	366
470	371
470	401
470	425
470	438
470	453
470	469
470	572
471	122
471	174
471	196
471	202
471	220
471	251
471	281
471	335
471	356
471	363
471	383
471	388
471	405
471	418
471	431
471	485
471	502
471	508
471	513
471	542
471	583
471	632
472	66
472	87
472	140
472	157
472	256
472	321
472	351
472	393
472	397
472	459
472	475
472	524
472	532
472	561
472	603
472	611
473	55
473	93
473	129
473	147
473	180
473	206
473	211
473	236
473	261
473	267
473	277
473	294
473	307
473	312
473	317
473	342
473	369
473	374
473	410
473	445
473	450
473	480
473	498
473	519
473	548
473	589
473	597
473	618
473	645
474	47
474	112
474	163
474	186
474	224
474	229
474	271
474	289
474	302
474	330
474	346
474	359
474	379
474	401
474	427
474	435
474	465
474	490
474	528
474	537
474	554
474	577
475	73
475	100
475	136
475	170
475	191
475	198
475	241
475	285
475	338
475	355
475	389
475	419
475	440
475	455
475	470
475	486
475	506
475	512
475	566
475	627
475	639
476	118
476	153
476	247
476	252
476	279
476	298
476	320
476	350
476	366
476	376
476	383
476	406
476	424
476	431
476	461
476	475
476	523
476	586
476	633
477	66
477	81
477	107
477	141
477	219
477	258
477	263
477	309
477	315
477	332
477	345
477	361
477	370
477	394
477	411
477	533
477	559
477	571
477	582
477	607
477	614
478	51
478	58
478	88
478	95
478	123
478	149
478	158
478	180
478	208
478	213
478	232
478	269
478	275
478	292
478	324
478	341
478	415
478	436
478	445
478	451
478	466
478	480
478	495
478	502
478	517
478	527
478	542
478	549
478	593
478	601
478	622
479	131
479	165
479	187
479	226
479	237
479	287
479	304
479	353
479	387
479	398
479	403
479	537
479	555
480	77
480	102
480	113
480	137
480	171
480	194
480	243
480	248
480	283
480	317
480	335
480	348
480	363
480	367
480	373
480	379
480	407
480	421
480	426
480	442
480	456
480	470
480	485
480	489
480	509
480	566
480	577
480	585
481	44
481	71
481	155
481	199
481	254
481	259
481	278
481	297
481	312
481	327
481	343
481	358
481	384
481	412
481	431
481	475
481	532
481	630
481	638
482	118
482	126
482	142
482	161
482	204
482	210
482	217
482	221
482	266
482	272
482	290
482	306
482	389
482	394
482	399
482	417
482	461
482	481
482	498
482	515
482	521
482	572
482	590
482	618
482	651
483	56
483	63
483	83
483	96
483	107
483	148
483	177
483	183
483	228
483	234
483	286
483	300
483	339
483	346
483	404
483	438
483	448
483	452
483	466
483	504
483	537
483	544
483	560
483	596
483	603
483	610
484	49
484	89
484	132
484	167
484	189
484	239
484	245
484	251
484	281
484	295
484	325
484	334
484	351
484	357
484	366
484	371
484	375
484	381
484	409
484	422
484	471
484	549
484	582
485	113
485	138
485	195
485	257
485	309
485	314
485	319
485	330
485	386
485	396
485	413
485	428
485	434
485	443
485	457
485	487
485	510
485	527
485	565
485	576
485	615
486	76
486	123
486	153
486	173
486	200
486	206
486	262
486	273
486	290
486	343
486	477
486	493
486	517
486	533
486	554
487	67
487	143
487	180
487	212
487	219
487	224
487	230
487	268
487	304
487	337
487	391
487	400
487	419
487	438
487	461
487	482
487	500
487	543
487	589
487	594
487	600
487	607
487	626
487	635
487	642
487	651
488	61
488	101
488	127
488	157
488	162
488	236
488	253
488	286
488	299
488	322
488	333
488	353
488	357
488	362
488	368
488	373
488	405
488	447
488	452
488	467
488	506
488	522
488	560
488	571
488	620
489	93
489	149
489	169
489	185
489	241
489	248
489	258
489	279
489	313
489	316
489	327
489	348
489	378
489	383
489	396
489	409
489	415
489	424
489	433
489	457
489	473
489	538
489	548
489	581
490	53
490	81
490	88
490	107
490	117
490	134
490	191
490	197
490	264
490	274
490	308
490	341
490	442
490	479
490	485
490	490
490	496
490	512
491	46
491	112
491	139
491	175
491	202
491	209
491	216
491	269
491	293
491	302
491	345
491	388
491	401
491	420
491	428
491	518
491	533
491	565
491	637
492	72
492	146
492	181
492	221
492	227
492	233
492	288
492	298
492	350
492	354
492	365
492	370
492	393
492	406
492	437
492	448
492	463
492	469
492	525
492	543
492	555
492	576
492	603
492	610
492	624
493	99
493	123
493	165
493	244
493	250
493	283
493	311
493	315
493	321
493	330
493	335
493	361
493	376
493	381
493	398
493	411
493	475
493	500
493	507
493	585
493	591
493	598
493	617
493	629
494	59
494	65
494	129
494	186
494	238
494	255
494	261
494	266
494	277
494	305
494	416
494	423
494	432
494	452
494	458
494	480
494	487
494	492
494	570
495	51
495	85
495	93
495	159
495	170
495	192
495	218
495	272
495	341
495	347
495	368
495	385
495	403
495	442
495	513
495	538
495	549
495	559
496	78
496	117
496	134
496	140
496	199
496	204
496	211
496	223
496	229
496	290
496	301
496	352
496	357
496	372
496	390
496	467
496	519
496	531
496	639
497	43
497	149
497	176
497	182
497	235
497	240
497	247
497	253
497	257
497	280
497	285
497	296
497	313
497	318
497	323
497	328
497	333
497	338
497	363
497	376
497	394
497	408
497	418
497	427
497	436
497	446
497	462
497	472
497	496
497	502
497	544
497	565
497	574
497	580
497	594
497	606
497	619
497	626
497	649
498	70
498	104
498	154
498	164
498	309
498	399
498	413
498	457
498	478
498	490
498	509
498	553
498	587
498	601
498	613
499	97
499	129
499	264
499	270
499	275
499	344
499	348
499	367
499	381
499	422
499	449
499	455
499	484
500	56
500	63
500	92
500	144
500	156
500	170
500	188
500	195
500	198
500	202
500	255
500	289
500	304
500	334
500	441
500	451
500	515
500	537
500	560
501	82
501	121
501	138
501	142
501	160
501	193
501	206
501	212
501	220
501	226
501	231
501	250
501	285
501	305
501	325
501	355
501	359
501	373
501	387
501	391
501	417
501	465
501	498
501	521
501	532
501	549
501	570
501	636
501	642
502	48
502	74
502	114
502	168
502	182
502	237
502	260
502	266
502	271
502	310
502	319
502	339
502	401
502	410
502	427
502	445
502	460
502	475
502	505
502	576
502	583
502	610
502	617
502	630
503	108
503	132
503	150
503	175
503	244
503	278
503	296
503	301
503	331
503	350
503	364
503	369
503	377
503	396
503	435
503	481
503	486
503	492
503	510
503	590
503	597
503	604
503	623
504	68
504	102
504	154
504	164
504	291
504	382
504	421
504	455
504	527
504	543
504	554
504	566
505	59
505	87
505	126
505	142
505	187
505	193
505	205
505	211
505	217
505	257
505	282
505	286
505	307
505	336
505	341
505	354
505	373
505	391
505	407
505	440
505	449
505	470
505	500
505	515
505	538
506	94
506	119
506	171
506	198
506	222
506	233
506	252
506	312
506	322
506	329
506	359
506	387
506	415
506	426
506	465
506	532
506	559
506	580
506	640
507	53
507	80
507	112
507	136
507	160
507	229
507	245
507	263
507	293
507	346
507	369
507	377
507	401
507	434
507	444
507	460
507	478
507	489
507	495
507	571
507	606
507	614
507	634
508	45
508	73
508	176
508	183
508	237
508	268
508	299
508	350
508	356
508	396
508	411
508	420
508	484
508	506
508	511
508	521
508	549
508	585
508	593
508	599
508	627
509	106
509	130
509	148
509	243
509	273
509	304
509	309
509	337
509	364
509	383
509	405
509	431
509	454
509	469
509	554
509	567
510	58
510	124
510	195
510	202
510	218
510	233
510	254
510	279
510	284
510	290
510	314
510	319
510	328
510	373
510	391
510	440
510	464
510	474
510	543
510	619
510	645
511	66
511	84
511	100
511	142
511	153
511	165
511	188
511	207
511	213
511	224
511	249
511	259
511	324
511	333
511	342
511	360
511	368
511	378
511	386
511	400
511	415
511	424
511	449
511	499
511	516
511	526
511	537
511	560
511	576
512	78
512	117
512	171
512	239
512	264
512	288
512	299
512	310
512	346
512	409
512	459
512	479
512	493
512	505
512	531
512	570
512	582
512	613
512	631
512	638
513	48
513	92
513	111
513	136
513	159
513	183
513	270
513	276
513	305
513	351
513	395
513	434
513	444
513	470
513	551
513	589
513	595
513	606
514	129
514	147
514	176
514	198
514	229
514	244
514	284
514	292
514	356
514	382
514	405
514	420
514	428
514	453
514	485
514	511
514	521
514	601
514	624
515	71
515	104
515	206
515	211
515	216
515	222
515	235
515	254
515	280
515	316
515	321
515	326
515	331
515	336
515	342
515	361
515	365
515	370
515	391
515	415
515	464
515	475
515	541
515	546
515	565
516	54
516	84
516	97
516	122
516	192
516	261
516	297
516	375
516	399
516	424
516	439
516	448
516	501
516	528
516	538
516	556
516	619
516	644
517	140
517	152
517	165
517	172
517	186
517	249
517	267
517	348
517	386
517	409
517	433
517	459
517	480
517	496
517	533
517	577
517	584
518	116
518	240
518	273
518	278
518	289
518	302
518	308
518	312
518	352
518	395
518	443
518	469
518	490
518	508
518	517
518	571
518	591
518	610
518	629
518	637
519	48
519	66
519	78
519	90
519	135
519	179
519	231
519	283
519	317
519	323
519	328
519	381
519	404
519	419
519	522
519	540
519	551
519	598
519	604
519	623
520	109
520	146
520	158
520	214
520	245
520	256
520	264
520	269
520	293
520	333
520	339
520	357
520	362
520	367
520	372
520	390
520	414
520	429
520	438
520	447
520	453
520	464
520	486
521	60
521	72
521	84
521	128
521	196
521	203
521	209
521	220
521	226
521	235
521	299
521	344
521	348
521	377
521	399
521	475
521	498
521	505
521	530
521	547
521	564
521	645
522	122
522	140
522	165
522	175
522	184
522	189
522	250
522	275
522	304
522	309
522	320
522	385
522	408
522	423
522	458
522	468
522	480
522	511
522	557
522	575
522	588
522	615
522	634
523	53
523	96
523	102
523	115
523	151
523	240
523	260
523	289
523	314
523	395
523	418
523	433
523	442
523	517
523	535
523	580
524	65
524	79
524	230
524	280
524	295
524	325
524	331
524	336
524	353
524	358
524	380
524	437
524	570
524	594
524	601
524	608
525	108
525	134
525	157
525	179
525	211
525	246
525	255
525	264
525	342
525	364
525	370
525	375
525	389
525	403
525	413
525	428
525	453
525	463
525	473
525	490
525	523
525	542
525	552
526	146
526	200
526	205
526	217
526	225
526	271
526	300
526	306
526	399
526	448
526	484
526	496
526	502
526	507
526	562
526	627
526	641
527	46
527	58
527	72
527	125
527	168
527	193
527	235
527	275
527	311
527	316
527	384
527	407
527	422
527	432
527	457
527	477
527	530
527	575
527	620
528	85
528	139
528	161
528	173
528	187
528	241
528	250
528	261
528	291
528	322
528	328
528	334
528	394
528	443
528	467
528	514
528	536
528	547
528	558
528	583
528	590
528	633
529	96
529	104
529	121
529	150
529	230
529	281
529	297
529	338
529	344
529	350
529	356
529	361
529	379
529	402
529	417
529	438
529	452
529	605
529	612
530	90
530	179
530	219
530	256
530	266
530	302
530	367
530	373
530	388
530	413
530	427
530	473
530	482
530	487
530	492
530	498
530	520
530	541
530	570
530	597
531	53
531	64
531	77
531	115
531	131
531	156
531	198
531	207
531	246
531	287
531	307
531	312
531	398
531	447
531	463
531	505
531	509
531	525
531	552
531	628
532	47
532	125
532	145
532	192
532	213
532	236
532	261
532	272
532	277
532	293
532	318
532	324
532	330
532	382
532	406
532	422
532	563
532	638
533	58
533	109
533	163
533	170
533	186
533	224
533	251
533	336
533	341
533	347
533	353
533	358
533	376
533	393
533	437
533	442
533	457
533	478
533	531
533	574
533	591
533	616
534	72
534	83
534	102
534	119
534	135
534	152
534	241
534	267
534	282
534	298
534	364
534	370
534	416
534	432
534	452
534	468
534	514
534	537
534	544
534	557
534	580
534	602
534	622
535	175
535	230
535	258
535	303
535	387
535	403
535	426
535	463
535	496
535	502
535	508
535	609
536	53
536	95
536	140
536	181
536	195
536	208
536	219
536	274
536	288
536	309
536	315
536	322
536	327
536	397
536	411
536	447
536	473
536	484
536	520
536	569
536	597
536	628
537	65
537	77
537	129
537	147
537	156
537	237
537	246
537	333
537	338
537	382
537	420
537	441
537	526
537	551
538	49
538	107
538	115
538	164
538	189
538	263
538	278
538	293
538	300
538	343
538	349
538	355
538	361
538	367
538	373
538	392
538	407
538	435
538	457
538	492
538	533
538	562
538	590
538	614
538	640
539	89
539	134
539	171
539	202
539	214
539	225
539	252
539	378
539	401
539	415
539	430
539	467
539	515
539	538
539	557
539	634
540	45
540	58
540	123
540	152
540	176
540	242
540	269
540	283
540	305
540	320
540	386
540	423
540	452
540	478
540	487
540	505
540	522
540	603
540	620
541	71
541	83
541	99
541	231
541	289
541	310
541	330
541	336
541	462
541	499
541	544
541	570
541	585
541	598
541	627
541	642
542	112
542	160
542	196
542	208
542	220
542	237
542	258
542	275
542	295
542	340
542	347
542	358
542	363
542	396
542	411
542	440
542	446
542	472
542	483
542	534
542	609
543	52
543	94
543	130
543	140
543	183
543	247
543	264
543	279
543	315
543	352
543	370
543	375
543	382
543	405
543	419
543	428
543	433
543	457
543	510
543	527
543	551
544	165
544	190
544	226
544	300
544	391
544	414
544	467
544	493
544	519
544	563
544	591
544	601
545	64
545	79
545	117
545	148
545	171
545	202
545	214
545	253
545	285
545	307
545	322
545	386
545	400
545	453
545	504
545	540
545	558
545	574
545	580
545	615
545	633
546	47
546	86
546	107
546	126
546	135
546	153
546	178
546	233
546	242
546	271
546	291
546	327
546	332
546	423
546	437
546	477
546	487
546	499
546	568
546	622
547	59
547	72
547	98
547	196
547	221
547	259
547	276
547	297
547	312
547	343
547	350
547	356
547	361
547	367
547	395
547	410
547	442
547	447
547	471
547	515
547	523
547	546
547	641
548	159
548	185
548	208
548	238
548	248
548	316
548	373
548	378
548	383
548	405
548	419
548	457
548	482
548	529
548	550
548	602
548	610
548	629
549	113
549	141
549	264
549	281
549	302
549	337
549	391
549	589
549	597
550	92
550	129
550	148
550	167
550	172
550	190
550	202
550	227
550	254
550	271
550	286
550	308
550	323
550	414
550	428
550	433
550	466
550	493
550	504
550	509
550	518
550	616
551	51
551	65
551	78
551	119
551	155
551	179
551	214
551	245
551	293
551	313
551	332
551	347
551	400
551	422
551	438
551	451
551	461
551	476
551	535
551	542
551	563
551	577
551	634
552	136
552	234
552	277
552	319
552	354
552	359
552	364
552	369
552	375
552	395
552	409
552	445
552	487
552	527
552	569
552	583
553	73
553	85
553	107
553	196
553	209
553	224
553	260
553	297
553	340
553	381
553	385
553	419
553	496
553	522
553	548
553	555
553	591
553	605
553	623
554	46
554	59
554	124
554	143
554	161
554	184
554	219
554	230
554	251
554	266
554	282
554	303
554	390
554	405
554	456
554	471
554	491
554	502
554	506
554	515
554	598
555	91
555	98
555	112
555	174
555	239
555	256
555	310
555	326
555	344
555	350
555	398
555	413
555	429
555	466
555	482
555	612
555	644
556	130
556	148
556	168
556	189
556	245
556	273
556	287
556	315
556	330
556	335
556	355
556	361
556	366
556	423
556	435
556	440
556	451
556	538
556	544
556	637
557	52
557	78
557	118
557	199
557	204
557	263
557	293
557	371
557	377
557	446
557	476
557	520
557	526
557	532
557	560
557	566
557	572
557	618
557	625
558	66
558	136
558	155
558	179
558	214
558	225
558	235
558	251
558	277
558	320
558	339
558	388
558	394
558	409
558	418
558	460
558	486
558	497
558	510
558	552
558	580
558	587
558	600
559	105
559	268
559	283
559	300
559	403
559	471
559	594
559	641
560	61
560	72
560	95
560	100
560	144
560	184
560	209
560	219
560	305
560	326
560	344
560	437
560	455
560	480
560	502
560	607
561	46
561	112
561	124
561	162
561	172
561	230
561	241
561	273
561	288
561	312
561	353
561	358
561	363
561	369
561	414
561	431
561	443
561	449
561	465
561	535
561	613
561	632
561	644
562	79
562	86
562	131
562	148
562	203
562	245
562	257
562	295
562	316
562	332
562	373
562	398
562	424
562	508
562	518
562	542
562	548
562	562
562	569
562	575
563	178
563	236
563	262
563	278
563	322
563	337
563	380
563	386
563	391
563	408
563	459
563	475
563	486
563	496
563	524
563	529
563	556
563	582
563	590
563	624
564	52
564	67
564	105
564	156
564	167
564	190
564	196
564	212
564	224
564	302
564	355
564	418
564	441
564	617
564	639
565	116
565	137
565	219
565	252
565	268
565	285
565	307
565	327
565	343
565	348
565	360
565	402
565	435
565	453
565	470
565	513
565	596
565	603
566	91
566	208
566	313
566	365
566	371
566	413
566	429
566	446
566	464
566	480
566	491
566	503
566	632
566	645
567	60
567	98
567	125
567	162
567	183
567	229
567	243
567	258
567	274
567	291
567	298
567	318
567	332
567	376
567	383
567	395
567	406
567	536
567	550
567	558
567	565
567	625
568	82
568	110
568	143
568	150
568	175
568	264
568	338
568	389
568	423
568	457
568	508
568	519
568	543
568	572
568	585
568	609
569	74
569	133
569	223
569	234
569	248
569	278
569	351
569	356
569	440
569	475
569	486
569	526
569	531
569	579
569	592
569	598
570	47
570	187
570	195
570	201
570	212
570	254
570	269
570	304
570	310
570	322
570	345
570	362
570	402
570	417
570	428
570	434
570	451
570	469
570	480
570	497
570	646
571	104
571	156
571	168
571	239
571	283
571	288
571	315
571	328
571	368
571	503
571	548
571	620
571	631
571	641
572	66
572	94
572	119
572	217
572	228
572	259
572	334
572	340
572	374
572	379
572	412
572	445
572	462
572	491
572	515
572	554
572	561
572	615
573	53
573	81
573	87
573	127
573	137
573	150
573	180
573	206
573	295
573	385
573	398
573	421
573	439
573	456
573	521
573	539
573	568
573	582
573	604
573	644
574	45
574	60
574	110
574	162
574	243
574	275
574	301
574	352
574	358
574	392
574	407
574	432
574	473
574	480
574	508
574	575
574	589
574	624
575	143
575	173
575	192
575	199
575	233
575	249
575	265
575	306
575	401
575	417
575	486
575	543
575	595
576	99
576	133
576	186
576	212
576	224
576	255
576	279
576	312
576	324
576	331
576	364
576	370
576	449
576	467
576	498
576	526
576	533
576	637
577	72
577	85
577	104
577	123
577	157
577	168
577	239
577	270
577	285
577	291
577	336
577	377
577	394
577	411
577	427
577	443
577	461
577	515
577	550
577	602
577	610
577	619
578	92
578	149
578	229
578	261
578	296
578	348
578	389
578	482
578	491
578	504
578	539
578	628
579	53
579	66
579	117
579	179
579	208
579	245
579	274
579	342
579	355
579	383
579	400
579	406
579	421
579	437
579	454
579	522
579	557
579	564
579	578
579	585
579	632
580	80
580	129
580	203
580	218
580	315
580	321
580	362
580	471
580	476
580	510
580	571
580	592
580	599
580	645
581	98
581	183
581	197
581	236
581	251
581	265
581	279
581	286
581	303
581	309
581	326
581	372
581	416
581	432
581	442
581	465
581	487
581	528
581	545
581	605
581	623
582	46
582	112
582	136
582	143
582	160
582	173
582	190
582	213
582	223
582	292
582	332
582	379
582	426
582	447
582	499
582	515
582	534
583	59
583	73
583	122
583	241
583	259
583	271
583	298
583	338
583	351
583	358
583	367
583	398
583	410
583	459
583	481
583	491
583	559
583	616
583	633
583	640
584	85
584	91
584	345
584	392
584	404
584	438
584	453
584	474
584	540
584	553
585	103
585	155
585	165
585	200
585	207
585	229
585	276
585	311
585	363
585	383
585	420
585	431
585	567
585	574
585	581
585	588
585	610
586	53
586	66
586	80
586	117
586	218
586	246
586	264
586	282
586	306
586	318
586	370
586	463
586	469
586	495
586	509
586	522
586	595
586	603
586	644
587	97
587	129
587	179
587	186
587	194
587	235
587	253
587	289
587	300
587	324
587	329
587	335
587	342
587	353
587	414
587	425
587	443
587	486
587	530
587	548
587	622
588	46
588	92
588	109
588	141
588	148
588	172
588	214
588	224
588	295
588	375
588	381
588	390
588	395
588	401
588	450
588	456
588	499
588	535
588	555
588	562
589	59
589	86
589	159
589	259
589	271
589	348
589	408
589	428
589	479
589	515
589	569
589	576
590	71
590	122
590	202
590	279
590	309
590	359
590	436
590	473
590	505
590	615
590	636
591	52
591	102
591	134
591	152
591	166
591	182
591	197
591	220
591	230
591	247
591	314
591	320
591	326
591	386
591	419
591	495
591	542
591	592
591	629
591	642
592	93
592	114
592	208
592	265
592	292
592	304
592	332
592	338
592	345
592	366
592	371
592	377
592	432
592	461
592	467
592	483
592	509
592	552
592	585
592	602
593	177
593	189
593	298
593	354
593	392
593	397
593	413
593	441
593	446
593	453
593	519
593	531
593	546
593	608
593	622
594	65
594	80
594	146
594	157
594	169
594	235
594	253
594	276
594	404
594	425
594	489
594	500
594	627
595	108
595	127
595	163
595	224
595	242
595	270
595	323
595	349
595	362
595	382
595	435
595	478
595	513
595	525
595	536
595	559
596	46
596	72
596	86
596	101
596	139
596	200
596	212
596	282
596	315
596	328
596	367
596	409
596	494
596	565
596	573
596	580
597	59
597	120
597	152
597	187
597	194
597	230
597	260
597	288
597	309
597	337
597	342
597	357
597	371
597	389
597	418
597	430
597	471
597	587
597	620
598	93
598	134
598	180
598	208
598	218
598	249
598	294
598	301
598	332
598	377
598	394
598	440
598	458
598	465
598	484
598	508
598	542
598	596
598	601
598	613
598	629
598	637
599	114
599	146
599	172
599	236
599	362
599	401
599	413
599	424
599	520
599	554
599	608
600	81
600	159
600	167
600	254
600	265
600	273
600	318
600	353
600	446
600	454
600	502
600	561
601	53
601	74
601	127
601	205
601	224
601	280
601	285
601	312
601	323
601	347
601	384
601	475
601	496
601	513
601	526
601	537
601	548
601	569
601	583
601	623
602	66
602	109
602	139
602	197
602	241
602	261
602	305
602	341
602	369
602	390
602	435
602	575
602	618
602	642
603	87
603	97
603	119
603	190
603	270
603	291
603	297
603	328
603	336
603	358
603	374
603	407
603	419
603	470
603	489
603	531
604	46
604	59
604	103
604	152
604	171
604	177
604	184
604	212
604	219
604	230
604	248
604	362
604	396
604	401
604	431
604	441
604	463
604	498
604	543
604	591
604	597
605	113
605	134
605	258
605	309
605	321
605	352
605	368
605	379
605	412
605	452
605	482
605	493
605	507
605	519
605	583
605	626
605	635
606	53
606	80
606	92
606	163
606	209
606	237
606	265
606	275
606	281
606	315
606	345
606	385
606	391
606	620
607	145
607	195
607	201
607	253
607	287
607	333
607	339
607	424
607	458
607	475
607	502
607	526
607	550
607	565
607	572
607	606
607	612
608	72
608	107
608	126
608	158
608	214
608	222
608	270
608	294
608	358
608	407
608	436
608	447
608	487
608	538
608	557
608	579
609	66
609	88
609	138
609	188
609	243
609	260
609	301
609	306
609	327
609	419
609	429
609	480
609	514
609	586
609	593
609	632
609	640
610	99
610	119
610	174
610	182
610	231
610	278
610	313
610	364
610	375
610	469
611	53
611	91
611	169
611	249
611	319
611	336
611	348
611	387
611	397
611	441
611	451
611	491
611	520
611	532
611	544
611	600
611	624
611	636
612	59
612	112
612	133
612	150
612	162
612	197
612	203
612	237
612	267
612	283
612	342
612	370
612	380
612	403
612	413
612	463
612	474
612	509
612	552
612	560
612	611
613	210
613	254
613	272
613	289
613	330
613	353
613	359
613	435
613	458
613	568
613	618
614	64
614	70
614	78
614	86
614	104
614	125
614	144
614	186
614	192
614	216
614	226
614	260
614	308
614	324
614	375
614	485
614	500
614	525
614	575
614	596
614	614
614	630
615	52
615	156
615	242
615	295
615	302
615	314
615	393
615	408
615	425
615	480
615	589
616	97
616	232
616	249
616	320
616	346
616	365
616	398
616	420
616	451
616	469
616	518
616	530
616	583
616	604
616	636
617	136
617	170
617	177
617	221
617	255
617	279
617	285
617	335
617	381
617	388
617	442
617	497
617	507
617	537
617	600
618	119
618	130
618	203
618	239
618	268
618	355
618	370
618	413
618	430
618	475
618	549
618	556
618	622
619	90
619	109
619	149
619	164
619	197
619	210
619	330
619	340
619	402
619	459
619	490
619	513
619	543
619	579
619	608
619	642
619	651
620	60
620	75
620	82
620	103
620	228
620	245
620	273
620	291
620	306
620	325
620	351
620	361
620	438
620	447
620	465
620	501
620	566
620	572
620	592
620	630
621	52
621	65
621	125
621	143
621	182
621	189
621	216
621	262
621	313
621	318
621	393
621	407
621	482
621	526
622	156
622	233
622	251
622	295
622	345
622	366
622	376
622	398
622	470
622	586
622	601
622	639
622	644
623	115
623	175
623	201
623	302
623	334
623	358
623	387
623	420
623	441
623	453
623	494
623	508
623	519
623	616
624	44
624	49
624	57
624	96
624	150
624	168
624	193
624	222
624	268
624	280
624	404
624	414
624	488
624	533
624	561
624	634
625	121
625	132
625	188
625	211
625	240
625	257
625	285
625	309
625	314
625	329
625	340
625	352
625	383
625	426
625	436
625	461
625	541
625	547
625	569
625	605
625	627
626	53
626	71
626	88
626	139
626	244
626	293
626	322
626	362
626	371
626	392
626	431
626	448
626	478
626	501
626	514
626	555
626	576
626	621
627	63
627	79
627	108
627	162
627	207
627	227
627	249
627	263
627	274
627	317
627	583
627	590
627	597
627	614
628	57
628	102
628	181
628	217
628	376
628	419
628	467
628	484
629	127
629	156
629	190
629	235
629	299
629	336
629	346
629	356
629	367
629	387
629	398
629	409
629	437
629	455
629	473
629	602
630	147
630	174
630	199
630	223
630	253
630	280
630	292
630	326
630	492
630	508
630	528
630	535
630	551
630	558
630	616
630	623
630	644
631	47
631	114
631	134
631	194
631	212
631	241
631	306
631	312
631	350
631	382
631	392
631	520
631	544
631	566
631	609
632	166
632	258
632	271
632	287
632	319
632	362
632	378
632	415
632	426
632	444
632	463
632	498
632	573
632	636
633	70
633	77
633	94
633	107
633	120
633	141
633	161
633	229
633	263
633	330
633	340
633	405
633	450
633	469
633	480
633	580
633	587
633	595
633	629
633	646
634	52
634	153
634	170
634	179
634	186
634	205
634	296
634	352
634	373
634	388
634	420
634	433
634	487
634	604
635	61
635	88
635	102
635	127
635	236
635	248
635	276
635	282
635	302
635	398
635	506
635	514
636	71
636	82
636	198
636	216
636	309
636	336
636	348
636	366
636	439
636	457
636	475
636	493
636	533
636	539
636	548
636	562
637	65
637	172
637	223
637	254
637	290
637	315
637	325
637	357
637	411
637	445
637	525
637	555
637	621
637	640
638	114
638	147
638	190
638	242
638	270
638	383
638	417
638	483
638	615
638	625
639	44
639	53
639	57
639	121
639	166
639	211
639	258
639	341
639	370
639	394
639	428
639	452
639	464
639	558
639	577
639	600
639	607
639	635
640	94
640	107
640	133
640	141
640	160
640	185
640	265
640	321
640	351
640	433
640	470
640	500
640	512
640	569
640	584
640	593
641	231
641	249
641	306
641	331
641	345
641	362
641	375
641	388
641	405
641	422
641	491
641	505
641	522
641	644
642	66
642	73
642	99
642	128
642	178
642	203
642	274
642	280
642	293
642	299
642	354
642	367
642	411
642	440
642	458
642	529
642	537
642	639
643	58
643	88
643	151
643	171
643	236
643	253
643	287
643	312
643	325
643	336
643	400
643	545
644	195
644	214
644	224
644	416
644	428
644	464
644	476
644	483
644	553
644	560
644	633
645	50
645	146
645	162
645	187
645	260
645	321
645	341
645	357
645	404
645	447
645	501
645	516
645	524
645	589
645	597
645	606
645	613
645	620
646	55
646	79
646	119
646	268
646	361
646	371
646	383
646	395
646	568
646	582
647	93
647	110
647	207
647	244
647	282
647	290
647	318
647	329
647	348
647	422
647	453
647	471
647	575
647	631
647	645
648	46
648	103
648	138
648	179
648	232
648	302
648	309
648	377
648	410
648	434
648	440
648	466
648	489
648	509
649	63
649	130
649	156
649	200
649	210
649	218
649	248
649	297
649	321
649	327
649	366
649	526
649	534
649	542
649	626
650	71
650	124
650	165
650	188
650	238
650	277
650	314
650	337
650	354
650	389
650	459
650	478
650	496
650	520
650	557
651	57
651	86
651	170
651	194
651	227
651	257
651	270
651	342
651	400
651	416
651	447
651	609
651	618
652	66
652	134
652	141
652	149
652	264
652	285
652	359
652	383
652	430
652	466
652	484
652	513
652	596
652	602
653	114
653	160
653	182
653	207
653	306
653	318
653	323
653	405
653	503
653	579
653	587
653	632
654	61
654	79
654	107
654	214
654	222
654	245
654	299
654	331
654	350
654	371
654	422
654	434
654	472
654	538
654	565
654	571
654	624
655	68
655	127
655	154
655	173
655	177
655	251
655	272
655	294
655	365
655	399
655	411
655	453
655	491
655	530
655	544
655	599
656	91
656	99
656	198
656	266
656	337
656	376
656	441
656	510
656	524
656	550
657	49
657	120
657	146
657	226
657	233
657	281
657	313
657	388
657	460
657	558
657	607
658	140
658	168
658	192
658	347
658	357
658	416
658	428
658	449
658	465
658	479
658	503
658	615
659	61
659	132
659	186
659	210
659	239
659	257
659	343
659	363
659	394
659	405
659	498
659	517
659	577
659	583
659	592
660	52
660	84
660	96
660	148
660	160
660	203
660	220
660	245
660	263
660	302
660	308
660	319
660	327
660	333
660	371
660	381
660	436
660	485
660	537
660	570
661	104
661	112
661	178
661	196
661	215
661	289
661	296
661	422
661	444
661	512
661	543
661	586
662	66
662	71
662	75
662	126
662	231
662	276
662	284
662	314
662	350
662	399
662	455
662	492
662	530
662	547
662	562
662	628
662	634
663	154
663	173
663	235
663	251
663	269
663	337
663	354
663	365
663	376
663	387
663	411
663	438
663	474
663	524
663	554
663	611
664	58
664	117
664	257
664	264
664	417
664	430
664	449
664	461
664	499
664	518
664	620
665	50
665	83
665	132
665	140
665	166
665	191
665	208
665	217
665	225
665	331
665	480
665	535
665	541
665	580
665	587
665	596
665	604
666	324
666	345
666	349
666	361
666	370
666	506
667	160
667	202
667	221
667	229
667	246
667	273
667	281
667	286
667	293
667	299
667	307
667	319
667	382
667	394
667	422
667	468
667	487
667	566
667	572
668	68
668	88
668	94
668	148
668	177
668	185
668	212
668	266
668	375
668	441
668	593
669	63
669	100
669	114
669	153
669	251
669	313
669	355
669	365
669	387
669	410
669	455
669	494
669	522
669	557
669	626
669	635
670	55
670	74
670	121
670	170
670	195
670	260
670	301
670	335
670	399
670	416
670	429
670	436
670	475
670	501
670	540
670	549
671	134
671	224
671	239
671	347
671	449
671	532
671	616
672	107
672	189
672	247
672	321
672	328
672	462
672	481
672	489
672	508
672	516
672	584
672	592
672	607
673	69
673	82
673	163
673	182
673	206
673	233
673	289
673	315
673	342
673	359
673	369
673	381
673	423
673	601
673	629
674	49
674	65
674	127
674	201
674	277
674	282
674	295
674	309
674	405
674	431
674	497
674	527
674	547
674	571
674	595
675	54
675	61
675	140
675	157
675	256
675	269
675	394
675	438
675	470
675	536
675	551
675	555
675	577
675	621
676	87
676	149
676	177
676	194
676	213
676	263
676	351
676	376
676	386
676	444
676	451
676	476
676	504
676	520
676	562
677	67
677	75
677	94
677	102
677	132
677	228
677	244
677	332
677	339
677	346
677	364
677	400
677	411
677	459
677	483
678	81
678	110
678	119
678	168
678	187
678	208
678	219
678	250
678	312
678	326
678	358
678	418
678	425
678	465
678	491
678	512
678	596
678	604
678	613
679	54
679	160
679	192
679	285
679	292
679	300
679	306
679	319
679	368
679	381
679	393
679	587
680	45
680	69
680	126
680	138
680	145
680	180
680	199
680	233
680	265
680	271
680	280
680	405
680	432
680	471
680	527
680	537
680	550
680	558
680	567
680	618
680	626
680	634
681	61
681	90
681	96
681	103
681	153
681	174
681	212
681	244
681	334
681	341
681	375
681	413
681	453
681	498
681	542
681	574
682	225
682	254
682	328
682	351
682	363
682	388
682	420
682	447
682	479
682	506
682	520
683	75
683	107
683	114
683	131
683	166
683	184
683	193
683	261
683	303
683	314
683	323
683	355
683	401
683	428
683	461
683	486
683	511
683	583
683	609
684	53
684	158
684	205
684	218
684	237
684	282
684	295
684	308
684	345
684	369
684	381
684	393
684	456
684	467
684	525
684	531
684	547
684	555
684	595
684	601
684	629
685	46
685	69
685	82
685	100
685	120
685	150
685	199
685	230
685	256
685	267
685	359
685	434
685	443
685	474
685	539
686	57
686	90
686	125
686	137
686	178
686	339
686	387
686	405
686	411
686	416
686	480
686	493
686	500
686	519
686	561
686	570
686	585
686	621
687	63
687	111
687	144
687	191
687	211
687	224
687	249
687	277
687	326
687	375
687	577
688	75
688	93
688	171
688	242
688	284
688	292
688	312
688	319
688	365
688	397
688	428
688	461
688	488
688	608
688	616
689	50
689	104
689	162
689	183
689	206
689	236
689	272
689	300
689	306
689	467
689	507
689	544
689	558
689	596
689	629
690	155
690	176
690	217
690	248
690	261
690	331
690	344
690	357
690	370
690	382
690	414
690	421
690	440
690	447
690	454
690	495
690	514
690	526
690	533
690	567
691	84
691	98
691	121
691	141
691	148
691	231
691	265
691	315
691	392
691	408
691	432
691	470
691	552
691	603
691	621
692	55
692	60
692	69
692	75
692	133
692	169
692	188
692	193
692	199
692	210
692	255
692	296
692	309
692	322
692	402
692	476
692	502
692	521
692	540
692	574
692	612
692	635
693	48
693	91
693	125
693	225
693	242
693	282
693	288
693	303
693	339
693	351
693	363
693	376
693	388
693	395
693	427
693	484
693	582
693	588
694	65
694	79
694	160
694	275
694	444
694	451
694	458
694	596
694	607
695	112
695	152
695	180
695	217
695	260
695	326
695	345
695	359
695	369
695	382
695	420
695	464
695	492
695	508
695	529
695	547
695	621
695	630
696	104
696	117
696	194
696	236
696	285
696	414
696	473
696	496
696	515
696	534
696	555
696	561
697	82
697	130
697	138
697	166
697	172
697	187
697	249
697	254
697	291
697	332
697	336
697	431
697	437
697	519
697	570
697	576
698	157
698	231
698	400
698	407
698	584
698	593
699	125
699	215
699	223
699	321
699	354
699	543
