92	175
94	168
94	235
96	160
96	224
96	242
96	328
97	148
97	183
97	356
97	383
97	391
97	410
97	449
97	471
97	487
97	517
98	103
98	132
98	167
98	174
98	363
98	377
98	422
98	455
99	115
99	231
99	261
99	268
99	307
99	343
99	399
99	429
99	509
99	533
100	156
100	191
100	254
100	274
100	300
100	314
100	320
100	349
100	370
100	440
100	462
100	480
100	502
100	596
101	207
101	220
101	238
101	246
101	282
101	290
101	413
101	525
101	590
102	109
102	143
102	198
102	213
102	225
102	336
102	434
102	549
102	571
102	579
103	123
103	177
103	328
103	381
103	392
103	472
103	493
104	86
104	101
104	136
104	168
104	185
104	257
104	405
104	450
104	458
104	517
104	539
105	115
105	150
105	160
105	309
105	342
105	356
105	364
105	372
105	426
105	464
105	484
105	507
105	563
105	604
106	78
106	95
106	130
106	233
106	264
106	270
106	277
106	315
106	348
106	418
107	192
107	206
107	220
107	249
107	286
107	294
107	303
107	322
107	334
107	397
107	442
107	531
107	592
108	71
108	143
108	241
108	411
108	477
108	500
108	585
108	614
109	85
109	109
109	122
109	200
109	227
109	327
109	432
109	522
109	554
109	570
110	172
110	180
110	213
110	376
110	384
110	392
110	456
110	471
110	492
110	547
111	157
111	186
111	257
111	307
111	369
111	402
111	423
111	514
111	538
111	600
112	116
112	135
112	164
112	234
112	250
112	281
112	339
112	346
112	354
112	361
112	446
112	506
112	560
112	577
113	101
113	150
113	265
113	273
113	297
113	417
113	463
113	484
113	621
114	93
114	193
114	220
114	290
114	314
114	438
114	530
114	591
114	605
115	67
115	75
115	129
115	206
115	241
115	322
115	330
115	410
115	497
116	121
116	142
116	303
116	374
116	380
116	476
116	521
116	568
117	108
117	156
117	177
117	228
117	257
117	339
117	387
117	395
117	430
117	454
117	470
117	511
117	545
117	553
117	583
117	599
117	613
118	84
118	100
118	135
118	169
118	183
118	214
118	277
118	284
118	309
118	402
119	114
119	234
119	270
119	344
119	351
119	359
119	421
119	490
119	536
120	149
120	190
120	199
120	296
120	317
120	367
120	414
120	443
120	503
120	559
120	575
120	629
121	91
121	162
121	221
121	250
121	263
121	325
121	460
121	482
122	128
122	143
122	207
122	242
122	289
122	374
122	382
122	436
122	465
122	473
122	515
122	527
122	604
122	620
123	69
123	78
123	155
123	176
123	228
123	281
123	302
123	331
123	390
123	399
123	406
123	495
123	590
124	85
124	105
124	111
124	120
124	186
124	256
124	311
124	428
124	449
124	521
124	567
125	169
125	193
125	274
125	340
125	354
125	362
125	541
125	550
125	581
126	96
126	148
126	214
126	268
126	295
126	320
126	347
126	369
126	419
126	509
126	598
126	613
127	135
127	201
127	235
127	250
127	441
127	487
127	558
127	628
128	69
128	160
128	221
128	262
128	327
128	433
128	517
128	574
129	76
129	90
129	115
129	141
129	181
129	209
129	242
129	287
129	377
129	386
129	394
129	401
129	456
129	461
129	478
129	500
129	535
129	589
130	83
130	124
130	131
130	173
130	280
130	306
130	334
130	342
130	409
130	470
130	495
130	526
130	603
130	620
131	101
131	109
131	153
131	189
131	228
131	315
131	350
131	357
131	425
131	543
132	49
132	59
132	166
132	256
132	267
132	274
132	298
132	322
132	365
132	447
132	552
133	197
133	203
133	215
133	235
133	440
133	505
133	567
134	94
134	145
134	373
134	405
134	417
134	513
134	580
134	596
134	628
135	137
135	158
135	178
135	240
135	250
135	283
135	291
135	330
135	381
135	390
135	475
135	521
135	560
135	608
135	613
136	71
136	87
136	121
136	129
136	222
136	262
136	303
136	338
136	345
136	397
136	411
136	430
136	466
136	483
136	530
136	537
137	80
137	104
137	113
137	171
137	185
137	208
137	256
137	270
137	353
137	360
137	453
137	490
137	498
137	553
137	589
137	640
138	55
138	63
138	151
138	229
138	277
138	309
138	317
138	460
138	546
138	573
138	603
138	619
139	193
139	297
139	369
139	422
139	444
139	508
140	98
140	163
140	201
140	216
140	236
140	325
140	376
140	405
140	437
140	471
140	611
141	91
141	126
141	134
141	142
141	244
141	251
141	340
141	383
141	414
141	479
141	516
141	565
141	628
142	67
142	176
142	285
142	331
142	391
142	486
142	525
142	532
142	556
142	581
143	44
143	60
143	84
143	110
143	117
143	156
143	181
143	189
143	223
143	258
143	265
143	303
143	349
143	429
143	450
143	494
143	541
144	52
144	209
144	272
144	312
144	355
144	457
144	502
144	586
144	602
145	77
145	149
145	169
145	196
145	291
145	363
145	370
145	400
145	421
145	441
145	463
145	549
145	572
145	635
146	103
146	229
146	280
146	320
146	619
147	95
147	137
147	239
147	336
147	377
147	406
147	413
147	435
147	472
147	510
147	518
147	558
148	130
148	202
148	217
148	246
148	286
148	298
148	327
148	342
148	385
148	528
148	594
148	611
149	121
149	143
149	162
149	175
149	209
149	254
149	274
149	305
149	350
149	393
149	446
149	480
149	489
149	535
149	626
150	65
150	74
150	88
150	116
150	154
150	184
150	227
150	260
150	427
150	454
150	497
150	566
150	578
150	641
150	649
151	50
151	58
151	81
151	190
151	267
151	293
151	313
151	358
151	460
151	505
151	545
151	602
152	42
152	100
152	170
152	233
152	331
152	366
152	440
152	586
153	108
153	198
153	215
153	240
153	321
153	338
153	372
153	400
153	408
153	421
153	466
153	473
153	552
153	618
153	634
154	93
154	134
154	149
154	280
154	345
154	387
154	434
154	514
154	522
155	125
155	142
155	203
155	221
155	248
155	299
155	308
155	327
155	352
155	486
155	530
155	571
155	594
156	70
156	78
156	116
156	157
156	176
156	256
156	272
156	287
156	380
156	414
156	561
156	609
157	85
157	165
157	184
157	229
157	315
157	361
157	393
157	427
157	450
157	455
157	461
157	478
157	492
157	539
157	579
157	625
158	53
158	62
158	191
158	209
158	263
158	333
158	404
158	441
158	500
158	509
158	601
158	641
159	100
159	198
159	236
159	304
159	341
159	368
159	516
159	548
159	587
160	130
160	216
160	243
160	252
160	276
160	282
160	294
160	348
160	399
160	469
161	44
161	93
161	108
161	152
161	269
161	309
161	321
161	374
161	386
161	420
161	433
161	524
161	556
161	616
162	122
162	146
162	172
162	224
162	259
162	355
162	411
162	486
162	534
162	594
162	631
163	137
163	158
163	179
163	204
163	265
163	289
163	328
163	378
163	426
163	446
163	495
163	564
163	573
163	648
164	59
164	66
164	74
164	82
164	115
164	165
164	186
164	192
164	301
164	364
164	455
164	477
164	542
164	581
164	607
164	623
165	35
165	50
165	100
165	231
165	307
165	316
165	335
165	392
165	503
165	511
165	587
165	599
166	129
166	212
166	219
166	276
166	283
166	343
166	370
166	404
166	438
166	463
166	639
167	91
167	107
167	153
167	238
167	247
167	254
167	270
167	294
167	416
167	470
167	519
167	550
168	175
168	199
168	322
168	349
168	385
168	398
168	431
168	449
168	490
168	527
168	559
168	615
169	42
169	70
169	77
169	122
169	161
169	168
169	182
169	190
169	206
169	226
169	260
169	357
169	423
169	483
169	592
169	606
170	85
170	289
170	301
170	329
170	337
170	377
170	410
170	535
170	569
170	631
171	62
171	98
171	114
171	136
171	148
171	214
171	242
171	267
171	364
171	392
171	442
171	459
171	478
171	500
171	515
171	584
172	273
172	278
172	316
172	344
172	506
172	545
172	576
173	35
173	50
173	221
173	250
173	284
173	371
173	403
173	434
173	465
173	487
173	599
173	622
173	645
174	128
174	156
174	186
174	194
174	236
174	255
174	295
174	309
174	324
174	351
174	384
174	419
174	522
175	82
175	91
175	107
175	142
175	164
175	179
175	202
175	397
175	427
175	454
175	494
175	530
175	552
175	565
175	638
176	59
176	65
176	75
176	121
176	171
176	209
176	263
176	314
176	358
176	446
176	473
176	501
176	607
176	652
177	218
177	243
177	302
177	329
177	377
177	410
177	458
177	508
177	538
177	581
177	591
177	615
177	628
178	99
178	113
178	134
178	224
178	270
178	276
178	288
178	338
178	365
178	389
178	403
178	439
178	480
178	559
179	150
179	231
179	252
179	308
179	321
179	430
179	517
179	546
180	87
180	127
180	158
180	198
180	344
180	423
180	467
180	573
180	600
180	645
181	71
181	79
181	107
181	175
181	183
181	190
181	205
181	213
181	238
181	257
181	293
181	353
181	371
181	383
181	525
182	39
182	139
182	167
182	281
182	315
182	396
182	416
182	450
182	474
182	488
182	497
182	533
182	566
182	587
182	608
182	622
182	636
183	94
183	122
183	264
183	334
183	359
183	409
184	55
184	62
184	146
184	218
184	273
184	303
184	339
184	378
184	503
184	553
184	593
185	47
185	100
185	112
185	133
185	153
185	226
185	246
185	310
185	327
185	365
185	389
185	436
185	462
185	511
185	540
185	581
185	614
186	161
186	193
186	201
186	287
186	346
186	402
186	428
186	469
186	483
186	561
186	629
187	82
187	180
187	232
187	252
187	258
187	296
187	321
187	421
187	456
187	520
187	645
188	75
188	88
188	127
188	172
188	187
188	209
188	280
188	372
188	383
188	414
188	491
188	548
188	567
188	601
189	96
189	107
189	140
189	215
189	240
189	268
189	315
189	334
189	353
189	395
189	448
189	499
189	527
189	587
190	40
190	60
190	119
190	165
190	220
190	264
190	308
190	340
190	360
190	440
190	474
190	535
190	573
190	609
190	621
190	636
190	657
191	51
191	67
191	101
191	147
191	246
191	274
191	366
191	408
191	434
191	506
192	134
192	196
192	228
192	301
192	377
192	389
192	426
192	461
192	514
192	615
192	650
193	78
193	112
193	159
193	185
193	202
193	234
193	252
193	258
193	286
193	327
193	348
193	454
193	480
193	553
193	581
193	595
194	125
194	209
194	269
194	295
194	319
194	401
194	419
194	468
194	487
194	494
194	522
194	628
195	84
195	91
195	141
195	152
195	171
195	280
195	312
195	371
195	394
195	446
195	560
195	603
195	642
196	71
196	105
196	118
196	190
196	217
196	241
196	335
196	383
196	412
196	501
196	568
196	589
197	35
197	49
197	57
197	65
197	98
197	132
197	164
197	197
197	223
197	263
197	292
197	306
197	342
197	356
197	364
197	475
197	509
197	530
197	538
197	547
197	575
197	619
197	656
198	248
198	299
198	405
198	431
198	439
198	463
198	609
198	634
199	77
199	145
199	157
199	178
199	205
199	230
199	274
199	324
199	349
199	423
199	518
199	598
199	648
200	92
200	112
200	122
200	138
200	237
200	285
200	317
200	330
200	376
200	417
200	483
200	490
200	555
200	583
201	85
201	170
201	185
201	255
201	390
201	398
201	457
201	497
201	525
201	562
202	38
202	70
202	104
202	212
202	245
202	268
202	309
202	336
202	361
202	368
202	383
202	450
202	627
203	62
203	152
203	163
203	192
203	219
203	279
203	343
203	355
203	410
203	443
203	475
203	504
203	533
203	570
203	605
203	641
204	43
204	51
204	129
204	225
204	262
204	296
204	303
204	429
204	435
204	541
204	591
204	613
204	656
205	78
205	97
205	116
205	141
205	176
205	200
205	231
205	250
205	285
205	290
205	320
205	326
205	402
205	512
205	521
205	549
205	577
205	622
206	137
206	157
206	238
206	348
206	394
206	421
206	527
206	635
207	33
207	58
207	91
207	169
207	181
207	207
207	275
207	314
207	332
207	359
207	373
207	379
207	462
207	471
207	486
207	493
207	557
207	585
207	599
208	110
208	146
208	189
208	214
208	256
208	268
208	307
208	365
208	387
208	414
208	454
208	479
208	500
208	648
209	72
209	85
209	152
209	220
209	227
209	246
209	339
209	434
209	441
209	447
209	535
209	564
209	608
210	47
210	102
210	128
210	163
210	196
210	233
210	294
210	301
210	321
210	345
210	352
210	408
210	508
210	545
210	572
210	624
211	39
211	95
211	140
211	177
211	203
211	262
211	280
211	287
211	328
211	399
211	426
211	640
212	80
212	120
212	184
212	240
212	252
212	273
212	392
212	516
212	528
212	552
212	579
212	594
212	617
213	90
213	114
213	209
213	312
213	335
213	385
213	419
213	473
213	482
213	523
214	51
214	65
214	134
214	145
214	158
214	169
214	216
214	363
214	369
214	377
214	403
214	459
214	466
214	489
214	495
214	602
214	630
215	35
215	42
215	59
215	107
215	190
215	222
215	246
215	291
215	305
215	342
215	411
215	432
215	438
215	446
215	452
215	503
215	540
215	559
215	586
216	100
216	197
216	229
216	258
216	265
216	298
216	317
216	323
216	348
216	623
217	75
217	85
217	126
217	151
217	162
217	174
217	237
217	278
217	283
217	330
217	354
217	397
217	423
217	511
217	567
217	610
218	119
218	139
218	180
218	243
218	311
218	389
218	519
218	526
218	533
218	638
219	80
219	186
219	204
219	253
219	270
219	337
219	374
219	382
219	406
219	417
219	575
219	596
220	94
220	130
220	157
220	301
220	368
220	470
220	477
220	497
220	546
220	554
220	590
220	616
220	653
221	31
221	111
221	145
221	194
221	211
221	224
221	232
221	263
221	295
221	319
221	343
221	362
221	400
221	412
221	434
221	442
221	449
221	456
221	463
221	491
221	582
221	630
222	38
222	48
222	63
222	69
222	104
222	170
222	199
222	218
222	247
222	257
222	288
222	325
222	429
222	505
222	562
222	604
222	646
223	97
223	136
223	175
223	239
223	307
223	333
223	349
223	537
224	84
224	275
224	283
224	373
224	378
224	385
224	392
224	514
224	522
224	623
225	77
225	151
225	164
225	188
225	206
225	252
225	268
225	301
225	313
225	338
225	356
225	484
225	529
225	570
226	37
226	56
226	118
226	129
226	141
226	221
226	227
226	293
226	406
226	468
226	475
226	492
226	500
226	541
226	550
226	579
226	595
226	608
226	638
227	171
227	194
227	201
227	261
227	362
227	397
227	412
227	419
227	439
227	446
227	453
227	460
227	587
227	652
228	64
228	103
228	110
228	122
228	146
228	157
228	214
228	235
228	244
228	279
228	286
228	319
228	345
228	349
228	425
228	432
228	558
228	617
229	80
229	95
229	305
229	334
229	373
229	381
229	388
229	565
230	49
230	88
230	178
230	224
230	256
230	312
230	329
230	472
230	519
230	527
230	601
230	631
230	645
231	69
231	150
231	164
231	207
231	272
231	298
231	323
231	357
231	394
231	401
231	479
231	512
231	534
231	574
232	139
232	189
232	231
232	250
232	265
232	316
232	340
232	367
232	415
232	428
232	436
232	450
232	457
232	487
232	495
232	503
232	623
233	35
233	54
233	118
233	129
233	156
233	171
233	201
233	218
233	239
233	259
233	292
233	408
233	421
233	443
233	465
233	543
233	583
233	638
233	652
234	43
234	60
234	99
234	146
234	213
234	310
234	350
234	361
234	551
234	559
234	593
234	609
235	91
235	113
235	124
235	183
235	194
235	275
235	286
235	304
235	329
235	378
235	473
235	630
236	50
236	77
236	84
236	134
236	177
236	206
236	228
236	246
236	391
236	516
236	522
236	531
236	567
236	616
237	152
237	162
237	188
237	223
237	234
237	269
237	296
237	317
237	335
237	343
237	355
237	385
237	406
237	484
237	491
237	498
237	507
237	538
237	659
238	69
238	106
238	139
238	255
238	280
238	366
238	397
238	411
238	425
238	446
238	573
238	580
238	602
238	644
239	56
239	128
239	170
239	199
239	263
239	292
239	308
239	325
239	418
239	439
239	453
239	478
239	546
240	40
240	64
240	100
240	157
240	182
240	210
240	228
240	241
240	251
240	332
240	349
240	431
240	462
240	469
240	587
240	625
241	88
241	94
241	121
241	134
241	145
241	193
241	214
241	286
241	302
241	373
241	380
241	553
241	561
241	596
241	611
241	636
242	45
242	81
242	111
242	175
242	269
242	313
242	321
242	356
242	387
242	394
242	401
242	502
242	518
242	650
243	74
243	204
243	223
243	296
243	408
243	495
243	510
243	526
243	533
243	569
243	666
244	67
244	140
244	152
244	164
244	187
244	235
244	255
244	280
244	327
244	344
244	361
244	368
244	414
244	422
244	428
244	448
244	486
244	541
244	576
244	618
245	36
245	51
245	105
245	116
245	198
245	291
245	307
245	333
245	442
245	456
245	473
245	481
245	583
245	643
245	658
246	60
246	98
246	128
246	134
246	169
246	181
246	217
246	228
246	241
246	263
246	273
246	350
246	375
246	435
246	466
246	548
246	627
247	92
247	122
247	157
247	211
247	248
247	317
247	339
247	555
247	600
247	608
248	86
248	146
248	192
248	204
248	323
248	383
248	391
248	397
248	492
248	499
248	515
248	522
248	529
248	592
249	47
249	79
249	110
249	151
249	163
249	174
249	223
249	235
249	284
249	296
249	312
249	409
249	417
249	423
249	431
249	506
249	563
249	636
249	650
249	666
250	72
250	186
250	259
250	268
250	279
250	307
250	330
250	357
250	364
250	438
250	452
250	460
250	544
250	572
250	616
251	38
251	57
251	65
251	88
251	103
251	117
251	140
251	198
251	240
251	345
251	371
251	378
251	445
251	477
251	484
251	537
251	578
252	96
252	134
252	210
252	217
252	252
252	334
252	470
252	623
252	643
252	657
252	673
253	127
253	168
253	179
253	229
253	263
253	272
253	301
253	318
253	351
253	387
253	393
253	586
253	596
253	602
253	629
254	44
254	82
254	158
254	193
254	203
254	235
254	247
254	290
254	312
254	325
254	400
254	406
254	464
254	497
254	517
254	525
254	550
254	558
255	113
255	122
255	146
255	174
255	186
255	224
255	283
255	342
255	361
255	414
255	426
255	434
255	451
255	459
255	503
255	510
255	532
255	566
255	575
255	610
255	639
256	69
256	108
256	257
256	279
256	294
256	306
256	329
256	356
256	366
256	374
256	380
256	440
256	481
256	490
256	650
257	62
257	138
257	164
257	199
257	209
257	214
257	240
257	322
257	337
257	475
257	546
257	616
257	663
258	39
258	100
258	131
258	152
258	229
258	252
258	263
258	272
258	289
258	583
259	86
259	93
259	190
259	221
259	313
259	317
259	392
259	396
259	402
259	468
259	520
259	591
259	625
260	54
260	120
260	128
260	169
260	179
260	385
260	409
260	418
260	447
260	499
260	555
260	561
260	607
261	45
261	74
261	79
261	156
261	245
261	345
261	352
261	358
261	364
261	371
261	423
261	429
261	453
261	461
261	485
261	508
261	514
261	529
261	535
261	571
261	633
261	657
262	66
262	104
262	112
262	136
262	143
262	150
262	194
262	200
262	207
262	213
262	226
262	235
262	257
262	267
262	284
262	309
262	332
262	339
262	480
262	543
262	578
262	599
262	612
262	671
263	98
263	163
263	184
263	251
263	320
263	327
263	437
263	641
264	60
264	173
264	239
264	278
264	297
264	314
264	392
264	399
264	405
264	413
264	472
264	489
264	650
264	665
265	85
265	91
265	131
265	222
265	261
265	272
265	289
265	380
265	387
265	420
265	442
265	467
265	502
265	519
265	550
265	586
265	620
266	40
266	49
266	116
266	166
266	178
266	189
266	215
266	228
266	304
266	342
266	361
266	373
266	425
266	447
266	458
266	537
266	591
266	627
267	71
267	78
267	108
267	125
267	147
267	153
267	159
267	196
267	202
267	208
267	245
267	255
267	266
267	329
267	334
267	356
267	366
267	432
267	484
267	496
267	509
267	557
267	566
267	605
267	634
268	102
268	140
268	234
268	309
268	323
268	348
268	453
268	477
268	529
268	580
268	656
268	670
269	56
269	277
269	396
269	408
269	439
269	544
269	572
269	612
269	642
270	62
270	89
270	169
270	173
270	261
270	314
270	385
270	400
270	416
270	464
270	470
270	491
270	521
270	586
270	598
270	667
271	48
271	83
271	113
271	158
271	239
271	271
271	289
271	337
271	342
271	361
271	370
271	377
271	421
271	503
271	515
271	552
271	564
271	622
272	39
272	75
272	122
272	137
272	151
272	179
272	191
272	199
272	205
272	212
272	224
272	230
272	256
272	283
272	304
272	332
272	366
272	428
272	446
272	458
272	649
272	663
273	60
273	131
273	144
273	186
273	219
273	266
273	320
273	326
273	353
273	434
273	484
273	536
273	578
273	592
273	629
274	54
274	100
274	107
274	275
274	293
274	309
274	348
274	394
274	399
274	405
274	477
274	508
274	528
274	539
274	605
274	637
275	92
275	126
275	251
275	299
275	381
275	387
275	440
275	451
275	464
275	495
275	558
275	656
276	119
276	163
276	169
276	175
276	183
276	221
276	261
276	340
276	362
276	369
276	418
276	423
276	489
276	502
276	519
276	546
276	571
276	615
277	111
277	148
277	155
277	189
277	195
277	201
277	208
277	215
277	227
277	233
277	240
277	271
277	281
277	305
277	315
277	334
277	374
277	411
277	429
277	471
277	533
277	585
277	643
278	74
278	80
278	87
278	143
278	288
278	322
278	328
278	357
278	445
278	458
278	513
278	551
278	599
278	624
278	632
278	650
278	669
279	58
279	65
279	129
279	245
279	265
279	351
279	403
279	435
279	483
279	563
280	96
280	104
280	122
280	135
280	254
280	276
280	299
280	345
280	384
280	391
280	399
280	496
280	527
280	538
280	661
281	51
281	116
281	165
281	172
281	218
281	224
281	230
281	261
281	314
281	338
281	367
281	372
281	378
281	414
281	452
281	476
281	507
281	576
281	611
282	85
282	91
282	152
282	178
282	192
282	204
282	236
282	282
282	294
282	331
282	354
282	359
282	420
282	425
282	440
282	464
282	488
282	558
282	591
282	605
283	44
283	109
283	139
283	147
283	158
283	185
283	199
283	210
283	243
283	271
283	304
283	321
283	327
283	430
283	501
283	518
283	532
283	544
283	618
283	640
284	37
284	70
284	77
284	102
284	250
284	309
284	401
284	406
284	459
284	512
284	570
284	584
284	647
284	654
285	57
285	63
285	127
285	133
285	169
285	265
285	288
285	376
285	389
285	396
285	434
285	446
285	469
285	482
285	627
285	666
285	672
285	677
286	261
286	276
286	297
286	331
286	336
286	343
286	358
286	371
286	418
286	424
286	494
286	538
286	551
286	597
287	156
287	162
287	175
287	202
287	221
287	226
287	233
287	270
287	315
287	352
287	365
287	382
287	411
287	440
287	453
287	464
287	507
287	525
287	564
287	632
288	49
288	74
288	81
288	97
288	116
288	143
288	149
288	182
288	188
288	196
288	208
288	213
288	239
288	244
288	282
288	293
288	324
288	476
288	577
288	612
289	43
289	67
289	109
289	122
289	135
289	251
289	256
289	304
289	347
289	398
289	488
289	501
289	545
289	557
289	623
290	166
290	266
290	319
290	340
290	374
290	387
290	393
290	404
290	428
290	458
290	470
290	520
290	531
290	570
290	591
290	604
290	650
290	659
291	60
291	92
291	103
291	125
291	131
291	288
291	297
291	329
291	361
291	381
291	422
291	435
291	446
291	482
291	582
291	643
291	670
292	54
292	85
292	97
292	174
292	185
292	211
292	219
292	223
292	229
292	314
292	334
292	371
292	513
292	538
293	78
293	115
293	140
293	146
293	152
293	160
293	193
293	198
293	235
293	276
293	355
293	409
293	415
293	441
293	464
293	494
293	506
293	525
293	550
293	563
293	577
293	597
293	633
294	47
294	242
294	247
294	251
294	259
294	271
294	283
294	308
294	365
294	396
294	453
294	476
294	617
294	702
295	72
295	126
295	133
295	303
295	319
295	344
295	374
295	384
295	390
295	488
295	610
295	662
295	686
296	65
296	107
296	165
296	170
296	176
296	332
296	425
296	446
296	458
296	500
296	519
296	530
296	544
296	556
296	588
296	624
296	647
297	58
297	102
297	189
297	194
297	202
297	208
297	213
297	219
297	226
297	262
297	297
297	326
297	339
297	349
297	360
297	414
297	419
297	436
297	471
297	569
297	603
297	667
297	680
298	122
298	143
298	149
298	156
298	182
298	232
298	238
298	244
298	256
298	280
298	291
298	307
298	314
298	354
298	381
298	406
298	481
298	638
298	658
299	89
299	95
299	114
299	130
299	138
299	273
299	286
299	345
299	364
299	370
299	394
299	400
299	493
299	505
299	513
299	537
299	582
299	617
300	76
300	83
300	126
300	161
300	250
300	300
300	317
300	330
300	429
300	440
300	452
300	464
300	476
300	550
300	596
300	631
301	45
301	168
301	260
301	295
301	389
301	425
301	487
301	523
301	562
301	575
301	653
302	64
302	107
302	173
302	185
302	192
302	198
302	204
302	211
302	228
302	235
302	241
302	266
302	277
302	334
302	349
302	360
302	375
302	417
302	447
302	498
302	517
302	610
302	662
303	55
303	94
303	119
303	140
303	146
303	152
303	180
303	218
303	223
303	248
303	254
303	315
303	339
303	369
303	410
303	458
303	469
303	481
303	511
303	532
303	556
303	589
303	624
303	679
303	686
303	690
304	68
304	86
304	100
304	134
304	157
304	270
304	280
304	290
304	306
304	344
304	384
304	391
304	403
304	435
304	542
304	581
304	602
304	643
304	701
305	49
305	294
305	320
305	354
305	379
305	492
305	567
306	72
306	80
306	111
306	164
306	176
306	264
306	286
306	327
306	440
306	452
306	463
306	504
306	535
306	618
307	107
307	130
307	170
307	182
307	189
307	194
307	202
307	214
307	231
307	244
307	333
307	339
307	414
307	419
307	430
307	475
307	487
307	521
307	528
307	548
307	561
307	575
307	594
307	638
307	666
307	671
307	694
308	60
308	124
308	207
308	221
308	228
308	237
308	249
308	254
308	260
308	276
308	313
308	349
308	360
308	370
308	425
308	499
308	650
309	90
309	135
309	143
309	148
309	155
309	290
309	303
309	309
309	365
309	400
309	447
309	458
309	510
309	515
309	588
309	609
309	630
310	46
310	117
310	160
310	270
310	280
310	323
310	330
310	345
310	356
310	376
310	383
310	388
310	395
310	435
310	469
310	481
310	541
310	554
310	568
310	663
311	51
311	78
311	96
311	101
311	166
311	173
311	214
311	265
311	298
311	334
311	493
311	533
311	601
311	623
311	643
312	71
312	84
312	179
312	191
312	199
312	205
312	222
312	228
312	234
312	239
312	258
312	313
312	318
312	360
312	404
312	410
312	417
312	441
312	453
312	463
312	581
312	685
313	65
313	128
313	247
313	252
313	309
313	341
313	371
313	429
313	475
313	486
313	504
313	526
313	560
313	636
313	655
313	670
314	57
314	107
314	133
314	305
314	380
314	424
314	457
314	519
314	546
314	616
315	90
315	123
315	139
315	146
315	151
315	158
315	164
315	169
315	217
315	282
315	288
315	331
315	348
315	355
315	365
315	386
315	392
315	447
315	468
315	573
315	594
315	693
316	50
316	95
316	188
316	201
316	208
316	225
316	262
316	269
316	274
316	310
316	336
316	481
316	498
316	512
316	538
316	608
316	629
316	648
316	661
317	44
317	83
317	182
317	195
317	231
317	237
317	243
317	256
317	299
317	316
317	401
317	414
317	437
317	492
317	554
317	567
318	76
318	101
318	117
318	175
318	294
318	305
318	341
318	360
318	383
318	406
318	419
318	427
318	452
318	505
318	532
318	586
318	622
318	642
318	701
319	69
319	90
319	129
319	155
319	216
319	251
319	266
319	322
319	327
319	371
319	376
319	395
319	475
319	580
319	601
319	655
319	676
320	54
320	61
320	107
320	135
320	205
320	272
320	279
320	347
320	356
320	389
320	442
320	487
320	498
320	516
320	524
320	543
320	549
320	560
320	635
321	148
321	222
321	240
321	284
321	307
321	337
321	410
321	437
321	447
321	458
321	572
321	592
321	613
321	669
321	694
322	48
322	79
322	85
322	125
322	169
322	192
322	200
322	235
322	248
322	261
322	290
322	366
322	464
322	470
322	510
322	536
323	72
323	112
323	140
323	163
323	186
323	229
323	381
323	400
323	406
323	415
323	480
323	494
323	553
323	565
323	628
323	647
324	98
324	132
324	145
324	173
324	180
324	217
324	256
324	271
324	276
324	297
324	301
324	313
324	319
324	324
324	343
324	362
324	385
324	426
324	528
324	605
324	662
325	59
325	65
325	90
325	118
325	157
325	200
325	207
325	213
325	251
325	329
325	352
325	374
325	394
325	421
325	442
325	453
325	486
325	584
325	597
325	620
325	640
325	682
326	125
326	135
326	151
326	167
326	195
326	224
326	244
326	267
326	280
326	285
326	309
326	503
326	522
326	546
326	558
326	590
327	162
327	184
327	188
327	261
327	291
327	333
327	358
327	368
327	390
327	407
327	438
327	448
327	473
327	532
327	576
327	654
327	676
328	52
328	70
328	78
328	85
328	96
328	140
328	239
328	326
328	340
328	347
328	377
328	401
328	412
328	418
328	431
328	481
328	497
328	516
328	540
328	571
328	615
328	668
329	63
329	108
329	177
329	220
329	298
329	320
329	351
329	362
329	424
329	460
329	466
329	527
329	552
329	634
329	647
330	57
330	145
330	156
330	171
330	199
330	203
330	209
330	215
330	229
330	251
330	264
330	273
330	367
330	392
330	443
330	452
330	491
330	509
330	566
330	601
330	609
330	627
331	92
331	102
331	119
331	135
331	192
331	288
331	305
331	311
331	335
331	347
331	357
331	387
331	398
331	404
331	436
331	448
331	477
331	485
331	501
331	594
331	660
331	690
332	130
332	150
332	181
332	186
332	245
332	258
332	278
332	323
332	381
332	410
332	428
332	520
332	533
332	588
332	641
333	113
333	159
333	166
333	238
333	268
333	297
333	318
333	342
333	351
333	363
333	371
333	377
333	418
333	423
333	495
333	513
333	547
333	572
333	580
333	620
333	675
334	55
334	68
334	82
334	87
334	98
334	126
334	141
334	175
334	218
334	233
334	292
334	302
334	327
334	332
334	457
334	463
334	471
334	559
334	652
335	62
335	73
335	133
335	190
335	196
335	206
335	212
335	223
335	228
335	247
335	262
335	286
335	307
335	345
335	452
335	488
335	505
335	613
335	699
336	155
336	170
336	200
336	314
336	356
336	366
336	385
336	402
336	408
336	440
336	445
336	481
336	517
336	527
336	540
336	551
336	666
337	92
337	104
337	120
337	147
337	184
337	251
337	257
337	379
337	393
337	413
337	428
337	433
337	500
337	598
337	606
337	646
337	687
338	79
338	108
338	126
338	139
338	163
338	178
338	242
338	268
338	279
338	295
338	329
338	340
338	360
338	374
338	424
338	468
338	475
338	567
338	585
338	592
338	624
338	639
339	56
339	157
339	215
339	233
339	238
339	274
339	291
339	299
339	305
339	323
339	352
339	418
339	456
339	463
339	492
339	511
339	522
339	533
339	546
339	576
339	633
339	659
340	73
340	86
340	145
340	173
340	193
340	203
340	224
340	247
340	260
340	311
340	370
340	383
340	388
340	398
340	450
340	560
340	618
340	673
341	66
341	114
341	131
341	151
341	189
341	210
341	317
341	346
341	403
341	409
341	438
341	486
341	570
341	682
341	692
342	60
342	100
342	136
342	168
342	183
342	197
342	251
342	255
342	333
342	365
342	414
342	427
342	432
342	443
342	496
342	505
342	540
342	610
342	651
342	665
343	53
343	82
343	105
343	121
343	161
343	218
343	243
343	270
343	282
343	286
343	360
343	378
343	421
343	473
343	479
343	516
343	529
343	552
343	597
343	603
344	76
344	126
344	141
344	155
344	178
344	193
344	212
344	276
344	292
344	305
344	308
344	341
344	384
344	395
344	466
344	564
344	589
344	626
344	644
345	207
345	225
345	233
345	264
345	323
345	355
345	369
345	374
345	390
345	400
345	406
345	460
345	576
345	638
346	71
346	87
346	97
346	115
346	132
346	172
346	188
346	202
346	238
346	247
346	329
346	412
346	448
346	453
346	490
346	511
346	522
346	534
346	558
346	583
346	615
346	657
346	677
347	136
347	145
347	166
347	198
347	229
347	253
347	284
347	290
347	299
347	346
347	351
347	364
347	379
347	417
347	423
347	429
347	435
347	440
347	484
347	500
347	631
347	667
347	682
348	65
348	81
348	160
348	181
348	220
348	273
348	279
348	310
348	334
348	339
348	359
348	471
348	477
348	494
348	540
348	570
348	608
348	672
349	57
349	91
349	108
349	126
349	177
349	243
349	258
349	268
349	315
349	386
349	464
349	506
349	517
349	529
349	551
349	602
349	621
350	75
350	142
350	154
350	192
350	206
350	211
350	305
350	321
350	368
350	392
350	397
350	403
350	415
350	456
350	565
350	593
350	650
350	663
350	690
351	69
351	115
351	132
351	147
351	164
351	187
351	201
351	215
351	234
351	239
351	262
351	281
351	287
351	292
351	327
351	354
351	409
351	585
351	626
352	97
352	121
352	171
352	225
352	297
352	334
352	345
352	364
352	420
352	427
352	432
352	439
352	451
352	487
352	512
352	523
352	545
352	557
352	578
352	643
352	681
353	86
353	138
353	181
353	196
353	230
353	243
353	251
353	271
353	358
353	377
353	383
353	389
353	475
353	481
353	499
353	534
353	613
353	686
354	80
354	192
354	220
354	257
354	265
354	300
354	308
354	324
354	339
354	394
354	399
354	445
354	461
354	468
354	541
354	570
354	607
354	655
354	670
354	696
355	55
355	91
355	104
355	112
355	126
355	143
355	152
355	204
355	211
355	283
355	289
355	406
355	455
355	494
355	506
355	517
355	550
355	635
355	703
356	75
356	132
356	161
356	168
356	186
356	248
356	278
356	333
356	349
356	368
356	411
356	417
356	529
356	589
356	598
356	649
357	146
357	172
357	225
357	231
357	239
357	316
357	321
357	362
357	374
357	381
357	386
357	424
357	429
357	435
357	451
357	486
357	523
357	563
357	620
357	690
358	60
358	68
358	97
358	107
358	117
358	157
358	179
358	200
358	253
358	258
358	264
358	269
358	330
358	339
358	343
358	357
358	391
358	440
358	472
358	478
358	511
358	535
358	574
358	584
358	662
359	87
359	122
359	138
359	195
359	287
359	292
359	326
359	352
359	397
359	403
359	466
359	491
359	499
359	556
359	605
359	613
359	642
359	677
360	111
360	191
360	209
360	216
360	222
360	281
360	306
360	371
360	408
360	413
360	444
360	460
360	544
360	569
360	627
361	80
361	128
361	151
361	165
361	205
361	276
361	299
361	347
361	361
361	377
361	419
361	505
361	592
361	655
361	704
362	74
362	92
362	100
362	169
362	200
362	234
362	241
362	260
362	382
362	388
362	394
362	426
362	518
362	551
362	636
362	670
362	685
363	66
363	133
363	146
363	160
363	181
363	247
363	266
363	325
363	330
363	342
363	357
363	366
363	399
363	431
363	437
363	476
363	482
363	488
363	494
363	526
363	531
363	538
363	599
363	620
364	85
364	123
364	156
364	175
364	191
364	218
364	228
364	255
364	280
364	284
364	306
364	311
364	319
364	338
364	351
364	447
364	452
364	469
364	511
364	559
364	572
364	579
364	648
365	60
365	140
365	185
365	203
365	214
365	223
365	273
365	293
365	301
365	374
365	404
365	410
365	441
365	458
365	463
365	501
365	545
365	586
365	606
365	662
365	696
366	79
366	97
366	104
366	113
366	118
366	129
366	237
366	289
366	335
366	346
366	361
366	378
366	392
366	416
366	422
366	566
366	627
366	705
367	54
367	150
367	166
367	199
367	207
367	232
367	241
367	250
367	264
367	384
367	397
367	433
367	508
367	527
367	554
367	614
367	680
368	72
368	91
368	134
368	161
368	171
368	178
368	193
368	258
368	276
368	315
368	341
368	355
368	369
368	427
368	479
368	485
368	491
368	514
368	521
368	535
368	594
368	634
368	655
369	145
369	245
369	281
369	304
369	324
369	388
369	407
369	472
369	496
369	541
369	574
369	600
369	670
370	65
370	84
370	98
370	122
370	156
370	189
370	203
370	211
370	218
370	223
370	226
370	268
370	272
370	296
370	320
370	332
370	351
370	364
370	401
370	413
370	418
370	438
370	444
370	448
370	456
370	461
370	466
370	561
370	621
371	77
371	130
371	139
371	256
371	284
371	290
371	344
371	360
371	380
371	395
371	503
371	548
371	580
371	608
372	111
372	115
372	165
372	176
372	183
372	198
372	250
372	309
372	315
372	328
372	340
372	372
372	379
372	424
372	588
372	616
372	641
372	648
372	693
372	699
373	53
373	135
373	150
373	160
373	207
373	232
373	241
373	280
373	348
373	405
373	429
373	435
373	482
373	489
373	495
373	509
373	517
373	525
373	555
373	628
373	663
373	679
374	71
374	94
374	104
374	125
374	144
374	172
374	217
374	236
374	245
374	274
374	299
374	337
374	391
374	410
374	446
374	470
374	476
374	567
374	595
374	655
375	88
375	194
375	212
375	254
375	260
375	266
375	289
375	294
375	319
375	364
375	377
375	415
375	440
375	452
375	464
375	531
375	537
376	82
376	130
376	166
376	181
376	203
376	222
376	282
376	324
376	331
376	343
376	357
376	383
376	394
376	400
376	420
376	458
376	542
376	561
376	574
376	603
376	635
377	65
377	75
377	99
377	119
377	141
377	159
377	176
377	187
377	227
377	231
377	387
377	406
377	426
377	493
377	498
377	513
377	582
377	673
377	693
378	208
378	249
378	275
378	301
378	361
378	431
378	486
378	505
378	519
378	527
378	549
378	609
378	622
378	660
378	708
379	59
379	125
379	135
379	151
379	171
379	192
379	217
379	236
379	258
379	309
379	316
379	352
379	368
379	373
379	391
379	412
379	417
379	437
379	443
379	461
379	473
379	479
379	554
379	590
379	597
379	644
379	652
380	70
380	87
380	93
380	110
380	145
380	156
380	199
380	263
380	286
380	290
380	295
380	335
380	379
380	422
380	448
380	466
380	616
380	630
381	116
381	164
381	203
381	212
381	253
381	271
381	277
381	281
381	357
381	397
381	402
381	455
381	534
381	564
381	570
381	685
382	81
382	105
382	129
382	222
382	226
382	230
382	240
382	326
382	339
382	375
382	388
382	428
382	433
382	503
382	540
382	578
382	605
382	637
382	668
382	701
383	140
383	170
383	187
383	249
383	266
383	305
383	313
383	321
383	331
383	347
383	408
383	413
383	484
383	489
383	496
383	510
383	523
383	559
383	585
383	612
384	56
384	63
384	150
384	182
384	216
384	299
384	366
384	439
384	445
384	452
384	470
384	593
384	648
384	677
385	75
385	92
385	98
385	125
385	195
385	211
385	257
385	274
385	285
385	289
385	354
385	384
385	394
385	419
385	464
385	476
385	516
385	551
385	618
385	626
385	690
386	134
386	144
386	178
386	200
386	206
386	235
386	371
386	390
386	405
386	425
386	458
386	530
386	544
387	70
387	86
387	107
387	119
387	164
387	190
387	226
387	264
387	332
387	357
387	362
387	430
387	564
387	573
387	599
387	633
387	641
387	662
388	80
388	94
388	130
388	153
388	159
388	170
388	219
388	301
388	316
388	340
388	376
388	414
388	435
388	442
388	448
388	487
388	492
388	498
388	506
388	535
388	580
388	606
389	59
389	138
389	215
389	249
389	278
389	306
389	312
389	326
389	349
389	380
389	400
389	454
389	467
389	473
389	479
389	512
389	518
389	556
389	588
389	652
390	65
390	72
390	89
390	124
390	148
390	198
390	202
390	208
390	239
390	243
390	254
390	268
390	273
390	345
390	367
390	385
390	420
390	461
390	525
390	549
390	614
391	83
391	116
391	222
391	260
391	293
391	358
391	391
391	404
391	425
391	568
391	575
391	594
391	622
391	675
391	688
392	99
392	104
392	110
392	172
392	180
392	187
392	193
392	286
392	303
392	336
392	354
392	363
392	373
392	409
392	431
392	490
392	543
392	630
392	638
393	78
393	133
393	156
393	162
393	167
393	229
393	298
393	330
393	340
393	397
393	438
393	445
393	450
393	483
393	496
393	501
393	509
393	529
393	561
393	584
393	602
393	659
393	666
393	696
394	94
394	128
394	144
394	150
394	212
394	218
394	235
394	313
394	325
394	382
394	402
394	415
394	470
394	514
394	521
394	646
394	703
395	61
395	88
395	122
395	137
395	196
395	249
395	267
395	271
395	290
395	345
395	359
395	387
395	457
395	464
395	536
395	553
395	590
395	609
396	68
396	109
396	115
396	189
396	224
396	255
396	262
396	281
396	321
396	368
396	378
396	391
396	406
396	422
396	428
396	433
396	477
396	547
396	572
396	616
396	682
397	74
397	82
397	104
397	157
397	163
397	171
397	244
397	296
397	306
397	350
397	410
397	441
397	448
397	453
397	493
397	504
398	97
398	177
398	238
398	275
398	328
398	333
398	341
398	356
398	363
398	397
398	480
398	486
398	499
398	511
398	559
398	566
398	579
398	597
398	625
398	632
398	654
399	56
399	126
399	148
399	182
399	204
399	283
399	383
399	388
399	402
399	436
399	462
399	468
399	474
399	541
399	603
399	670
399	690
400	64
400	92
400	134
400	141
400	194
400	199
400	228
400	233
400	252
400	290
400	314
400	338
400	346
400	373
400	407
400	419
400	430
400	518
400	524
400	531
400	551
400	639
401	108
401	114
401	120
401	219
401	242
401	261
401	304
401	351
401	378
401	457
401	490
401	585
401	611
401	648
401	662
401	701
402	69
402	87
402	102
402	130
402	155
402	161
402	170
402	190
402	209
402	214
402	236
402	299
402	325
402	360
402	365
402	397
402	413
402	451
402	505
402	534
402	574
402	592
402	618
402	656
402	677
403	76
403	265
403	270
403	321
403	334
403	370
403	440
403	445
403	472
403	477
403	483
403	496
403	545
403	562
404	124
404	145
404	179
404	204
404	250
404	278
404	311
404	374
404	389
404	403
404	423
404	466
404	509
404	599
405	59
405	117
405	139
405	151
405	187
405	194
405	199
405	228
405	240
405	259
405	286
405	292
405	340
405	347
405	357
405	393
405	408
405	418
405	429
405	434
405	455
405	460
405	500
405	515
405	521
405	528
405	556
405	568
405	580
405	628
405	635
405	689
406	82
406	88
406	94
406	111
406	128
406	134
406	159
406	174
406	216
406	224
406	233
406	297
406	301
406	317
406	352
406	367
406	380
406	448
406	490
406	540
406	605
406	613
406	707
407	66
407	99
407	105
407	164
407	169
407	183
407	207
407	281
407	307
407	323
407	334
407	385
407	399
407	413
407	437
407	442
407	506
407	551
407	587
407	641
408	72
408	155
408	202
408	253
408	276
408	343
408	511
408	533
408	563
408	574
408	593
409	123
409	148
409	190
409	196
409	245
409	260
409	268
409	290
409	313
409	350
409	363
409	372
409	394
409	403
409	464
409	469
409	474
409	481
409	487
409	496
409	649
409	659
409	701
410	78
410	137
410	143
410	178
410	210
410	238
410	285
410	294
410	329
410	408
410	417
410	421
410	427
410	432
410	457
410	518
410	544
410	599
410	686
411	61
411	84
411	131
411	173
411	233
411	320
411	339
411	446
411	452
411	501
411	526
411	555
411	581
411	607
411	620
411	629
411	666
412	68
412	90
412	103
412	108
412	116
412	158
412	224
412	252
412	266
412	281
412	302
412	306
412	353
412	399
412	491
412	508
412	567
412	636
412	695
413	97
413	127
413	147
413	153
413	167
413	182
413	201
413	218
413	260
413	345
413	359
413	382
413	390
413	435
413	538
413	587
413	615
413	674
414	141
414	195
414	247
414	275
414	324
414	364
414	370
414	376
414	405
414	419
414	429
414	442
414	479
414	515
414	550
414	653
415	135
415	162
415	190
415	238
415	283
415	288
415	296
415	311
415	333
415	395
415	425
415	455
415	466
415	473
415	485
415	496
415	531
415	561
415	574
415	595
415	661
415	688
416	57
416	63
416	80
416	156
416	176
416	210
416	230
416	315
416	321
416	348
416	409
416	413
416	449
416	461
416	544
416	603
416	645
416	698
417	71
417	87
417	120
417	130
417	180
417	185
417	204
417	215
417	222
417	263
417	269
417	303
417	340
417	360
417	400
417	438
417	490
417	521
417	555
417	632
418	93
418	105
418	111
418	146
418	150
418	235
418	243
418	258
418	373
418	382
418	510
418	567
418	580
418	610
418	616
418	624
418	637
419	100
419	125
419	140
419	166
419	198
419	249
419	294
419	326
419	336
419	343
419	352
419	388
419	413
419	434
419	476
419	503
419	537
419	550
419	667
419	693
420	78
420	134
420	160
420	175
420	188
420	273
420	280
420	308
420	313
420	369
420	378
420	405
420	418
420	423
420	428
420	458
420	464
420	469
420	483
420	514
420	532
420	589
421	60
421	117
421	194
421	217
421	332
421	394
421	399
421	441
421	446
421	452
421	496
421	560
421	598
421	657
422	66
422	95
422	155
422	170
422	179
422	184
422	203
422	208
422	223
422	230
422	245
422	254
422	266
422	286
422	299
422	322
422	338
422	347
422	360
422	409
422	525
422	551
422	573
422	648
422	690
423	89
423	130
423	137
423	143
423	150
423	240
423	259
423	291
423	311
423	317
423	355
423	365
423	375
423	490
423	507
423	518
423	543
423	606
423	628
423	696
424	83
424	101
424	164
424	213
424	280
424	342
424	379
424	426
424	431
424	455
424	466
424	473
424	500
424	580
424	612
424	620
424	635
424	641
424	677
425	71
425	123
425	270
425	306
425	385
425	415
425	460
425	479
425	485
425	535
425	565
426	105
426	116
426	159
426	174
426	200
426	251
426	298
426	302
426	338
426	348
426	370
426	391
426	395
426	401
426	495
426	587
426	664
426	684
427	65
427	77
427	92
427	110
427	146
427	153
427	169
427	184
427	246
427	291
427	325
427	333
427	352
427	375
427	439
427	444
427	450
427	513
427	548
427	558
427	594
428	98
428	134
428	140
428	179
428	191
428	196
428	209
428	227
428	236
428	310
428	316
428	364
428	407
428	411
428	487
428	506
428	529
428	601
428	655
429	60
429	86
429	214
429	254
429	262
429	278
429	285
429	306
429	344
429	356
429	381
429	417
429	423
429	456
429	463
429	524
429	540
429	573
429	608
429	647
430	70
430	163
430	175
430	202
430	241
430	271
430	296
430	329
430	336
430	348
430	361
430	392
430	398
430	428
430	434
430	468
430	474
430	515
430	582
430	615
430	623
430	631
430	639
431	113
431	119
431	125
431	149
431	187
431	220
431	258
431	267
431	340
431	372
431	388
431	409
431	481
431	501
431	553
431	564
431	675
432	82
432	92
432	102
432	131
432	137
432	143
432	155
432	169
432	252
432	289
432	302
432	313
432	320
432	353
432	368
432	402
432	415
432	420
432	447
432	452
432	494
432	511
432	535
432	589
432	688
432	692
433	65
433	107
433	160
433	212
433	247
433	274
433	382
433	431
433	488
433	661
433	669
434	58
434	76
434	180
434	207
434	228
434	237
434	279
434	297
434	326
434	345
434	358
434	396
434	426
434	458
434	465
434	505
434	521
434	546
434	559
434	578
434	596
435	97
435	165
435	172
435	195
435	217
435	309
435	330
435	336
435	349
435	364
435	388
435	436
435	471
435	477
435	516
435	527
435	611
435	651
435	683
436	70
436	86
436	117
436	123
436	140
436	146
436	151
436	184
436	189
436	202
436	242
436	255
436	262
436	266
436	285
436	379
436	399
436	404
436	443
436	500
436	540
436	569
436	584
436	604
436	618
436	644
437	112
437	157
437	271
437	290
437	300
437	341
437	354
437	373
437	384
437	411
437	417
437	422
437	449
437	454
437	483
437	627
437	635
438	82
438	102
438	135
438	210
438	296
438	319
438	332
438	428
438	461
438	493
438	510
438	533
438	564
439	64
439	91
439	215
439	224
439	251
439	276
439	325
439	345
439	360
439	366
439	393
439	433
439	466
439	488
439	521
439	591
439	597
440	53
440	76
440	131
440	161
440	174
440	180
440	188
440	204
440	232
440	243
440	281
440	303
440	336
440	350
440	397
440	438
440	444
440	473
440	503
440	546
440	578
440	686
440	702
441	109
441	121
441	165
441	198
441	256
441	262
441	267
441	310
441	321
441	387
441	403
441	451
441	478
441	516
441	557
441	605
441	614
441	648
441	657
441	669
441	677
442	60
442	97
442	126
442	141
442	152
442	237
442	247
442	272
442	287
442	291
442	314
442	380
442	408
442	413
442	419
442	456
442	498
442	526
442	539
442	631
443	71
443	86
443	136
443	147
443	171
443	227
443	329
443	341
443	373
443	424
443	484
443	571
443	622
443	639
444	81
444	102
444	115
444	189
444	194
444	221
444	277
444	295
444	301
444	359
444	368
444	430
444	436
444	441
444	462
444	491
444	509
444	551
444	584
445	64
445	157
445	177
445	183
445	203
445	207
445	254
445	259
445	282
445	306
445	337
445	390
445	398
445	404
445	469
445	533
445	682
445	699
446	53
446	91
446	132
446	167
446	212
446	217
446	232
446	247
446	263
446	269
446	318
446	322
446	350
446	383
446	414
446	447
446	474
446	505
446	521
446	545
446	564
446	578
446	593
446	601
446	655
446	662
447	58
447	107
447	139
447	145
447	151
447	162
447	174
447	241
447	286
447	293
447	310
447	332
447	355
447	364
447	410
447	420
447	426
447	452
447	480
447	609
447	618
447	646
447	691
448	76
448	87
448	97
448	111
448	192
448	198
448	223
448	228
448	345
448	374
448	437
448	459
448	486
448	498
448	514
448	526
448	556
449	70
449	116
449	186
449	259
449	273
449	277
449	303
449	314
449	341
449	369
449	393
449	398
449	402
449	431
449	465
449	538
449	626
450	54
450	92
450	123
450	169
450	214
450	233
450	267
450	284
450	324
450	336
450	387
450	406
450	442
450	448
450	470
450	492
450	550
450	571
450	584
450	633
450	677
450	705
451	81
451	136
451	144
451	178
451	201
451	220
451	320
451	329
451	476
451	508
451	520
451	639
451	671
452	63
452	104
452	129
452	153
452	159
452	165
452	183
452	205
452	239
452	245
452	250
452	255
452	280
452	289
452	294
452	300
452	305
452	354
452	364
452	373
452	383
452	413
452	422
452	428
452	455
452	532
452	563
452	598
452	605
452	648
452	684
452	690
453	75
453	113
453	173
453	195
453	225
453	231
453	260
453	312
453	345
453	393
453	398
453	403
453	433
453	482
453	543
453	576
453	613
453	700
454	87
454	118
454	189
454	210
454	270
454	275
454	317
454	332
454	359
454	378
454	438
454	461
454	489
454	499
454	513
454	557
454	589
454	621
454	661
455	58
455	140
455	216
455	235
455	283
455	292
455	337
455	369
455	388
455	408
455	444
455	466
455	524
455	537
456	69
456	92
456	97
456	108
456	134
456	145
456	167
456	221
456	241
456	257
456	326
456	342
456	353
456	417
456	423
456	451
456	472
456	506
456	569
456	583
456	627
456	655
457	54
457	79
457	151
457	157
457	163
457	176
457	191
457	228
457	287
457	297
457	319
457	347
457	365
457	374
457	383
457	429
457	457
457	479
457	517
457	550
457	594
457	635
457	641
457	666
457	675
457	683
457	704
458	129
458	180
458	186
458	197
458	202
458	232
458	247
458	253
458	261
458	266
458	273
458	278
458	303
458	308
458	323
458	329
458	335
458	393
458	403
458	434
458	530
458	543
458	600
459	62
459	112
459	172
459	208
459	313
459	369
459	397
459	463
459	485
459	493
459	501
459	556
459	563
459	575
460	75
460	102
460	139
460	166
460	218
460	237
460	283
460	360
460	378
460	388
460	408
460	414
460	440
460	446
460	469
460	512
460	607
460	616
460	686
460	693
461	87
461	93
461	123
461	149
461	155
461	160
461	188
461	212
461	223
461	244
461	270
461	293
461	351
461	419
461	452
461	523
461	536
461	589
461	623
461	649
461	661
462	67
462	108
462	116
462	134
462	176
462	183
462	194
462	228
462	254
462	258
462	264
462	274
462	287
462	299
462	311
462	317
462	322
462	341
462	345
462	356
462	364
462	373
462	384
462	425
462	475
462	496
462	506
462	584
462	631
463	54
463	81
463	144
463	199
463	233
463	250
463	327
463	331
463	336
463	394
463	404
463	431
463	437
463	458
463	481
463	517
463	569
463	639
464	62
464	74
464	127
464	170
464	204
464	302
464	443
464	465
464	530
464	548
464	596
464	655
464	685
465	120
465	213
465	240
465	292
465	308
465	313
465	350
465	360
465	370
465	380
465	388
465	398
465	410
465	448
465	489
465	541
465	563
465	577
465	603
465	671
466	138
466	153
466	158
466	164
466	174
466	184
466	191
466	196
466	208
466	220
466	261
466	269
466	279
466	323
466	415
466	421
466	455
466	471
466	501
466	511
466	646
466	701
466	708
467	69
467	87
467	94
467	104
467	132
467	180
467	244
467	252
467	265
467	286
467	344
467	355
467	365
467	374
467	384
467	393
467	427
467	494
467	523
467	554
467	611
467	618
467	692
468	81
468	111
468	125
468	143
468	148
468	202
468	223
468	230
468	235
468	317
468	339
468	433
468	438
468	461
468	626
468	633
468	660
468	677
469	54
469	116
469	256
469	274
469	298
469	304
469	406
469	477
469	483
469	505
469	537
469	590
470	76
470	99
470	162
470	168
470	210
470	216
470	247
470	270
470	278
470	309
470	325
470	330
470	360
470	369
470	378
470	388
470	397
470	402
470	417
470	445
470	466
470	516
470	529
470	546
470	566
470	575
470	584
470	597
470	640
470	653
471	65
471	105
471	152
471	158
471	188
471	195
471	227
471	240
471	260
471	293
471	320
471	336
471	410
471	423
471	451
471	648
471	682
472	84
472	130
472	177
472	183
472	202
472	287
472	341
472	346
472	355
472	429
472	473
472	490
472	606
472	613
472	670
472	700
473	90
473	95
473	135
473	140
473	145
473	233
473	243
473	251
473	265
473	350
473	364
473	374
473	383
473	394
473	436
473	457
473	497
473	510
473	523
473	551
473	559
473	620
474	59
474	71
474	111
474	166
474	171
474	220
474	257
474	282
474	307
474	313
474	404
474	440
474	479
474	535
474	541
475	78
475	119
475	155
475	161
475	207
475	213
475	291
475	297
475	319
475	327
475	332
475	360
475	389
475	400
475	413
475	418
475	447
475	504
475	570
475	578
475	586
475	628
475	691
476	180
476	192
476	199
476	226
476	236
476	248
476	262
476	268
476	277
476	338
476	342
476	347
476	369
476	379
476	453
476	467
476	485
476	592
476	660
477	65
477	102
477	108
477	125
477	142
477	149
477	186
477	203
477	286
477	425
477	458
477	491
477	516
477	528
477	601
477	635
477	643
477	653
477	667
477	684
478	90
478	131
478	137
478	176
478	241
478	303
478	309
478	356
478	365
478	409
478	431
478	474
478	547
478	554
478	563
478	609
479	221
479	231
479	254
479	265
479	281
479	314
479	374
479	437
479	444
479	480
479	498
479	510
479	616
479	695
480	83
480	164
480	170
480	180
480	190
480	195
480	208
480	214
480	257
480	320
480	324
480	335
480	340
480	350
480	361
480	379
480	399
480	415
480	523
480	542
480	679
481	72
481	97
481	115
481	120
481	134
481	153
481	158
481	184
481	200
481	226
481	246
481	275
481	290
481	299
481	329
481	345
481	370
481	389
481	405
481	421
481	449
481	463
481	469
481	534
481	573
481	589
481	623
482	61
482	77
482	105
482	127
482	145
482	217
482	237
482	262
482	270
482	286
482	296
482	305
482	355
482	394
482	428
482	455
482	486
482	504
482	582
482	631
482	648
482	688
483	140
483	252
483	266
483	364
483	384
483	410
483	434
483	476
483	493
483	567
483	596
483	639
483	656
484	87
484	93
484	175
484	197
484	208
484	222
484	243
484	281
484	311
484	321
484	327
484	350
484	374
484	440
484	516
484	551
484	559
484	603
484	664
485	117
485	167
485	180
485	187
485	193
485	203
485	232
485	257
485	290
485	317
485	332
485	337
485	342
485	369
485	401
485	417
485	446
485	530
485	545
485	672
486	149
486	155
486	162
486	227
486	275
486	286
486	299
486	308
486	360
486	379
486	389
486	424
486	464
486	482
486	498
486	509
486	536
486	577
486	611
486	619
486	707
487	74
487	109
487	137
487	143
487	172
487	239
487	248
487	262
487	354
487	366
487	405
487	430
487	459
487	504
487	524
487	626
487	683
488	102
488	123
488	130
488	217
488	253
488	266
488	294
488	374
488	383
488	395
488	436
488	471
488	487
488	585
488	643
488	651
488	699
489	90
489	96
489	212
489	224
489	234
489	270
489	281
489	314
489	319
489	324
489	333
489	338
489	350
489	442
489	450
489	564
489	572
489	591
489	634
490	69
490	80
490	114
490	165
490	176
490	194
490	200
490	206
490	243
490	299
490	304
490	344
490	369
490	390
490	409
490	415
490	421
490	455
490	476
490	520
490	530
490	549
490	556
490	660
491	56
491	159
491	183
491	189
491	228
491	258
491	359
491	379
491	400
491	465
491	493
491	514
491	600
491	606
491	666
491	692
492	107
492	127
492	133
492	139
492	145
492	153
492	171
492	239
492	248
492	262
492	276
492	285
492	426
492	462
492	482
492	508
492	543
493	87
493	99
493	120
493	252
493	268
493	291
493	310
493	316
493	321
493	331
493	337
493	342
493	354
493	364
493	395
493	433
493	439
493	500
493	525
493	536
493	579
493	613
493	621
494	62
494	93
494	112
494	197
494	204
494	209
494	214
494	219
494	225
494	280
494	297
494	326
494	348
494	374
494	384
494	446
494	471
494	628
494	642
494	647
495	185
495	191
495	243
495	302
495	406
495	452
495	488
495	554
495	562
495	568
496	68
496	77
496	82
496	117
496	130
496	156
496	175
496	181
496	228
496	235
496	258
496	307
496	312
496	359
496	369
496	411
496	417
496	458
496	477
496	519
496	547
496	587
496	594
496	673
497	88
497	105
497	137
497	143
497	150
497	163
497	168
497	239
497	262
497	379
497	390
497	401
497	424
497	429
497	465
497	495
497	530
497	574
497	601
497	634
498	212
498	249
498	254
498	268
498	284
498	293
498	317
498	323
498	329
498	335
498	340
498	346
498	353
498	435
498	442
498	484
498	505
498	539
498	608
498	657
498	662
499	194
499	201
499	207
499	298
499	364
499	374
499	384
499	447
499	510
499	581
499	616
499	623
500	183
500	188
500	232
500	258
500	274
500	303
500	358
500	395
500	404
500	409
500	454
500	471
500	501
500	524
501	57
501	71
501	86
501	93
501	128
501	133
501	140
501	147
501	172
501	178
501	228
501	242
501	289
501	309
501	460
501	489
501	516
501	588
501	643
502	98
502	110
502	122
502	160
502	216
502	222
502	314
502	320
502	344
502	353
502	363
502	370
502	379
502	390
502	414
502	420
502	478
502	559
502	567
502	630
502	653
503	78
503	116
503	154
503	210
503	238
503	250
503	254
503	265
503	280
503	295
503	326
503	332
503	337
503	349
503	400
503	426
503	432
503	438
503	507
503	544
503	660
504	59
504	192
504	204
504	246
504	269
504	284
504	300
504	445
504	467
504	495
504	552
504	575
504	595
504	602
504	637
505	96
505	102
505	144
505	175
505	181
505	198
505	219
505	231
505	259
505	305
505	310
505	385
505	396
505	406
505	450
505	483
505	530
505	537
505	610
505	667
506	66
506	88
506	125
506	137
506	157
506	168
506	274
506	291
506	316
506	321
506	355
506	360
506	367
506	374
506	411
506	472
506	502
506	523
506	617
507	52
507	75
507	150
507	225
507	239
507	248
507	327
507	333
507	343
507	350
507	379
507	422
507	457
507	463
507	490
507	557
507	583
507	624
507	647
508	84
508	131
508	188
508	207
508	212
508	281
508	297
508	338
508	401
508	416
508	428
508	434
508	515
508	671
509	101
509	107
509	114
509	119
509	195
509	234
509	244
509	255
509	261
509	266
509	286
509	301
509	312
509	440
509	467
509	478
509	549
509	562
509	571
509	590
509	631
510	58
510	93
510	183
510	201
510	223
510	230
510	270
510	318
510	324
510	357
510	371
510	385
510	392
510	407
510	447
510	496
510	509
510	542
510	597
510	605
510	653
511	70
511	78
511	140
511	161
511	166
511	177
511	276
511	292
511	307
511	341
511	346
511	376
511	414
511	453
511	484
511	536
511	575
511	612
511	660
512	148
512	154
512	171
512	210
512	240
512	251
512	282
512	330
512	336
512	352
512	366
512	398
512	418
512	435
512	459
512	473
512	529
512	620
512	640
513	134
513	203
513	218
513	256
513	266
513	298
513	360
513	380
513	405
513	425
513	502
513	521
513	582
513	666
514	110
514	122
514	129
514	186
514	199
514	228
514	234
514	272
514	308
514	490
514	515
514	551
514	560
514	625
515	64
515	74
515	85
515	96
515	104
515	181
515	193
515	248
515	261
515	287
515	303
515	315
515	321
515	327
515	355
515	388
515	442
515	448
515	479
515	539
515	567
515	633
515	647
515	655
516	91
516	157
516	163
516	221
516	278
516	333
516	338
516	349
516	370
516	394
516	400
516	409
516	415
516	430
516	467
516	527
516	592
516	608
517	202
517	209
517	215
517	242
517	252
517	284
517	293
517	343
517	376
517	421
517	496
517	507
517	547
517	600
518	58
518	78
518	132
518	139
518	145
518	151
518	168
518	175
518	237
518	268
518	365
518	383
518	437
518	454
518	484
518	520
518	576
518	661
519	69
519	113
519	196
519	225
519	258
519	264
519	274
519	298
519	312
519	474
519	614
519	643
520	89
520	107
520	119
520	125
520	185
520	191
520	233
520	246
520	305
520	318
520	324
520	329
520	353
520	358
520	389
520	404
520	426
520	443
520	460
520	502
520	534
520	554
520	583
520	620
520	628
520	669
521	160
521	218
521	241
521	254
521	336
521	347
521	379
521	412
521	417
521	490
521	513
521	539
521	561
521	648
522	100
522	179
522	200
522	206
522	212
522	279
522	292
522	341
522	368
522	374
522	396
522	431
522	480
523	73
523	83
523	136
523	142
523	154
523	172
523	265
523	285
523	300
523	363
523	401
523	422
523	451
523	468
523	527
523	549
523	569
523	599
523	608
523	635
523	655
524	195
524	260
524	270
524	308
524	316
524	321
524	385
524	437
524	456
524	498
524	506
524	520
524	578
524	591
525	94
525	105
525	113
525	119
525	129
525	149
525	165
525	187
525	229
525	250
525	275
525	296
525	304
525	333
525	350
525	356
525	407
525	485
525	533
526	65
526	124
526	182
526	223
526	245
526	327
526	339
526	344
526	378
526	427
526	444
526	474
526	512
526	585
526	615
526	642
527	79
527	99
527	159
527	209
527	239
527	257
527	371
527	383
527	392
527	413
527	462
527	540
527	563
527	622
527	631
527	664
527	671
528	88
528	153
528	176
528	217
528	233
528	270
528	312
528	397
528	433
528	450
528	480
528	492
528	556
528	572
529	72
529	139
529	170
529	192
529	253
529	264
529	292
529	301
529	319
529	360
529	366
529	468
529	524
529	548
529	602
529	650
530	58
530	83
530	145
530	164
530	200
530	248
530	277
530	306
530	325
530	355
530	386
530	403
530	439
530	497
530	505
530	518
530	593
530	636
531	66
531	121
531	128
531	134
531	185
531	220
531	243
531	283
531	330
531	336
531	342
531	349
531	392
531	423
531	457
531	486
531	579
531	610
532	94
532	104
532	109
532	116
532	156
532	180
532	209
532	214
532	225
532	258
532	375
532	408
532	430
532	445
532	474
532	532
532	538
532	618
533	204
533	237
533	267
533	287
533	297
533	413
533	417
533	462
533	513
533	567
533	644
534	70
534	140
534	151
534	174
534	272
534	302
534	317
534	322
534	360
534	370
534	381
534	398
534	435
534	492
534	520
534	545
534	599
534	628
534	658
535	77
535	88
535	167
535	190
535	195
535	217
535	252
535	262
535	292
535	328
535	334
535	341
535	352
535	366
535	388
535	452
535	481
535	500
535	526
535	552
535	560
535	573
535	586
535	666
535	671
536	125
536	131
536	145
536	232
536	247
536	276
536	346
536	393
536	402
536	426
536	468
536	506
536	636
537	64
537	98
537	161
537	184
537	212
537	283
537	307
537	312
537	377
537	410
537	440
537	458
537	593
537	650
538	83
538	104
538	120
538	201
538	207
538	221
538	227
538	258
538	271
538	288
538	299
538	398
538	431
538	446
538	475
538	486
538	534
538	581
538	605
538	615
539	71
539	93
539	156
539	178
539	237
539	242
539	263
539	267
539	318
539	382
539	415
539	423
539	515
539	540
539	622
539	658
540	112
540	130
540	136
540	150
540	172
540	195
540	246
540	303
540	326
540	332
540	351
540	356
540	362
540	369
540	437
540	463
540	567
541	76
541	277
541	293
541	341
541	386
541	404
541	495
541	501
541	548
541	666
542	87
542	144
542	166
542	188
542	211
542	218
542	257
542	283
542	374
542	392
542	452
542	469
542	491
542	521
542	528
542	554
542	598
542	629
542	644
543	68
543	99
543	126
543	159
543	182
543	225
543	240
543	299
543	321
543	410
543	420
543	427
543	481
543	508
543	575
543	591
544	81
544	93
544	153
544	176
544	200
544	205
544	233
544	251
544	268
544	288
544	314
544	347
544	365
544	381
544	398
544	432
544	444
544	458
544	562
544	609
545	106
545	117
545	138
545	169
545	262
545	273
545	304
545	328
545	338
545	354
545	359
545	474
545	496
545	517
545	535
545	543
545	602
545	622
545	637
545	651
546	216
546	244
546	279
546	310
546	416
546	464
546	486
546	583
546	672
547	121
547	148
547	187
547	293
547	321
547	332
547	344
547	374
547	386
547	405
547	427
547	437
547	523
547	549
547	570
547	645
547	657
548	74
548	99
548	111
548	128
548	164
548	209
548	222
548	228
548	256
548	285
548	300
548	349
548	393
548	448
548	502
548	595
548	616
549	88
549	142
549	158
549	172
549	180
549	203
549	234
549	239
549	268
549	356
549	410
549	421
549	454
549	529
549	557
549	590
549	631
550	79
550	133
550	197
550	260
550	290
550	315
550	327
550	337
550	364
550	381
550	399
550	431
550	443
550	468
550	481
550	511
550	577
550	667
551	105
551	114
551	250
551	276
551	306
551	461
551	491
551	537
551	564
551	609
552	99
552	191
552	220
552	281
552	295
552	321
552	341
552	370
552	388
552	417
552	426
552	519
553	84
553	94
553	118
553	184
553	206
553	213
553	226
553	286
553	333
553	347
553	353
553	405
553	473
553	486
553	499
553	544
553	585
553	601
553	651
554	73
554	124
554	146
554	168
554	230
554	246
554	254
554	301
554	310
554	359
554	376
554	394
554	438
554	449
554	505
554	525
554	551
554	639
555	109
555	139
555	156
555	178
555	195
555	202
555	235
555	240
555	259
555	266
555	411
555	467
555	559
555	573
555	615
555	625
555	661
556	272
556	290
556	326
556	366
556	382
556	401
556	431
556	457
556	479
556	593
556	675
557	78
557	99
557	104
557	120
557	133
557	150
557	162
557	189
557	209
557	221
557	251
557	278
557	306
557	316
557	321
557	331
557	338
557	419
557	443
557	492
557	530
557	580
557	632
557	645
557	668
558	88
558	144
558	173
558	215
558	296
558	343
558	349
558	389
558	461
558	473
558	512
558	520
558	538
559	95
559	113
559	128
559	167
559	227
559	245
559	255
559	284
559	310
559	355
559	372
559	377
559	407
559	425
559	546
559	568
559	607
560	198
560	233
560	239
560	260
560	268
560	362
560	395
560	437
560	449
560	485
560	500
560	587
560	620
560	655
561	75
561	83
561	183
561	290
561	301
561	412
561	504
561	526
561	640
562	99
562	108
562	155
562	177
562	206
562	274
562	306
562	316
562	328
562	340
562	384
562	456
562	467
562	553
562	574
562	600
562	626
563	124
563	130
563	139
563	161
563	211
563	218
563	223
563	334
563	345
563	368
563	402
563	419
563	431
563	444
563	479
563	494
563	513
563	534
563	561
563	593
563	612
563	647
563	661
563	667
564	93
564	148
564	171
564	194
564	242
564	250
564	256
564	263
564	280
564	296
564	310
564	320
564	352
564	357
564	389
564	426
564	633
564	675
565	88
565	230
565	236
565	268
565	374
565	379
565	408
565	540
565	581
565	605
566	112
566	118
566	142
566	166
566	188
566	201
566	276
566	286
566	301
566	329
566	364
566	396
566	437
566	449
566	475
566	487
566	501
566	519
566	526
566	570
567	69
567	77
567	104
567	135
567	158
567	182
567	336
567	384
567	413
567	462
567	547
567	642
568	84
568	151
568	208
568	213
568	219
568	225
568	291
568	307
568	317
568	342
568	348
568	456
568	508
568	588
568	619
568	662
569	129
569	145
569	176
569	247
569	253
569	258
569	282
569	296
569	353
569	360
569	369
569	403
569	421
569	432
569	443
569	468
569	495
569	535
569	556
569	563
569	575
569	598
569	654
570	92
570	100
570	121
570	196
570	265
570	271
570	311
570	322
570	334
570	390
570	481
570	515
570	629
571	65
571	114
571	163
571	171
571	228
571	233
571	239
571	380
571	407
571	606
571	613
571	637
572	140
572	186
572	286
572	301
572	364
572	373
572	462
572	502
572	542
572	583
572	674
573	70
573	107
573	181
573	209
573	222
573	277
573	292
573	305
573	317
573	339
573	345
573	352
573	396
573	427
573	438
573	450
573	475
573	487
573	521
573	549
573	569
573	647
574	79
574	86
574	156
574	203
574	244
574	330
574	357
574	385
574	402
574	414
574	509
574	529
574	590
574	621
575	122
575	127
575	135
575	150
575	175
575	192
575	216
575	234
575	250
575	256
575	261
575	266
575	281
575	312
575	369
575	496
575	638
575	655
576	101
576	168
576	228
576	296
576	322
576	333
576	378
576	432
576	444
576	457
576	469
576	482
576	516
576	537
576	556
576	562
576	575
577	95
577	116
577	144
577	161
577	198
577	272
577	291
577	327
577	350
577	390
577	408
577	421
577	544
577	598
577	613
577	628
577	642
577	668
578	66
578	111
578	186
578	286
578	337
578	361
578	372
578	503
578	523
579	106
579	130
579	139
579	180
579	222
579	240
579	247
579	278
579	302
579	307
579	317
579	344
579	355
579	384
579	397
579	438
579	450
579	463
579	475
579	489
579	583
579	660
580	73
580	123
580	173
580	231
580	254
580	266
580	322
580	415
580	427
580	510
580	606
580	637
581	82
581	149
581	156
581	166
581	216
581	260
581	295
581	312
581	367
581	530
581	551
581	569
581	592
581	621
581	652
582	89
582	193
582	201
582	208
582	226
582	235
582	289
582	331
582	404
582	420
582	481
582	497
582	538
582	561
583	100
583	116
583	186
583	271
583	299
583	349
583	379
583	391
583	432
583	444
583	456
583	468
583	485
583	517
583	575
583	599
583	628
584	107
584	141
584	162
584	221
584	283
584	307
584	326
584	343
584	361
584	409
584	615
585	95
585	169
585	179
585	213
585	244
585	250
585	263
585	317
585	373
585	474
585	504
585	525
585	546
585	584
585	643
585	668
586	77
586	84
586	128
586	136
586	154
586	192
586	197
586	231
586	257
586	311
586	355
586	386
586	398
586	415
586	450
586	462
587	121
587	174
587	238
587	277
587	294
587	336
587	366
587	438
587	511
587	555
587	606
587	635
588	112
588	147
588	225
588	270
588	288
588	348
588	404
588	425
588	490
588	498
588	532
588	567
588	621
588	652
588	659
589	89
589	99
589	104
589	208
589	247
589	299
589	305
589	330
589	359
589	378
589	392
589	411
589	431
589	480
589	519
589	592
590	132
590	159
590	220
590	260
590	323
590	339
590	343
590	444
590	457
590	467
590	563
590	575
590	645
591	202
591	253
591	265
591	282
591	385
591	418
591	487
591	539
592	126
592	143
592	149
592	167
592	178
592	186
592	195
592	230
592	235
592	242
592	293
592	316
592	353
592	365
592	373
592	399
592	473
592	506
592	599
592	614
592	629
593	93
593	118
593	213
593	276
593	329
593	335
593	425
593	437
593	450
593	464
593	513
593	526
593	548
593	585
594	79
594	106
594	136
594	249
594	287
594	303
594	311
594	347
594	405
594	494
594	534
594	571
594	636
595	86
595	111
595	190
595	207
595	223
595	270
595	379
595	392
595	481
595	556
595	606
595	619
596	130
596	153
596	162
596	173
596	257
596	263
596	298
596	321
596	340
596	358
596	361
596	413
596	432
596	444
596	457
596	499
596	563
596	592
596	651
596	660
597	98
597	123
597	216
597	281
597	315
597	368
597	469
597	519
597	541
597	579
598	90
598	146
598	185
598	200
598	251
598	291
598	334
598	351
598	386
598	419
598	488
599	116
599	170
599	178
599	195
599	211
599	232
599	239
599	244
599	273
599	310
599	375
599	399
599	463
599	474
599	506
599	550
599	600
599	613
599	626
600	84
600	102
600	141
600	225
600	302
600	344
600	438
600	450
600	514
600	526
600	586
601	109
601	134
601	157
601	188
601	261
601	267
601	286
601	327
601	356
601	391
601	407
601	427
601	571
601	633
601	666
602	126
602	150
602	181
602	207
602	219
602	296
602	321
602	338
602	362
602	380
602	413
602	456
602	481
602	496
602	535
602	556
602	645
603	96
603	120
603	164
603	200
603	248
603	256
603	280
603	313
603	332
603	397
603	433
603	444
603	468
603	520
603	607
603	620
604	88
604	175
604	236
604	351
604	369
604	385
604	420
604	542
604	578
604	592
605	114
605	229
605	274
605	291
605	308
605	343
605	403
605	490
605	502
605	509
605	564
606	139
606	144
606	185
606	194
606	212
606	266
606	326
606	358
606	375
606	409
606	451
606	463
606	476
606	528
606	599
606	615
606	627
607	84
607	108
607	132
607	157
607	170
607	224
607	285
607	301
607	319
607	338
607	381
607	427
607	437
607	458
607	550
607	652
608	205
608	245
608	253
608	259
608	313
608	365
608	416
608	498
608	515
608	536
608	571
609	92
609	99
609	126
609	150
609	189
609	218
609	239
609	280
609	289
609	392
609	470
609	483
609	558
609	586
609	608
609	643
610	78
610	162
610	181
610	198
610	233
610	296
610	332
610	398
610	444
610	522
610	593
610	637
611	104
611	120
611	144
611	274
611	325
611	341
611	347
611	371
611	386
611	423
611	430
611	507
611	544
611	578
611	623
612	95
612	114
612	137
612	176
612	211
612	229
612	269
612	284
612	306
612	354
612	378
612	405
612	458
612	491
612	503
612	565
613	155
613	169
613	193
613	262
613	292
613	300
613	411
613	464
613	477
613	529
614	186
614	205
614	249
614	257
614	279
614	310
614	318
614	362
614	393
614	437
614	451
614	553
614	631
615	83
615	108
615	131
615	217
615	237
615	242
615	335
615	418
615	485
615	497
615	515
615	600
615	652
616	151
616	161
616	344
616	350
616	399
616	504
616	538
616	587
616	616
617	102
617	199
617	224
617	271
617	295
617	330
617	368
617	374
617	381
617	425
617	444
617	457
617	470
617	523
617	560
617	573
617	645
618	172
618	191
618	211
618	260
618	283
618	289
618	324
618	357
618	387
618	407
618	431
618	491
619	230
619	267
619	276
619	414
619	478
619	511
619	545
619	578
619	609
619	622
620	253
620	314
620	437
620	565
620	594
621	218
621	247
621	300
621	308
621	340
621	352
621	362
621	394
621	451
621	464
621	499
621	531
622	235
622	241
622	335
622	346
622	375
622	401
622	420
622	444
622	518
622	540
622	553
623	224
623	281
623	294
623	369
623	502
623	574
623	586
624	271
624	288
624	319
624	327
624	383
624	408
624	427
624	472
624	485
624	526
624	560
624	600
625	264
625	358
625	389
626	257
626	312
626	414
627	512
628	438
